id,timestamp_ms,agent_type,x,y,vx,vy,psi_rad
-1,18358,vehicle,392.1980895996094,82.33809661865234,0.005496428105313232,17.24925716567105,1.5704776795704687
2985032057,18358,vehicle,92.0987777709961,20.185815811157227,-0.0066906655539608504,-6.85484702699838,-1.5717723753344106
3028941286,18358,vehicle,396.9231262207031,264.93798828125,-0.0014132946210858024,-6.491536463432451,-1.5710140402140105
2920337868,18358,vehicle,392.01275634765625,158.8011474609375,0.004279409949155118,21.554542116689746,1.5705977881356312
1503980471,18358,vehicle,92.19357299804688,40.05327606201172,0.0015475767781001298,-2.976973131377207,-1.570276477750113
2125414330,18358,vehicle,392.5679931640625,1.2405874729156494,-2.503230097765044,-2.739257876747872,-2.3112027804204374
2396446624,18358,vehicle,208.98838806152344,327.0243225097656,-6.069429840497202,-0.0006417056171812415,-3.141486926094517
4076155829,18358,vehicle,112.6908187866211,-1.9400193691253662,-2.6004208513155033e-06,-4.175979832218359e-10,-3.1414320649760614
130361148,18358,vehicle,92.39556121826172,250.0588836669922,-0.0020724998921972603,-6.899028943619107,-1.5710967313658575
3417340120,18358,vehicle,204.83091735839844,330.4884033203125,5.899113424755931,0.0016484955466904074,0.0002794480094011108
2197730220,18358,vehicle,188.1702117919922,-1.9402726888656616,0.00065740615401463,-3.121638281843069e-07,3.141117811967432
118743835,18358,vehicle,315.8796691894531,59.3370475769043,5.316510652428329,0.0005146467725178138,9.68016062706918e-05
904053063,18358,vehicle,178.70040893554688,55.8249397277832,-2.2557455551248983e-08,3.5185451112595374e-11,3.140032840139334
1291681130,18358,vehicle,167.5790252685547,195.60379028320312,-5.823329109828881,0.0019866342514248763,3.141251502654154
715062232,18358,vehicle,327.7746276855469,58.79623794555664,7.915661093939504,-1.0295399433350607,-0.12933761676218875
220877689,18358,vehicle,110.03756713867188,129.75608825683594,-5.859122712367282,-0.0006912477951982566,-3.1414746755535026
2069714320,18358,vehicle,-2.3915107250213623,309.67510986328125,0.0015046276805475054,6.580991096154655,1.5705676944153133
3190467641,18358,vehicle,118.2406997680664,-2.370124101638794,-0.0077658973607256055,-0.0008004050237762396,-3.0388886450992145
708315452,18358,vehicle,88.74561309814453,99.75464630126953,3.5590909337252656e-05,0.011901963373226144,1.5678059963649011
1314594676,18358,vehicle,88.64353942871094,172.7113494873047,1.590061401412192e-07,0.0016470563055563936,1.5706997872053812
2302084468,18358,vehicle,312.6407775878906,330.4115905761719,-0.010449005192709464,0.0012284103904488836,-0.11702526544339918
757051778,18358,vehicle,313.9051513671875,199.05441284179688,5.570148819067242,-0.001183769465172671,-0.0002125202549883232
4203008516,18358,vehicle,153.7454376220703,44.79452133178711,-0.07053372769337844,5.87736341702146,1.582796663824848
2631691725,18358,vehicle,325.6996154785156,199.31809997558594,5.859566207493594,0.5280061488661649,0.08986739726645034
1513387753,18358,vehicle,305.48541259765625,59.32581329345703,4.899157423759791,-0.0009915906658503279,-0.00020240024284602211
156273220,18358,vehicle,92.51573181152344,80.52542877197266,6.092469178716905e-07,0.00039378285309572917,-1.572343490230178
3812119762,18358,vehicle,94.10157012939453,53.01630783081055,-0.13919628291796327,-0.13903223272610943,-2.3567841140576884
3616050434,18358,vehicle,334.0629577636719,321.9127197265625,-2.0970422578906214,5.154157553108544,1.9572060872632897
2942158310,18358,vehicle,88.60306549072266,25.917118072509766,9.738243348634414e-10,4.9514532244823095e-06,1.5705996523483943
3608800298,18358,vehicle,145.68064880371094,133.23402404785156,9.434584626648546e-08,-4.5728990509238757e-11,-0.0004846952858851307
1146464971,18358,vehicle,60.197689056396484,2.5480527877807617,-8.0553198129819e-06,6.847675608386926e-09,-0.0008500809549347115
3013099654,18358,vehicle,-2.3984646797180176,119.2590560913086,0.0007526881597835367,5.821412991501171,1.5706670303239731
2246582517,18358,vehicle,88.6150894165039,105.10009765625,-4.142546052742003e-11,-3.0380851685067025e-07,1.5706599729470845
3192940987,18358,vehicle,338.8853759765625,278.780517578125,-0.0008836867066569724,-5.821381024999631,-1.5709481269770311
828836647,18358,vehicle,88.6534194946289,308.5290222167969,0.006463222713873281,6.375668110729756,1.569782594525958
1702089089,18358,vehicle,395.9598693847656,163.427490234375,-0.0005357431420293354,-7.236263732151536,-1.5708703626732008
2111029583,18358,vehicle,54.97329330444336,330.44464111328125,-0.0001917238805987941,8.343066925031605e-08,-0.0004351605221189475
420096522,18358,vehicle,128.64967346191406,129.72792053222656,-3.829042834513558,-0.0033977605404737258,-3.140705288314579
510102133,18358,vehicle,158.46939086914062,9.61723804473877,0.6751133163988337,-9.911239631726549,-1.5027854509828344
4109025732,18358,vehicle,232.24710083007812,1.8852683305740356,8.220092682471162,0.0012229078011842935,0.0001487705600655809
2913592560,18358,vehicle,267.30712890625,1.9314981698989868,10.412349508446667,-0.002002088990325437,-0.000192280230703721
3970347779,18358,vehicle,128.5795135498047,59.20219421386719,-0.010354493414422287,0.001135961316319357,-0.10927010705957482
1933996401,18358,vehicle,385.67425537109375,-2.1186864376068115,0.0009268136465156733,0.0001243862765440102,-3.008181332466165
3047764241,18358,vehicle,52.9940071105957,2.046035051345825,1.9655197723537825,0.0012079013310681759,0.0006145454225375443
1260711767,18358,vehicle,314.6015930175781,133.41311645507812,5.699852717164484,-0.0016060046560100452,-0.00028176247583967405
3957993155,18358,vehicle,335.0718994140625,33.63330078125,-1.2019394355152687e-09,1.7176803681894512e-06,1.571496072371315
4289594148,18358,vehicle,-2.4040393829345703,168.5449981689453,-0.001002457168231625,6.056577122696878,1.570961842256645
4139896837,18358,vehicle,178.43910217285156,129.48809814453125,-5.624810157591183,-0.0008298795715340016,-3.141445114465403
1686932955,18358,vehicle,175.89035034179688,-1.9625698328018188,6.598575315971213e-07,-3.4003891585854536e-10,3.1410773319188627
1726501337,18358,vehicle,378.8957214355469,-2.3960354328155518,-6.934068960002026e-05,-1.9629987276891895e-07,-3.138761713351039
1682591593,18358,vehicle,277.8435363769531,330.45709228515625,4.72885369925834,-0.00017631176928082707,-3.7284251197448006e-05
3380823586,18358,vehicle,372.8157653808594,326.319580078125,-5.51413506117609,0.021830879569400538,3.1376335983132813
4176583038,18358,vehicle,241.47239685058594,1.9908840656280518,5.565771823797349,-0.0016097284635173664,-0.0002892192618733146
3855978784,18358,vehicle,305.56915283203125,330.5410461425781,-3.7349425082859654e-07,-8.057602674622246e-11,0.00021573565139868049
1042098875,18358,vehicle,157.8631134033203,21.749095916748047,-0.000355045258541332,-5.661028850865746,-1.570859044238568
644930681,18358,vehicle,88.63038635253906,165.76617431640625,-6.014016782529865e-10,2.333836231607523e-07,1.5733732014656572
2234188147,18358,vehicle,358.0130310058594,-1.9551769495010376,3.0050952638211688e-05,2.355298915019792e-08,-3.140808885280983
4109707537,18358,vehicle,2.6081581115722656,196.52919006347656,4.798957249450644e-07,0.0001912213137033085,-1.5733059566481327
3675841917,18358,vehicle,184.19400024414062,55.835941314697266,-0.32049926737526296,-0.0027439458655115546,-3.1330313896335156
2817926641,18358,vehicle,112.65203094482422,55.75227737426758,-3.8622958640730083,-0.00012240240119830664,-3.141560961972821
4029506115,18358,vehicle,-2.320992946624756,109.1630859375,-0.0015199424319492759,0.7803226211482814,1.5727441628161805
3277167701,18358,vehicle,88.64314270019531,33.23585510253906,1.591034671738003e-07,0.0016480644622387168,1.5706997872053812
518241310,18358,vehicle,-0.8533563017845154,3.9236748218536377,-4.122202079213224,4.99927453714377,2.2603345393871606
778540568,18358,vehicle,267.87957763671875,59.32180404663086,6.1787836602247985,-0.00169816577261187,-0.00027483819198688674
657465635,18358,vehicle,1.7181172370910645,115.46800231933594,-0.0005225503877866112,-5.6061238999017435,-1.5708895374330494
835227171,18358,vehicle,134.6495819091797,59.32780456542969,-1.3354794760376212e-09,-2.7697913253026576e-13,0.00020740051309560257
715280319,18358,vehicle,108.66714477539062,195.2699432373047,-5.1147173668569375,0.001092429582119871,3.141379068070369
3020211281,18358,vehicle,157.1467742919922,55.760780334472656,3.8018718308925936,4.858621078942415,0.9068174698695317
2101598167,18358,vehicle,193.73223876953125,-1.9614521265029907,0.005303067967649776,-2.489871731671709e-06,3.141123138289612
14974470,18358,vehicle,294.52239990234375,59.33006286621094,4.964016306881406,-0.003936909403954379,-0.0007930893726255971
1398818972,18358,vehicle,138.552978515625,133.67684936523438,1.6283612132943073,0.0009027750631740361,0.0005544070709306356
2694688339,18358,vehicle,2.301046133041382,227.188232421875,-0.002818424203005045,-13.906705570723075,-1.5709989933538515
3916750283,18358,vehicle,116.79842376708984,326.9374694824219,1.6766080185292122e-06,-8.000586121584051e-09,3.136820801548589
1983197581,18358,vehicle,91.32378387451172,6.837542533874512,-1.1967733502169455,-7.902030482385265,-1.7211054050350778
2942851653,18358,vehicle,271.9001159667969,198.7671661376953,5.673652039428711,-0.0012269198785727106,-0.00021624869676907947
3949181016,18358,vehicle,88.6303482055664,112.13860321044922,7.493955891385842e-10,-2.885782283900924e-07,1.5733931751738328
3672416715,18358,vehicle,338.8832702636719,297.6261901855469,-0.0024421569538384588,-5.939211820137311,-1.5712075188672048
3325384226,18358,vehicle,191.37283325195312,55.84123992919922,-2.317524940621371,0.000981338875949616,3.1411692109764706
1359910869,18358,vehicle,154.23988342285156,34.70771789550781,0.004905837964987329,4.946590375059727,1.569804565604951
2262630317,18358,vehicle,60.96404266357422,330.8752136230469,0.00783702642165128,0.0008358588497552945,0.10625342797954437
805172996,18358,vehicle,118.52725219726562,195.26412963867188,-1.852806398862314,0.025400026169030702,3.127884564510828
1986857511,18358,vehicle,-2.344623565673828,181.27479553222656,0.0004541292724389044,4.7433280727431075,1.5707005861537082
1279946346,18358,vehicle,125.80995178222656,2.144202947616577,0.4254153181431046,-0.004371525854115458,-0.010275539709664432
74618890,18358,vehicle,303.41888427734375,198.75271606445312,3.760514424336028,-0.0007431022410096244,-0.00019760653662923415
3085549129,18358,vehicle,392.5246887207031,234.62176513671875,-0.009344016504959701,16.46465608572616,1.5713638464231925
2057201815,18358,vehicle,195.55589294433594,198.97520446777344,6.050463532180928,-0.0013212953652353271,-0.00021837919313185222
1015694095,18358,vehicle,66.94755554199219,330.46124267578125,-2.677603312515256e-07,1.1537780786740584e-10,-0.00043089952939340205
1250507297,18358,vehicle,199.81222534179688,-1.9466931819915771,-0.7012774321532621,-0.0008695618828762885,-3.1403526857862523
4280502996,18358,vehicle,48.153709411621094,331.2244567871094,1.7332312216644863e-07,-5.23440065457426e-11,-0.00030200243510569496
3428459672,18358,vehicle,66.85588836669922,2.0130629539489746,9.297246153796078e-09,-7.517157129693368e-12,-0.0008085357069480567
414519966,18358,vehicle,233.54087829589844,327.0451965332031,-5.82171392382804,-8.217205860304384e-05,-3.141578538836016
2866945113,18358,vehicle,294.2904968261719,330.4563903808594,9.159456289004042e-08,-4.068770316731107e-11,-0.00044421523731592627
1853482628,18358,vehicle,19.87894058227539,2.534625291824341,5.792030555340764,-0.03599341593975597,-0.006214220087590894
3880166169,18358,vehicle,335.5168151855469,311.5319519042969,2.440973181082017e-05,5.554968833869709,1.570791932579098
1073352953,18358,vehicle,372.0358581542969,-2.3772799968719482,6.558889263013031e-08,-1.36490294026239e-10,3.1395116595140053
213556023,18358,vehicle,169.46987915039062,327.02471923828125,-5.673625467467595,0.0001405209408665401,3.1415678861916554
1628590046,18358,vehicle,1.6644456386566162,68.20875549316406,-0.002877256758169844,-5.821074728363993,-1.5712906094932153
4120465129,18358,vehicle,327.80902099609375,132.74008178710938,7.929810666033072,-0.9587725255551975,-0.12032331581497491
1015227284,18358,vehicle,189.28524780273438,129.7509002685547,-5.24475759437203,0.0007793940025918782,3.1414440492009668
2900396540,18358,vehicle,181.6448211669922,-1.966612696647644,-0.0013252291442669248,-5.009510424530474e-06,-3.1378125627385347
3587539486,18358,vehicle,396.63800048828125,248.79591369628906,-0.0012674323877717697,-4.991219359647767,-1.5710502592048357
1146849989,18358,vehicle,297.2718811035156,133.2132110595703,3.4547542213583533,-0.057179394600856505,-0.016549418766862306
1457681385,18358,vehicle,395.85247802734375,147.7134552001953,-0.0032250148389197904,-11.212708009413927,-1.571083948192625
1726747598,18358,vehicle,97.77149963378906,129.45834350585938,-6.263820561278892,-0.6029437038785928,-3.045630171082641
367118466,18358,vehicle,386.07855224609375,325.5567626953125,-6.253483669108931,2.666503051981131,2.7385344078828786
2065705843,18358,vehicle,250.73779296875,133.21421813964844,5.552344798908645,-3.844564761086739e-05,-6.924218326248353e-06
3978545900,18358,vehicle,334.8408508300781,301.8186340332031,-0.001597343583775897,3.8179012771777336,1.571214709402148
714679325,18358,vehicle,370.56256103515625,1.9289923906326294,5.729059612981238,-0.000976474255797856,-0.00017044232601971657
3262285446,18358,vehicle,122.74205780029297,55.75220489501953,-4.877282639593964,0.002110710901320158,3.141159889912655
1401880247,18358,vehicle,127.47989654541016,195.27040100097656,-4.269948005674906,-3.4114678162569483e-06,-3.141591854641466
2250339631,18358,vehicle,147.1073455810547,129.7332000732422,-3.5214295994929747,0.002507713533277405,3.140880524314306
2525145270,18358,vehicle,92.5479507446289,154.5819091796875,5.704493954979335e-08,-6.569546237068095e-05,-1.5699280031214762
1825059061,18358,vehicle,313.625732421875,2.0121803283691406,-1.3472381036949554e-06,8.424418701381568e-10,-0.0006253102239506051
346279610,18358,vehicle,97.33888244628906,196.01963806152344,-5.756174143868431,1.056081053831411,2.9601413685105524
893025708,18358,vehicle,395.9237060546875,237.65025329589844,-0.0018697038896711435,-5.821408448373551,-1.5711175040223602
1724402154,18358,vehicle,88.61439514160156,298.14923095703125,-0.0024328805649464083,4.142058611683273,1.5713836869733135
2595182244,18358,vehicle,236.0503692626953,198.76718139648438,5.673652039428711,-0.0012269198785727106,-0.00021624869676907947
874453657,18358,vehicle,392.55230712890625,280.8937683105469,-0.020710107206219255,12.40766799584722,1.5724654630081039
1498616609,18358,vehicle,92.17986297607422,47.54981231689453,0.0008979916636887281,-0.15055305180056727,-1.5648317780595007
505512523,18358,vehicle,238.6917266845703,133.21728515625,7.50552850010092,0.002530996921900463,0.0003372176690726514
3709073522,18358,vehicle,193.2777862548828,195.56744384765625,-8.052345361062052,0.011022579009292053,3.1402237887894926
27029540,18358,vehicle,1.4669232368469238,97.41937255859375,-0.0005979669260844063,-2.292320173473025,-1.57105718342367
1375770528,18358,vehicle,338.89801025390625,241.85784912109375,-1.9444273840846963e-06,-0.012058134965287036,-1.570957581198901
4266869573,18358,vehicle,-1.51068115234375,17.87846565246582,0.0003249864292665255,5.838771811023976,1.5707406667281139
368528135,18358,vehicle,2.671194076538086,255.8206787109375,0.10502735976975607,-12.9927500636425,-1.5627129670962336
4012051816,18358,vehicle,338.9733581542969,228.75657653808594,1.5556115000571774e-09,5.469806344990093e-07,-1.5736403165229922
3938307140,18358,vehicle,92.1466064453125,219.81263732910156,-7.732766345676273e-05,0.01401373084860651,-1.5652783901743068
1966079641,18358,vehicle,40.93328857421875,331.2388610839844,1.974431504629455,-0.0001998127086920442,-0.00010120012142301106
1759883367,18358,vehicle,-2.412029266357422,289.54986572265625,0.0012202742062924323,9.173276820081693,1.570663301898447
3487645883,18358,vehicle,137.9441680908203,129.772216796875,-4.709881136325636,0.00126309746892452,3.141324473268022
544848518,18358,vehicle,92.24620819091797,30.576887130737305,-0.0009067480842600375,-4.7255810821346635,-1.5709882075514368
1325658571,18358,vehicle,120.85633850097656,129.7509002685547,-5.769805907788791,-6.914665166309999e-05,-3.141580669364888
921579549,18358,vehicle,103.33744812011719,55.75742721557617,-4.9493129102473405,-0.12393216824442853,-3.1165576077625032
4072577581,18358,vehicle,92.39794921875,268.3002014160156,-0.0020751322354366553,-6.8986179091788715,-1.571097130840021
94066344,18358,vehicle,304.2690124511719,133.2598114013672,4.228830813996393,5.557486328756234e-05,1.314189801597731e-05
2853390219,18358,vehicle,299.99432373046875,330.5154724121094,4.5213702322624597e-07,1.3787781686680202e-10,0.00030494696410635324
2524564450,18358,vehicle,1.6066824197769165,51.34613037109375,-0.00145551666323055,-5.973084272428469,-1.5710400060346388
1882516347,18358,vehicle,-2.1481072902679443,96.68175506591797,0.00018143052617683537,6.711921689442399,1.5707692957098323
815178544,18358,vehicle,231.69088745117188,330.41021728515625,5.823329574690687,-0.0031047945561222512,-0.0005331647852152822
2188308515,18358,vehicle,141.2057342529297,199.21507263183594,5.745693598066911,-0.0009915506640008692,-0.00017257283863713463
1160083145,18358,vehicle,361.87835693359375,326.56439208984375,0.525592363896548,-0.0005807511727345083,3.140487708053519
1832698586,18358,vehicle,129.56890869140625,326.9666442871094,-0.1624560833858608,-0.00037337477687959326,-3.1392943455690547
3748346955,18358,vehicle,131.84866333007812,1.9195398092269897,-0.9612058802338145,0.00019352435213525624,-0.0002013349621553451
3198444053,18358,vehicle,121.8619613647461,326.9107360839844,0.7541558799156752,0.09722599878594135,-3.0133795565978905
808811405,18358,vehicle,338.9305725097656,221.63514709472656,-4.702872655037592e-07,-0.0016472935005261103,-1.571081817663753
84250811,18358,vehicle,290.02752685546875,133.5625457763672,1.0713408580319586,-0.009435050089501606,-0.008806540052376724
3956289865,18358,vehicle,88.4527816772461,320.87890625,-0.3389552352545074,7.620467120182131,1.6152466159171912
1912328786,18358,vehicle,365.2416687011719,-1.9526519775390625,3.2260801705107256e-08,3.244178372479486e-11,-3.1405870439621792
4030311199,18358,vehicle,338.9559631347656,235.7322235107422,7.494502628100788e-10,-1.0821524616923607e-06,-1.5701037717534214
3147513812,18358,vehicle,392.4817199707031,310.4772644042969,0.0015092349230320786,8.786171783523395,1.5706245529045866
1663586846,18358,vehicle,287.72467041015625,330.40924072265625,0.5790289944545024,0.0006692988286767159,0.0011558981277331943
