id,timestamp_ms,agent_type,x,y,vx,vy,psi_rad
-1,15276,vehicle,392.189208984375,44.18907165527344,0.0012975576659231705,6.056241373296869,1.5705820754851998
2985032057,15276,vehicle,92.10367584228516,28.704078674316406,2.716336996374456e-12,-3.371792434308831e-08,-1.5707157661719218
3028941286,15276,vehicle,396.93084716796875,290.5043640136719,-0.005006215304092642,-11.543148862532865,-1.571230022578416
2920337868,15276,vehicle,392.0096130371094,93.86277770996094,-0.0026908504687257312,19.118205834803923,1.5709370748585072
1503980471,15276,vehicle,92.19307708740234,41.19702911376953,-1.9239757202062137e-07,9.51517450894676e-05,-1.5687743217372538
2125414330,15276,vehicle,395.9255676269531,17.374523162841797,-0.003061751562669254,-5.735435622285742,-1.571330157435403
2396446624,15276,vehicle,226.81007385253906,327.0296936035156,-6.046044825269162,-0.000122372094106552,-3.1415724135655085
4076155829,15276,vehicle,112.6908187866211,-1.9416316747665405,6.481498899715186e-06,1.0546639530574684e-09,-3.1414299344471894
130361148,15276,vehicle,92.40454864501953,271.2727355957031,-0.002072329718254249,-6.898462461100722,-1.5710967313658575
3417340120,15276,vehicle,187.2616424560547,330.4856872558594,5.668657716652897,-0.000845406639307956,-0.00014913700478979202
2197730220,15276,vehicle,192.6778106689453,-1.9453812837600708,-5.557435963267764,0.0005387326404229017,3.141495714526114
118743835,15276,vehicle,306.79681396484375,59.33424758911133,-1.9774822455088196e-07,2.977598159069986e-10,-0.001505751020256476
904053063,15276,vehicle,178.70040893554688,55.8249397277832,1.6810114416642337e-06,-2.622066383595975e-09,3.140032840139334
1291681130,15276,vehicle,185.01068115234375,195.5986328125,-5.509327888438754,2.3475564263982894e-05,3.141588392532049
715062232,15276,vehicle,313.6129455566406,59.3152961730957,1.917948805373379e-07,7.162722509729712e-10,0.0037345570384019204
220877689,15276,vehicle,121.40382385253906,129.75619506835938,0.00020163552355960979,-4.397930812849139e-08,3.141374540696516
2069714320,15276,vehicle,-2.3948724269866943,282.5188293457031,0.003822605910546351,9.335701159839784,1.5703868657772968
3190467641,15276,vehicle,118.23054504394531,-2.2491190433502197,-0.00416302102886898,-0.00022539266476216612,-3.087503851850284
708315452,15276,vehicle,88.74021911621094,99.75105285644531,3.53386782275458e-05,0.01190829155825777,1.5678287663922212
1314594676,15276,vehicle,88.64353942871094,172.70416259765625,1.59094251450161e-07,0.0016479690016752637,1.5706997872053812
2302084468,15276,vehicle,312.6505126953125,330.52471923828125,-0.010238403987160418,0.0010599483431917244,-0.103159217622279
757051778,15276,vehicle,305.1543884277344,199.05624389648438,-9.990771590760665e-07,1.1047245085772898e-09,-0.0011057444846008996
4203008516,15276,vehicle,153.76548767089844,31.270578384399414,-5.0869559423088965e-05,0.1624251226398363,1.5711095145390899
2631691725,15276,vehicle,312.3171081542969,199.05612182617188,-3.515931962453228e-08,8.846647042736561e-11,-0.0025161545979068643
1513387753,15276,vehicle,299.7993469238281,59.32716751098633,-0.0008485546003856619,1.2560186523439924e-06,-0.0014801849338660405
156273220,15276,vehicle,92.52350616455078,87.59172821044922,-0.0016923291818308466,-5.7119891520721655,-1.5710926034661679
3812119762,15276,vehicle,109.24111938476562,55.83775329589844,-3.6104352949618805,0.0011740123955452288,3.1412674816206945
3616050434,15276,vehicle,335.4158935546875,308.00689697265625,1.5294328363671643e-11,-3.15631892426432e-08,1.5712808889552365
2942158310,15276,vehicle,88.60456848144531,25.917118072509766,-6.991180986994707e-10,-3.574055585721669e-06,1.5706007176128303
3608800298,15276,vehicle,145.68064880371094,133.23402404785156,-7.196933047897034e-08,3.4883197943163675e-11,-0.0004846952858851307
1146464971,15276,vehicle,58.13949203491211,2.547384023666382,3.67084536618155,0.0069502613585503146,0.0018933657945391026
3013099654,15276,vehicle,-2.4013423919677734,101.55445098876953,0.000750361979606505,5.82140774659269,1.5706674297981367
2246582517,15276,vehicle,88.6150894165039,105.10009765625,9.624465964238597e-12,7.058448337924103e-08,1.5706599729470845
3192940987,15276,vehicle,338.892578125,296.6922912597656,-0.0016430478527228746,-5.518371814266715,-1.5710940682047674
828836647,15276,vehicle,88.64752960205078,300.9998474121094,1.958267527632284e-09,-1.7746269232036016e-06,1.571899807592571
1702089089,15276,vehicle,395.9718322753906,183.1208038330078,-0.0005708980689294373,-3.8799743232335038,-1.5709434664451234
2111029583,15276,vehicle,54.974159240722656,330.44464111328125,0.006708830450105954,-2.8622449072509422e-06,-0.000426638406630694
420096522,15276,vehicle,135.06175231933594,129.73667907714844,-2.8587635315651974,-0.00431905549479768,-3.1400818423033914
510102133,15276,vehicle,158.49874877929688,25.25009536743164,-0.0005654165906300517,0.00502338563392152,-1.4587112002064593
4109025732,15276,vehicle,214.88853454589844,1.8969799280166626,3.1441104082119558,-0.00045550597619271795,-0.00014487594704566524
2913592560,15276,vehicle,249.1762237548828,1.9349732398986816,3.6661779206549148,-0.0007029808801148517,-0.00019174761474035048
3970347779,15276,vehicle,128.58868408203125,59.3253059387207,-0.009821631504155126,0.0008800601815952512,-0.08936561610518737
1933996401,15276,vehicle,392.4177551269531,0.8864198327064514,-3.960325739217933,-4.136849232954889,-2.3343973156183733
3047764241,15276,vehicle,37.490150451660156,2.048666477203369,6.02495037163357,-0.0012643785944332435,-0.00020985709389824398
1260711767,15276,vehicle,306.1383361816406,133.41566467285156,-9.062769122224117e-10,9.799062551844234e-13,-0.0010812433375535894
3957993155,15276,vehicle,335.0718994140625,33.63330078125,9.861020265885925e-11,-1.409229152529575e-07,1.571496072371315
4289594148,15276,vehicle,-2.4092841148376465,150.1073760986328,-0.0004793161253938178,3.6470141095852235,1.570927753794692
4139896837,15276,vehicle,195.98997497558594,129.4877166748047,-5.645067634075498,-0.00080731100975335,-3.141449641839256
1686932955,15276,vehicle,175.89035034179688,-1.9625723361968994,-0.0,0.0,3.1410773319188627
1726501337,15276,vehicle,378.9017028808594,-2.391317367553711,0.05917170326396084,0.0001677798978312513,-3.1387571859771857
1682591593,15276,vehicle,257.5270690917969,330.45721435546875,6.899114505396945,-0.0011942743647266865,-0.00017310545460050517
3380823586,15276,vehicle,389.9519348144531,323.5395812988281,-3.709132358589317,3.9650441998170294,2.3228597028278233
4176583038,15276,vehicle,224.572509765625,1.9958512783050537,5.557438618824388,-0.0016043584496220704,-0.0002886866621645894
3855978784,15276,vehicle,305.56915283203125,330.5410461425781,-3.69019025409257e-07,-7.961051307405786e-11,0.00021573552136151786
1042098875,15276,vehicle,157.8470916748047,32.20794677734375,4.951713577570116e-10,-3.407135990441531e-08,-1.5562639893585521
644930681,15276,vehicle,88.63038635253906,165.76617431640625,-5.963587998795344e-10,2.314266528553582e-07,1.5733732014656572
2234188147,15276,vehicle,358.0129699707031,-1.9552241563796997,5.622654482788287e-05,4.066948517892046e-08,-3.1408693390377276
4109707537,15276,vehicle,2.6171517372131348,230.5265350341797,-0.002506634845878405,-12.129193046957027,-1.5710029880954868
3675841917,15276,vehicle,190.203369140625,55.83747100830078,-5.728563253065691,-0.0034005821377089077,-3.1409990349828147
2817926641,15276,vehicle,122.82823944091797,55.75173568725586,0.9468960417771624,-0.0005393995373652351,3.1410230034326254
4029506115,15276,vehicle,-2.2931480407714844,92.03252410888672,-0.006571097534617426,10.884009285002987,1.5714000654140177
3277167701,15276,vehicle,88.64314270019531,33.22821807861328,1.590851930681448e-07,0.0016478751709263083,1.5706997872053812
518241310,15276,vehicle,16.803997039794922,-2.0624547004699707,-5.0526102040634395,0.0046073065383418375,3.14068078723255
778540568,15276,vehicle,247.13128662109375,59.32482147216797,5.505162193342131,-0.0007095988325852191,-0.00012889698863251248
657465635,15276,vehicle,1.7192715406417847,139.7010498046875,0.0006260027634298198,-10.78257082075633,-1.570738269883133
835227171,15276,vehicle,134.6495819091797,59.32780456542969,-4.9251737628135846e-08,-1.0214835801389e-11,0.00020740051309560257
715280319,15276,vehicle,118.0025863647461,195.2687225341797,8.146224781954588e-08,-9.530489954958255e-11,3.1404227269229215
3020211281,15276,vehicle,153.76817321777344,39.00629806518555,0.0002686017983658152,3.5020229713429267,1.5707196277555022
2101598167,15276,vehicle,203.76026916503906,-1.961996078491211,-5.645065249889732,-0.0008073106687867677,-3.141449641839256
14974470,15276,vehicle,277.0797119140625,59.33367156982422,6.046040922888648,-0.0010369416258198842,-0.00017150754169181228
1398818972,15276,vehicle,122.98739624023438,133.6785888671875,5.659350266759362,-0.001205740840297788,-0.00021305287095169372
2694688339,15276,vehicle,2.313711643218994,271.04107666015625,-0.004430628447256626,-15.747020098128155,-1.5710776897640635
3916750283,15276,vehicle,116.79842376708984,326.9374694824219,6.006039088026301e-06,-2.8660147418063494e-08,3.136820801548589
1983197581,15276,vehicle,92.12187194824219,21.969289779663086,2.3935104624032776e-10,4.337647085664083e-08,-1.5763142634154863
2942851653,15276,vehicle,253.78341674804688,198.76571655273438,6.088434551727709,-0.0013263445494243558,-0.00021784656091383635
3949181016,15276,vehicle,88.6303482055664,112.13860321044922,9.019336075428381e-11,-3.473177669612148e-08,1.5733931751738328
3672416715,15276,vehicle,339.06317138671875,315.84442138671875,-0.5905078705514054,-5.624272089491941,-1.675405827045427
3325384226,15276,vehicle,210.81153869628906,55.84180450439453,-7.376510620918372,-0.0026500884993443897,-3.1412333931587413
1359910869,15276,vehicle,154.24183654785156,25.514249801635742,-3.436716432528648e-05,0.017404591261558643,1.5727709275851358
2262630317,15276,vehicle,60.974281311035156,330.759521484375,0.004146106980454839,0.00023963323721078007,0.05773293821711925
805172996,15276,vehicle,123.97280883789062,195.35791015625,-0.6034883394216163,0.06083951449775629,3.0411190425121557
1986857511,15276,vehicle,-2.346703052520752,159.61553955078125,0.0003534472507111135,3.666220647940733,1.5706999203634358
1279946346,15276,vehicle,125.39078521728516,2.0845019817352295,0.010453613856901516,7.35195439150369e-05,0.007032814949289154
74618890,15276,vehicle,292.3511962890625,198.75494384765625,5.5051159401381575,-0.0007095929601701877,-0.00012889700488715779
3085549129,15276,vehicle,392.5195617675781,178.92251586914062,0.0020754406189743145,18.380063893442784,1.5706834087646773
2057201815,15276,vehicle,177.9001007080078,198.974853515625,5.752077919846909,-0.0012530704127694354,-0.00021784656091383635
1015694095,15276,vehicle,66.94755554199219,330.46124267578125,7.116123207304114e-08,-3.0663343309127455e-11,-0.00043089952939340205
1250507297,15276,vehicle,215.14964294433594,-1.9460614919662476,-5.125127243156292,-0.0008612543977604383,-3.1414246081250092
4280502996,15276,vehicle,48.15363693237305,331.2244567871094,-0.0002270944138338706,6.858307544445868e-08,-0.00030200246761498563
3428459672,15276,vehicle,66.85588836669922,2.0130629539489746,-8.790100278846357e-07,7.107111491812057e-10,-0.0008085357069480567
414519966,15276,vehicle,250.9449920654297,327.04510498046875,-5.560329419745384,0.0004412799790952231,3.141513291389309
2866945113,15276,vehicle,294.2903137207031,330.4563903808594,-0.00042388004841699634,1.8829398868621627e-07,-0.00044421523731592627
1853482628,15276,vehicle,3.2740983963012695,6.656876564025879,3.2246843864738324,-5.239676059225049,-1.0191041977524882
3880166169,15276,vehicle,335.5089416503906,300.33642578125,0.0005491260011584064,3.133636903333211,1.5706210907951694
1073352953,15276,vehicle,372.0358581542969,-2.3772799968719482,2.831522018711524e-07,-5.892389052139085e-10,3.1395116595140053
213556023,15276,vehicle,187.58648681640625,327.02972412109375,-6.0884451844125005,0.00016376655421323057,3.1415657556627834
1628590046,15276,vehicle,1.6700718402862549,85.72193908691406,-0.0012324602802271704,-5.579035146004094,-1.5710172360073187
4120465129,15276,vehicle,313.6098937988281,133.22540283203125,-1.262905760950096e-07,-4.708260342108292e-10,0.003728099652981454
1015227284,15276,vehicle,210.81153869628906,129.75184631347656,-7.376510144081244,-0.0026500883280356703,-3.1412333931587413
2900396540,15276,vehicle,181.6448211669922,-1.9666634798049927,-0.0013252502045045702,-4.919237284265386e-06,-3.1378807396624406
3587539486,15276,vehicle,396.643310546875,267.5521240234375,-0.0008699095535196207,-3.36227977943362,-1.5710550528947977
1146849989,15276,vehicle,292.98663330078125,133.18772888183594,0.5525383317078356,-0.013508693152079742,-0.02444355774918328
1457681385,15276,vehicle,395.8595275878906,173.30380249023438,-0.0010544708112605625,-3.6661764058967083,-1.571083948192625
1726747598,15276,vehicle,115.30625915527344,129.77706909179688,-0.027510006461991268,0.002779955196856867,3.040882021175139
367118466,15276,vehicle,392.4817199707031,307.1619873046875,0.0018659534257129517,8.703771391170806,1.5705819423271452
2065705843,15276,vehicle,233.001220703125,133.21836853027344,5.844006777958146,-0.0016652977214404669,-0.0002849582041291878
3978545900,15276,vehicle,334.85662841796875,289.3645935058594,0.00040392228749335044,5.617416367313851,1.5707244214454645
714679325,15276,vehicle,353.05615234375,1.9293715953826904,5.827992875473137,-0.00414097251050301,-0.0007105313788331408
3262285446,15276,vehicle,131.04812622070312,55.7497444152832,-3.9989037287073166,0.0051842889435492505,3.1402962267711425
1401880247,15276,vehicle,142.4601287841797,195.26925659179688,-5.645064296215425,-0.0008073105324001347,-3.141449641839256
2250339631,15276,vehicle,163.1701202392578,129.732177734375,-6.046043394757687,-0.00012237206515296501,-3.1415724135655085
2525145270,15276,vehicle,92.54939270019531,157.29928588867188,-0.0020494149809117024,-5.560276130643076,-1.5711649082897636
1825059061,15276,vehicle,313.6257019042969,2.0121781826019287,-5.9251927507929095e-05,3.7050840888606907e-08,-0.0006253102239506051
346279610,15276,vehicle,110.9823226928711,194.9922637939453,-2.497335032265653e-07,1.1764696854152983e-09,3.136881787937552
893025708,15276,vehicle,395.9308776855469,255.3548583984375,-0.0018697040428203773,-5.821408925210685,-1.5711175040223602
1724402154,15276,vehicle,88.616455078125,289.4850769042969,0.0021205688249767607,5.52382952994366,1.5704124321237616
2595182244,15276,vehicle,217.93365478515625,198.76573181152344,6.088437889587738,-0.0013263452765656953,-0.00021784656091383635
874453657,15276,vehicle,392.562255859375,236.5113067626953,-0.01688703117624102,16.07547254501699,1.5718468106868784
1498616609,15276,vehicle,92.17973327636719,47.56013107299805,-5.415316632721796e-06,0.0008889726965986453,-1.5647047452755038
505512523,15276,vehicle,216.73306274414062,133.2204132080078,5.687652858161708,-0.001532890178630981,-0.0002695119023160189
3709073522,15276,vehicle,216.69305419921875,195.56845092773438,-6.562867133435797,0.000639693791468016,3.1414951818938963
27029540,15276,vehicle,1.4720287322998047,115.79361724853516,-0.0003532586798913621,-1.3653770228209718,-1.5710550528947977
1375770528,15276,vehicle,338.90057373046875,259.8691101074219,0.001861468040739506,-5.050356521877859,-1.5704277453000297
4266869573,15276,vehicle,8.371971130371094,-1.845552682876587,-3.6122418644107857,0.6204748257994126,2.971482706328764
368528135,15276,vehicle,2.570549249649048,290.8929748535156,0.08248402914181552,-10.488710327332283,-1.562932411570056
4012051816,15276,vehicle,338.9733581542969,228.75657653808594,5.883835328215415e-10,2.0688610112464856e-07,-1.5736403165229922
3938307140,15276,vehicle,92.08143615722656,232.398681640625,-0.00222480576977979,-5.844003730714787,-1.5711770256727233
1966079641,15276,vehicle,23.692426681518555,331.2404479980469,5.944893651404054,0.002806402157035203,0.0004720693275823356
1759883367,15276,vehicle,-2.414511203765869,261.1124267578125,0.0017445585150267593,9.129903626658264,1.5706052449866834
3487645883,15276,vehicle,145.18389892578125,129.77566528320312,-3.84518013608004,-0.0031970330498172694,-3.1407612146974704
544848518,15276,vehicle,92.24698638916016,35.24443435668945,-7.67777249974419e-09,-7.029879170742195e-06,-1.571888489157938
1325658571,15276,vehicle,128.57786560058594,129.74827575683594,2.9062949000082486e-07,-3.3722896654044307e-10,3.1404323143028456
921579549,15276,vehicle,117.4295654296875,55.81813430786133,-0.69900953463087,-0.0008190933723557892,-3.140420862710158
4072577581,15276,vehicle,92.40692901611328,289.5074768066406,-0.002087927816417837,-6.892338913330976,-1.571099261368893
94066344,15276,vehicle,298.6882629394531,133.25889587402344,-0.00019521492306964996,6.106633106634296e-07,-0.003128148756332748
2853390219,15276,vehicle,299.994140625,330.5155029296875,-0.00026472502439147386,-8.068140563442129e-08,0.0003047743722822904
2524564450,15276,vehicle,1.614848256111145,69.25772857666016,-0.002586901129343831,-5.7630661880475715,-1.5712452025966295
1882516347,15276,vehicle,-2.1524858474731445,75.34636688232422,-0.0008289230357639205,9.048119507012954,1.5708879395363953
815178544,15276,vehicle,214.25924682617188,330.4186706542969,5.509329212591759,-0.001082810586316398,-0.00019654127219320247
2188308515,15276,vehicle,123.40431213378906,199.2183380126953,5.5580233653341615,-0.0009858074108641608,-0.0001773665448539226
1160083145,15276,vehicle,371.0322570800781,326.5603332519531,-8.33740165018965,0.019010963895758928,3.1393124550644673
1832698586,15276,vehicle,149.49313354492188,326.96844482421875,-6.562868087110108,0.0006396938844242688,3.1414951818938963
3748346955,15276,vehicle,131.2768096923828,1.9196929931640625,-0.961205883013084,0.00017918921395541917,-0.00018642126005090134
3198444053,15276,vehicle,121.95963287353516,326.9785461425781,0.439355473689045,0.012400346395636239,-3.1133761955242947
808811405,15276,vehicle,338.9338073730469,221.642333984375,-4.7028470636941793e-07,-0.0016472845365466948,-1.571081817663753
84250811,15276,vehicle,283.1642761230469,133.5949249267578,3.874783435540889,0.03076735205766172,0.007940238716909168
3956289865,15276,vehicle,88.6192398071289,306.89337158203125,-2.4967567014820866e-11,-2.3852331032380776e-08,1.5697495713284408
1912328786,15276,vehicle,365.2416687011719,-1.9526519775390625,1.6914878716031173e-08,1.7009770620478592e-11,-3.1405870439621792
4030311199,15276,vehicle,338.9559631347656,235.73318481445312,-3.312541323504324e-06,0.004787674890401966,-1.570104437543694
3147513812,15276,vehicle,392.4774169921875,278.6557312011719,0.003529215007617362,11.150169767705169,1.5704798100993407
1663586846,15276,vehicle,272.3072509765625,330.4150390625,5.701101677447233,-0.0010810262066029287,-0.00018961706961364175
