id,timestamp_ms,agent_type,x,y,vx,vy,psi_rad
-1,14740,vehicle,392.1882019042969,40.936439514160156,0.0010818994030699792,5.750124829554501,1.5706081744638825
2985032057,14740,vehicle,92.10367584228516,28.704078674316406,0.0,-0.0,-1.5707157661719218
3028941286,14740,vehicle,396.9332580566406,296.0701599121094,-0.003801821248114293,-9.142232104398817,-1.5712121793991125
2920337868,14740,vehicle,392.01019287109375,84.10430145263672,-0.002683936700388181,17.4058912115295,1.5709505238220123
1503980471,14740,vehicle,92.19307708740234,41.19713592529297,-6.836316359063774e-07,0.00033798415808488486,-1.5687736559469814
2125414330,14740,vehicle,395.9268798828125,20.860267639160156,-0.002222353805181342,-7.190690650842532,-1.5711053866394002
2396446624,14740,vehicle,230.04562377929688,327.0306091308594,-5.838353560089523,-0.0009282440268932448,-3.1414336628727155
4076155829,14740,vehicle,112.6908187866211,-1.9462412595748901,-5.651423104543136e-06,-9.241099253337769e-10,-3.1414291354988624
130361148,14740,vehicle,92.40611267089844,274.9617004394531,-0.002072222858185658,-6.898106740596753,-1.5710967313658575
3417340120,14740,vehicle,184.15444946289062,330.4851989746094,5.9578574075919555,0.00154837983434532,0.0002598886971534369
2197730220,14740,vehicle,195.61782836914062,-1.945682168006897,-5.554583046276052,0.0005414146312354338,3.1414951818938963
118743835,14740,vehicle,306.79681396484375,59.33424758911133,1.4595638271834998e-07,-2.1977413828807747e-10,-0.001505751020256476
904053063,14740,vehicle,178.70040893554688,55.8249397277832,1.3803618036703488e-05,-2.153108654049762e-08,3.140032840139334
1291681130,14740,vehicle,188.01144409179688,195.597900390625,-5.758345014678776,0.0011378867234785625,3.141395047036909
715062232,14740,vehicle,313.6129455566406,59.3152961730957,-1.0027310955743966e-07,-3.7447738799672736e-10,0.0037345570384019204
220877689,14740,vehicle,121.4035873413086,129.7562255859375,-0.00703032996831166,1.5202996029272532e-06,3.1413764049092787
2069714320,14740,vehicle,-2.3958184719085693,277.2034606933594,0.0036133844260629196,9.302726997520692,1.5704079047499084
3190467641,14740,vehicle,118.22926330566406,-2.225754737854004,-0.004040093903894461,-0.00018948735235459885,-3.0947252794621427
708315452,14740,vehicle,88.73927307128906,99.75042724609375,3.510145093465457e-05,0.011910118591384921,1.5678491395745604
1314594676,14740,vehicle,88.64353942871094,172.70291137695312,1.5921722088793812e-07,0.0016469710895200271,1.5706996540473268
2302084468,14740,vehicle,312.6520690917969,330.5459289550781,-0.010155212665653059,0.001016949215281035,-0.09980787073938807
757051778,14740,vehicle,305.1543884277344,199.05624389648438,-2.502029991054407e-06,2.7666069904644618e-09,-0.0011057444846008996
4203008516,14740,vehicle,153.7655029296875,31.262548446655273,-1.7364837289264542e-11,3.596461731098431e-08,1.5712791579005279
2631691725,14740,vehicle,312.3171081542969,199.05612182617188,8.17147227780196e-09,-2.0560730933706792e-11,-0.0025161545979068643
1513387753,14740,vehicle,299.7977600097656,59.32717514038086,-0.008064963408149326,1.1933348280925498e-05,-0.0014796520415736995
156273220,14740,vehicle,92.5253677368164,90.6830062866211,-0.002460034316489821,-5.894876443632198,-1.571213644137712
3812119762,14740,vehicle,110.62238311767578,55.83731460571289,-1.4755773699311898,0.0010048245059206748,3.14091168329906
3616050434,14740,vehicle,335.4158935546875,308.00689697265625,1.0268548060017084e-10,-2.1191393172605373e-07,1.5712808889552365
2942158310,14740,vehicle,88.6060791015625,25.917118072509766,-5.539804679549795e-10,-2.8320779987793177e-06,1.5706007176128303
3608800298,14740,vehicle,145.68064880371094,133.23402404785156,9.806357595353662e-08,-4.753095670385934e-11,-0.0004846952858851307
1146464971,14740,vehicle,55.83025360107422,2.5459587574005127,5.519834371632394,-0.0012730380459546771,-0.00023062975040086202
3013099654,14740,vehicle,-2.4018428325653076,98.47538757324219,0.0007503619181436275,5.821407269755535,1.5706674297981367
2246582517,14740,vehicle,88.6150894165039,105.10009765625,1.0251611846103661e-11,7.518388330847814e-08,1.5706599729470845
3192940987,14740,vehicle,338.8938293457031,299.6648254394531,-0.002180469028642286,-5.711560309953322,-1.5711780909371595
828836647,14740,vehicle,88.64752960205078,300.9998474121094,1.222944929612567e-08,-1.1082607289668135e-05,1.571899807592571
1702089089,14740,vehicle,395.97283935546875,185.37374877929688,-0.0009119340531851866,-3.954104079944808,-1.5710269565452974
2111029583,14740,vehicle,54.9742317199707,330.44464111328125,-0.00019172472535738483,8.169501751681596e-08,-0.0004261057744126781
420096522,14740,vehicle,136.10601806640625,129.737060546875,-4.961960137101695,-0.0025503985639515067,-3.1410786634994077
510102133,14740,vehicle,158.4853515625,25.24850845336914,-0.00048212155287204086,0.004590743577760798,-1.4661595291431928
4109025732,14740,vehicle,211.58433532714844,1.8979146480560303,6.189658600011323,0.0007193770091268555,0.00011622240455822706
2913592560,14740,vehicle,246.87091064453125,1.9354151487350464,3.6661779206549148,-0.0007029808801148517,-0.00019174761474035048
3970347779,14740,vehicle,128.59011840820312,59.34867477416992,-0.009627575916771118,0.0008179254898556794,-0.08475302109717013
1933996401,14740,vehicle,394.3990783691406,3.1363563537597656,-1.9281930701414531,-5.1835333412760995,-1.926920486188854
3047764241,14740,vehicle,34.34189224243164,2.0495240688323975,5.612475250725724,-0.00127347800084229,-0.00022690130862010576
1260711767,14740,vehicle,306.1383361816406,133.41566467285156,-5.866226383956355e-08,6.342820666004142e-11,-0.0010812433375535894
3957993155,14740,vehicle,335.0718994140625,33.633296966552734,7.527655403651282e-09,-1.0757701697177396e-05,1.571496072371315
4289594148,14740,vehicle,-2.409933567047119,147.77064514160156,0.0014223635334509458,4.465622198557948,1.570477812728523
4139896837,14740,vehicle,199.0581817626953,129.4876251220703,-5.931250451034703,-0.001198906960457747,-3.141390519663056
1686932955,14740,vehicle,175.89035034179688,-1.9625729322433472,-2.0545207462946943e-06,1.0587391576602944e-09,3.1410773319188627
1726501337,14740,vehicle,378.9450988769531,-2.390131711959839,-0.706663743982877,-0.0012891436099865615,-3.139768388243089
1682591593,14740,vehicle,253.8376922607422,330.4571838378906,6.899134055720138,-0.0011942777489943042,-0.00017310545460050517
3380823586,14740,vehicle,391.943359375,320.9267578125,-1.649441468083754,6.404641254427406,1.8228573334359532
4176583038,14740,vehicle,221.6324920654297,1.9967155456542969,5.55458284034808,-0.0016064923938928259,-0.0002892192618733146
3855978784,14740,vehicle,305.56915283203125,330.5410461425781,2.716878889699923e-07,5.861272928386574e-11,0.00021573552136151786
1042098875,14740,vehicle,157.8470916748047,32.20794677734375,-1.5668493770181686e-10,1.0781053508872713e-08,-1.5562639893585521
644930681,14740,vehicle,88.63038635253906,165.76617431640625,5.648732000383514e-10,-2.192081579059082e-07,1.5733732014656572
2234188147,14740,vehicle,358.01300048828125,-1.9552831649780273,6.57989998663376e-05,4.7120252161853956e-08,-3.140876529572671
4109707537,14740,vehicle,2.6188883781433105,237.0758514404297,-0.0024757806563537694,-12.144217238787412,-1.571000191776342
3675841917,14740,vehicle,194.28822326660156,55.83672332763672,-7.407923456170972,0.006780685111951873,3.140677325123133
2817926641,14740,vehicle,122.95267486572266,55.75159454345703,0.8715100247076183,-0.0005646924662441048,3.140944706496577
4029506115,14740,vehicle,-2.2909562587738037,89.4144515991211,-0.0033082862950378576,7.036195454095198,1.57126650788535
3277167701,14740,vehicle,88.64314270019531,33.226890563964844,1.586634851208849e-07,0.0016480532864101866,1.5707000535214903
518241310,14740,vehicle,19.439739227294922,-2.0714237689971924,-4.511908283632747,0.0032923677560988364,3.1408629474511116
778540568,14740,vehicle,244.1044921875,59.3245964050293,5.816750408534982,-0.0011711153337427155,-0.0002013349784099904
657465635,14740,vehicle,1.7191423177719116,145.62684631347656,-0.003411962488296761,-12.384438044704789,-1.5710718308096654
835227171,14740,vehicle,134.6495819091797,59.32780456542969,-3.382927198886314e-11,-7.016208468741583e-15,0.00020740051309560257
715280319,14740,vehicle,118.0025863647461,195.2687225341797,4.762526808787297e-07,-5.571809657390296e-10,3.1404227269229215
3020211281,14740,vehicle,153.76815795898438,37.698219299316406,-0.0012666966002361343,1.1249675771885295,1.5719223113037821
2101598167,14740,vehicle,206.8284454345703,-1.9621304273605347,-5.931252835220445,-0.0011989074423825797,-3.141390519663056
14974470,14740,vehicle,273.84417724609375,59.333534240722656,5.838348862427445,-0.00018969125501959523,-3.2490565298966704e-05
1398818972,14740,vehicle,120.0047836303711,133.6791534423828,5.630433911642615,-0.0011845852830228698,-0.00021038969360696918
2694688339,14740,vehicle,2.315230131149292,279.6063232421875,-0.0018648257636511944,-15.50897396320245,-1.5709165685181137
3916750283,14740,vehicle,116.79844665527344,326.9374694824219,5.040902120623917e-05,-2.4054621653251167e-07,3.136820801548589
1983197581,14740,vehicle,92.12187194824219,21.969289779663086,4.652960483744741e-10,8.43234270292692e-08,-1.5763142634154863
2942851653,14740,vehicle,250.4867706298828,198.76568603515625,6.114254385569598,0.0010436459553054243,0.00017069063198170417
3949181016,14740,vehicle,88.6303482055664,112.13860321044922,-4.2780048627378995e-10,1.6473796780044866e-07,1.5733931751738328
3672416715,14740,vehicle,339.39190673828125,318.8157043457031,-1.3511994602348378,-5.478845017785521,-1.812592445330352
3325384226,14740,vehicle,215.0603790283203,55.84227752685547,-7.168099045830122,-0.0022640506480744644,-3.14127680268451
1359910869,14740,vehicle,154.24172973632812,25.51428985595703,-3.989205208254366e-05,0.017639172789167597,1.5730578831925919
2262630317,14740,vehicle,60.97563934326172,330.7361145019531,0.004086771668432861,0.0002051684253097424,0.05016094289845429
805172996,14740,vehicle,123.96210479736328,195.3835906982422,-0.6304516905887305,0.05487045008441434,3.0547778631109543
1986857511,14740,vehicle,-2.3469252586364746,157.31016540527344,0.00035344488324742346,3.6661960908271998,1.5706999203634358
1279946346,14740,vehicle,125.38976287841797,2.0912342071533203,0.01101941606024696,0.00012807143227531266,0.011621819655564527
74618890,14740,vehicle,289.3244323730469,198.75460815429688,5.816664577848265,-0.0011710979584752014,-0.0002013349621553451
3085549129,14740,vehicle,392.52105712890625,169.0731658935547,-0.01452741108742948,18.662159033736692,1.5715747687815267
2057201815,14740,vehicle,174.74436950683594,198.974853515625,5.9239825461164894,-0.0009371253811277933,-0.00015819178500535208
1015694095,14740,vehicle,66.94755554199219,330.46124267578125,-2.4224815458399133e-07,1.0438462226717958e-10,-0.00043089952939340205
1250507297,14740,vehicle,217.9998779296875,-1.9457978010177612,-5.509122782789869,-0.0008509575300319855,-3.1414381902465687
4280502996,14740,vehicle,48.15340042114258,331.2244873046875,-0.0012475716079696547,3.7676967503004843e-07,-0.00030200243510569496
3428459672,14740,vehicle,66.85588836669922,2.0130629539489746,1.3898794581914418e-06,-1.1237674151815634e-09,-0.0008085357069480567
414519966,14740,vehicle,253.92979431152344,327.0451965332031,-5.685574048039471,0.0002755771125622762,3.141544184057954
2866945113,14740,vehicle,294.2896423339844,330.4563903808594,-0.0031721174381192036,1.409102993252883e-06,-0.00044421523731592627
1853482628,14740,vehicle,1.814728021621704,9.273756980895996,0.3040228792893426,-5.771867215551212,-1.5181717310227127
3880166169,14740,vehicle,335.5082702636719,297.9126892089844,0.001076173351636094,5.55458725994519,1.5706025818255933
1073352953,14740,vehicle,372.0358581542969,-2.3772799968719482,-6.982052073032342e-08,1.4529629974525804e-10,3.1395116595140053
213556023,14740,vehicle,190.8831329345703,327.0303955078125,-6.114255503522671,-0.0022161500616260125,-3.1412301973654335
1628590046,14740,vehicle,1.6707574129104614,88.69898223876953,-0.001618438118377776,-5.695531138308501,-1.571080486083208
4120465129,14740,vehicle,313.6098937988281,133.22540283203125,-2.816248713994559e-08,-1.0499304495720023e-10,0.003728099652981454
1015227284,14740,vehicle,215.0603790283203,129.75230407714844,-7.168099045830122,-0.0022640506480744644,-3.14127680268451
2900396540,14740,vehicle,181.6448211669922,-1.966672658920288,-0.0013252379208111508,-4.904015394701994e-06,-3.137892191255128
3587539486,14740,vehicle,396.6439514160156,270.12957763671875,-0.001865012231108009,-6.852252229563007,-1.5710685018583026
1146849989,14740,vehicle,293.0462951660156,133.10086059570312,0.4453186104716872,-0.004512001874392759,-0.010131729010800153
1457681385,14740,vehicle,395.8601379394531,175.60911560058594,-0.0010544708112605625,-3.6661764058967083,-1.571083948192625
1726747598,14740,vehicle,115.30465698242188,129.75540161132812,-0.027701576138862278,0.002700548032111442,3.0444125738322567
367118466,14740,vehicle,392.4808654785156,302.26580810546875,0.0009433102308755633,9.771226837401178,1.5706997872053812
2065705843,14740,vehicle,230.01869201660156,133.2189483642578,5.652871129892344,-0.0001505450644392065,-2.6631610900792382e-05
3978545900,14740,vehicle,334.8553466796875,286.2507629394531,0.0007303253560689936,6.0007113965973815,1.57067462033308
714679325,14740,vehicle,350.029052734375,1.9309656620025635,5.568396371526293,-0.00988834391800241,-0.0017757955547905108
3262285446,14740,vehicle,133.30035400390625,55.74745178222656,-5.561478144778207,0.008612668628537453,3.140044025415912
1401880247,14740,vehicle,145.5283660888672,195.26893615722656,-5.931252835220445,-0.0011989074423825797,-3.141390519663056
2250339631,14740,vehicle,166.40565490722656,129.73291015625,-5.838351175903762,-0.000928243647829838,-3.1414336628727155
2525145270,14740,vehicle,92.55011749267578,160.28404235839844,-0.0018941911981977919,-5.685505074631488,-1.5711294882472655
1825059061,14740,vehicle,313.6255187988281,2.0121779441833496,-0.00047419146909942754,2.965168432165963e-07,-0.0006253102889691864
346279610,14740,vehicle,110.9823226928711,194.9922637939453,8.015165655251056e-08,-3.775864789927652e-10,3.136881787937552
893025708,14740,vehicle,395.93212890625,258.4339294433594,-0.001869703583372676,-5.821407494699284,-1.5711175040223602
1724402154,14740,vehicle,88.61601257324219,286.47235107421875,0.001310466620270156,5.871979090372465,1.5705731538955479
2595182244,14740,vehicle,214.6370086669922,198.7657012939453,6.114262014990125,0.0010434943038096155,0.0001706656160825487
874453657,14740,vehicle,392.56298828125,227.67971801757812,-2.249755425925153e-06,16.895376205444187,1.5707964599529511
1498616609,14740,vehicle,92.17967224121094,47.56163787841797,-6.206310907676783e-05,0.010189105799763351,-1.564705277907722
505512523,14740,vehicle,212.48565673828125,133.22067260742188,5.357605676723526,-0.0016608145148279642,-0.00030999191837593267
3709073522,14740,vehicle,221.398193359375,195.56655883789062,-7.407923456170972,0.006780685111951873,3.140677325123133
27029540,14740,vehicle,1.4727849960327148,118.52606964111328,-0.0014765121974302487,-5.4703591261452145,-1.571066238171376
1375770528,14740,vehicle,338.90155029296875,265.0072937011719,0.005251492967647799,-6.542474069589803,-1.5699936500423468
4266869573,14740,vehicle,10.649786949157715,-2.05722975730896,-3.666166067122243,2.9290772464719954e-06,3.141591854641466
368528135,14740,vehicle,2.5414035320281982,296.87957763671875,0.07136945612377488,-8.79090235096525,-1.562677946527899
4012051816,14740,vehicle,338.9733581542969,228.75657653808594,-0.0,-0.0,-1.5736403165229922
3938307140,14740,vehicle,92.08231353759766,235.3812255859375,-0.0006932594937794248,-5.652866797852373,-1.5709189653630948
1966079641,14740,vehicle,20.494815826416016,331.2386779785156,5.657638921562774,0.01018353752750468,0.001799960490753915
1759883367,14740,vehicle,-2.41512393951416,256.0780334472656,-0.000618620514348177,10.679910641873628,1.5708542505486058
3487645883,14740,vehicle,147.96336364746094,129.7758331298828,-5.980252727192515,-0.00043160480042881864,-3.141520481924252
544848518,14740,vehicle,92.24698638916016,35.24443435668945,1.6499259109228268e-09,1.5106959466239295e-06,-1.571888489157938
1325658571,14740,vehicle,128.57786560058594,129.74827575683594,5.7233066837136944e-08,-6.640980576806923e-11,3.1404323143028456
921579549,14740,vehicle,117.53841400146484,55.818519592285156,-2.1849021491062267e-05,-2.073219960676344e-08,-3.140643769293398
4072577581,14740,vehicle,92.40849304199219,293.1923828125,-0.002136217877457968,-6.888245251333163,-1.5711064519038362
94066344,14740,vehicle,298.6880798339844,133.2589111328125,-0.00082804532711171,2.590257193669631e-06,-0.0031281484962584227
2853390219,14740,vehicle,299.9939880371094,330.5155029296875,-0.0002943248118638239,-8.965170183849441e-08,0.00030460122780028644
2524564450,14740,vehicle,1.616689920425415,72.25906372070312,-0.0023679757180532376,-5.699741825308238,-1.571211779924949
1882516347,14740,vehicle,-2.1533474922180176,70.69326782226562,0.007110223562851365,8.292725375902481,1.5699389220819455
815178544,14740,vehicle,211.25848388671875,330.419921875,5.758348506523202,-0.0022389697397414464,-0.00038882148664227815
2188308515,14740,vehicle,120.43204498291016,199.21864318847656,5.711803566576232,-0.0019896581345349787,-0.00034834147058236437
1160083145,14740,vehicle,375.29022216796875,326.5435485839844,-8.129498075738155,0.0799696211946275,3.1317560017874766
1832698586,14740,vehicle,154.19821166992188,326.966552734375,-7.407922025660097,0.006780683802564181,3.140677325123133
3748346955,14740,vehicle,131.17735290527344,1.9197180271148682,-0.9612060028837843,0.00017560545118279093,-0.00018269283452479042
3198444053,14740,vehicle,122.12887573242188,327.07373046875,-2.526570513381628,-0.003327326411277147,-3.140275720430749
808811405,14740,vehicle,338.9344482421875,221.64358520507812,-4.7027550013289167e-07,-0.001647252289503863,-1.571081817663753
84250811,14740,vehicle,278.58050537109375,133.5775909423828,8.260594268612946,0.07373949039880563,0.00892641975213312
3956289865,14740,vehicle,88.6192398071289,306.89337158203125,5.020387096710716e-11,4.7961395225395446e-08,1.5697495713284408
1912328786,14740,vehicle,365.2416687011719,-1.9526519775390625,6.7516038594751605e-09,6.7894801315463844e-12,-3.1405870439621792
4030311199,14740,vehicle,338.9559631347656,235.7405548095703,-1.1842253629877428e-05,0.017369882823409146,-1.5701145575558364
3147513812,14740,vehicle,392.4761962890625,272.1542053222656,0.0022738968828084,12.565618309270416,1.5706153649988257
1663586846,14740,vehicle,269.2185363769531,330.41693115234375,5.897559381382575,-0.0017559476968981818,-0.00029774140987085885
