id,timestamp_ms,agent_type,x,y,vx,vy,psi_rad
-1,26130,vehicle,392.2181091308594,242.68890380859375,0.0013671195118319219,18.139387079219144,1.5707209593360474
2985032057,26130,vehicle,61.7692985534668,-1.9630612134933472,-6.296459666518029,-0.0003236317875942784,-3.141541254580755
3028941286,26130,vehicle,396.90643310546875,217.33644104003906,-0.0018025984965466602,-5.680773925887191,-1.5711136424387795
2920337868,26130,vehicle,392.0313720703125,297.8805847167969,0.003414527757248113,10.653372217389798,1.5704758153577056
1503980471,26130,vehicle,100.7081298828125,2.086094856262207,5.5868307750617,-0.4012474664493339,-0.07169712352440887
2125414330,26130,vehicle,391.55084228515625,0.3841674029827118,-7.998967238897424e-08,-7.353357356068122e-08,-2.3982226343032123
2396446624,26130,vehicle,163.67031860351562,327.0107116699219,-5.824748515210056,0.00010082958344473509,3.1415753430427076
4076155829,26130,vehicle,112.6908187866211,-1.9214445352554321,6.672673783013003e-06,1.0289064684091093e-09,-3.1414384565626774
130361148,26130,vehicle,92.38613891601562,226.82598876953125,2.0350247587919247e-10,3.418200511935182e-07,-1.5713916764565838
3417340120,26130,vehicle,249.36126708984375,330.49609375,5.865003075788379,0.0006239532389098074,0.00010638583279378397
2197730220,26130,vehicle,188.16998291015625,-1.9401477575302124,1.2105740835438007e-08,-5.719294459544029e-12,3.141120208812413
118743835,26130,vehicle,334.707763671875,89.82743835449219,0.0021340881922681056,5.605711530728189,1.5704156279170698
904053063,26130,vehicle,178.70040893554688,55.8249397277832,3.9951229240430886e-08,-6.231651527068794e-11,3.140032840139334
1291681130,26130,vehicle,123.63488006591797,195.6165313720703,-5.787519604922444,0.0019451329171496366,3.1412565626602253
715062232,26130,vehicle,338.9865417480469,22.503324508666992,-4.560935670611466e-05,0.01928602540171887,-1.5684314397469061
220877689,26130,vehicle,92.90666961669922,91.6861801147461,-0.0003627793908930343,-2.560551617672259,-1.5709380069648888
2069714320,26130,vehicle,34.38220977783203,331.17987060546875,1.2069376126557634,0.0012565477783815697,0.001041103791294657
3190467641,26130,vehicle,118.2792739868164,-2.610438585281372,-0.010460110389733065,-0.0018858811274372798,-2.963216254305158
708315452,26130,vehicle,88.75920867919922,99.76371002197266,3.5590912122210745e-05,0.011901964304544554,1.5678059963649011
1314594676,26130,vehicle,88.64353942871094,172.72946166992188,1.5899808200237848e-07,0.0016469728357710327,1.5706997872053812
2302084468,26130,vehicle,312.61602783203125,330.1629638671875,-0.010469574603361006,0.0013664751210269788,-0.12978503614770046
757051778,26130,vehicle,334.6985168457031,228.72532653808594,0.000470424436856239,5.917633991616662,1.5707168314363578
4203008516,26130,vehicle,116.24565887451172,55.69343185424805,-6.012777691388744,0.0011705499924911985,3.1413979765141082
2631691725,26130,vehicle,334.72576904296875,241.6260223388672,0.0004387205987610475,5.445844155759595,1.5707157661719218
1513387753,26130,vehicle,338.9375,43.089256286621094,0.23821735660043214,-5.60217103338523,-1.5282995994902298
156273220,26130,vehicle,92.51573181152344,80.52529907226562,2.0680085986774165e-09,1.3360691948700956e-06,-1.5723441560204507
3812119762,26130,vehicle,92.35686492919922,19.88487434387207,-0.00046758034280740073,-6.106902104597208,-1.5708728926762363
3616050434,26130,vehicle,290.8371276855469,326.42950439453125,-5.947216033918464,1.4254554903504896e-05,3.141590256744812
2942158310,26130,vehicle,88.58541107177734,25.917118072509766,2.831812454305288e-11,1.4359588083595518e-07,1.5705991197161762
3608800298,26130,vehicle,189.9362030029297,133.22450256347656,6.94720973032264,-0.0012063003313480616,-0.00017363810307316634
1146464971,26130,vehicle,60.19769287109375,2.5480520725250244,3.85153281104956e-09,-3.2741154786457723e-12,-0.0008500809549347115
3013099654,26130,vehicle,-2.391207456588745,163.9054718017578,0.0007526879131700904,5.821411084152555,1.5706670303239731
2246582517,26130,vehicle,88.6150894165039,105.10009765625,1.2550956205311906e-11,9.204695231498021e-08,1.5706599729470845
3192940987,26130,vehicle,338.87249755859375,248.61102294921875,6.382204703040165e-08,5.568667601220396e-05,-1.5719424181700121
828836647,26130,vehicle,118.64614868164062,330.8367614746094,9.596784226198707,-0.018836108525443995,-0.001962749593351236
1702089089,26130,vehicle,396.0367126464844,98.74750518798828,-0.002953841161031869,-8.692386125311062,-1.5711361461499906
2111029583,26130,vehicle,54.97134780883789,330.44464111328125,0.006708833165468104,-3.0409131347831743e-06,-0.00045327001753148633
420096522,26130,vehicle,88.60543823242188,138.003173828125,-1.8190764229405414,7.671707179370212,1.803611600344332
510102133,26130,vehicle,202.1089630126953,1.8682044744491577,8.99383148790968,-0.0016239469677574454,-0.00018056230565272703
4109025732,26130,vehicle,275.87042236328125,1.8454698324203491,6.898594580347692,-0.001951113743993732,-0.0002828277077664151
2913592560,26130,vehicle,308.3134765625,1.8536815643310547,0.2515002128085121,0.0010404299257778188,0.004136871213545024
3970347779,26130,vehicle,128.5546417236328,58.94350814819336,-0.010479086777049135,0.0013507072768725687,-0.12818872074555016
1933996401,26130,vehicle,385.673828125,-2.1186752319335938,2.7246484664909263e-08,3.6567248244971065e-09,-3.008180799833947
3047764241,26130,vehicle,53.26544952392578,2.046077251434326,3.148188588582578e-08,1.4216237574008966e-11,0.00045156877384246126
1260711767,26130,vehicle,338.9967956542969,104.96522521972656,0.0024741780289576055,-5.984141791985212,-1.5703828710356618
3957993155,26130,vehicle,335.0718994140625,33.63330078125,2.737143071885998e-10,-3.911625478440857e-07,1.571496072371315
4289594148,26130,vehicle,-2.404228687286377,181.4108123779297,-5.688830249272196e-10,5.979338902291122e-07,1.5717477410943275
4139896837,26130,vehicle,134.13067626953125,129.48910522460938,-5.519324252560176,-0.0007437617939044917,-3.1414578976386354
1686932955,26130,vehicle,175.89035034179688,-1.9625625610351562,1.467734510446163e-06,-7.563554673571651e-10,3.1410773319188627
1726501337,26130,vehicle,378.8957214355469,-2.4100069999694824,-7.00842999257802e-05,-1.9728511117776295e-07,-3.1387776923175794
1682591593,26130,vehicle,281.6020202636719,330.4570617675781,1.0911343385612721e-07,-4.6145159454214665e-11,-0.0004229099485952924
3380823586,26130,vehicle,368.77252197265625,326.3265380859375,1.6264538854152165e-08,-5.245042069699699e-11,3.1383678318258164
4176583038,26130,vehicle,284.08624267578125,1.9783624410629272,5.554585224533771,-0.001606493083445271,-0.0002892192618733146
3855978784,26130,vehicle,305.56915283203125,330.5410461425781,2.8920370491526787e-07,6.239157413926628e-11,0.0002157357326719071
1042098875,26130,vehicle,132.04058837890625,-1.9548324346542358,-5.535024971214234,-0.0026312085679691677,-3.141117279335214
644930681,26130,vehicle,88.63038635253906,165.76617431640625,-6.282749724018229e-10,2.4381223847978337e-07,1.5733732014656572
2234188147,26130,vehicle,358.0129699707031,-1.9548426866531372,-1.0195903024267298e-07,-8.653769054097353e-11,-3.140743904150385
4109707537,26130,vehicle,2.6085124015808105,196.4034881591797,-8.055695793135747e-06,-0.004476630331394693,-1.572595824743463
3675841917,26130,vehicle,183.96047973632812,55.83409118652344,-0.0174410154068498,-0.00013706691427929803,-3.133733931529078
2817926641,26130,vehicle,92.24634552001953,42.40351867675781,0.10585620050149973,-6.334612972232029,-1.5540871214835215
4029506115,26130,vehicle,-2.337632656097412,153.95123291015625,-0.00021120623129908538,4.8654351188594225,1.570839736320665
3277167701,26130,vehicle,88.64314270019531,33.25511169433594,1.576892464416603e-07,0.0016470460611346317,1.5707005861537082
518241310,26130,vehicle,-2.731564998626709,66.52127075195312,-0.07954840756893466,9.365441094044298,1.5792899464594863
778540568,26130,vehicle,316.11126708984375,59.3155632019043,5.5944604503411055,-0.0006436346165454507,-0.00011504855909142309
657465635,26130,vehicle,1.7772146463394165,70.50231170654297,0.06709205075726259,-5.82644840610833,-1.5592817503477754
835227171,26130,vehicle,134.6495819091797,59.32780456542969,-7.727375517578368e-11,-1.602661670207634e-14,0.00020740051309560257
715280319,26130,vehicle,92.40000915527344,164.1897430419922,-0.0011573895122043419,-3.40990476039712,-1.5711357466758271
3020211281,26130,vehicle,200.67800903320312,59.61398696899414,5.854865432956171,-0.00117567063620876,-0.00020080232993732923
2101598167,26130,vehicle,193.7311248779297,-1.9614672660827637,-1.269289102696292e-07,5.95950697860481e-11,3.141123138289612
14974470,26130,vehicle,336.2217102050781,54.97666931152344,4.553622233825425,-4.008390207983977,-0.7218036742000918
1398818972,26130,vehicle,171.03089904785156,133.66842651367188,5.630766267134526,-0.0011846552071940136,-0.00021038969360696918
2694688339,26130,vehicle,2.292745590209961,203.62313842773438,3.5504951849626173e-11,1.3631781818378184e-07,-1.5710567839495064
3916750283,26130,vehicle,116.79842376708984,326.9374694824219,1.3503558609423347e-06,-6.443747280734295e-09,3.136820801548589
1983197581,26130,vehicle,49.42390823364258,-1.9303933382034302,-5.624939839849352,0.0009407516022661198,3.1414254070733363
2942851653,26130,vehicle,317.57000732421875,198.7703857421875,6.176263704321669,-0.0011382280665156884,-0.00018429071492419264
3949181016,26130,vehicle,88.6303482055664,112.13860321044922,-5.959620914380615e-10,2.2949385748659085e-07,1.5733931751738328
3672416715,26130,vehicle,338.8674621582031,255.4944610595703,-2.881873948329184e-05,0.02932587898859826,-1.5698136203526574
3325384226,26130,vehicle,190.0690460205078,55.84153366088867,-0.004464809020402733,1.6278102966730356e-06,3.1412280668365615
1359910869,26130,vehicle,188.43673706054688,59.60402297973633,7.776468029141756,-0.001963306942680996,-0.0002524676875941571
2262630317,26130,vehicle,60.9249267578125,331.1164245605469,0.010509155198691495,0.0019062189333175113,0.17943560502918707
805172996,26130,vehicle,92.12379455566406,173.91452026367188,0.002915374994249542,-5.49964636777954,-1.5702662245799164
1986857511,26130,vehicle,-2.342132329940796,188.38018798828125,1.6093959408705735e-07,0.0016466427981435,1.5706985887828906
1279946346,26130,vehicle,127.27790069580078,2.400371551513672,0.4563069254402168,-0.017089585739929143,-0.037434457546589806
74618890,26130,vehicle,334.68701171875,216.84793090820312,0.039310596789244666,5.755424243047686,1.5639662507052248
3085549129,26130,vehicle,391.9744873046875,320.9942626953125,0.007813301868406494,-0.028905914277381515,1.8347888277517264
2057201815,26130,vehicle,240.19554138183594,198.9759063720703,5.448497637179353,-0.0012130549894453682,-0.0002226402671306243
1015694095,26130,vehicle,66.94755554199219,330.46124267578125,1.1523352224000526e-07,-4.965407357672595e-11,-0.00043089952939340205
1250507297,26130,vehicle,199.7627716064453,-1.94624924659729,-1.6174111034144676e-07,-2.0546434585561813e-10,-3.140322325749825
4280502996,26130,vehicle,48.153709411621094,331.2244567871094,-8.403734213862254e-08,2.5379482737257e-11,-0.00030200243510569496
3428459672,26130,vehicle,66.85588836669922,2.0130629539489746,-2.3770584125071014e-07,1.9219370228225627e-10,-0.0008085357069480567
414519966,26130,vehicle,189.6668243408203,327.04449462890625,-5.5360784452894505,0.00029339502754599414,3.1415396566841007
2866945113,26130,vehicle,294.2904968261719,330.4563903808594,8.435933429932444e-08,-3.747370417044808e-11,-0.00044421523731592627
1853482628,26130,vehicle,46.39568328857422,2.5198090076446533,-5.670451060471956e-06,1.3860021869898499e-08,-0.0024442489884003997
3880166169,26130,vehicle,303.98681640625,326.4200134277344,-5.555791378011587,-1.0357177195177155e-05,-3.1415907893770303
1073352953,26130,vehicle,372.0358581542969,-2.3772799968719482,-7.443054043969742e-08,1.5488973729797806e-10,3.1395116595140053
213556023,26130,vehicle,134.59754943847656,327.0172119140625,-0.0,0.0,3.139772116668615
1628590046,26130,vehicle,1.6507035493850708,24.149982452392578,-0.0009185110264915232,-5.527163906071701,-1.5709625080469176
4120465129,26130,vehicle,338.98443603515625,92.25527954101562,-0.001554188069055359,-5.518559713856301,-1.5710779560801724
1015227284,26130,vehicle,144.809326171875,129.75083923339844,-5.8588147145421425,-0.0001451075966806217,-3.1415678861916554
2900396540,26130,vehicle,181.6448211669922,-1.9664713144302368,-0.0013252161682684109,-5.23427885800522e-06,-3.1376429193770967
3587539486,26130,vehicle,396.62396240234375,203.97532653808594,-0.0013137239856168782,-5.247818782401424,-1.5710466639373641
1146849989,26130,vehicle,334.7545166015625,140.54356384277344,0.9856088236780456,5.557107048985237,1.3952616535514304
1457681385,26130,vehicle,395.8343811035156,80.5399169921875,-0.0032250247136166896,-11.212742341687896,-1.571083948192625
1726747598,26130,vehicle,92.406494140625,85.5278091430664,8.749751194743574e-06,0.003349613379126719,-1.5734084883501007
367118466,26130,vehicle,375.0947570800781,326.35400390625,1.6308335506116927e-07,-1.1950452907728785e-09,3.13426496585044
2065705843,26130,vehicle,295.3915100097656,133.20376586914062,5.939246615928577,-0.0006769749482563933,-0.00011398330278271406
3978545900,26130,vehicle,357.3664855957031,330.85345458984375,6.360483666572003,0.0210368746537587,0.0033074211095871133
714679325,26130,vehicle,392.1204528808594,28.505319595336914,0.003528294277209912,5.601910433673572,1.5701664891970928
3262285446,26130,vehicle,90.72388458251953,60.01453399658203,-3.956577618755976,3.9799416741967573,2.3532506319233715
1401880247,26130,vehicle,92.6044921875,186.32229614257812,-0.5147815585602827,-6.489950318852381,-1.6499504012400683
2250339631,26130,vehicle,110.3952407836914,129.73318481445312,-5.091496924645665,0.00044881867331086184,3.1415045029577118
2525145270,26130,vehicle,92.53423309326172,154.5819549560547,2.3857437144666408e-08,-2.7666192809066512e-05,-1.5699339952339288
1825059061,26130,vehicle,313.625732421875,2.012181282043457,3.2171211577791557e-07,-2.0116990138471933e-10,-0.0006253102239506051
346279610,26130,vehicle,88.17121887207031,236.10247802734375,0.0003543290259267491,5.809968937559634,1.5707353404059339
893025708,26130,vehicle,395.90557861328125,193.00384521484375,-0.001869704195969611,-5.821409402047818,-1.5711175040223602
1724402154,26130,vehicle,70.23068237304688,326.54290771484375,-5.878903143240316,0.016492564659537634,3.1387872796975036
2595182244,26130,vehicle,281.72021484375,198.7703857421875,6.176250352881467,-0.0011382256059692003,-0.00018429071492419264
874453657,26130,vehicle,388.67901611328125,324.6971435546875,0.014187531808380442,-0.00857807842137955,2.597782349530556
1498616609,26130,vehicle,91.50615692138672,8.089826583862305,-0.8084144168245686,-5.855960686299391,-1.7079790834962407
505512523,26130,vehicle,284.49072265625,133.2077178955078,4.8950860675787915,-0.0014705061150463356,-0.0003004045384516474
3709073522,26130,vehicle,136.49200439453125,195.5654296875,-4.453815718246658,-0.004351886203538932,-3.140615539785843
27029540,26130,vehicle,1.4540656805038452,51.13258743286133,-0.0015548772741720612,-5.924368177457954,-1.5710587813203238
1375770528,26130,vehicle,338.8888244628906,241.85150146484375,-3.683613332308816e-05,-0.011761639326031168,-1.5739282042368299
4266869573,26130,vehicle,-1.5055514574050903,84.79447174072266,0.0003748586495015647,6.160045135536459,1.5707354735639882
368528135,26130,vehicle,2.816849708557129,208.842041015625,-0.0003144184995857044,-0.02795708145165511,-1.5820423234460832
4012051816,26130,vehicle,338.9733581542969,228.75657653808594,-3.229287016214174e-12,-1.1354746741351025e-09,-1.5736403165229922
3938307140,26130,vehicle,92.14663696289062,219.810791015625,3.032183761430858e-10,-5.4949522337571196e-08,-1.5652782570162525
1966079641,26130,vehicle,41.148319244384766,331.2388916015625,5.523573820024253e-10,-7.649286214688502e-15,-1.3848436652496706e-05
1759883367,26130,vehicle,9.706221580505371,331.0169372558594,5.867302728997581,0.7474474541669165,0.12670950120757926
3487645883,26130,vehicle,98.82552337646484,129.50238037109375,-5.547029141312081,-0.3700984004313843,-3.07497128207648
544848518,26130,vehicle,111.98543548583984,2.0923068523406982,5.798045572454801,-0.0025014631126671462,-0.0004314320965928366
1325658571,26130,vehicle,92.40061950683594,110.64161682128906,-0.004532607850361022,-5.596727919996098,-1.5716061940823898
921579549,26130,vehicle,92.30008697509766,31.371986389160156,0.008117871090713161,-5.248741071109407,-1.5692496959918332
4072577581,26130,vehicle,92.38365936279297,233.42501831054688,1.926971285252705e-08,3.3099969944245455e-05,-1.571378493809188
94066344,26130,vehicle,334.4844970703125,150.65557861328125,0.01527334322197427,5.735029386880146,1.5681331657048174
2853390219,26130,vehicle,299.99432373046875,330.5154724121094,-9.960813221842573e-08,-3.037519846186991e-11,0.00030494696410635324
2524564450,26130,vehicle,3.2434535026550293,6.822052001953125,3.0263430368535063,-4.620754732505615,-0.9909522547643967
1882516347,26130,vehicle,-2.143620729446411,142.34413146972656,0.0020498477805937832,5.667928801844683,1.5704346695188638
815178544,26130,vehicle,274.4369812011719,330.3900451660156,3.1379148210940935,0.0006856879479444027,0.00021851706503350047
2188308515,26130,vehicle,185.77935791015625,199.2079315185547,5.579557831825051,-0.0008440059585813421,-0.00015126753366185542
1160083145,26130,vehicle,362.35162353515625,326.56256103515625,0.56538012063695,-0.0006140240238023142,3.140506616497259
1832698586,26130,vehicle,127.70616912841797,326.9648742675781,-0.017402697702146523,-4.010806157426937e-05,-3.1392879539824388
3748346955,26130,vehicle,133.29074096679688,1.9191240072250366,-0.9612058777909096,0.00020529964417949272,-0.0002135855031697096
3198444053,26130,vehicle,122.1485595703125,326.0155334472656,-0.029106254857767355,-0.010468733501833055,-2.7963266014342523
808811405,26130,vehicle,338.92218017578125,221.6170196533203,-4.702875978588684e-07,-0.0016472946646792811,-1.571081817663753
84250811,26130,vehicle,330.8601379394531,132.46759033203125,7.558742055100117,-1.4001241215690112,-0.18315649048046173
3956289865,26130,vehicle,45.54867172241211,326.5670471191406,-5.870618761931822,0.0008270599485828471,3.141451772368128
1912328786,26130,vehicle,365.2416687011719,-1.9526541233062744,1.3936964529925475e-08,1.4015150435285078e-11,-3.1405870439621792
4030311199,26130,vehicle,338.9559631347656,235.7322235107422,1.862597479160392e-11,-2.689457255852866e-08,-1.5701037717534214
3147513812,26130,vehicle,382.0475769042969,326.14154052734375,5.759010935228839e-07,-6.823812576827679e-08,3.023653233135089
1663586846,26130,vehicle,287.7590637207031,330.4103088378906,-6.244167595639168e-07,-7.627929610869218e-10,0.0012216081166275092
