id,timestamp_ms,agent_type,x,y,vx,vy,psi_rad
-1,12931,vehicle,392.1839294433594,30.49017333984375,0.0013051271926703466,5.708409160190039,1.5705676944153133
2985032057,12931,vehicle,92.10367584228516,28.704078674316406,2.1421305373945722e-12,-2.6590292548124022e-08,-1.5707157661719218
3028941286,12931,vehicle,396.9351501464844,307.5852355957031,0.0042942117305420635,-5.843264432377749,-1.5700614274920892
2920337868,12931,vehicle,392.0116271972656,57.21358108520508,-0.0025822040622258064,12.732779241033525,1.570999126511906
1503980471,12931,vehicle,92.19259643554688,41.79130172729492,0.005022070078817908,-2.9534118392488704,-1.569095898438881
2125414330,12931,vehicle,395.9330749511719,35.187808990478516,-0.0044071981018892785,-10.930480068534395,-1.5711995293839345
2396446624,12931,vehicle,240.56126403808594,327.0337829589844,-5.659055693879816,-0.00042500155024070325,-3.141517552447053
4076155829,12931,vehicle,112.6908187866211,-1.946293592453003,5.223439004078178e-06,8.610822115962446e-10,-3.1414278039183174
130361148,12931,vehicle,92.41138458251953,287.40936279296875,-0.0020811896356278886,-6.89433972417592,-1.571098196104457
3417340120,12931,vehicle,173.82290649414062,330.48333740234375,5.5692070694550795,-0.0011657711983006779,-0.0002093244454255828
2197730220,12931,vehicle,205.53565979003906,-1.9466972351074219,-5.568830463222874,0.0005472525589566357,3.1414943829455693
118743835,12931,vehicle,306.79681396484375,59.33424758911133,2.8514497079040717e-08,-4.293576551809272e-11,-0.001505751020256476
904053063,12931,vehicle,178.7018585205078,55.82492446899414,0.005857046087664981,-9.135906676776919e-06,3.140032840139334
1291681130,12931,vehicle,198.3064422607422,195.5946807861328,-5.719783067778489,0.0016512251280126143,3.141303966927629
715062232,12931,vehicle,313.6129455566406,59.3152961730957,-1.1166809631845512e-07,-4.170328138467454e-10,0.0037345570384019204
220877689,12931,vehicle,121.40308380126953,129.7563018798828,-0.007030328578534898,1.4865980853098673e-06,3.141381198599241
2069714320,12931,vehicle,-2.398921251296997,259.2668151855469,0.003939108226897467,9.334868553657355,1.5703743489201736
3190467641,12931,vehicle,118.22616577148438,-2.14780592918396,-0.003814700766675773,-0.00010762118322795975,-3.113387913433091
708315452,12931,vehicle,88.73600769042969,99.74832153320312,3.207401121628707e-05,0.011936723935380065,1.568109330413061
1314594676,12931,vehicle,88.64353942871094,172.6986846923828,1.5923427098427723e-07,0.0016471474587317707,1.5706996540473268
2302084468,12931,vehicle,312.6572265625,330.62176513671875,-0.009687322460888853,0.0008346750511570666,-0.08594931305883373
757051778,12931,vehicle,305.1541442871094,199.05625915527344,-0.0007623353154309488,8.429483148717331e-07,-0.0011057443545637372
4203008516,12931,vehicle,153.7655029296875,31.262548446655273,-2.1165505179022564e-11,4.383624685201082e-08,1.5712791579005279
2631691725,12931,vehicle,312.3171081542969,199.05612182617188,2.659283035682655e-09,-6.691181358073401e-12,-0.0025161545979068643
1513387753,12931,vehicle,295.2192077636719,59.330291748046875,5.8212908403591745,-0.0012278402215603838,-0.00021092232582498502
156273220,12931,vehicle,92.5318374633789,101.02490234375,-0.0024455526928444217,-5.901602715189623,-1.571210714660513
3812119762,12931,vehicle,110.91465759277344,55.83747863769531,-3.821554695490943e-08,3.9722468050639037e-11,3.1405532218163352
3616050434,12931,vehicle,335.4158935546875,308.00689697265625,-4.1482671574269874e-11,8.5608559072075e-08,1.5712808889552365
2942158310,12931,vehicle,88.60911560058594,25.917118072509766,-6.345020921152429e-10,-3.248145669076861e-06,1.5706009839289392
3608800298,12931,vehicle,145.68064880371094,133.23402404785156,-2.0875033718683294e-06,1.0118031228480362e-09,-0.0004846952858851307
1146464971,12931,vehicle,45.48627853393555,2.5444676876068115,5.894034783910914,0.0009626159468716872,0.0001633203694251296
3013099654,12931,vehicle,-2.4035327434539795,88.08356475830078,0.0007511344397752992,5.821386765657935,1.5706672966400823
2246582517,12931,vehicle,88.6150894165039,105.10009765625,-1.740574844936776e-11,-1.2765131766195018e-07,1.5706599729470845
3192940987,12931,vehicle,338.91058349609375,310.3533935546875,-0.06283078808638498,-5.51700482983378,-1.582184403090239
828836647,12931,vehicle,88.64766693115234,300.9967041015625,2.646233777361125e-05,-0.02400684947150543,1.5718986091700804
1702089089,12931,vehicle,395.97601318359375,192.58802795410156,-0.0013476794040667662,-3.7332718324026786,-1.5711573182806569
2111029583,12931,vehicle,54.974700927734375,330.44464111328125,-0.00019172452202001003,8.077585655904658e-08,-0.00042131205194124484
420096522,12931,vehicle,147.49546813964844,129.73719787597656,-5.053269311044825,-0.0008720570380620385,-3.141420080751156
510102133,12931,vehicle,158.41864013671875,25.242372512817383,-0.00030453224500779264,0.004032142877429131,-1.4954132884532771
4109025732,12931,vehicle,199.57745361328125,1.898884654045105,6.476097829079001,0.001731706608911214,0.00026739969242923703
2913592560,12931,vehicle,239.09051513671875,1.9369066953659058,3.6655246537601855,-0.0007028556177444634,-0.00019174761474035048
3970347779,12931,vehicle,128.59605407714844,59.45909118652344,-0.008484984335988516,0.0005328508314683105,-0.06271691103914805
1933996401,12931,vehicle,395.9356994628906,13.263101577758789,-0.0015625173452143409,-5.687981390914068,-1.5710710318613383
3047764241,12931,vehicle,24.10342025756836,2.05428409576416,5.60661791293926,-0.008964776174298014,-0.0015989619184835747
1260711767,12931,vehicle,306.1383361816406,133.41566467285156,-1.7407677489121234e-06,1.882194264222496e-09,-0.0010812433375535894
3957993155,12931,vehicle,335.0718994140625,33.63092041015625,7.1280621028461626e-06,-0.010182771199531796,1.5714963386874239
4289594148,12931,vehicle,-2.4117016792297363,140.36502075195312,0.00048412122176255066,3.429894889997559,1.5706551792571224
4139896837,12931,vehicle,209.4563751220703,129.4874725341797,-5.923557757672544,-8.83421758032921e-05,-3.1415777398876887
1686932955,12931,vehicle,175.89035034179688,-1.9625743627548218,4.849272765612867e-07,-2.498935565576202e-10,3.1410773319188627
1726501337,12931,vehicle,386.2946472167969,-2.229764461517334,-5.5103022728627336,-0.908058752389972,-2.9782676418379586
1682591593,12931,vehicle,241.38604736328125,330.4571838378906,6.8993290821149404,-0.0011943113969812222,-0.00017310543834585983
3380823586,12931,vehicle,392.43994140625,307.5871276855469,0.00491794181422467,8.065759113177617,1.570186596063323
4176583038,12931,vehicle,211.71466064453125,1.9996305704116821,5.568825964809145,-0.001613578278402227,-0.00028975195910991176
3855978784,12931,vehicle,305.56915283203125,330.5410461425781,-5.643574809374665e-09,-1.2175195727316959e-12,0.00021573552136151786
1042098875,12931,vehicle,157.8470916748047,32.20794677734375,-2.1390498473176707e-09,1.4718205336345105e-07,-1.5562639893585521
644930681,12931,vehicle,88.63038635253906,165.76617431640625,-0.0,0.0,1.5733732014656572
2234188147,12931,vehicle,358.0131530761719,-1.9547256231307983,-9.586420368113247e-05,-6.650613404375647e-08,-3.1408989001258276
4109707537,12931,vehicle,2.6246533393859863,259.1782531738281,-0.0025292889484080914,-12.052434655870034,-1.5710061838887948
3675841917,12931,vehicle,208.6038055419922,55.835350036621094,-7.929290276741009,0.01101251076180312,3.1402038150813167
2817926641,12931,vehicle,123.35482788085938,55.75107192993164,-2.3781855500457953,0.00234149246132395,3.140608082934791
4029506115,12931,vehicle,-2.2878613471984863,78.82872009277344,-0.0009985688507708318,4.6636346701632325,1.571010444946539
3277167701,12931,vehicle,88.64314270019531,33.222408294677734,1.5842599175366994e-07,0.0016478656249333816,1.5707001866795447
518241310,12931,vehicle,26.60502815246582,-2.0992038249969482,-5.377624285764917,0.017755835123700745,3.138290866470313
778540568,12931,vehicle,233.4715118408203,59.32467269897461,5.854543983184324,-0.0014500183422769253,-0.0002476739976320145
657465635,12931,vehicle,1.721187710762024,170.63198852539062,0.0038966744644722178,-15.426213725988045,-1.5705437259655026
835227171,12931,vehicle,134.6495819091797,59.32780456542969,4.4914115904141935e-08,9.315210817318916e-12,0.00020740051309560257
715280319,12931,vehicle,118.0025863647461,195.2687225341797,3.057209209647666e-07,-3.576712212422151e-10,3.1404227269229215
3020211281,12931,vehicle,153.76817321777344,37.5069694519043,9.822997850869201e-10,-5.951544459928297e-07,1.5724468208804732
2101598167,12931,vehicle,217.22662353515625,-1.9623501300811768,-5.923545359882695,-8.991952645941335e-05,-3.1415774735715796
14974470,12931,vehicle,263.3285217285156,59.332923889160156,5.659056625013497,-0.00066010894715763,-0.0001166464638727933
1398818972,12931,vehicle,109.83839416503906,133.68124389648438,5.6581190052759665,-0.004879174699721632,-0.0008623313659119134
2694688339,12931,vehicle,2.3194692134857178,299.17584228515625,-0.0032664815180045185,-7.7555668627725804,-1.5712175057212927
3916750283,12931,vehicle,116.80856323242188,326.9371643066406,0.04291090771772877,-0.00020380609430000564,3.136843172101746
1983197581,12931,vehicle,92.12187194824219,21.969289779663086,1.585185840674819e-10,2.8727581725859947e-08,-1.5763142634154863
2942851653,12931,vehicle,239.96212768554688,198.7647247314453,6.149299013429993,-0.0012708221499249644,-0.00020666130059014887
3949181016,12931,vehicle,88.6303482055664,112.13860321044922,8.125093965428416e-10,-3.12882175453098e-07,1.5733931751738328
3672416715,12931,vehicle,345.9132385253906,325.86956787109375,-5.545686125176693,-0.6571524717391788,-3.023644711019601
3325384226,12931,vehicle,229.10511779785156,55.84370040893555,-7.148684534763353,-0.002518740535543592,-3.1412403173775756
1359910869,12931,vehicle,154.2418975830078,23.046817779541016,0.0023401747770292565,4.494734631732615,1.5702756788017862
2262630317,12931,vehicle,60.97895812988281,330.6578063964844,0.0038748052447866205,0.00011708671427892664,0.03020825288952561
805172996,12931,vehicle,124.01409149169922,195.3498077392578,-0.6703153488421446,0.0147290287295711,3.1196229061771845
1986857511,12931,vehicle,-2.3476741313934326,149.52963256835938,0.00035338195008641964,3.6655433007606533,1.5706999203634358
1279946346,12931,vehicle,121.2735595703125,1.9914730787277222,3.531522604264732,0.03129594315012493,0.008861651882481851
74618890,12931,vehicle,278.69158935546875,198.7546844482422,5.854377567792689,-0.0014468588952108643,-0.00024714136541399863
3085549129,12931,vehicle,392.51763916015625,133.20071411132812,0.0020376699901998624,20.430763143015007,1.5706965914120732
2057201815,12931,vehicle,164.43492126464844,198.97462463378906,5.751863819967956,-0.0012530237718463757,-0.00021784656091383635
1015694095,12931,vehicle,66.94755554199219,330.46124267578125,-1.0833403212403902e-07,4.668108634869912e-11,-0.00043089952939340205
1250507297,12931,vehicle,228.77053833007812,-1.9458972215652466,-6.319905279772393,-0.0001279150363570737,-3.1415724135655085
4280502996,12931,vehicle,46.78828811645508,331.2252197265625,3.1480392934189574,-0.002191508676029044,-0.0006961502439281316
3428459672,12931,vehicle,66.85558319091797,2.0130674839019775,-0.0009170675097386783,7.414820485084683e-07,-0.0008085357719666381
414519966,12931,vehicle,264.2007141113281,327.04534912109375,-5.677908897396681,6.048474418655515e-06,3.1415915883253573
2866945113,12931,vehicle,290.9750671386719,330.45635986328125,3.253221042759661,-0.0012250684765559366,-0.000376570913118623
1853482628,12931,vehicle,1.7234282493591309,19.593997955322266,-0.0017059134187759175,-5.570083356934531,-1.5711025903202558
3880166169,12931,vehicle,335.50616455078125,287.9948425292969,0.00108264009520027,5.568828000688072,1.5706019160353208
1073352953,12931,vehicle,372.0358581542969,-2.3772807121276855,-1.7144769056113708e-06,3.5678214338473657e-09,3.1395116595140053
213556023,12931,vehicle,201.4077911376953,327.0334167480469,-6.149285315758786,9.334626310142819e-05,3.1415774735715796
1628590046,12931,vehicle,1.673492670059204,99.00794982910156,-0.0020280324518992332,-5.967971934012628,-1.5711361461499906
4120465129,12931,vehicle,313.6098937988281,133.22540283203125,5.6100036664678655e-09,2.0914749618405212e-11,0.003728099652981454
1015227284,12931,vehicle,229.10511779785156,129.75372314453125,-7.148683581089095,-0.0025187401995296027,-3.1412403173775756
2900396540,12931,vehicle,181.6448211669922,-1.966704249382019,-0.0013252362607736354,-4.848951151010107e-06,-3.1379337365681335
3587539486,12931,vehicle,396.64691162109375,280.6794738769531,-0.0003284538562750532,-1.3665631614786329,-1.5710366770832762
1146849989,12931,vehicle,286.7632751464844,133.1035614013672,6.092374511421558,0.0018804752268412254,0.00030866046786805565
1457681385,12931,vehicle,395.86224365234375,183.38951110839844,-0.0010542831234451994,-3.665523854272699,-1.571083948192625
1726747598,12931,vehicle,115.29961395263672,129.67800903320312,-0.02843646352086385,0.0023586939983934263,3.058835987980017
367118466,12931,vehicle,392.4781188964844,283.8156433105469,0.0013108569049194226,11.846411632491085,1.5706856724516038
2065705843,12931,vehicle,219.66612243652344,133.22132873535156,5.698935028475441,-0.00019730334321571897,-3.4621090107368764e-05
3978545900,12931,vehicle,334.8511657714844,275.90057373046875,0.00040386650231257897,5.61664055325946,1.5707244214454645
714679325,12931,vehicle,339.7591857910156,1.9643784761428833,5.821245233827134,-0.023195579363899363,-0.003984621102827906
3262285446,12931,vehicle,143.65945434570312,55.74715042114258,-5.896174164918822,-0.014140093793269234,-3.1391944770281768
1401880247,12931,vehicle,155.92649841308594,195.2685546875,-5.923550128278014,-8.834206202077484e-05,-3.1415777398876887
2250339631,12931,vehicle,176.92132568359375,129.73558044433594,-5.659052356019718,-0.0004250012995635951,-3.141517552447053
2525145270,12931,vehicle,92.55288696289062,170.5548553466797,-0.0016239773076033727,-5.677775627584925,-1.5710823502959712
1825059061,12931,vehicle,312.318359375,2.0121734142303467,6.078542220710335,-0.00037880231044824607,-6.231795325320885e-05
346279610,12931,vehicle,110.9823226928711,194.9922637939453,7.521993646525503e-07,-3.543536363639327e-09,3.136881787937552
893025708,12931,vehicle,395.9363708496094,268.82574462890625,-0.0018689216803032124,-5.821386514114319,-1.5711173708643056
1724402154,12931,vehicle,88.615234375,276.040283203125,0.0004426414252675082,6.032995684597862,1.570722956706865
2595182244,12931,vehicle,204.11233520507812,198.76473999023438,6.149327623658874,-0.0012708280625521593,-0.00020666130059014887
874453657,12931,vehicle,392.53546142578125,199.5064239501953,0.0041532395053313804,13.352011034655463,1.5704852695795752
1498616609,12931,vehicle,92.1600341796875,51.85753631591797,0.02589973892175104,-5.5634086469675665,-1.5661409880513837
505512523,12931,vehicle,198.2035675048828,133.22166442871094,7.380191228610275,0.0011998316939631072,0.00016257460629760985
3709073522,12931,vehicle,235.7137908935547,195.565185546875,-7.929289791103353,0.011018845192370355,3.1402030161329897
27029540,12931,vehicle,1.4757336378097534,129.19827270507812,-0.0034231182940987807,-11.951269613224724,-1.5710827497701345
1375770528,12931,vehicle,338.9047546386719,277.3351135253906,0.004089749037566574,-8.343790005690527,-1.5703061719962674
4266869573,12931,vehicle,18.43042755126953,-2.05722975730896,-3.6655192375171404,2.9285604630410316e-06,3.141591854641466
368528135,12931,vehicle,2.681424617767334,312.92486572265625,-0.6248154710380102,-6.648529106079956,-1.6644991171171166
4012051816,12931,vehicle,338.9733581542969,228.75657653808594,1.6912239942163032e-09,5.946643962212809e-07,-1.5736403165229922
3938307140,12931,vehicle,92.08566284179688,245.7337646484375,-0.0007467181035740143,-5.698940705016455,-1.5709273543205284
1966079641,12931,vehicle,10.187984466552734,331.1413269042969,5.7646039864647785,0.5275846910594907,0.09126715473539598
1759883367,12931,vehicle,-2.416210651397705,238.61241149902344,0.00165549523607347,8.718483767690202,1.570606443409174
3487645883,12931,vehicle,158.5717315673828,129.77471923828125,-5.671275046711344,0.002540412071691073,3.141144709894442
544848518,12931,vehicle,92.2469711303711,35.24471664428711,1.3368061127730313e-06,0.0012237005550155902,-1.571888755474047
1325658571,12931,vehicle,128.57786560058594,129.74827575683594,3.555955054650157e-07,-4.126116204314069e-10,3.1404323143028456
921579549,12931,vehicle,117.53841400146484,55.82166290283203,-2.165870613406548e-05,-2.059198877178393e-08,-3.140641905080635
4072577581,12931,vehicle,92.41522216796875,305.5967712402344,-0.010470347542705307,-6.845208743445569,-1.5723259133669836
94066344,12931,vehicle,296.7956848144531,133.2615509033203,4.128923599397012,-0.009436773911267203,-0.002285524847506002
2853390219,12931,vehicle,299.73211669921875,330.5168762207031,2.766213512205147,-0.002463482712452726,-0.0008905610685224972
2524564450,12931,vehicle,1.6216709613800049,82.76515197753906,-0.0013258071527482978,-5.930102676957868,-1.5710198991684088
1882516347,12931,vehicle,-2.1610422134399414,52.19622039794922,0.014520093306577716,11.69623427327348,1.5695548942527562
815178544,12931,vehicle,200.96351623535156,330.42498779296875,5.71978074012444,-0.0027449323021857086,-0.00047990162843227873
2188308515,12931,vehicle,109.85867309570312,199.2337646484375,5.5608882741576675,-0.04912452044055044,-0.008833704295495532
1160083145,12931,vehicle,389.4761657714844,324.6806640625,-4.771776460239151,4.005572649787523,2.4432670746647034
1832698586,12931,vehicle,168.51377868652344,326.9651794433594,-7.929289799904311,0.011012510099553525,3.1402038150813167
3748346955,12931,vehicle,130.84170532226562,1.9197968244552612,-0.9612051116675668,0.00015922228592752868,-0.0001656486035482833
3198444053,12931,vehicle,128.8037567138672,327.09625244140625,-6.461688843045922,-0.002851451667897118,-3.141151367797167
808811405,12931,vehicle,338.9363708496094,221.64781188964844,-4.7029122052955927e-07,-0.001647307353948843,-1.571081817663753
84250811,12931,vehicle,261.6589660644531,133.52890014648438,11.060779033728888,0.029611921131014612,0.002677193920444219
3956289865,12931,vehicle,88.6192398071289,306.89337158203125,2.7414865989738773e-11,2.6190315556475456e-08,1.5697495713284408
1912328786,12931,vehicle,365.2416687011719,-1.9526509046554565,3.076495013055751e-08,3.093754047289036e-11,-3.1405870439621792
4030311199,12931,vehicle,338.9560852050781,242.43914794921875,-0.0014771060770378038,-5.61664704926979,-1.571059313952542
3147513812,12931,vehicle,392.4735107421875,247.19671630859375,0.0018540339406852718,14.594924808996266,1.5706692940108997
1663586846,12931,vehicle,258.8412780761719,330.4233093261719,5.896220856776945,-0.0018937317407262892,-0.0003211771949542655
