id,timestamp_ms,agent_type,x,y,vx,vy,psi_rad
-1,1809,vehicle,356.7998046875,2.0199437141418457,0.0,0.0,1.0118153207726162e-07
2985032057,1809,vehicle,92.10987854003906,39.71000671386719,-1.0589441612750141e-10,-2.0391116777043566e-05,-1.5708015199590222
3028941286,1809,vehicle,358.3998107910156,330.53948974609375,1.2636696737883778e-05,-2.0192135435695178e-11,-1.597896654047543e-06
2920337868,1809,vehicle,378.1805725097656,2.0203654766082764,3.5317283618476694e-05,-3.762224397356162e-11,-1.065264372536987e-06
1503980471,1809,vehicle,92.11083984375,95.44970703125,4.874710410309316e-11,9.152113307079398e-06,-1.5708016531170768
2125414330,1809,vehicle,395.9602966308594,164.17172241210938,-5.1263509800714655e-09,-0.0002601232553792759,-1.5708160341869633
2396446624,1809,vehicle,301.3387451171875,327.0498046875,-8.867188443961916e-05,5.431392785980378e-10,3.141586528319286
4076155829,1809,vehicle,116.6400375366211,-1.9578219652175903,0.00011994021769833696,-7.666082901826462e-10,3.141586262003177
130361148,1809,vehicle,124.74076843261719,326.97210693359375,-0.00020127545576524773,-2.6801448109549333e-10,-3.141591322009248
3417340120,1809,vehicle,114.35000610351562,330.46142578125,3.9101611036768354e-05,-1.457874347712421e-10,-3.7284252721321002e-06
2197730220,1809,vehicle,244.88890075683594,-1.9517054557800293,0.6344937276822643,-0.0008987834172276148,3.14017611820598
118743835,1809,vehicle,272.2899475097656,59.32870101928711,0.00015532918041541818,3.060784356418257e-10,1.970514714767965e-06
904053063,1809,vehicle,234.2700958251953,55.84004211425781,-6.1216333050777695e-06,3.0975501689349905e-11,3.141587593583722
1291681130,1809,vehicle,256.3497619628906,195.56939697265625,4.263506707463824e-05,-1.8167048272988583e-10,3.141588392532049
715062232,1809,vehicle,299.3999938964844,59.33003234863281,2.1756281967050844e-06,-4.6352384116806496e-12,-2.130528745073974e-06
220877689,1809,vehicle,128.67906188964844,129.75697326660156,-0.023434851126325266,-3.0019587110137635e-06,-3.1414645555413605
2069714320,1809,vehicle,-2.421680450439453,188.386474609375,0.0003615199171051669,0.6077833292561028,1.5702015097654274
3190467641,1809,vehicle,135.79124450683594,-1.9599801301956177,-3.054111957549074,2.440077639488106e-06,3.141591854641466
708315452,1809,vehicle,88.75251007080078,72.43878173828125,-0.0079448942682104,0.46262923114567495,1.587967990029564
1314594676,1809,vehicle,88.58070373535156,169.85276794433594,-1.0443671854358357e-06,0.0017712428648058057,1.5713859506602401
2302084468,1809,vehicle,307.02734375,330.5665588378906,-0.5389608324871468,-0.0009381225967811364,0.0017406119198540666
757051778,1809,vehicle,256.3501892089844,199.06068420410156,0.00014021027891144606,-8.961662133757794e-10,-6.391587124147838e-06
4203008516,1809,vehicle,153.76011657714844,18.889999389648438,-2.707033564366357e-11,2.032947668338255e-05,1.5707976583754417
2631691725,1809,vehicle,299.3998107910156,199.05992126464844,1.2882545888698512e-05,-2.0584976971182803e-11,-1.597896654047543e-06
1513387753,1809,vehicle,234.27093505859375,59.3303337097168,3.979037137467019e-05,-4.238725994251172e-11,-1.0652642455475704e-06
156273220,1809,vehicle,92.11084747314453,159.94970703125,2.311236060185561e-10,4.33927198167323e-05,-1.5708016531170768
3812119762,1809,vehicle,118.95167541503906,55.83976364135742,-0.0002498833345682164,4.9910968032591455e-09,3.1415726798816177
3616050434,1809,vehicle,335.48980712890625,298.81121826171875,-1.9727381123155532e-10,9.259382204597289e-05,1.5707984573237685
2942158310,1809,vehicle,88.62213897705078,15.279912948608398,2.785473478957886e-10,-0.00012305029667882385,1.5707985904818231
3608800298,1809,vehicle,105.43919372558594,133.23788452148438,0.00020118492829937818,7.538377831157689e-10,3.746989346987634e-06
1146464971,1809,vehicle,1.5608866214752197,22.440080642700195,-4.930994782097633e-09,-0.00011021173111540874,-1.57084106790121
3013099654,1809,vehicle,-2.4117608070373535,47.91111373901367,-0.0008659193929233014,-0.6344950846876463,1.5694315898942854
2246582517,1809,vehicle,88.62163543701172,95.44999694824219,-0.0,0.0,1.5708009873268043
3192940987,1809,vehicle,381.3400573730469,327.0500183105469,-7.273012670245977e-06,3.680148826735473e-11,3.141587593583722
828836647,1809,vehicle,88.6192626953125,249.43020629882812,1.1578023072026047e-11,-4.347473804955217e-05,1.5707965931110055
1702089089,1809,vehicle,395.9599914550781,249.42999267578125,-9.36379632706366e-12,-1.598202629765946e-06,-1.5708021857492949
2111029583,1809,vehicle,22.45090103149414,330.4532470703125,0.023437172112372787,1.7058732904312155e-06,7.278494518194413e-05
420096522,1809,vehicle,190.8997802734375,129.74842834472656,-0.6136383997590156,0.00038453152446557966,3.1409660117852973
510102133,1809,vehicle,158.0796356201172,25.238807678222656,-0.0002874897507804663,-1.3947101535136759,-1.5710024554632687
4109025732,1809,vehicle,126.208740234375,1.887589931488037,0.46260215938278587,0.007936635241572402,0.017154819781069967
2913592560,1809,vehicle,209.58273315429688,2.050790548324585,0.0017041745591392836,3.8020145727324086e-08,2.2310006634659932e-05
3970347779,1809,vehicle,111.82740020751953,59.35630416870117,-0.5389713229091084,-0.0009381291521052674,0.001740590203647912
1933996401,1809,vehicle,395.960693359375,105.38973236083984,-1.5061638662161927e-09,-0.00016633968333963137,-1.5708053815426029
3047764241,1809,vehicle,1.559955358505249,48.70003128051758,-5.843733918717328e-11,-9.974021850040821e-06,-1.5708021857492949
1260711767,1809,vehicle,270.7998046875,133.42999267578125,1.2897283340846022e-05,-2.0608525896658516e-11,-1.597896654047543e-06
3957993155,1809,vehicle,306.2909240722656,2.020343542098999,3.9790364098712575e-05,-4.238725219169422e-11,-1.0652642455475704e-06
4289594148,1809,vehicle,-2.420907497406006,79.32025909423828,-2.6646528810547776e-10,-3.923765325362654e-05,1.5707895357341168
4139896837,1809,vehicle,271.041748046875,129.48976135253906,-0.00015512121896424843,3.0983459598373663e-09,3.1415726798816177
1686932955,1809,vehicle,185.5587615966797,-1.9600846767425537,-7.861061021400141e-05,6.699286988488351e-10,3.141584131474305
1726501337,1809,vehicle,395.95758056640625,68.86009979248047,6.388177450837543e-10,0.00012624841474300679,-1.5708013868009678
1682591593,1809,vehicle,173.11900329589844,330.4578552246094,0.00019605623674441312,7.34680632427013e-10,3.7472953914816475e-06
3380823586,1809,vehicle,392.4689636230469,212.89993286132812,1.1654855000208607e-11,8.752647408982662e-05,1.5707961936368422
4176583038,1809,vehicle,172.361083984375,2.0118014812469482,-0.6344967415578238,0.000830351911980015,-0.001308677229627775
3855978784,1809,vehicle,301.33990478515625,330.53826904296875,0.00015144764620313403,3.0978807345362346e-10,2.0455126323830624e-06
1042098875,1809,vehicle,157.24996948242188,39.71000671386719,-3.989930849077537e-11,-6.375291832103105e-06,-1.5708025852234582
644930681,1809,vehicle,88.61927795410156,145.8402099609375,1.1238617619792813e-11,-4.220029222778826e-05,1.5707965931110055
2234188147,1809,vehicle,363.0,-1.9599601030349731,7.501554932607427e-07,-5.194240795266978e-12,3.141585729370959
4109707537,1809,vehicle,21.909059524536133,326.9766845703125,-0.023434964747678436,-3.001973265687445e-06,-3.1414645555413605
3675841917,1809,vehicle,271.8697814941406,55.8383674621582,-0.6136382805497494,0.0003845314497640602,3.1409660117852973
2817926641,1809,vehicle,189.0812225341797,55.83999252319336,-3.0541119575496154,-1.6267184259980746e-06,-3.1415921209575752
4029506115,1809,vehicle,-2.287506341934204,17.598796844482422,-0.007941686097888544,0.46263259477474805,1.5879609326526753
3277167701,1809,vehicle,88.5807113647461,26.56282615661621,-1.044870874914126e-06,0.001772097120288878,1.5713859506602401
518241310,1809,vehicle,72.34259796142578,-1.9863044023513794,0.5388386362311829,0.0009753801421909651,-3.1397825029968662
778540568,1809,vehicle,172.2902374267578,59.33064651489258,0.00016620146925221645,-1.0622910864780746e-09,-6.391586616190172e-06
657465635,1809,vehicle,1.509935975074768,308.21038818359375,-5.285047820768564e-11,-1.2803237041116576e-05,-1.5708004546945862
835227171,1809,vehicle,125.9699935913086,59.3299446105957,1.8907125195231366e-05,-3.0211632087143914e-11,-1.597896654047543e-06
715280319,1809,vehicle,142.91900634765625,195.26956176757812,-3.276719507964383e-05,1.3962291034753217e-10,3.141588392532049
3020211281,1809,vehicle,153.75914001464844,28.90024757385254,2.4323239547667115e-11,-3.044407094420359e-05,1.5707971257432236
2101598167,1809,vehicle,278.8117370605469,-1.9602296352386475,-0.0002466491131891796,5.517677098569995e-09,3.1415702830366365
14974470,1809,vehicle,202.5512237548828,59.33013153076172,8.890535536875252e-05,-2.841231623223205e-10,-3.195793562073919e-06
1398818972,1809,vehicle,92.10761260986328,176.89002990722656,4.306281872309377e-10,9.239893552048366e-05,-1.5708009873268043
2694688339,1809,vehicle,46.15077209472656,326.97210693359375,-0.00019250431796518784,-2.5633500464287557e-10,-3.141591322009248
3916750283,1809,vehicle,173.1199951171875,326.9685363769531,-3.9101316359958064e-05,2.499194503214063e-10,3.141586262003177
1983197581,1809,vehicle,92.10836791992188,30.81999969482422,-0.0,-0.0,-1.5707972589012782
2942851653,1809,vehicle,178.76988220214844,198.75997924804688,8.278964742184452e-06,-1.7638572362704607e-11,-2.130528745073974e-06
3949181016,1809,vehicle,88.6192626953125,103.38020324707031,1.7536340104688048e-11,-6.58478384138993e-05,1.5707965931110055
3672416715,1809,vehicle,392.4700012207031,308.2099914550781,-1.0425174450881749e-12,1.3048621667617608e-06,1.5707971257432236
3325384226,1809,vehicle,299.1291809082031,55.8469123840332,-0.023434964747678436,-3.001973265687445e-06,-3.1414645555413605
1359910869,1809,vehicle,110.4501724243164,2.02164626121521,0.6128685720122078,-0.0004348095175264048,-0.0007094660493785277
2262630317,1809,vehicle,48.14873504638672,330.4599914550781,3.0541124037342016,-0.00043270711778816334,-0.00014168015373757016
805172996,1809,vehicle,178.9515838623047,195.4024200439453,-0.46266243961146963,-0.007942937927701918,-3.12442644983536
1986857511,1809,vehicle,-2.4592490196228027,120.02281951904297,-1.2096317176503434e-06,0.0017680378450933136,1.5714804928789379
1279946346,1809,vehicle,48.19739532470703,2.0462961196899414,-0.5389691767405741,-0.0009383578224563728,0.0017410214068790987
74618890,1809,vehicle,217.51019287109375,198.76068115234375,0.00014021027891144606,-8.961662133757794e-10,-6.391587124147838e-06
3085549129,1809,vehicle,392.4703369140625,19.919851303100586,-1.0236957986412672e-11,1.0982606909233032e-05,1.5707972589012782
2057201815,1809,vehicle,105.22998809814453,198.49993896484375,1.1536456440806446e-05,6.4548012486851555e-12,5.595133377223817e-07
1015694095,1809,vehicle,60.11096954345703,330.46026611328125,3.2746738725090445e-05,-3.488393408062933e-11,-1.065264372536987e-06
1250507297,1809,vehicle,316.8496398925781,-1.9608811140060425,4.359518061302961e-05,-2.7864237293627713e-10,3.141586262003177
4280502996,1809,vehicle,-1.2801098823547363,309.4582824707031,2.236897657850133e-09,0.00025072859715603835,1.5707874052052448
3428459672,1809,vehicle,14.141313552856445,2.020115852355957,8.48249546829936e-05,-2.710830440800458e-10,-3.195793562073919e-06
414519966,1809,vehicle,320.8700256347656,327.05218505859375,9.107300138512062e-05,-3.15304695735881e-10,3.141589191480376
2866945113,1809,vehicle,232.19900512695312,330.4578552246094,0.00019605623674441312,7.34680632427013e-10,3.7472953914816475e-06
1853482628,1809,vehicle,1.5608843564987183,79.32007598876953,-4.906619417815686e-09,-0.0001096669219617192,-1.57084106790121
3880166169,1809,vehicle,335.4981689453125,248.64108276367188,-0.0008597521631406649,-0.6344953910978226,1.5694413104322642
1073352953,1809,vehicle,396.4464111328125,19.91997528076172,0.0,-0.0,-1.5707896688921714
213556023,1809,vehicle,262.6000671386719,327.0500183105469,-7.975491825971165e-06,4.0356037060215204e-11,3.141587593583722
1628590046,1809,vehicle,1.5602974891662598,187.96981811523438,2.780313826710485e-10,3.7963276553346605e-05,-1.5708036504878944
4120465129,1809,vehicle,299.3999938964844,133.2400360107422,1.530023155279361e-06,-3.2597583129563913e-12,-2.130528745073974e-06
1015227284,1809,vehicle,299.1291809082031,129.75697326660156,-0.02343492749477576,-3.001968493663287e-06,-3.1414645555413605
2900396540,1809,vehicle,209.15977478027344,-1.9616034030914307,-0.6136384588510698,0.000385348670850113,3.1409646802047524
3587539486,1809,vehicle,383.3373718261719,330.53997802734375,3.0541114500598945,-0.00043270698267144003,-0.00014168015373757016
1146849989,1809,vehicle,216.0886993408203,133.10757446289062,0.46260367949866654,0.007936636770707193,0.017154766725907624
1457681385,1809,vehicle,395.98162841796875,212.89727783203125,-2.2195486014761908e-07,-0.0017219552394379777,-1.5709252237916564
1726747598,1809,vehicle,119.21223449707031,129.7238311767578,0.5335761425139205,0.0009024774660576206,-3.139901279981484
367118466,1809,vehicle,392.46923828125,164.17022705078125,3.7698642744765856e-10,0.00016653646889565685,1.57079406310797
2065705843,1809,vehicle,157.18997192382812,133.23989868164062,2.0171200958404086e-05,-3.223149451958191e-11,-1.597896654047543e-06
3978545900,1809,vehicle,334.83050537109375,217.07981872558594,-3.4878420951340376e-12,1.309662457060721e-05,1.5707965931110055
714679325,1809,vehicle,278.8109436035156,2.020343542098999,3.979037137467019e-05,-4.238726499546777e-11,-1.065264372536987e-06
3262285446,1809,vehicle,202.5496368408203,55.83910369873047,4.324272231276006e-05,-1.8425973678804594e-10,3.141588392532049
1401880247,1809,vehicle,217.51173400878906,195.26968383789062,-0.00015077783606732802,3.0115924973481267e-09,3.1415726798816177
2250339631,1809,vehicle,237.69876098632812,129.74989318847656,-8.90500741644821e-05,5.454557929659614e-10,3.141586528319286
2525145270,1809,vehicle,92.10761260986328,227.22003173828125,4.306281194112725e-10,9.239892096856843e-05,-1.5708009873268043
1825059061,1809,vehicle,244.09901428222656,2.0179338455200195,0.00019807893840922703,7.421626455022286e-10,3.7468024185663944e-06
346279610,1809,vehicle,121.22994995117188,195.00852966308594,-0.00011535120574754669,7.372772228164758e-10,3.141586262003177
893025708,1809,vehicle,395.9518127441406,308.9989013671875,0.0008008693957574793,0.6344998192952802,-1.5720585319935396
1724402154,1809,vehicle,88.6216812133789,212.89993286132812,-7.075024113979818e-10,0.00015180722402709514,1.5708009873268043
2595182244,1809,vehicle,142.91990661621094,198.75997924804688,8.278962923195049e-06,-1.7638568487295398e-11,-2.130528745073974e-06
874453657,1809,vehicle,392.4690856933594,68.8602294921875,9.678175288944131e-12,-3.6340930819277295e-05,1.5707965931110055
1498616609,1809,vehicle,92.1099853515625,113.05999755859375,-8.494510138143956e-12,-1.449833803210494e-06,-1.5708021857492949
505512523,1809,vehicle,129.2209014892578,133.23304748535156,0.023437477586178822,1.7058629515711003e-06,7.278355540976883e-05
3709073522,1809,vehicle,298.9797668457031,195.56825256347656,-0.6136380421312171,0.00038453130036102134,3.1409660117852973
27029540,1809,vehicle,1.5095878839492798,247.4388885498047,-0.0006489127478699445,-3.047687223015836,-1.5710092465240484
1375770528,1809,vehicle,366.72161865234375,327.1824035644531,-0.46266211394953816,-0.00794280908608441,-3.1244267161514694
4266869573,1809,vehicle,47.93722152709961,-1.9484858512878418,-0.001761496259578683,1.3351010615042805e-06,3.1408347179435565
368528135,1809,vehicle,65.09219360351562,326.94384765625,0.5335719706753632,0.000902186211478353,-3.1399018126137017
4012051816,1809,vehicle,338.9806823730469,249.4297637939453,-1.495309549693212e-09,-0.00016514094021891334,-1.5708053815426029
3938307140,1809,vehicle,92.10984802246094,308.2101745605469,-7.399452307639504e-11,-1.4248446859518252e-05,-1.5708015199590222
1966079641,1809,vehicle,-1.9799762964248657,249.42982482910156,-4.2249258358641856e-12,1.5864326996961046e-05,1.5707965931110055
1759883367,1809,vehicle,-2.420337200164795,149.8309783935547,1.955211229300934e-10,3.2629748602044776e-05,1.570790334682444
3487645883,1809,vehicle,216.26963806152344,129.74911499023438,4.351370444016144e-05,-1.854144072805304e-10,3.141588392532049
544848518,1809,vehicle,92.1102523803711,86.96167755126953,-5.096427137768197e-09,-0.0002469259197297765,-1.5708169662933447
1325658571,1809,vehicle,157.1887664794922,129.74989318847656,-7.623813144021141e-05,4.669791780538441e-10,3.141586528319286
921579549,1809,vehicle,141.1300506591797,55.84217071533203,0.00011871493916188932,-4.110041088187812e-10,3.141589191480376
4072577581,1809,vehicle,142.92076110839844,326.97210693359375,-0.00020127545576524773,-2.6801448109549333e-10,-3.141591322009248
94066344,1809,vehicle,237.69998168945312,133.24154663085938,0.00011559371341638017,-4.309825224032243e-10,-3.7284252721321002e-06
2853390219,1809,vehicle,261.8110656738281,330.5318298339844,-0.634497576022028,0.0008303530865333473,-0.0013086773596649377
2524564450,1809,vehicle,1.5587387084960938,149.82992553710938,6.173858089127127e-09,-7.144050296727262e-05,-1.5707099072175235
1882516347,1809,vehicle,21.770009994506836,-1.9599941968917847,-9.729808880075275e-06,7.514494043154666e-11,3.1415849304226318
815178544,1809,vehicle,142.92019653320312,330.46087646484375,-4.294355676387542e-05,6.861937111933288e-11,-1.5978967810369595e-06
2188308515,1809,vehicle,92.10997772216797,249.42999267578125,-6.6038789861046915e-12,-1.127142922977081e-06,-1.5708021857492949
1160083145,1809,vehicle,392.4767150878906,249.69895935058594,-1.9540821337689674e-06,0.018435813383015774,1.5709023206062818
1832698586,1809,vehicle,231.77975463867188,326.96826171875,-0.6136384593636486,0.00038453156181633935,3.1409660117852973
3748346955,1809,vehicle,64.12875366210938,2.0197486877441406,3.0541124037342016,-0.00043270711778816334,-0.00014168015373757016
3198444053,1809,vehicle,200.13157653808594,327.1024169921875,-0.46266211183422373,-0.007942932300458175,-3.12442644983536
808811405,1809,vehicle,339.00164794921875,226.74728393554688,-2.210181064729243e-07,-0.00171468778020266,-1.5709252237916564
84250811,1809,vehicle,191.57737731933594,133.2662353515625,-0.5389637529137763,-0.0009382405879037607,0.0017408214097230175
3956289865,1809,vehicle,88.61927795410156,295.3202209472656,4.087640388485223e-10,0.00013953480811264098,1.5707933973176975
1912328786,1809,vehicle,378.18011474609375,-1.9598608016967773,-1.4057579391814473e-05,8.985023629663731e-11,3.141586262003177
4030311199,1809,vehicle,338.9794921875,301.2601623535156,-7.913261515548955e-11,-1.3506269169506699e-05,-1.5708021857492949
3147513812,1809,vehicle,392.46966552734375,105.39098358154297,-5.6137952675190375e-11,3.5132405173454285e-05,1.5707979246915507
1663586846,1809,vehicle,199.95033264160156,330.4609680175781,-4.3446965719284905e-05,6.942376666872756e-11,-1.5978967810369595e-06
