id,timestamp_ms,agent_type,x,y,vx,vy,psi_rad
-1,43349,vehicle,392.2198791503906,306.496337890625,1.780113216378359e-11,-8.313695852128211e-08,1.571010444946539
2985032057,43349,vehicle,-2.2877137660980225,46.97349548339844,0.010983567148141042,12.082197918960706,1.569887256756798
3028941286,43349,vehicle,396.87054443359375,119.04087829589844,-0.001261120152571478,-4.997810681494618,-1.5710486613081815
2920337868,43349,vehicle,392.0353088378906,314.20721435546875,3.0032088725138606e-11,7.634974372711952e-08,1.570402977901892
1503980471,43349,vehicle,116.47310638427734,2.032811164855957,-8.122946763570854e-07,1.1742246292267282e-09,-0.0014455638396950105
2125414330,43349,vehicle,358.60247802734375,-1.6013845205307007,9.572789686790408e-07,-9.49647379419035e-10,3.1406006260837387
2396446624,43349,vehicle,141.33572387695312,327.0087585449219,2.5670415571270173e-07,-3.0722999359952616e-10,3.1403958289959117
4076155829,43349,vehicle,44.88008117675781,-1.9590767621994019,-5.652658458367773,0.00021677673699749644,3.141554304070096
130361148,43349,vehicle,92.38613891601562,226.82598876953125,-1.1081457193902782e-10,-1.8613357154274933e-07,-1.5713916764565838
3417340120,43349,vehicle,298.9864501953125,330.5025329589844,3.357820023223721,-0.0025450119765894476,-0.0007579356462365512
2197730220,43349,vehicle,154.2292022705078,22.673349380493164,-0.000996565498323673,5.564371496604711,1.5709754243782044
118743835,43349,vehicle,334.71221923828125,108.75579071044922,2.604532251774992e-09,1.242199685125548e-06,1.5686996200686771
904053063,43349,vehicle,177.52688598632812,55.82504653930664,-3.1608093892945845,0.0008981733707257541,3.1413084943014815
1291681130,43349,vehicle,113.09465789794922,195.61886596679688,-1.3688351676335993e-08,-5.336569901883068e-11,-3.1376940520700263
715062232,43349,vehicle,338.9866638183594,22.499813079833984,-4.491075954381479e-11,1.897779903829361e-08,-1.5684298418502522
220877689,43349,vehicle,92.90695190429688,91.65375518798828,1.0863149632460923e-07,0.00019634382529891035,-1.5713495985113606
2069714320,43349,vehicle,80.02555847167969,330.9039306640625,7.618414764691471,-0.7906823063291445,-0.10341542204152303
3190467641,43349,vehicle,56.044158935546875,-1.9501135349273682,-4.433967588288567,-0.00013461541753691375,-3.1415622935533665
708315452,43349,vehicle,88.3384780883789,168.59169006347656,-0.005695537163217805,3.824798873305822,1.5722854333184144
1314594676,43349,vehicle,117.96622467041016,199.0172882080078,4.764924045114985,0.0002015454242454092,4.229772021903254e-05
2302084468,43349,vehicle,396.75042724609375,284.5137634277344,0.021444036391316378,-17.70080221137946,-1.5695848548150195
757051778,43349,vehicle,334.7028503417969,297.8030090332031,1.9382730589505322e-11,9.489037268931968e-08,1.5705920623392875
4203008516,43349,vehicle,112.88423919677734,55.693016052246094,1.1331585871536566e-09,2.6927736053553334e-12,-3.1392163149491155
2631691725,43349,vehicle,334.72576904296875,304.8206481933594,1.1064289783050097e-13,-2.9360920340806868e-09,1.5708340105243213
1513387753,43349,vehicle,339.01324462890625,29.555875778198242,7.760714851558486e-09,-2.47544119175019e-06,-1.5676612535596552
156273220,43349,vehicle,92.51497650146484,79.63347625732422,-0.0031058357604313307,-2.68467079753498,-1.571953203972427
3812119762,43349,vehicle,110.74478149414062,2.0930917263031006,-2.784804295486828e-06,5.5341107777904585e-09,-0.0019872504153056396
3616050434,43349,vehicle,190.74002075195312,326.3993835449219,-6.04566955439293,-0.0001239745578085966,-3.1415721472493994
2942158310,43349,vehicle,118.30229949951172,59.33299255371094,5.562551778778527,-0.001478434386400268,-0.00026578347678990797
3608800298,43349,vehicle,298.167236328125,133.19715881347656,-0.001572955953867587,2.96583636945612e-07,-0.00018855177266831943
1146464971,43349,vehicle,60.19769287109375,2.5480518341064453,-2.47627890870525e-07,2.1050380464567705e-10,-0.0008500809549347115
3013099654,43349,vehicle,-2.3432748317718506,211.46380615234375,0.0003485122974776144,4.504789815772853,1.5707189619652298
2246582517,43349,vehicle,126.44489288330078,133.35655212402344,2.172020642453996,-0.002068516536325969,-0.0009523463407937543
3192940987,43349,vehicle,338.8669738769531,219.4620819091797,1.4442275443801255e-07,7.08376302338227e-05,-1.5728351097674067
828836647,43349,vehicle,289.4299621582031,330.7931213378906,3.94155285550706,-0.00041568074936390505,-0.00010546116291249251
1702089089,43349,vehicle,371.66522216796875,-2.4273266792297363,-1.9544823508291496,-0.002873218013844594,-3.1401225886680693
2111029583,43349,vehicle,92.0167007446289,298.8769226074219,-0.005745722813801426,-6.8027171665673265,-1.5716409483346152
420096522,43349,vehicle,88.30626678466797,205.6473388671875,0.06632206557517555,5.969886985968918,1.5596873497817945
510102133,43349,vehicle,293.3524169921875,1.8494184017181396,2.968158268459582,0.005172282496956412,0.0017425880946141219
4109025732,43349,vehicle,299.25164794921875,1.2331163883209229,0.0018882984002400079,-0.0006992271890331792,-0.3546392473491565
2913592560,43349,vehicle,308.909423828125,1.6722666025161743,0.5437614425644922,0.0009117980469782448,0.001676833112861547
3970347779,43349,vehicle,157.56466674804688,29.853328704833984,-0.0013268765354530277,-0.028033723841081166,-1.6180924698580499
1933996401,43349,vehicle,337.9419860839844,1.0782983303070068,4.326306703787229e-05,-3.938140663657468e-05,2.4031281770311383
3047764241,43349,vehicle,53.26544952392578,2.046076774597168,3.74804611324844e-08,1.6925008245526784e-11,0.0004515688063517519
1260711767,43349,vehicle,299.9256896972656,55.68163299560547,-5.4303598395286095,-9.689488430976354e-05,-3.1415748104104897
3957993155,43349,vehicle,335.0718994140625,33.63330078125,3.5750158281733846e-10,-5.109021571779494e-07,1.571496072371315
4289594148,43349,vehicle,-2.3963162899017334,219.25592041015625,0.0006600080721728342,4.2363900624176125,1.570640531871127
4139896837,43349,vehicle,112.17839813232422,129.49009704589844,-9.660986085449732e-08,1.3273476788794839e-10,3.140218728783421
1686932955,43349,vehicle,112.75767517089844,-1.9680291414260864,0.0009309731605309672,-2.6519001417813845e-06,3.1387441364878446
1726501337,43349,vehicle,335.2337341308594,5.900759696960449,-0.0006319894880117021,0.002773868072855581,1.7948093203094022
1682591593,43349,vehicle,313.8246154785156,330.4513854980469,-0.0012635697768732558,1.6509140268651607e-06,-0.0013065468307928742
3380823586,43349,vehicle,368.77252197265625,326.3265380859375,-1.663842627394103e-08,5.3656145165246165e-11,3.1383678318258164
4176583038,43349,vehicle,302.4993591308594,1.9665971994400024,-6.054533104227068e-08,3.1829159901074435e-11,-0.000525707869144479
3855978784,43349,vehicle,338.6291809082031,288.66864013671875,-0.0016289238234914259,-5.9297187475156266,-1.5710710318613383
1042098875,43349,vehicle,68.00167083740234,-1.9631999731063843,-6.1792830698915795,-0.0009445988733220105,-3.1414397881432228
644930681,43349,vehicle,88.3481216430664,216.520751953125,-0.0018051108085927411,5.574075406568643,1.5711201671834503
2234188147,43349,vehicle,335.1517639160156,26.420446395874023,-4.212111247315252e-10,2.3541254966087511e-07,1.5725855715732664
4109707537,43349,vehicle,2.5945472717285156,149.88949584960938,-0.0012517259796331456,-11.562487534479525,-1.5709045842932083
3675841917,43349,vehicle,183.6688690185547,55.83295440673828,-1.7417243540267953,-0.009965446092993631,-3.135871118303867
2817926641,43349,vehicle,92.71221160888672,28.048620223999023,0.0008245591870823024,-0.00747193446391284,-1.4608868696589994
4029506115,43349,vehicle,-2.5232229232788086,204.980224609375,0.0003363401049723063,2.593296982888733,1.5706666308498098
3277167701,43349,vehicle,130.7943572998047,59.38652801513672,4.743340384594788,-0.001010582379230974,-0.00021305288720633905
518241310,43349,vehicle,-2.639162302017212,179.99012756347656,0.005885090148578777,3.963788670488209,1.5693116144871775
778540568,43349,vehicle,338.9315185546875,42.95614242553711,-6.4269300860864535e-09,2.1093482538572078e-07,-1.5403369544593333
657465635,43349,vehicle,20.294485092163086,2.0589969158172607,-8.180021283047444e-06,5.3238236717987735e-08,-0.006508233071935642
835227171,43349,vehicle,157.7899627685547,23.67967414855957,-1.0063285778633844e-11,-6.09959576761478e-08,-1.570961309624427
715280319,43349,vehicle,92.39908599853516,161.5304412841797,-3.6096158497452665e-10,-6.223083436426652e-07,-1.571376363280316
3020211281,43349,vehicle,299.6167297363281,59.593441009521484,5.840140719800903,-0.001079394462835114,-0.00018482336339685382
2101598167,43349,vehicle,141.6304931640625,-2.02392578125,-5.922973774067505,-0.0019938126035028824,-3.141256030028007
14974470,43349,vehicle,338.9898681640625,36.57738494873047,1.1018632007102553e-08,-2.3281068756825153e-06,-1.5660634900636623
1398818972,43349,vehicle,268.237060546875,133.6408233642578,5.6145475675005,-0.001348710530681125,-0.00024021713032514727
2694688339,43349,vehicle,2.2836673259735107,168.7177734375,-0.002285098048167615,-8.346689865118451,-1.5710700997549567
3916750283,43349,vehicle,116.79842376708984,326.9374694824219,-2.077221037390814e-07,9.9122666834137e-10,3.136820801548589
1983197581,43349,vehicle,-2.166501522064209,89.09043884277344,-0.007249785007367338,20.584105168614276,1.5711485298490595
2942851653,43349,vehicle,338.80438232421875,114.48027801513672,-0.0034405402315820714,-5.8233074514910355,-1.5713871490827307
3949181016,43349,vehicle,88.34375,174.85885620117188,6.002583118921263e-05,-0.022513372896142386,1.5734625505202293
3672416715,43349,vehicle,338.85546875,226.3059844970703,-7.254170978679617e-07,0.0005585754934865776,-1.5694976362893194
3325384226,43349,vehicle,190.0074005126953,55.84157943725586,-0.9458111719937293,0.0002753100408170477,3.1413015700826477
1359910869,43349,vehicle,289.5334777832031,59.60651397705078,5.417513741198051,-0.002513307575960259,-0.00046392266189180327
2262630317,43349,vehicle,142.64993286132812,330.6351623535156,11.927967808358575,-0.0022744525758484676,-0.00019068231779502813
805172996,43349,vehicle,92.11359405517578,167.51565551757812,-3.692797683158293e-05,-0.01176096196317991,-1.5739361937201
1986857511,43349,vehicle,-2.4787755012512207,230.66603088378906,0.001072320943657718,11.092277475023364,1.5706996540473268
1279946346,43349,vehicle,130.2342987060547,2.914935827255249,0.0026791807467268754,3.448758359077058e-05,0.01287172541922008
74618890,43349,vehicle,334.70416259765625,291.78424072265625,-5.500799455289402e-11,-6.555108279638097e-08,1.5699571647354127
3085549129,43349,vehicle,391.97674560546875,320.9991455078125,-1.8362315008664792e-09,6.79820348138292e-09,1.8346064012170558
2057201815,43349,vehicle,306.45654296875,198.97398376464844,-5.272810771904007e-09,6.378035289231814e-12,-0.0012096076370768274
1015694095,43349,vehicle,180.058349609375,330.64593505859375,20.448717110392373,0.0005318792910578104,2.6010398993076906e-05
1250507297,43349,vehicle,154.84657287597656,4.003574848175049,-2.501706019691586,5.505868683763254,1.9972790716598754
4280502996,43349,vehicle,92.20884704589844,316.2042236328125,0.056468811513744284,-5.6426145785855955,-1.5607890995247604
3428459672,43349,vehicle,66.85588836669922,2.0130608081817627,5.11134945829517e-07,-4.1327094482799925e-10,-0.0008085357069480567
414519966,43349,vehicle,148.38682556152344,327.0663146972656,-5.609462427657542e-06,-1.849436143724416e-09,-3.1412629542468413
2866945113,43349,vehicle,338.67431640625,322.1099548339844,1.5684526199898066,-7.856828136524544,-1.373757293539313
1853482628,43349,vehicle,46.39568328857422,2.5198090076446533,-1.8236472479507792e-07,4.457456817813411e-10,-0.0024442489884003997
3880166169,43349,vehicle,208.79444885253906,326.41986083984375,-5.551513671873228,4.435372561430638e-06,3.141591854641466
1073352953,43349,vehicle,335.1936340332031,12.533079147338867,9.283147098902498e-09,-4.893634666643727e-07,1.589763892710659
213556023,43349,vehicle,134.5973358154297,327.0172119140625,-6.869799998599343e-08,1.2508567900289996e-10,3.139771850352506
1628590046,43349,vehicle,33.744266510009766,2.3478176593780518,6.352610163854515e-08,1.2392059543873157e-10,0.0019507011300875542
4120465129,43349,vehicle,286.1275634765625,55.67800521850586,-5.535457604510122,-0.00026977522035248695,-3.1415439177418447
1015227284,43349,vehicle,117.51376342773438,129.75149536132812,-0.0,0.0,3.141485061881754
2900396540,43349,vehicle,118.75064849853516,-1.9634243249893188,-2.433225675502178,-0.0023639309883144695,-3.1406211324241324
3587539486,43349,vehicle,396.5947265625,105.24746704101562,-0.0021529338071009743,-7.8145276918628825,-1.5710718308096654
1146849989,43349,vehicle,334.0469970703125,168.25372314453125,0.0015602875748705414,0.012848116001600615,1.449947136533172
1457681385,43349,vehicle,363.88482666015625,-2.6965620517730713,0.015530994294034883,-2.3356879073840815e-05,3.1400887665222252
1726747598,43349,vehicle,91.88540649414062,85.53837585449219,-0.09142210588658949,-0.8575841621743094,-1.6769994626417306
367118466,43349,vehicle,375.0947570800781,326.35400390625,9.265113415655576e-08,-6.789307315699292e-10,3.13426496585044
2065705843,43349,vehicle,311.215087890625,133.19998168945312,1.8733064372605062e-08,9.244163978450696e-12,0.0004934677554206829
3978545900,43349,vehicle,396.87298583984375,202.06251525878906,-0.0055676268890810544,-22.11114050386452,-1.5710481286759637
714679325,43349,vehicle,392.1413269042969,295.25592041015625,0.002274987282429522,5.279623971982278,1.5703654273305219
3262285446,43349,vehicle,88.34111022949219,148.22836303710938,0.0005397898161847697,5.725639317817133,1.5707020508923077
1401880247,43349,vehicle,92.49676513671875,174.20469665527344,7.939824805033725e-11,8.433812396971909e-08,-1.5717377542402395
2250339631,43349,vehicle,92.39317321777344,111.54768371582031,4.320881400956021e-11,1.5277432751793337e-07,-1.571079154502663
2525145270,43349,vehicle,92.49928283691406,154.58193969726562,-2.3883851265387525e-08,2.8135628648604294e-05,-1.569947444197434
1825059061,43349,vehicle,315.3246154785156,2.0117013454437256,3.163441477650509,-0.0010682587771745427,-0.00033768879371275676
346279610,43349,vehicle,88.17655181884766,305.6376037597656,-1.1372760454177377e-09,-4.018431916631261e-07,1.5679661855044693
893025708,43349,vehicle,395.86541748046875,94.0889663696289,-0.0018697040428203773,-5.821408925210685,-1.5711175040223602
1724402154,43349,vehicle,2.3807568550109863,277.29205322265625,0.024383146905532536,-14.756560207931056,-1.569143968496557
2595182244,43349,vehicle,313.6766662597656,198.77235412597656,5.631672382456953e-08,-1.3927216864003815e-10,-0.002473011128173255
874453657,43349,vehicle,388.6775817871094,324.7012939453125,-7.375210581904963e-07,4.459533778376439e-07,2.597749858965257
1498616609,43349,vehicle,-1.380432367324829,4.950829982757568,-2.986528140696799,4.428885388524649,2.164085234430607
505512523,43349,vehicle,305.5626525878906,133.20281982421875,-0.4440474208527982,-1.7983726181900515e-05,4.049956227091731e-05
3709073522,43349,vehicle,118.92913055419922,195.56097412109375,-0.017406499835170276,-1.5190967651507235e-05,-3.140719935700574
27029540,43349,vehicle,27.7753849029541,2.6955957412719727,0.003578446926555905,7.584193713435999e-05,0.021190920515977214
1375770528,43349,vehicle,337.0391845703125,198.71192932128906,-3.3441648692693233,-4.546834499941524,-2.2049481124065102
4266869573,43349,vehicle,-1.404500961303711,188.24220275878906,0.003005681015448975,4.691805830458062,1.570155703394678
368528135,43349,vehicle,2.1076712608337402,181.7825927734375,0.05242346581348217,-4.313717359991788,-1.5586441895828105
4012051816,43349,vehicle,338.7987365722656,175.89984130859375,-0.0019550214815005325,-6.71022005211648,-1.5710876766181512
3938307140,43349,vehicle,92.14663696289062,219.810791015625,1.3371288177776756e-10,-2.4231575531560994e-08,-1.5652782570162525
1966079641,43349,vehicle,92.90641021728516,330.88397216796875,7.717811002160403,-0.18473972173338357,-0.02393223290048267
1759883367,43349,vehicle,65.08695983886719,331.1674499511719,-0.01945015899068888,1.3198363432521013e-05,-0.0006785734457521898
3487645883,43349,vehicle,92.42707824707031,105.2142333984375,1.9980326009475392e-11,-1.9195298055118664e-08,-1.5697554302828391
544848518,43349,vehicle,122.98883819580078,2.0957274436950684,-7.40208300766772e-06,-2.1758922251178682e-08,0.0029395589803036582
1325658571,43349,vehicle,92.39752960205078,98.92157745361328,-5.247257991835691e-12,5.1310205593603274e-08,-1.5706940614090374
921579549,43349,vehicle,92.28506469726562,22.447364807128906,2.2587763650557193e-07,6.680473246595457e-05,-1.5741774761148613
4072577581,43349,vehicle,92.38365936279297,233.42498779296875,-5.00384759557788e-11,-8.595208775905148e-08,-1.571378493809188
94066344,43349,vehicle,334.482177734375,173.806396484375,8.338547172949635e-12,7.189601043894574e-08,1.5706803461294236
2853390219,43349,vehicle,352.85791015625,330.6513977050781,5.571240840521907,-0.0040772390587696375,-0.0007318366675537747
2524564450,43349,vehicle,39.81764221191406,2.0300536155700684,7.398634173518507e-08,-9.777006824512306e-11,-0.0013214602728229927
1882516347,43349,vehicle,-2.138070821762085,195.76730346679688,0.0002685592961000461,4.149888983619688,1.5707316119804076
815178544,43349,vehicle,307.1340637207031,330.3814697265625,-0.050786942980474266,-7.97359511509292e-05,0.0015700075837843939
2188308515,43349,vehicle,284.6239318847656,199.1915740966797,6.1152947399322235,-0.002863081448399582,-0.00046818368712663944
1160083145,43349,vehicle,363.4280700683594,326.55877685546875,0.5205577169351256,-0.0005969535535684659,3.140445896424405
1832698586,43349,vehicle,127.3373794555664,326.96343994140625,-0.0013251482184144117,-6.246876399611305e-06,-3.136878592144244
3748346955,43349,vehicle,136.4856719970703,1.918182134628296,-0.9612058772407549,0.00020785949027204984,-0.00021624866425978882
3198444053,43349,vehicle,121.60111236572266,327.36529541015625,-0.008787918679375803,0.0023722782514094976,2.8779295856598064
808811405,43349,vehicle,301.7004699707031,195.30758666992188,-5.834937567698583,-0.0002361985562681728,-3.141552173541224
84250811,43349,vehicle,338.8038330078125,48.35426330566406,0.0003177574413911645,0.007909016540695746,-1.6109513365530568
3956289865,43349,vehicle,2.4499459266662598,215.69601440429688,-0.0048441767013256976,-14.396180291557888,-1.571132817198628
1912328786,43349,vehicle,335.1353759765625,19.40218734741211,-3.383669375486093e-12,1.3863024981359784e-08,1.5710404055088023
4030311199,43349,vehicle,338.8190612792969,188.1505889892578,-0.03487299987225933,-5.512161092364093,-1.5771227991224344
3147513812,43349,vehicle,382.0475769042969,326.14154052734375,3.789906379720241e-07,-4.490634088005392e-08,3.023653233135089
1663586846,43349,vehicle,330.8334655761719,330.0119934082031,6.340742968083126,-0.4026428097850047,-0.06341574115394165
