id,timestamp_ms,agent_type,x,y,vx,vy,psi_rad
-1,8576,vehicle,389.92779541015625,5.571437358856201,3.442391144287684,4.749546236017812,0.9436302790386697
2985032057,8576,vehicle,92.10367584228516,28.704078674316406,5.036126488415252e-10,-6.2513499667108275e-06,-1.5707157661719218
3028941286,8576,vehicle,392.3478088378906,328.11474609375,6.263654237582894,-3.352381193996472,-0.4914186017243809
2920337868,8576,vehicle,392.0111999511719,26.449420928955078,0.0057189732636981645,5.667556738290875,1.5697872550578655
1503980471,8576,vehicle,92.109130859375,65.21361541748047,0.022076064492714938,-5.684081123124866,-1.5669125058191795
2125414330,8576,vehicle,395.95721435546875,99.80342864990234,-0.005278851489446413,-18.63822290051417,-1.5710795539768265
2396446624,8576,vehicle,265.745849609375,327.0414123535156,-5.909425735352926,3.7770606439403244e-05,3.141586262003177
4076155829,8576,vehicle,112.6908187866211,-1.9541038274765015,4.570540049161014e-06,7.66841325627987e-10,-3.1414248744411184
130361148,8576,vehicle,92.67776489257812,317.135498046875,-0.9078143372415978,-6.604630343617317,-1.7073915901597694
3417340120,8576,vehicle,148.88217163085938,330.4792785644531,5.923119822866363,0.0015352046479686144,0.000259188512051409
2197730220,8576,vehicle,228.94493103027344,-1.9488341808319092,-4.302350520818512,4.81229805146171e-05,3.141581468313215
118743835,8576,vehicle,306.7825622558594,59.334320068359375,0.0037381253186850095,-5.752136375410892e-06,-0.0015387744778477838
904053063,8576,vehicle,198.6727752685547,55.83027648925781,-6.118906019281566,0.00014991981833422,3.1415681525077646
1291681130,8576,vehicle,222.91722106933594,195.5876922607422,-5.566182609775393,0.00020011915286607815,3.141556700915077
715062232,8576,vehicle,313.6129455566406,59.31529235839844,-8.908799434091979e-07,-3.3270569670449823e-09,0.00373455651825327
220877689,8576,vehicle,121.40186309814453,129.75650024414062,-0.006652890570088649,1.3376878253894421e-06,3.1413915849274923
2069714320,8576,vehicle,-2.412808418273926,218.3443145751953,0.01269514124975431,6.895117039958571,1.5689551503752703
3190467641,8576,vehicle,118.22307586669922,-1.9784597158432007,-0.001367150369890582,-1.0775225881278953e-05,-3.133711294659813
708315452,8576,vehicle,88.76045989990234,99.36849212646484,5.768380425740555e-05,1.0617598279542424,1.570741998308659
1314594676,8576,vehicle,88.64353942871094,172.68853759765625,1.6937668463213782e-07,0.0016455333592743768,1.570693395618765
2302084468,8576,vehicle,312.663330078125,330.7873229980469,-0.007386844589082894,0.00032881222546972985,-0.04448385327440795
757051778,8576,vehicle,289.15496826171875,199.05995178222656,5.755668142659319,-0.00048743898633621364,-8.468851453719711e-05
4203008516,8576,vehicle,153.7655029296875,31.26254653930664,2.0021787808242877e-09,-4.146747386169628e-06,1.5712791579005279
2631691725,8576,vehicle,312.3171081542969,199.05612182617188,-2.6684565112663807e-06,6.71426328955303e-09,-0.0025161545979068643
1513387753,8576,vehicle,269.7491455078125,59.3302001953125,6.083799745610178,-0.0010661006425846436,-0.00017523598347256856
156273220,8576,vehicle,92.41670989990234,126.04425811767578,0.10510532918000504,-5.533116653933562,-1.5518029282165604
3812119762,8576,vehicle,110.91465759277344,55.83747863769531,-5.890750800145678e-07,6.123035756341632e-10,3.1405532218163352
3616050434,8576,vehicle,335.4158935546875,308.00689697265625,1.0206732747867304e-10,-2.106382376588916e-07,1.5712808889552365
2942158310,8576,vehicle,88.61678314208984,25.917160034179688,6.732905072734596e-09,3.4537744139403056e-05,1.5706013834031027
3608800298,8576,vehicle,143.57276916503906,133.2343292236328,5.241629556620954,-0.0006784220447398572,-0.00012942960459588299
1146464971,8576,vehicle,20.556108474731445,2.546715021133423,5.497217581158539,-0.02602128476726516,-0.0047335020013581875
3013099654,8576,vehicle,-2.4074912071228027,63.85499954223633,0.00046347003014163323,4.302349542449707,1.5706886019288029
2246582517,8576,vehicle,88.6150894165039,105.10009765625,-3.129008984324173e-10,-2.2947712991886285e-06,1.5706599729470845
3192940987,8576,vehicle,351.92608642578125,327.0483093261719,-5.959645548055054,-0.0015442966084271766,-3.1413335280157284
828836647,8576,vehicle,88.64067077636719,282.8626708984375,0.0007337696594696559,5.566178273473245,1.5706645003209376
1702089089,8576,vehicle,395.9796447753906,208.2333221435547,0.0028321621567410356,-4.111574151213573,-1.5701075001789475
2111029583,8576,vehicle,54.28153991699219,330.4449157714844,3.442805619868048,-0.0010067283359297182,-0.0002924150876907004
420096522,8576,vehicle,162.85333251953125,129.74314880371094,-5.989978016942582,0.0038700227895179947,3.14094657070934
510102133,8576,vehicle,158.2308807373047,25.23391342163086,-3.801206213889574e-05,0.0015933032360129907,-1.5469434581754928
4109025732,8576,vehicle,156.78965759277344,2.062448740005493,5.965295798586032,-0.06010400573533072,-0.010075271035987774
2913592560,8576,vehicle,224.04898071289062,1.959398627281189,2.1634644569785957,-0.004695755678552594,-0.0021704762884145793
3970347779,8576,vehicle,128.59373474121094,59.52830505371094,-0.005443760558877024,0.00012936041960843548,-0.023758590636220298
1933996401,8576,vehicle,395.9468994140625,47.83320999145508,-0.0042103516117138525,-11.697817998395534,-1.5711562530162209
3047764241,8576,vehicle,1.7659295797348022,11.444841384887695,-0.0019323117984116262,-5.870313326382818,-1.5711254935056305
1260711767,8576,vehicle,304.01959228515625,133.41815185546875,3.2699617105118577,-0.008424558458667936,-0.002576342038542655
3957993155,8576,vehicle,334.8835144042969,13.306957244873047,0.6295344332899936,5.802276866259779,1.462721255017846
4289594148,8576,vehicle,-2.408053159713745,124.38722229003906,-0.017374954724577996,3.944344160709355,1.575201328395942
4139896837,8576,vehicle,234.2620849609375,129.48681640625,-6.03132183940403,-0.0014022459428250605,-3.1413601596266294
1686932955,8576,vehicle,175.89035034179688,-1.962578535079956,-0.0,0.0,3.1410773319188627
1726501337,8576,vehicle,395.9808044433594,21.30792236328125,-0.0021184134962876845,-7.462014374439026,-1.571080219767099
1682591593,8576,vehicle,211.39686584472656,330.4571838378906,6.910723581398322,-0.0012036458197373016,-0.00017417073529118218
3380823586,8576,vehicle,392.43896484375,267.5586242675781,0.009257190913390617,8.445128135560214,1.56970016969022
4176583038,8576,vehicle,188.30526733398438,2.0062520503997803,4.302350909335658,-0.0008730883116845852,-0.0002029328425547473
3855978784,8576,vehicle,305.5691223144531,330.5410461425781,-1.416209455568625e-05,-3.0552645979429617e-09,0.00021573535881506462
1042098875,8576,vehicle,157.8470916748047,32.20794677734375,-1.286543041621309e-09,8.85234380319529e-08,-1.5562639893585521
644930681,8576,vehicle,88.63038635253906,165.76612854003906,2.012459593910592e-07,-7.809674107591964e-05,1.5733732014656572
2234188147,8576,vehicle,358.0129089355469,-1.9549229145050049,-9.922835844959271e-08,-6.566889374605705e-11,-3.1409308580589084
4109707537,8576,vehicle,2.6474215984344482,306.395263671875,-0.05424387835018356,-8.508272827540557,-1.5771716681284373
3675841917,8576,vehicle,243.25379943847656,55.83220672607422,-6.290854584469464,0.003218358994013777,3.141081060344389
2817926641,8576,vehicle,147.3859405517578,55.69612121582031,-5.8732145870486265,0.07893239916853974,3.128154076413144
4029506115,8576,vehicle,-2.2797698974609375,48.99119567871094,-0.003935676036356148,6.556437741635108,1.5713966033046005
3277167701,8576,vehicle,88.64320373535156,33.211612701416016,4.7456355470553806e-07,0.0016303346965815195,1.5705052432877509
518241310,8576,vehicle,42.9197998046875,-2.1700031757354736,-4.679830793745762,-0.012407088202048186,-3.1389414767246193
778540568,8576,vehicle,205.09500122070312,59.330081939697266,5.75571964107222,-0.0004874433476603137,-8.468851453719711e-05
657465635,8576,vehicle,1.7438524961471558,247.6928253173828,-0.007332637796992174,-17.763603604378165,-1.5712091167638589
835227171,8576,vehicle,134.6495819091797,59.32780456542969,-9.436258149529656e-08,-1.9570848099763286e-11,0.00020740051309560257
715280319,8576,vehicle,118.00273895263672,195.2687225341797,0.00018300656510621637,-2.1410435841395027e-07,3.1404227269229215
3020211281,8576,vehicle,153.76817321777344,37.5069694519043,-5.628374943525919e-09,3.4101120881927965e-06,1.5724468208804732
2101598167,8576,vehicle,242.03208923339844,-1.9632385969161987,-6.031141118125955,-0.0014022039262181357,-3.1413601596266294
14974470,8576,vehicle,238.14398193359375,59.33148956298828,5.909421805399799,-0.0011677403916457731,-0.00019760653662923415
1398818972,8576,vehicle,92.12925720214844,144.81985473632812,0.048302609260328755,-5.779027304780161,-1.5624382620297919
2694688339,8576,vehicle,8.037139892578125,326.4827575683594,-6.079870700010995,-1.622984099601303,-2.8807314974426785
3916750283,8576,vehicle,138.58786010742188,326.9443054199219,-5.923117988551804,-0.00267215260190943,-3.141141514101134
1983197581,8576,vehicle,92.12187194824219,21.969289779663086,5.935691295735288e-09,1.075697577043212e-06,-1.5763142634154863
2942851653,8576,vehicle,214.36712646484375,198.7628631591797,6.1188491358330594,-0.0013166747803796065,-0.0002151833998237571
3949181016,8576,vehicle,88.6303482055664,112.13860321044922,2.564746549843766e-10,-9.876359380154359e-08,1.5733931751738328
3672416715,8576,vehicle,371.3023986816406,326.3055114746094,-5.806818983749812,0.006205903955295855,3.1405239270443444
3325384226,8576,vehicle,263.1489562988281,55.84674072265625,-8.513106135314207,-0.00445273662625426,-3.141069608751702
1359910869,8576,vehicle,139.0443572998047,2.0226759910583496,8.506752027976829,-0.00899397919978045,-0.0010572749527614576
2262630317,8576,vehicle,60.98237228393555,330.47906494140625,0.0014828089502102858,1.3218659293555221e-05,0.008914371028795113
805172996,8576,vehicle,148.6556396484375,195.40579223632812,-5.584648223083928,-0.005061221299831514,-3.1406863798708393
1986857511,8576,vehicle,-2.368724822998047,134.48928833007812,0.00448804999586182,2.163465851505385,1.5687218574637793
1279946346,8576,vehicle,79.69771575927734,2.205049753189087,6.05770808773084,-0.005568992809153376,-0.0009193231432767717
74618890,8576,vehicle,250.3149871826172,198.7599334716797,5.755689600331361,-0.00048744080355458865,-8.468851453719711e-05
3085549129,8576,vehicle,392.48480224609375,63.44418716430664,0.0024920454415259773,10.561480228149133,1.5705603707223155
2057201815,8576,vehicle,139.36827087402344,198.9741973876953,5.477445479342207,-0.0011611506634132754,-0.00021198762277030737
1015694095,8576,vehicle,66.94755554199219,330.46124267578125,-7.104921502114791e-08,3.0615075211195244e-11,-0.00043089952939340205
1250507297,8576,vehicle,259.95574951171875,-1.9427947998046875,-9.139910497492124,-0.0045931572771644585,-3.141090115092095
4280502996,8576,vehicle,18.21100616455078,331.2262878417969,5.812819624635329,0.018038802397144782,0.0031032692661608486
3428459672,8576,vehicle,49.552494049072266,2.016427755355835,5.6847061054205135,-0.0010960843802348922,-0.00019281284666709152
414519966,8576,vehicle,288.7994384765625,327.0457458496094,-5.819856643097024,-8.21458435428282e-05,-3.141578538836016
2866945113,8576,vehicle,268.3097229003906,330.4573059082031,5.5908055300524415,-7.444607307379242e-05,-1.3315804434480857e-05
1853482628,8576,vehicle,1.7218736410140991,44.547298431396484,0.000938875391307751,-5.930054113450969,-1.5706380018680914
3880166169,8576,vehicle,335.5021057128906,264.5853576660156,0.00046347003014163323,4.302349542449707,1.5706886019288029
1073352953,8576,vehicle,376.290771484375,-2.385314702987671,-5.949344799503865,0.04218552628309314,3.1345019871874573
213556023,8576,vehicle,227.00282287597656,327.0402526855469,-6.118907926748023,0.00014503117381491111,3.1415689514560916
1628590046,8576,vehicle,1.66975998878479,128.7076873779297,0.01035776840390497,-9.70256824764006,-1.5697287986719384
4120465129,8576,vehicle,313.6098937988281,133.22540283203125,-5.597413274193715e-07,-2.0867811163875262e-09,0.003728099652981454
1015227284,8576,vehicle,263.1489562988281,129.75677490234375,-8.513106135314207,-0.00445273662625426,-3.141069608751702
2900396540,8576,vehicle,182.64476013183594,-1.9644584655761719,0.24726929394943192,0.0005535511239281744,-3.1393540003774727
3587539486,8576,vehicle,396.6522521972656,300.5509338378906,-0.0009797950995231194,-4.115288617797992,-1.5710344133963496
1146849989,8576,vehicle,246.67906188964844,133.09967041015625,5.577764152303919,0.0038264077249829396,0.0006860109212671841
1457681385,8576,vehicle,395.88592529296875,198.4310760498047,-0.004904347001091405,-2.163472577270507,-1.573063209514772
1726747598,8576,vehicle,115.2943344116211,129.52120971679688,-0.029096804554324597,0.0012069314483976214,3.1001365564810746
367118466,8576,vehicle,392.4708251953125,226.74948120117188,0.005523760475018583,15.636160828514422,1.5704430584762976
2065705843,8576,vehicle,194.60520935058594,133.22708129882812,5.877858002702933,-0.001368131703857982,-0.00023276024676363477
3978545900,8576,vehicle,334.84100341796875,250.8334503173828,0.0008506990730908449,5.65366500176363,1.5706458581933072
714679325,8576,vehicle,314.2892761230469,2.02012300491333,6.083807375004592,-0.001066101979529091,-0.00017523598347256856
3262285446,8576,vehicle,168.6410675048828,55.852806091308594,-5.534149275553326,-0.00552245446524364,-3.1405947671293406
1401880247,8576,vehicle,180.73207092285156,195.2670440673828,-6.031129674034467,-0.001402201265535903,-3.1413601596266294
2250339631,8576,vehicle,202.10585021972656,129.741943359375,-5.909426212190084,3.777060948714924e-05,3.141586262003177
2525145270,8576,vehicle,92.37211608886719,195.15101623535156,0.10673499447046932,-5.818719952600512,-1.5524550032094664
1825059061,8576,vehicle,282.3768005371094,2.01452374458313,6.910723581398322,-0.0012036458197373016,-0.00017417073529118218
346279610,8576,vehicle,110.9823226928711,194.9922637939453,4.345644651947322e-08,-2.0471899567135448e-10,3.136881787937552
893025708,8576,vehicle,395.94525146484375,293.0546875,-0.0012884360659745527,-4.302352235510716,-1.571095799259476
1724402154,8576,vehicle,88.613037109375,251.0333709716797,0.0018963271760135574,5.892087154404376,1.5704744837771605
2595182244,8576,vehicle,178.51724243164062,198.7628631591797,6.118905402616404,-0.0013166869875181723,-0.00021518341607840245
874453657,8576,vehicle,392.5408020019531,135.48692321777344,-0.02377953551922654,16.09129102318963,1.5722741148837815
1498616609,8576,vehicle,92.08794403076172,77.06584930419922,-0.001333858687595633,-6.194872235702037,-1.5710116433690295
505512523,8576,vehicle,165.16470336914062,133.22596740722656,8.50062332181097,0.0025457294986248017,0.00029947561798060343
3709073522,8576,vehicle,270.36376953125,195.56211853027344,-6.290854584469464,0.003218358994013777,3.141081060344389
27029540,8576,vehicle,1.4909943342208862,182.37098693847656,-0.0034235266596746913,-11.952695356269269,-1.5710827497701345
1375770528,8576,vehicle,339.4375305175781,320.36407470703125,-1.305149856263505,-5.894218445586641,-1.7887090835164667
4266869573,8576,vehicle,33.47085952758789,-2.037647008895874,-2.163492509802792,-0.004274632360028191,-3.1396168543770635
368528135,8576,vehicle,31.640348434448242,326.6955261230469,-5.944153541532597,-0.05935745184554559,-3.131607131082541
4012051816,8576,vehicle,338.9733581542969,228.7567138671875,7.144246378957824e-07,0.00025119263131646847,-1.5736404496810468
3938307140,8576,vehicle,92.09379577636719,270.7947692871094,-0.0019347973998067793,-5.877864519211034,-1.5711254935056305
1966079641,8576,vehicle,-1.9725719690322876,312.49041748046875,-8.4489217724555e-05,6.282210349468475,1.5708097757584014
1759883367,8576,vehicle,-2.4186832904815674,202.2443084716797,0.0007309998434702985,7.479176485578034,1.5706985887828906
3487645883,8576,vehicle,182.36111450195312,129.7640838623047,-5.534155368253657,-7.811324039424264e-05,-3.141578538836016
544848518,8576,vehicle,92.2225570678711,50.1832275390625,0.03794611119256964,-6.0311687759884665,-1.564504741877639
1325658571,8576,vehicle,128.57891845703125,129.7482452392578,0.00493006495420709,-5.720550620929057e-06,3.1404323143028456
921579549,8576,vehicle,117.53840637207031,55.82940673828125,0.005937659272448612,5.665779246850291e-06,-3.140638442971218
4072577581,8576,vehicle,104.64280700683594,326.967529296875,-6.910723208280989,-0.00012330927333561585,-3.1415748104104897
94066344,8576,vehicle,272.5294494628906,133.2593231201172,5.931337166569587,0.001501293448764443,0.00025311213551736496
2853390219,8576,vehicle,277.7546081542969,330.5263977050781,4.302351386172792,-0.0008730884783837003,-0.00020293285880939262
2524564450,8576,vehicle,1.6337336301803589,108.10729217529297,-0.0026786382517167235,-5.9709795665576415,-1.5712449362805205
1882516347,8576,vehicle,-2.135993242263794,14.86237907409668,-0.07000909338508754,6.030255206446368,1.5824054454607155
815178544,8576,vehicle,176.35275268554688,330.4366455078125,5.566191053156169,-0.0012629761461415646,-0.0002269013248747511
2188308515,8576,vehicle,92.08855438232422,211.25694274902344,-0.0023608291137188833,-5.90787220514706,-1.571195934116463
1160083145,8576,vehicle,392.4798889160156,286.8027038574219,-0.004263151818948805,9.253099413128325,1.5712570536634802
1832698586,8576,vehicle,203.16378784179688,326.9621276855469,-6.290854584469464,0.003218358994013777,3.141081060344389
3748346955,8576,vehicle,105.94204711914062,1.9249106645584106,5.818690652191668,-0.0035424113071206116,-0.0006087986251921138
3198444053,8576,vehicle,171.1804656982422,327.1080017089844,-5.635703791204853,-0.004930387804405535,-3.140717805171702
808811405,8576,vehicle,338.9372253417969,221.657958984375,-5.517095098401482e-07,-0.0016318502834619306,-1.5711344150952822
84250811,8576,vehicle,221.34744262695312,133.41737365722656,6.026393509926545,0.057326439076951,0.00951227462035582
3956289865,8576,vehicle,88.6192398071289,306.89337158203125,-3.960535383249835e-10,-3.783628615902201e-07,1.5697495713284408
1912328786,8576,vehicle,365.2416687011719,-1.9526509046554565,-1.7412634469655243e-06,-1.7510318767249785e-09,-3.1405870439621792
4030311199,8576,vehicle,338.96624755859375,267.50634765625,-0.0019332769238314354,-5.653684762384112,-1.5711382766788629
3147513812,8576,vehicle,392.46881103515625,178.55142211914062,0.001212756690052623,13.532909338969727,1.5707067114242155
1663586846,8576,vehicle,233.85926818847656,330.4384765625,5.534191520855599,-0.0009845280377485412,-0.0001778991608172931
