id,timestamp_ms,agent_type,x,y,vx,vy,psi_rad
-1,2144,vehicle,356.79974365234375,2.0199310779571533,3.294124690000882e-05,3.3549165915632566e-12,1.0184546449461652e-07
2985032057,2144,vehicle,92.10987091064453,39.71001052856445,-3.122671826328283e-11,-6.013042820914824e-06,-1.5708015199590222
3028941286,2144,vehicle,358.3998107910156,330.53948974609375,1.9290723685092345e-06,-3.0824582830590983e-12,-1.597896654047543e-06
2920337868,2144,vehicle,378.1805419921875,2.020385503768921,5.136737854620869e-06,-8.207975578313683e-12,-1.5978965270581263e-06
1503980471,2144,vehicle,92.11087036132812,95.44969177246094,6.155226589183812e-11,1.1556241588386695e-05,-1.5708016531170768
2125414330,2144,vehicle,395.96038818359375,164.1717987060547,-1.5016005715308354e-09,-7.61947885473376e-05,-1.5708160341869633
2396446624,2144,vehicle,301.3387756347656,327.0498046875,-2.414310802078218e-05,1.4788306751788315e-10,3.141586528319286
4076155829,2144,vehicle,116.64000701904297,-1.960893154144287,3.5853663575162934e-05,-2.196133880809895e-10,3.141586528319286
130361148,2144,vehicle,124.74083709716797,326.97216796875,-6.333720375545296e-05,-8.433858829938973e-11,-3.141591322009248
3417340120,2144,vehicle,114.3499755859375,330.4615478515625,3.3554762921761327e-05,-1.251064260784758e-10,-3.7284252721321002e-06
2197730220,2144,vehicle,245.09747314453125,-1.9518767595291138,0.6256958433336991,-0.0010466221106346487,3.1399199221091143
118743835,2144,vehicle,272.2898864746094,59.32842254638672,2.5937511963951992e-05,5.124996165925328e-11,1.975901224852017e-06
904053063,2144,vehicle,234.2700958251953,55.84004211425781,-2.8793540422697976e-06,1.4569548935017682e-11,3.141587593583722
1291681130,2144,vehicle,256.3497314453125,195.56936645507812,5.470060841567283e-06,-2.3308245109822097e-11,3.141588392532049
715062232,2144,vehicle,299.3999938964844,59.33003234863281,2.497874049817043e-07,-5.321792464717603e-13,-2.130528745073974e-06
220877689,2144,vehicle,128.61802673339844,129.75694274902344,-0.017807697426381802,-4.007392869838056e-06,-3.1413676164776816
2069714320,2144,vehicle,-2.421459436416626,188.49256896972656,0.0006633841712413546,0.5970671663901224,1.5696852559881156
3190467641,2144,vehicle,134.64027404785156,-1.959975242614746,-2.9664616584768364,2.3700495796679792e-06,3.141591854641466
708315452,2144,vehicle,88.77853393554688,72.41597747802734,-0.011887516212688283,0.4924517972108177,1.594931091015685
1314594676,2144,vehicle,88.58103942871094,169.85354614257812,-3.8292582177181127e-07,0.0017292387359548371,1.5710177686395366
2302084468,2144,vehicle,307.0914306640625,330.6095886230469,-0.5199136349960366,-0.006839135403131321,0.013153609577334658
757051778,2144,vehicle,256.35015869140625,199.0607147216797,3.8231639336246515e-05,-2.4436081487983623e-10,-6.391586108232505e-06
4203008516,2144,vehicle,153.76011657714844,18.889995574951172,-4.905776964278282e-12,3.6841759083439764e-06,1.5707976583754417
2631691725,2144,vehicle,299.3998107910156,199.05992126464844,2.8813656172096264e-06,-4.604124478830815e-12,-1.597896654047543e-06
1513387753,2144,vehicle,234.27093505859375,59.33036804199219,8.91291620063156e-06,-1.4241917842961403e-11,-1.5978965270581263e-06
156273220,2144,vehicle,92.11085510253906,159.94969177246094,4.5406656180295734e-11,8.52495486457614e-06,-1.5708016531170768
3812119762,2144,vehicle,118.95175170898438,55.839725494384766,-6.829183256288335e-05,1.364041134565002e-09,3.1415726798816177
3616050434,2144,vehicle,335.48974609375,298.8111877441406,-4.0520450337242906e-11,2.0286894141423095e-05,1.5707983241657142
2942158310,2144,vehicle,88.61906433105469,15.279927253723145,6.664441147564981e-11,-3.574935908539528e-05,1.5707981910076596
3608800298,2144,vehicle,105.43912506103516,133.2378387451172,6.340834806865346e-05,2.2722501491107645e-10,3.5835189187405235e-06
1146464971,2144,vehicle,1.560935378074646,22.44010353088379,-1.6647361718142152e-09,-3.7208203101775334e-05,-1.57084106790121
3013099654,2144,vehicle,-2.4119372367858887,47.702537536621094,-0.0010016347601298407,-0.625698122342916,1.56919550066365
2246582517,2144,vehicle,88.6217269897461,95.44995880126953,-2.718761710931827e-10,5.235270145860687e-05,1.5708015199590222
3192940987,2144,vehicle,381.3401184082031,327.0500183105469,-2.8146585009020614e-06,1.4242189102917404e-11,3.141587593583722
828836647,2144,vehicle,88.61925506591797,249.4302215576172,1.5439249724940575e-12,-5.7973397815656195e-06,1.5707965931110055
1702089089,2144,vehicle,395.9599914550781,249.42999267578125,-4.738027232315858e-12,-8.08681363637096e-07,-1.5708021857492949
2111029583,2144,vehicle,22.511959075927734,330.4532775878906,0.01781002037266662,2.819153569895001e-06,0.00015829030441066806
420096522,2144,vehicle,190.79600524902344,129.74851989746094,-0.6025656651473031,0.0006388430268915768,3.1405324491598328
510102133,2144,vehicle,158.07481384277344,25.23189926147461,-1.5972745975464316e-08,-5.8145070932173065e-05,-1.5710710318613383
4109025732,2144,vehicle,126.18589782714844,1.8615418672561646,0.4924245601100878,0.011875975919039364,0.024112676628497746
2913592560,2144,vehicle,209.58351135253906,2.0506770610809326,0.0017002104945517465,-1.5304417046556537e-07,-9.00148367173556e-05
3970347779,2144,vehicle,111.89144897460938,59.39934539794922,-0.5199098225070271,-0.006838942440292751,0.013153334938847244
1933996401,2144,vehicle,395.9607238769531,105.3897933959961,-3.6726765528200915e-10,-4.116616764640518e-05,-1.5708052483845483
3047764241,2144,vehicle,1.5599517822265625,48.70003890991211,-2.4659081804459995e-11,-4.2087854125571294e-06,-1.5708021857492949
1260711767,2144,vehicle,270.7998046875,133.4299774169922,9.678296919434082e-07,-1.5464918264455527e-12,-1.597896654047543e-06
3957993155,2144,vehicle,306.2909240722656,2.02036452293396,8.91291620063156e-06,-1.4241917842961403e-11,-1.5978965270581263e-06
4289594148,2144,vehicle,-2.4209091663360596,79.32027435302734,-5.738038556922602e-11,-8.449399501647145e-06,1.5707895357341168
4139896837,2144,vehicle,271.0418395996094,129.4897003173828,-7.767685018094522e-05,1.551494737715363e-09,3.1415726798816177
1686932955,2144,vehicle,185.5587921142578,-1.9600974321365356,-1.655141386376195e-05,1.4105306044149843e-10,3.141584131474305
1726501337,2144,vehicle,395.960693359375,68.86006927490234,1.1214894112166325e-10,2.1595493307977284e-05,-1.5708015199590222
1682591593,2144,vehicle,173.1189422607422,330.4577941894531,6.332741759211129e-05,2.269700456689739e-10,3.58407233861808e-06
3380823586,2144,vehicle,392.46875,212.89991760253906,7.1810140445439355e-12,1.7976166418519297e-05,1.570795927320733
4176583038,2144,vehicle,172.1525115966797,2.011981725692749,-0.6257012985419468,0.0009524823517989697,-0.0015222624889778048
3855978784,2144,vehicle,301.3398742675781,330.5380859375,4.908878327104137e-05,1.0090280911554893e-10,2.0555166046442174e-06
1042098875,2144,vehicle,157.24996948242188,39.71001052856445,-1.7938633801861064e-11,-2.866315980953259e-06,-1.5708025852234582
644930681,2144,vehicle,88.6192626953125,145.84022521972656,1.414603649426783e-12,-5.311746463121193e-06,1.5707965931110055
2234188147,2144,vehicle,363.0,-1.9599599838256836,-5.435225602793016e-07,3.7634691488813855e-12,3.141585729370959
4109707537,2144,vehicle,21.847997665405273,326.97662353515625,-0.017807621057932616,-4.007375684102506e-06,-3.1413676164776816
3675841917,2144,vehicle,271.7660217285156,55.83845520019531,-0.6025653671242468,0.0006388427109260939,3.1405324491598328
2817926641,2144,vehicle,187.9303436279297,55.83999252319336,-2.9664616584768364,2.3700495796679792e-06,3.141591854641466
4029506115,2144,vehicle,-2.261476755142212,17.575986862182617,-0.011884150081233728,0.4924564097277556,1.5949240336387964
3277167701,2144,vehicle,88.5810546875,26.563671112060547,-3.8226552884598927e-07,0.0017293766882606628,1.5710173691653733
518241310,2144,vehicle,72.27852630615234,-2.0293917655944824,0.5197656232250122,0.006879834655597022,-3.1283570092882083
778540568,2144,vehicle,172.29019165039062,59.3306884765625,4.4967153370626046e-05,-2.8741143281436773e-10,-6.391586108232505e-06
657465635,2144,vehicle,1.509932041168213,308.21038818359375,-1.8507399276659823e-11,-4.483490556556718e-06,-1.5708004546945862
835227171,2144,vehicle,125.9699935913086,59.32993698120117,5.357426744005788e-06,-8.560614268558958e-12,-1.597896654047543e-06
715280319,2144,vehicle,142.9190216064453,195.26953125,-5.139211225422243e-06,2.1898475790804865e-11,3.141588392532049
3020211281,2144,vehicle,153.75912475585938,28.90026092529297,-0.0,0.0,1.5707971257432236
2101598167,2144,vehicle,278.8117980957031,-1.9602688550949097,-6.860396386503055e-05,1.5347086206584778e-09,3.1415702830366365
14974470,2144,vehicle,202.55120849609375,59.33015823364258,2.462013253522106e-05,-7.868085480074143e-11,-3.195793308095086e-06
1398818972,2144,vehicle,92.11067199707031,176.8900146484375,7.29751480929217e-11,1.4052155165510757e-05,-1.5708015199590222
2694688339,2144,vehicle,46.150814056396484,326.97216796875,-5.826658889413302e-05,-7.758665619855379e-11,-3.141591322009248
3916750283,2144,vehicle,173.12001037597656,326.96844482421875,-3.345190998447716e-05,2.1381078014250928e-10,3.141586262003177
1983197581,2144,vehicle,92.1082763671875,30.820011138916016,-4.9240729054940765e-11,-5.282737038212396e-05,-1.5707972589012782
2942851653,2144,vehicle,178.76988220214844,198.75997924804688,2.162537612088821e-06,-4.6073485448658355e-12,-2.130528745073974e-06
3949181016,2144,vehicle,88.61929321289062,103.38021850585938,3.930343127005538e-12,-1.4758187717233727e-05,1.5707965931110055
3672416715,2144,vehicle,392.4700012207031,308.2099914550781,8.926800336372409e-15,-1.1173188596554681e-08,1.5707971257432236
3325384226,2144,vehicle,299.0680847167969,55.846893310546875,-0.017807697426381802,-4.007392869838056e-06,-3.1413676164776816
1359910869,2144,vehicle,110.55207061767578,2.0214765071868896,0.6008857959162391,-0.0006669867595801,-0.001110005412307864
2262630317,2144,vehicle,49.29966735839844,330.4599914550781,2.9664616169897524,-0.0004961303280519018,-0.00016724650020233083
805172996,2144,vehicle,178.9743194580078,195.42843627929688,-0.4924884291441239,-0.01188899104061071,-3.117456690946514
1986857511,2144,vehicle,-2.458866834640503,120.02364349365234,-4.5351871595685924e-07,0.0017166671442574158,1.5710605123750325
1279946346,2144,vehicle,48.26145935058594,2.089343309402466,-0.5199119641684125,-0.006839268678995035,0.01315390814265999
74618890,2144,vehicle,217.51014709472656,198.76071166992188,3.823165388816174e-05,-2.4436090788965545e-10,-6.391586108232505e-06
3085549129,2144,vehicle,392.4703369140625,19.919845581054688,-1.7681998225471172e-12,1.8969935808846402e-06,1.5707972589012782
2057201815,2144,vehicle,105.22998809814453,198.49993896484375,3.3345818337687763e-06,1.9296904635109257e-12,5.786903904918584e-07
1015694095,2144,vehicle,60.1109619140625,330.4602966308594,5.137290827399546e-06,-8.208858519214724e-12,-1.5978964000687097e-06
1250507297,2144,vehicle,316.8496398925781,-1.9608826637268066,8.239412636444242e-06,-5.266291953229788e-11,3.141586262003177
4280502996,2144,vehicle,-1.2801390886306763,309.45819091796875,6.315345660328735e-10,7.07872241008795e-05,1.5707874052052448
3428459672,2144,vehicle,14.141301155090332,2.020129442214966,2.003673216667039e-05,-6.403325457455679e-11,-3.195793308095086e-06
414519966,2144,vehicle,320.8699951171875,327.0491027832031,2.4604556528936762e-05,-8.518366686156199e-11,3.141589191480376
2866945113,2144,vehicle,232.19894409179688,330.4577941894531,6.332742486806891e-05,2.2697007174653233e-10,3.58407233861808e-06
1853482628,2144,vehicle,1.5609328746795654,79.32009887695312,-1.4998585358248246e-09,-3.352305426515928e-05,-1.57084106790121
3880166169,2144,vehicle,335.498046875,248.43251037597656,-0.0009948034503673491,-0.6256985504744135,1.5692064196241193
1073352953,2144,vehicle,396.446044921875,19.919994354248047,4.2957733507262837e-10,-6.583818321674617e-05,-1.570789802050226
213556023,2144,vehicle,262.6000671386719,327.0500183105469,-2.1615414879939404e-06,1.0937413052398702e-11,3.141587593583722
1628590046,2144,vehicle,1.5603049993515015,187.9698028564453,1.833017544071482e-11,2.502859615493615e-06,-1.5708036504878944
4120465129,2144,vehicle,299.3999938964844,133.2400360107422,5.483069553934062e-09,-1.1681837295914127e-14,-2.130528745073974e-06
1015227284,2144,vehicle,299.0680847167969,129.75694274902344,-0.017807621057932616,-4.007375684102506e-06,-3.1413676164776816
2900396540,2144,vehicle,209.05601501464844,-1.9615198373794556,-0.6025657239007092,0.000639645454880501,3.1405311175792874
3587539486,2144,vehicle,384.487060546875,330.53997802734375,2.956971842418494,-0.0004945431964523517,-0.00016724650020233083
1146849989,2144,vehicle,216.06588745117188,133.08154296875,0.4924263208763436,0.011875896392937457,0.024112429037740156
1457681385,2144,vehicle,395.9812927246094,212.89649963378906,-3.5951271699888e-07,-0.0016959136902204358,-1.571008314417667
1726747598,2144,vehicle,119.14877319335938,129.6806640625,0.49593003726545587,0.006552183947253357,-3.1283815103702373
367118466,2144,vehicle,392.4692077636719,164.17019653320312,1.5002285207081005e-10,4.506609911889012e-05,1.570792997843534
2065705843,2144,vehicle,157.18995666503906,133.23988342285156,3.5324037526107e-06,-5.644416137046427e-12,-1.597896654047543e-06
3978545900,2144,vehicle,334.83050537109375,217.07981872558594,-5.383290682968374e-13,2.021391310336113e-06,1.5707965931110055
714679325,2144,vehicle,278.8109436035156,2.02036452293396,8.91291620063156e-06,-1.4241916711115374e-11,-1.5978964000687097e-06
3262285446,2144,vehicle,202.5496368408203,55.8390998840332,8.080801308023492e-06,-3.443276099232869e-11,3.141588392532049
1401880247,2144,vehicle,217.5117950439453,195.26963806152344,-6.862207372701005e-05,1.3706372752056949e-09,3.1415726798816177
2250339631,2144,vehicle,237.6987762451172,129.74986267089844,-1.907547812116404e-05,1.1684246355107898e-10,3.141586528319286
2525145270,2144,vehicle,92.11067199707031,227.2200164794922,7.29751480929217e-11,1.4052155165510757e-05,-1.5708015199590222
1825059061,2144,vehicle,244.0989532470703,2.017904043197632,6.344650319038194e-05,2.2737571540933217e-10,3.5837391183889134e-06
346279610,2144,vehicle,121.22996520996094,195.0084686279297,-3.000834658389617e-05,1.9180094639938166e-10,3.141586262003177
893025708,2144,vehicle,395.9519348144531,309.20745849609375,0.0009109943759549772,0.6257039233245654,-1.5722522769628429
1724402154,2144,vehicle,88.62186431884766,212.89990234375,-2.5494048553432325e-10,4.90915517723553e-05,1.5708015199590222
2595182244,2144,vehicle,142.91990661621094,198.75997924804688,2.162537612088821e-06,-4.6073485448658355e-12,-2.130528745073974e-06
874453657,2144,vehicle,392.4690856933594,68.86024475097656,2.5243540283385863e-12,-9.47878834267579e-06,1.5707965931110055
1498616609,2144,vehicle,92.1099853515625,113.05999755859375,-1.388880725899694e-12,-2.3705266016397802e-07,-1.5708021857492949
505512523,2144,vehicle,129.2819366455078,133.23306274414062,0.017810133994026353,2.819126972452319e-06,0.00015828780119528797
3709073522,2144,vehicle,298.8759765625,195.568359375,-0.6025651287058017,0.0006388424581537075,3.1405324491598328
27029540,2144,vehicle,1.5092824697494507,246.28872680664062,-0.0007411605954365766,-2.9559327626880285,-1.5710470634115274
1375770528,2144,vehicle,366.7444152832031,327.20843505859375,-0.4924835131931581,-0.011888872366356598,-3.117456690946514
4266869573,2144,vehicle,47.93636703491211,-1.9488581418991089,-0.0017122470422264073,5.996386699935196e-07,3.1412424479064476
368528135,2144,vehicle,65.02873229980469,326.90069580078125,0.4959285805689181,0.006551900507860979,-3.128382043002455
4012051816,2144,vehicle,338.9807434082031,249.42979431152344,-3.6504051899774175e-10,-4.091653317865129e-05,-1.5708052483845483
3938307140,2144,vehicle,92.10984802246094,308.2101745605469,-1.513823805165755e-11,-2.9150317004285e-06,-1.5708015199590222
1966079641,2144,vehicle,-1.979971170425415,249.42982482910156,-8.360845264217227e-13,3.1394440611619553e-06,1.5707965931110055
1759883367,2144,vehicle,-2.4203572273254395,149.83096313476562,2.9079514297741027e-11,5.199605766311463e-06,1.5707907341566074
3487645883,2144,vehicle,216.26963806152344,129.74911499023438,8.240593160660633e-06,-3.511364330345705e-11,3.141588392532049
544848518,2144,vehicle,92.1103286743164,86.96175384521484,-1.416046014408727e-09,-6.860854772088039e-05,-1.5708169662933447
1325658571,2144,vehicle,157.18878173828125,129.74986267089844,-1.3700147974047848e-05,8.391711233313985e-11,3.141586528319286
921579549,2144,vehicle,141.13002014160156,55.83909225463867,3.560691766303113e-05,-1.2327504495386986e-10,3.141589191480376
4072577581,2144,vehicle,142.92083740234375,326.97216796875,-6.333720375545296e-05,-8.433858829938973e-11,-3.141591322009248
94066344,2144,vehicle,237.699951171875,133.2416229248047,3.021087832145815e-05,-1.1263900222755431e-10,-3.7284252721321002e-06
2853390219,2144,vehicle,261.6025085449219,330.5319519042969,-0.6257009409143687,0.0009524818887600656,-0.0015222626190149675
2524564450,2144,vehicle,1.5585891008377075,149.82998657226562,5.700498183745324e-09,-6.606483632784924e-05,-1.570710040375578
1882516347,2144,vehicle,21.77001190185547,-1.9599933624267578,-2.877269252990709e-06,2.2221631409869464e-11,3.1415849304226318
815178544,2144,vehicle,142.9202117919922,330.46087646484375,-5.458130999606818e-06,8.721529954757199e-12,-1.5978967810369595e-06
2188308515,2144,vehicle,92.10997772216797,249.42999267578125,-2.7493404677301604e-14,-4.692544575055029e-09,-1.5708021857492949
1160083145,2144,vehicle,392.4766845703125,249.75833129882812,8.376094453852785e-07,-0.004250229719447152,1.5709934007155624
1832698586,2144,vehicle,231.67599487304688,326.9683532714844,-0.6025657843565257,0.0006388431532777701,3.1405324491598328
3748346955,2144,vehicle,65.2796859741211,2.019543409347534,2.9664616169897524,-0.0004961303280519018,-0.00016724650020233083
3198444053,2144,vehicle,200.15431213378906,327.12841796875,-0.49248783327127954,-0.011888976655852635,-3.117456690946514
808811405,2144,vehicle,339.00128173828125,226.7465057373047,-3.545341817696302e-07,-0.001668237112042576,-1.5710088470498849
84250811,2144,vehicle,191.64146423339844,133.3092803955078,-0.519914587670046,-0.006839217718710024,0.013153743775686464
3956289865,2144,vehicle,88.61924743652344,295.3201599121094,1.2196240211517065e-10,3.8163419958241976e-05,1.5707931310015886
1912328786,2144,vehicle,378.18011474609375,-1.9598571062088013,-4.154091129663997e-06,2.6551233266760774e-11,3.141586262003177
4030311199,2144,vehicle,338.9794921875,301.2601623535156,-1.1808962722752627e-11,-2.0155409856324362e-06,-1.5708021857492949
3147513812,2144,vehicle,392.4696350097656,105.39096069335938,-1.0372215164728833e-11,5.192934167997565e-06,1.5707983241657142
1663586846,2144,vehicle,199.95033264160156,330.4609680175781,-8.46103921502447e-06,1.3519867325926588e-11,-1.5978967810369595e-06
