id,timestamp_ms,agent_type,x,y,vx,vy,psi_rad
-1,16281,vehicle,392.1912536621094,52.957698822021484,0.004280910420178313,11.217407363372779,1.5704146958106882
2985032057,16281,vehicle,92.103759765625,28.634572982788086,1.250585152148065e-05,-0.6905687450230237,-1.570778217299484
3028941286,16281,vehicle,396.9279479980469,281.0379943847656,-0.002233802074526696,-8.7555157672902,-1.5710514576273262
2920337868,16281,vehicle,392.0103454589844,113.45584106445312,-0.002490476486467097,20.440612641249395,1.5709181664147678
1503980471,16281,vehicle,92.19307708740234,41.19698715209961,-2.616832201274936e-09,1.2941751184413878e-06,-1.5687743217372538
2125414330,16281,vehicle,395.9231872558594,11.576601028442383,-0.0018814764138091258,-6.12203092273709,-1.5711036555846918
2396446624,16281,vehicle,221.04730224609375,327.0279541015625,-5.506984231578345,0.0001583926502406406,3.14156389145002
4076155829,16281,vehicle,112.6908187866211,-1.9400705099105835,3.033545187065956e-06,4.895764663864818e-10,-3.1414312660277344
130361148,16281,vehicle,92.40161895751953,264.3551940917969,-0.0020724354323703622,-6.898814366907597,-1.5710967313658575
3417340120,16281,vehicle,192.99960327148438,330.48675537109375,5.827748291360119,0.0002913917258723796,5.0000739747381754e-05
2197730220,16281,vehicle,188.5063018798828,-1.941105604171753,-3.0460207411913727,-0.00017522014881141487,-3.1415351293102476
118743835,16281,vehicle,306.9876403808594,59.33469772338867,1.2226271257045889,-0.0013564720727427641,-0.001109472780089848
904053063,16281,vehicle,178.70040893554688,55.8249397277832,2.7686889295115615e-08,-4.3186417348351665e-11,3.140032840139334
1291681130,16281,vehicle,179.29115295410156,195.6004180908203,-5.657496897865886,0.0005951396136188986,3.141487458726735
715062232,16281,vehicle,315.15771484375,59.31635665893555,3.5615642226700053,0.003670861218716666,0.0010306875544959498
220877689,16281,vehicle,119.81321716308594,129.75616455078125,-4.3037506753480494,-0.00165046779386883,-3.141209158392822
2069714320,16281,vehicle,-2.3931851387023926,292.48394775390625,0.0035466271996985083,9.30633000504027,1.5704152284429063
3190467641,16281,vehicle,118.23343658447266,-2.2923083305358887,-0.004196488115779591,-0.0002909281230382136,-3.0723768305425248
708315452,16281,vehicle,88.74198150634766,99.75222778320312,3.552491911639982e-05,0.011906405067511833,1.5678126542676263
1314594676,16281,vehicle,88.64353942871094,172.7064971923828,1.5909413906328735e-07,0.0016479678375220508,1.5706997872053812
2302084468,16281,vehicle,312.6473693847656,330.4862365722656,-0.010347270479291548,0.0011283258314467544,-0.10861658397282618
757051778,16281,vehicle,305.3627624511719,199.05624389648438,1.2895002159746243,-0.0012610187718759306,-0.000977912492202771
4203008516,16281,vehicle,153.76614379882812,33.49059295654297,0.0018274351873333974,4.139910771441902,1.570354907844216
2631691725,16281,vehicle,313.9808654785156,199.05401611328125,4.054134215259387,-0.00661629204427378,-0.0016319849859633946
1513387753,16281,vehicle,299.7996520996094,59.32716751098633,-2.7643930209929733e-05,4.0918155298019e-08,-0.001480184803828878
156273220,16281,vehicle,92.5196762084961,81.90071868896484,-0.010930970203510746,-5.580563330094938,-1.5727550817766498
3812119762,16281,vehicle,104.55490112304688,55.839012145996094,-5.728666229204243,0.0009352149375868739,3.1414294018149715
3616050434,16281,vehicle,335.4162292480469,309.7686462402344,6.550090322980434e-05,4.204302787270526,1.5707807473025197
2942158310,16281,vehicle,88.60305786132812,25.917118072509766,-5.101122211430614e-10,-2.609589678451138e-06,1.5706008507708848
3608800298,16281,vehicle,145.68064880371094,133.23402404785156,5.849590701930221e-08,-2.8352692596125568e-11,-0.0004846952858851307
1146464971,16281,vehicle,60.19002914428711,2.548398494720459,-0.03467276223596307,2.9012968101178774e-05,-0.0008367652145028966
3013099654,16281,vehicle,-2.4004039764404297,107.32769012451172,0.0007503616108292402,5.821404885569764,1.5706674297981367
2246582517,16281,vehicle,88.6150894165039,105.10009765625,-1.8247305233369465e-11,-1.3382317707251595e-07,1.5706599729470845
3192940987,16281,vehicle,338.8902282714844,290.6925048828125,-0.0008208543782690777,-6.0734104555453845,-1.570931482220218
828836647,16281,vehicle,88.64749908447266,301.0011901855469,-3.324995994659146e-05,0.029540145683336166,1.5719219118296186
1702089089,16281,vehicle,395.9685974121094,178.02403259277344,-0.005163662693894762,-5.92580045789949,-1.5716677131035706
2111029583,16281,vehicle,54.97389602661133,330.44464111328125,0.006664328595839167,-2.8574572529861946e-06,-0.00042876893550275734
420096522,16281,vehicle,134.40914916992188,129.73712158203125,0.43257675883421776,0.002541734490296058,-3.1357169212767513
510102133,16281,vehicle,158.60757446289062,21.818693161010742,0.08983537584361076,-5.663112539356634,-1.5549344061843302
4109025732,16281,vehicle,219.26307678222656,1.8912700414657593,9.589501944445098,-0.007896471494045192,-0.0008234494090525005
2913592560,16281,vehicle,254.87579345703125,1.9338802099227905,4.76492300810681,-0.0009136626324234861,-0.00019174761474035048
3970347779,16281,vehicle,128.58584594726562,59.28312683105469,-0.010077722890140662,0.0009813789199871483,-0.09707493482874875
1933996401,16281,vehicle,387.6783142089844,-1.8874316215515137,-4.2551878694835885,-1.294503111137456,-2.84627099188538
3047764241,16281,vehicle,43.237831115722656,2.0474066734313965,5.531296729991289,-2.356917336170288e-05,-4.261057490147948e-06
1260711767,16281,vehicle,306.2466735839844,133.41566467285156,1.0665765739829058,-0.0005567312012477447,-0.00052197954114624
3957993155,16281,vehicle,335.0718994140625,33.63330078125,-0.0,0.0,1.571496072371315
4289594148,16281,vehicle,-2.4074416160583496,155.00059509277344,0.00613903030085258,6.5016669854186615,1.569852103030409
4139896837,16281,vehicle,190.2675018310547,129.48782348632812,-5.915104265789862,-0.0012082455695273857,-3.141388389134184
1686932955,16281,vehicle,175.89035034179688,-1.9625712633132935,3.941638953670355e-07,-2.031212151610646e-10,3.1410773319188627
1726501337,16281,vehicle,378.8953857421875,-2.388349771499634,-0.0005777606336660912,-1.6380720867793955e-06,-3.138757452293295
1682591593,16281,vehicle,264.44464111328125,330.45721435546875,6.899094001399449,-0.0011942708153728433,-0.00017310545460050517
3380823586,16281,vehicle,384.74664306640625,325.87322998046875,-5.917231081987945,1.683677660405517,2.864380753614028
4176583038,16281,vehicle,230.08343505859375,1.9942313432693481,5.568784003141142,-0.0016135655768146767,-0.0002897518615820398
3855978784,16281,vehicle,305.56915283203125,330.5410461425781,-3.828614264456092e-06,-8.259686051107564e-10,0.00021573565139868049
1042098875,16281,vehicle,157.84898376464844,31.85049057006836,0.021560775103051943,-1.7021479077127386,-1.5581301994924253
644930681,16281,vehicle,88.63038635253906,165.76617431640625,-0.0,0.0,1.5733732014656572
2234188147,16281,vehicle,358.01300048828125,-1.9551748037338257,-8.342028630966369e-05,-6.18498176506519e-08,-3.140851229542315
4109707537,16281,vehicle,2.6139822006225586,218.24916076660156,-0.0024088333827283225,-12.092266796512822,-1.5709955312444346
3675841917,16281,vehicle,185.822509765625,55.83538055419922,-4.276018228759915,-0.0027239442763229388,-3.140955625457046
2817926641,16281,vehicle,121.5479736328125,55.752079010009766,-3.0350998907247853,0.0007492904010561432,3.141345778556743
4029506115,16281,vehicle,-2.29327654838562,97.76825714111328,-0.00038521663991387614,1.7912865462946799,1.5710113770529206
3277167701,16281,vehicle,88.64314270019531,33.230709075927734,1.5769082912787081e-07,0.0016470625921102555,1.5707005861537082
518241310,16281,vehicle,12.51548957824707,-2.0590643882751465,-0.2558251116723257,0.0014436974064797052,3.1359494152399154
778540568,16281,vehicle,253.06846618652344,59.32433319091797,6.612871614079266,-0.0006586567270519122,-9.96022247689635e-05
657465635,16281,vehicle,1.717779517173767,129.5528106689453,-0.004525627336335012,-10.299055058832447,-1.5712357483747597
835227171,16281,vehicle,134.6495819091797,59.32780456542969,-2.419925041597576e-10,-5.0189370247654934e-14,0.00020740051309560257
715280319,16281,vehicle,117.94445037841797,195.2687530517578,-0.6730014277794139,0.0006126121428402578,3.140682385129204
3020211281,16281,vehicle,153.78919982910156,44.282806396484375,0.08111355234647066,6.3007507776937866,1.5579234050337807
2101598167,16281,vehicle,198.06100463867188,-1.9616738557815552,-5.528666499649612,-0.0022880676952251157,-3.141178798356395
14974470,16281,vehicle,282.84246826171875,59.33397674560547,5.506982670103499,-0.0012114100408107628,-0.00021997708978589974
1398818972,16281,vehicle,128.62411499023438,133.677734375,5.529724423182824,-0.0013901861486728907,-0.0002514024231581254
2694688339,16281,vehicle,2.3090920448303223,255.93191528320312,-0.002860402091016343,-15.88850186349303,-1.570976356484586
3916750283,16281,vehicle,116.79842376708984,326.9374694824219,-1.5678035639667549e-06,7.481383422134626e-09,3.136820801548589
1983197581,16281,vehicle,92.12052154541016,20.22184944152832,-0.006875592022131293,-3.962456221608009,-1.5725315094031378
2942851653,16281,vehicle,259.6531677246094,198.7663116455078,5.617316122339412,-0.0011788336542471797,-0.00020985709389824398
3949181016,16281,vehicle,88.6303482055664,112.13860321044922,5.094438197117268e-10,-1.9617728885445132e-07,1.5733931751738328
3672416715,16281,vehicle,338.9075622558594,309.79278564453125,-0.07169437340544715,-5.938883063357173,-1.5828677702259533
3325384226,16281,vehicle,202.92784118652344,55.84097671508789,-7.16926348211237,-0.0022644184363405876,-3.14127680268451
1359910869,16281,vehicle,154.2412109375,26.64752197265625,-1.012038995924605e-05,0.005478465429482481,1.57264362848503
2262630317,16281,vehicle,60.971229553222656,330.80242919921875,0.004194057082404625,0.00030803839759017927,0.07331476086003662
805172996,16281,vehicle,124.03330993652344,195.25491333007812,-0.5480109632810133,0.0668858496533021,3.0201413226056015
1986857511,16281,vehicle,-2.34596848487854,167.2621307373047,0.001077919549434783,11.180992074505655,1.5706999203634358
1279946346,16281,vehicle,125.3927230834961,2.080878734588623,-0.003115937083846153,4.6851907852006794e-06,-0.0015036206214215752
74618890,16281,vehicle,297.486572265625,198.75428771972656,3.6344509344162734,-0.0012544148427832914,-0.000345145612255688
3085549129,16281,vehicle,392.5242004394531,197.85401916503906,-0.010498315682225092,18.377856117029303,1.5713675748487186
2057201815,16281,vehicle,183.68679809570312,198.9749755859375,5.9135054118142385,-0.0012976859121287831,-0.00021944444131323857
1015694095,16281,vehicle,66.94755554199219,330.46124267578125,7.259462685384327e-07,-3.128099248383727e-10,-0.00043089952939340205
1250507297,16281,vehicle,209.2527313232422,-1.9451402425765991,-5.324793501870183,-0.001827902983343909,-3.141249372125282
4280502996,16281,vehicle,48.15370559692383,331.2244567871094,-8.731824493388517e-06,2.6370320562240293e-09,-0.0003020024025964043
3428459672,16281,vehicle,66.85588836669922,2.0130629539489746,5.1787812208546394e-08,-4.187230447972438e-11,-0.0008085357069480567
414519966,16281,vehicle,245.2988739013672,327.0450744628906,-5.555505270032727,0.00025151849317819544,3.1415473798512616
2866945113,16281,vehicle,294.2904968261719,330.4563903808594,-7.68932674495621e-06,3.4157160795070378e-09,-0.00044421520480663566
1853482628,16281,vehicle,7.874736309051514,3.342048168182373,5.1722662369926,-2.6228116546075744,-0.4693046108492308
3880166169,16281,vehicle,335.5130310058594,302.5588073730469,0.005720307704317956,3.2497720441377447,1.5690361104724087
1073352953,16281,vehicle,372.0358581542969,-2.3772799968719482,-8.110554208191706e-09,1.687803962226518e-11,3.1395116595140053
213556023,16281,vehicle,181.7167510986328,327.0279541015625,-5.617315768301339,0.00010023077246907022,3.1415748104104897
1628590046,16281,vehicle,1.6680649518966675,79.96903228759766,-0.0011960887162871762,-5.617556921462165,-1.5710092465240484
4120465129,16281,vehicle,315.1773681640625,133.2262420654297,3.570434089084187,0.003201008057805315,0.000896531659824765
1015227284,16281,vehicle,203.0666961669922,129.75111389160156,-7.685638960407486,-0.0037149594649844987,-3.141109289851944
2900396540,16281,vehicle,181.6448211669922,-1.9666467905044556,-0.001325230418756699,-4.94916332453734e-06,-3.137858102793175
3587539486,16281,vehicle,396.6413879394531,260.8848876953125,-0.0003503844583878298,-1.367641642509623,-1.5710525228917622
1146849989,16281,vehicle,292.95648193359375,133.2471160888672,0.61743691943831,-0.03501970602989514,-0.05665716677834935
1457681385,16281,vehicle,395.8573303222656,165.6571502685547,-0.0032158933619565668,-11.180994525007918,-1.571083948192625
1726747598,16281,vehicle,111.51227569580078,129.85421752929688,-10.798814232332456,0.2654125494852638,3.117019666211632
367118466,16281,vehicle,392.4832763671875,315.0787658691406,0.001667381435606405,6.948846616971834,1.5705563759806804
2065705843,16281,vehicle,238.89344787597656,133.21685791015625,5.733852381005722,-0.0002504308067993878,-4.367583781363817e-05
3978545900,16281,vehicle,334.8504638671875,294.09930419921875,-0.02498271576779082,3.793636554818957,1.5773816583803901
714679325,16281,vehicle,358.7371826171875,1.9287383556365967,5.55909521071649,-0.0013827649979140414,-0.0002487392133041102
3262285446,16281,vehicle,129.77996826171875,55.75022506713867,-0.13305951926295947,-8.490441219734462e-05,-3.1409545601926103
1401880247,16281,vehicle,136.73748779296875,195.26942443847656,-5.915116186718568,-0.001208248004549432,-3.141388389134184
2250339631,16281,vehicle,157.40731811523438,129.730712890625,-5.506981847392555,0.00015839258166635566,3.14156389145002
2525145270,16281,vehicle,92.5462417602539,154.59869384765625,-4.613855093284838e-05,0.06174172599750194,-1.5700490437930203
1825059061,16281,vehicle,313.625732421875,2.0121803283691406,-2.0995733381571685e-06,1.312884845402076e-09,-0.0006253102239506051
346279610,16281,vehicle,109.25855255126953,194.99261474609375,-4.151815132819231,0.0015291766019610417,3.1412243384110354
893025708,16281,vehicle,395.9285583496094,249.5816192626953,-0.001869703583372676,-5.821407494699284,-1.5711175040223602
1724402154,16281,vehicle,88.6166763305664,293.46221923828125,0.001687279104978408,2.378237364189078,1.5700868606804994
2595182244,16281,vehicle,223.8033905029297,198.76632690429688,5.617320413873742,-0.0011788345548561156,-0.00020985709389824398
874453657,16281,vehicle,392.55804443359375,252.240234375,0.006827285468201046,15.490042135562872,1.5703555736344885
1498616609,16281,vehicle,92.17974090576172,47.55992889404297,-1.6936186506747027e-07,2.78022660725441e-05,-1.5647047452755038
505512523,16281,vehicle,224.6214141845703,133.21969604492188,5.357842187942631,-0.0016608878313968405,-0.00030999191837593267
3709073522,16281,vehicle,208.8759765625,195.5691375732422,-6.868976773958969,-0.0060678532562937785,-3.1407092830562138
27029540,16281,vehicle,1.4701553583145142,109.07001495361328,-0.0014745038505767788,-5.417483129111359,-1.5710685018583026
1375770528,16281,vehicle,338.8970642089844,250.74124145507812,0.005952306046048287,-7.391046511418694,-1.5699909868812567
4266869573,16281,vehicle,1.716650366783142,1.5319302082061768,-4.199072883208606,3.897848507034728,2.393379675860903
368528135,16281,vehicle,2.607654333114624,278.93841552734375,0.050910204997018274,-10.37266540086365,-1.5658882540639352
4012051816,16281,vehicle,338.9733581542969,228.75657653808594,-1.9257194030754605e-09,-6.77117147129957e-07,-1.5736403165229922
3938307140,16281,vehicle,92.07936096191406,226.50645446777344,-0.0007993972543719161,-5.733879033630892,-1.5709357432779623
1966079641,16281,vehicle,30.15001106262207,331.2401428222656,8.146260990480341,-0.00191348173019062,-0.0002348907918903435
1759883367,16281,vehicle,-2.413360118865967,269.318603515625,-0.0003549263954484614,9.191213600935196,1.5708349426307027
3487645883,16281,vehicle,141.64935302734375,129.77476501464844,-1.2933950713524411,-0.000922098007133521,-3.140879725365979
544848518,16281,vehicle,92.24698638916016,35.24443435668945,3.7049770985024536e-11,3.3923304361658335e-08,-1.571888489157938
1325658571,16281,vehicle,128.5701904296875,129.74827575683594,-0.07824060662792925,9.37653475451755e-05,3.1403942310992576
921579549,16281,vehicle,114.57854461669922,55.81517028808594,-4.624459465799972,-0.0026417137571684603,-3.1410214055359713
4072577581,16281,vehicle,92.40399932861328,282.5941467285156,-0.0020781093411944914,-6.896303817448914,-1.5710976634722391
94066344,16281,vehicle,298.6883544921875,133.25888061523438,-9.52987532719481e-06,2.981096488939109e-08,-0.003128148756332748
2853390219,16281,vehicle,299.9942932128906,330.5154724121094,-4.1460532776030554e-05,-1.264138238991303e-08,0.0003049015811366053
2524564450,16281,vehicle,1.6124992370605469,63.319725036621094,-0.0025043415699625873,-5.652925890274561,-1.5712393436422312
1882516347,16281,vehicle,-2.150271415710449,83.00875091552734,0.004861426867476624,6.669471876306711,1.5700674196045419
815178544,16281,vehicle,219.97879028320312,330.4158630371094,5.657495249680086,-0.0016784439327346518,-0.00029667614543482716
2188308515,16281,vehicle,129.14418029785156,199.21734619140625,5.677589223137531,-0.0014817927423995136,-0.00026098977057312
1160083145,16281,vehicle,363.1889343261719,326.5650329589844,-8.178222276694006,-0.002491623308710203,-3.141287987961088
1832698586,16281,vehicle,141.67605590820312,326.9691467285156,-6.868976773958969,-0.0060678532562937785,-3.1407092830562138
3748346955,16281,vehicle,131.46328735351562,1.9196430444717407,-0.9612058818481469,0.0001853328446089869,-0.00019281284666709152
3198444053,16281,vehicle,121.83692932128906,326.83349609375,0.5560488543478455,0.04214002575756462,-3.065952487044927
808811405,16281,vehicle,338.9327392578125,221.63999938964844,-4.7027756073456904e-07,-0.001647259507253522,-1.571081817663753
84250811,16281,vehicle,286.8726501464844,133.58547973632812,3.8309594169856975,0.012133591569095705,0.0031672355867418396
3956289865,16281,vehicle,88.61952209472656,308.62933349609375,0.0012024515958211344,3.202219022054268,1.5704208210811954
1912328786,16281,vehicle,365.2416687011719,-1.9526519775390625,9.762941781335435e-08,9.817711558535325e-11,-3.1405870439621792
4030311199,16281,vehicle,338.9559631347656,235.73228454589844,-7.538033169634123e-08,0.00010884379598790545,-1.5701037717534214
3147513812,16281,vehicle,392.4787292480469,289.88775634765625,-0.000963216704225924,12.323057137038289,1.5708744905728904
1663586846,16281,vehicle,278.0061950683594,330.4115905761719,5.921934175206913,-0.0022552617797747436,-0.0003808319383534591
