id,timestamp_ms,agent_type,x,y,vx,vy,psi_rad
-1,3283,vehicle,359.29547119140625,2.0186777114868164,6.497765100312803,-0.004256931447664594,-0.0006551376931780739
2985032057,3283,vehicle,92.10909271240234,38.48752975463867,-0.0019704687390674114,-3.454240713761273,-1.5713667759003915
3028941286,3283,vehicle,360.9207458496094,330.53875732421875,6.488431006578845,-0.0024087948145975835,-0.00037124455842917385
2920337868,3283,vehicle,380.7996520996094,2.0210952758789062,6.808427965448057,0.003298248254607705,0.00048443605680148456
1503980471,3283,vehicle,92.10784149169922,93.6564712524414,-0.009073656470319397,-4.674939409898387,-1.5727372385973464
2125414330,3283,vehicle,395.96044921875,162.91830444335938,0.0006045080766580232,-3.5274114090778554,-1.5706249523787499
2396446624,3283,vehicle,298.8605041503906,327.04852294921875,-6.574398769128449,-0.0046660648009942155,-3.140882921159287
4076155829,3283,vehicle,115.0353012084961,-1.959810733795166,-4.072299243463063,-0.0013892687510071128,-3.141251502654154
130361148,3283,vehicle,123.20835876464844,326.97216796875,-4.380784986523561,0.00012833409735849596,3.1415633588178022
3417340120,3283,vehicle,116.7286605834961,330.47015380859375,6.41068403461435,0.03009623906037972,0.004694665622524266
2197730220,3283,vehicle,244.6249542236328,-1.9504541158676147,-1.5253450188551354,0.002527933957220289,3.139935368443437
118743835,3283,vehicle,273.611572265625,59.32876968383789,3.7214401171982665,0.0018023792646729678,0.0004843230219978932
904053063,3283,vehicle,232.82228088378906,55.83919906616211,-4.096866817184241,-0.003162988293456956,-3.140820603189779
1291681130,3283,vehicle,254.40298461914062,195.57411193847656,-5.066293200935202,0.01586301352227619,3.138461575096187
715062232,3283,vehicle,300.7381591796875,59.32856369018555,3.770859392016049,-0.004715916320461193,-0.0012506204479012103
220877689,3283,vehicle,125.62899780273438,129.75665283203125,-3.1344712730282445,-0.0009482876084408404,-3.14129011848996
2069714320,3283,vehicle,-2.4195752143859863,191.25051879882812,0.0027927010050018135,3.068445126913397,1.569886191492362
3190467641,3283,vehicle,128.72296142578125,-1.9599955081939697,-5.533596038577974,-5.157900180427319e-05,-3.141583332525978
708315452,3283,vehicle,88.82047271728516,72.55657196044922,-0.1817669230895429,4.267006210663265,1.6133688210325763
1314594676,3283,vehicle,88.57059478759766,169.922119140625,-0.0005943202490891043,1.7817441425934701,1.571129887721429
2302084468,3283,vehicle,307.5403137207031,330.7589111328125,5.113019577736071,0.22455087196967868,0.04388926511034493
757051778,3283,vehicle,257.62518310546875,199.0606231689453,3.583834647061817,8.759589877205299e-05,2.444194762903595e-05
4203008516,3283,vehicle,153.76075744628906,20.11245346069336,0.001698164458710314,3.4542246458985537,1.570304707257668
2631691725,3283,vehicle,301.9207458496094,199.05918884277344,6.488431960253018,-0.002408795379578296,-0.0003712445909384645
1513387753,3283,vehicle,236.8900146484375,59.33108139038086,6.808421290139668,0.0032973964147950488,0.000484311416181131
156273220,3283,vehicle,92.10768127441406,158.06663513183594,-0.010195950854718805,-4.862524787042449,-1.5728931666791706
3812119762,3283,vehicle,117.69828796386719,55.83932113647461,-3.5274334735105746,-0.0010634148208482762,-3.1412911837543964
3616050434,3283,vehicle,335.4345703125,301.27984619140625,-0.07635098942475041,6.559811210123361,1.5824350065488153
2942158310,3283,vehicle,88.62023162841797,16.884483337402344,-0.0012189661694557141,4.072188671775284,1.5710956661014215
3608800298,3283,vehicle,106.97161865234375,133.23753356933594,4.380793061476003,-0.0005390041693913148,-0.00012303803423433814
1146464971,3283,vehicle,1.6794354915618896,19.96941566467285,0.18228367903017392,-6.491270368184849,-1.5427223478477172
3013099654,3283,vehicle,-2.410520315170288,48.17506790161133,0.0024650202931439033,1.5253767123266355,1.5691803206454364
2246582517,3283,vehicle,88.62128448486328,96.7715835571289,-0.001979112134130946,3.721301506191852,1.5713281600645854
3192940987,3283,vehicle,379.8923034667969,327.0495910644531,-4.096843019506159,-0.0023948666391039397,-3.1410080897305206
828836647,3283,vehicle,88.6241226196289,251.37698364257812,0.016094431629242827,5.066300100492195,1.5676195750885955
1702089089,3283,vehicle,395.95849609375,248.09182739257812,-0.004879085361858143,-3.7708436872025355,-1.5720902236105117
2111029583,3283,vehicle,25.89497947692871,330.45318603515625,3.564386604063241,0.0001238935095383774,3.475871818933715e-05
420096522,3283,vehicle,188.03526306152344,129.75003051757812,-3.0747465213112473,0.002530261068057946,3.140769736812959
510102133,3283,vehicle,158.07611083984375,25.231821060180664,6.06336431852647e-07,-0.0004068172849490781,-1.5693058886908338
4109025732,3283,vehicle,126.32638549804688,1.8195490837097168,4.2668965929045415,0.18158395115063164,0.04253078247710631
2913592560,3283,vehicle,209.65206909179688,2.0612316131591797,1.7815570406091037,0.0003892382161618153,0.00021848203627282468
3970347779,3283,vehicle,112.34034729003906,59.54864501953125,5.113044268097302,0.22455381092001583,0.04388962713380562
1933996401,3283,vehicle,395.9606628417969,104.11479187011719,-7.444518664980241e-05,-3.583806752385357,-1.5708170994513992
3047764241,3283,vehicle,1.6962882280349731,47.50117874145508,0.19090258863592177,-3.3884858149752617,-1.5145172082168517
1260711767,3283,vehicle,273.32073974609375,133.42926025390625,6.488436728624349,-0.0024087969388759374,-0.00037124455842917385
3957993155,3283,vehicle,308.9100036621094,2.0210745334625244,6.808420813317573,0.003297365196687025,0.00048430686488043994
4289594148,3283,vehicle,-2.4179739952087402,81.20331573486328,0.009662424645274427,4.862526353331305,1.568809209147534
4139896837,3283,vehicle,269.7882995605469,129.48934936523438,-3.5274465845432608,-0.0010699946849752678,-3.141289319541633
1686932955,3283,vehicle,183.08053588867188,-1.9613871574401855,-6.574399249691334,-0.004660812534140558,-3.140883720107614
1726501337,3283,vehicle,395.9593200683594,67.25541687011719,0.0008334487102217093,-4.072279367989143,-1.570591662865124
1682591593,3283,vehicle,174.65142822265625,330.457763671875,4.380814519147959,-0.0005390068095011049,-0.00012303803423433814
3380823586,3283,vehicle,392.4595642089844,215.39138793945312,-0.0315237695775054,6.551115484682208,1.5756082594105063
4176583038,3283,vehicle,172.62530517578125,2.010577440261841,1.525633277864548,-0.002448369833786386,-0.0016048206128074238
3855978784,3283,vehicle,301.33984375,330.5379943847656,2.6937225356903084e-06,5.5359740715942416e-12,2.0551389381192402e-06
1042098875,3283,vehicle,157.4965057373047,38.271400451660156,0.4759558593193806,-4.087413380815026,-1.454874117707873
644930681,3283,vehicle,88.62413024902344,147.7869873046875,0.01609445586589416,5.066307729848229,1.5676195750885955
2234188147,3283,vehicle,361.661865234375,-1.9586615562438965,-3.770826369943834,0.004421634670941358,3.140420063761831
4109707537,3283,vehicle,18.46548080444336,326.9764709472656,-3.601256057192284,-0.0007346495457212658,-3.141388655450293
3675841917,3283,vehicle,269.0052795410156,55.839969635009766,-3.074745806055752,0.0025302604794620663,3.140769736812959
2817926641,3283,vehicle,182.01307678222656,55.83999252319336,-5.533596038577974,-5.157900180427319e-05,-3.141583332525978
4029506115,3283,vehicle,-2.219564914703369,17.716564178466797,-0.18174498703047273,4.267012395008555,1.6133636278684507
3277167701,3283,vehicle,88.57060241699219,26.632455825805664,-0.0005943244242629397,1.7817566595681766,1.571129887721429
518241310,3283,vehicle,71.82952117919922,-2.178889513015747,-5.1130930884791255,-0.22523436979401917,-3.0975706007707835
778540568,3283,vehicle,173.565185546875,59.330623626708984,3.5838229646161466,8.490717984281344e-05,2.36917896517864e-05
657465635,3283,vehicle,1.6746751070022583,307.01397705078125,0.24564196249771475,-3.3707314195300895,-1.49804995109051
835227171,3283,vehicle,128.49090576171875,59.32920837402344,6.488429576067469,-0.002408794283527995,-0.00037124455842917385
715280319,3283,vehicle,140.29989624023438,195.2685089111328,-6.808468090519357,-0.004050699845141157,-3.1409977034022694
3020211281,3283,vehicle,153.76202392578125,30.78331184387207,0.00965205448080097,4.862521128707937,1.568811339676406
2101598167,3283,vehicle,277.55828857421875,-1.960654377937317,-3.527450641060392,-0.0010587229112749754,-3.1412925153349414
14974470,3283,vehicle,205.0294647216797,59.33116149902344,6.574385415215018,0.00394142227841695,0.0005995118261691821
1398818972,3283,vehicle,92.1092758178711,175.28530883789062,0.0008177400193255832,-4.072362817678216,-1.5705955244487046
2694688339,3283,vehicle,44.618343353271484,326.97216796875,-4.380787847546509,0.00012833418117151092,3.1415633588178022
3916750283,3283,vehicle,170.74130249023438,326.95947265625,-6.410725443527835,-0.030814924226050068,-3.136785914138309
1983197581,3283,vehicle,92.10855865478516,29.49840545654297,0.001637648552410375,-3.721189376965718,-1.570356239424761
2942851653,3283,vehicle,180.21766662597656,198.7605743408203,4.0968480174368125,0.002785949587679941,0.0006800225798922213
3949181016,3283,vehicle,88.62417602539062,105.32698822021484,0.01609105853591382,5.066300111206588,1.5676202408788682
3672416715,3283,vehicle,392.4712829589844,309.5481262207031,0.004557680413440905,3.770803319763428,1.5695876511341642
3325384226,3283,vehicle,295.68548583984375,55.846580505371094,-3.601256057192284,-0.0007346495457212658,-3.141388655450293
1359910869,3283,vehicle,113.3073501586914,2.0196073055267334,3.075775373407477,-0.0029783520646337186,-0.0009683253073342297
2262630317,3283,vehicle,53.79743957519531,330.4599914550781,1.5417670997493156,-0.0002521068150579829,-0.00016351809093086522
805172996,3283,vehicle,178.83364868164062,195.4702911376953,-4.267132718727624,-0.18187818977457645,-3.098995391953976
1986857511,3283,vehicle,-2.469205379486084,120.09249877929688,-0.000602403475872476,1.7817932541089878,1.5711344150952822
1279946346,3283,vehicle,48.710350036621094,2.238633632659912,5.113043137801735,0.2245578115816937,0.04389041775975423
74618890,3283,vehicle,218.78517150878906,198.7606201171875,3.583834647061817,8.759589877205299e-05,2.444194762903595e-05
3085549129,3283,vehicle,392.47088623046875,21.14224624633789,0.0017012681392880947,3.453989086786605,1.5703037751512865
2057201815,3283,vehicle,107.70443725585938,198.79649353027344,6.419727557815601,0.5839441322214578,0.09071126146973398
1015694095,3283,vehicle,62.73006820678711,330.46099853515625,6.80842987301969,0.003297788354492397,0.00048436837245835045
1250507297,3283,vehicle,314.9665832519531,-1.9580590724945068,-4.862515917626711,0.009391107422954266,3.139661329167268
4280502996,3283,vehicle,-1.398106336593628,310.6960144042969,-0.16232915027175354,3.491607805196018,1.6172541067468928
3428459672,3283,vehicle,16.619529724121094,2.0211243629455566,6.574383030195108,0.003942812649248932,0.0005997235266698973
414519966,3283,vehicle,319.2652893066406,327.05023193359375,-4.072335967264102,-0.0013675907034937955,-3.141256828976334
2866945113,3283,vehicle,233.7313995361328,330.457763671875,4.380813088348791,-0.0005413399244772593,-0.00012357065019770867
1853482628,3283,vehicle,1.6794344186782837,76.84941101074219,0.18228391995941715,-6.491278947871553,-1.5427223478477172
3880166169,3283,vehicle,335.4994201660156,248.90541076660156,0.002436605001521894,1.525771460442432,1.5691993622472307
1073352953,3283,vehicle,396.4460144042969,18.598459243774414,0.0016511236968707746,-3.7214068087766226,-1.5703526441572895
213556023,3283,vehicle,261.1523132324219,327.0492248535156,-4.096837253289244,-0.0031629654686354623,-3.140820603189779
1628590046,3283,vehicle,1.6598750352859497,186.0386505126953,0.15664462977389468,-5.038657101615377,-1.53971776950589
4120465129,3283,vehicle,300.7381286621094,133.2385711669922,3.7708384111974955,-0.0047158900814068165,-0.0012506204479012103
1015227284,3283,vehicle,295.68548583984375,129.75662231445312,-3.601256057192284,-0.0007346495457212658,-3.141388655450293
2900396540,3283,vehicle,206.2952423095703,-1.9599813222885132,-3.074955604878417,0.002541897877239872,3.1407660083874327
3587539486,3283,vehicle,390.1233825683594,328.8051452636719,5.059150151025188,-1.7507481502149753,-0.3331567252579778
1146849989,3283,vehicle,216.2063751220703,133.03953552246094,4.266898463770432,0.18158484899431446,0.04253097389180966
1457681385,3283,vehicle,395.9905700683594,212.82794189453125,0.00021421372334542776,-1.7815257182080173,-1.5706760850716794
1726747598,3283,vehicle,118.69996643066406,129.53109741210938,-5.113036581749061,-0.22502177477531748,-3.0976116134515705
367118466,3283,vehicle,392.46923828125,165.4451904296875,-0.0002457645746664331,3.583806983150324,1.5708649031929662
2065705843,3283,vehicle,158.4124298095703,133.2391815185547,3.454237449906724,-0.0018361584265423104,-0.0005315668885612346
3978545900,3283,vehicle,334.8310546875,219.60073852539062,0.002045057881868902,6.488433992441879,1.5704811416798856
714679325,3283,vehicle,281.4300231933594,2.0210745334625244,6.808419382842497,0.003297289692013535,0.0004842958767402001
3262285446,3283,vehicle,200.66659545898438,55.8419075012207,-4.862526413025954,0.009388537745114583,3.139661861799486
1401880247,3283,vehicle,216.25827026367188,195.26931762695312,-3.527443247821132,-0.0010662360126465912,-3.1412903848060694
2250339631,3283,vehicle,235.2205047607422,129.74856567382812,-6.574394477595106,-0.004666061755153314,-3.140882921159287
2525145270,3283,vehicle,92.1092758178711,225.6153106689453,0.0008177400193255832,-4.072362817678216,-1.5705955244487046
1825059061,3283,vehicle,245.63137817382812,2.0176284313201904,4.3807859086309815,-0.0005413365658618402,-0.00012357065019770867
346279610,3283,vehicle,118.7387924194336,194.9991912841797,-6.539419482247065,-0.031820161457567116,-3.1367267919621096
893025708,3283,vehicle,395.95062255859375,308.7345886230469,-0.0023979532868937305,-1.525739931177581,-1.5723679913122068
1724402154,3283,vehicle,88.62137603759766,214.2215576171875,-0.001974160968848193,3.7213091382173578,1.5713268284840405
2595182244,3283,vehicle,144.36769104003906,198.7605743408203,4.096848017438805,0.0027859466575962362,0.000680021864687827
874453657,3283,vehicle,392.4739685058594,70.80696868896484,0.016094474043382656,5.066313451865255,1.5676195750885955
1498616609,3283,vehicle,92.10844421386719,111.72190856933594,-0.00487712561021065,-3.7708813599047497,-1.5720896909782935
505512523,3283,vehicle,132.66490173339844,133.2328338623047,3.5643868424819702,0.00012388918697166812,3.4757503154599094e-05
3709073522,3283,vehicle,296.115234375,195.56983947753906,-3.074746282892749,0.0025302608718593194,3.140769736812959
27029540,3283,vehicle,1.507601022720337,240.24839782714844,-0.0015345800543586777,-5.529990460141138,-1.5710738281804828
1375770528,3283,vehicle,366.60369873046875,327.2502746582031,-4.267128382648969,-0.18187914342727626,-3.0989951256378667
4266869573,3283,vehicle,47.867645263671875,-1.938503623008728,-1.7817751889001419,0.0007701385996704374,3.1411604225448735
368528135,3283,vehicle,64.57992553710938,326.75115966796875,-5.11310756178079,-0.22502489856535068,-3.0976116134515705
4012051816,3283,vehicle,338.98065185546875,248.15480041503906,-7.444503311959775e-05,-3.583799361409407,-1.5708170994513992
3938307140,3283,vehicle,92.10906982421875,306.98773193359375,-0.0019737132523553976,-3.4542841040974,-1.5713677080067732
1966079641,3283,vehicle,-1.9793964624404907,251.9549102783203,0.002094561752920264,6.573293352199939,1.5704776795704687
1759883367,3283,vehicle,-2.421229600906372,152.4540557861328,-0.0037565710301106646,6.889222551396295,1.5713416090280903
3487645883,3283,vehicle,214.3865966796875,129.75192260742188,-4.862518793644145,0.009383343146017587,3.1396629270639216
544848518,3283,vehicle,92.1104507446289,85.70829010009766,0.000604507382057665,-3.5274073559620702,-1.5706249523787499
1325658571,3283,vehicle,154.71060180664062,129.74856567382812,-6.574404968009945,-0.0046660692005421845,-3.140882921159287
921579549,3283,vehicle,139.52536010742188,55.840179443359375,-4.072267293150233,-0.001395764914170787,-3.1412499047574998
4072577581,3283,vehicle,141.3883514404297,326.97216796875,-4.380784509686403,0.00012833408338966013,3.1415633588178022
94066344,3283,vehicle,240.19105529785156,133.25057983398438,6.539350649210458,0.03106161225723328,0.0047499178927650045
2853390219,3283,vehicle,262.07470703125,330.5306091308594,1.5250240697313604,-0.0024035292950826894,-0.0015760586030717305
2524564450,3283,vehicle,1.6040456295013428,148.575439453125,0.056709044422665916,-3.6213592903823453,-1.5551380048496668
1882516347,3283,vehicle,20.322418212890625,-1.9608368873596191,-4.096292710465058,-0.003155999597736985,-3.1408222010864333
815178544,3283,vehicle,144.8669891357422,330.4559020996094,5.066318849444695,-0.016344776888797163,-0.003226153084447664
2188308515,3283,vehicle,92.10844421386719,248.09182739257812,-0.004877046052823707,-3.7708198479627897,-1.5720896909782935
1160083145,3283,vehicle,392.4767150878906,253.13763427734375,-0.0004041482475414756,3.346308445366967,1.5709171011503318
1832698586,3283,vehicle,228.91525268554688,326.9698486328125,-3.074746282892749,0.0025302608718593194,3.140769736812959
3748346955,3283,vehicle,71.19703674316406,2.0184543132781982,5.533597854894222,-0.0010050540332312444,-0.00018162758634340405
3198444053,3283,vehicle,200.01364135742188,327.1702880859375,-4.2671317659184105,-0.1818781491629465,-3.098995391953976
808811405,3283,vehicle,339.0105895996094,226.67794799804688,0.00021516335560858735,-1.7815317977673901,-1.5706755524394616
84250811,3283,vehicle,192.09033203125,133.4585723876953,5.113020737926378,0.2245461904856377,0.04388834132634181
3956289865,3283,vehicle,88.61925506591797,296.5951843261719,-0.00024719932109191405,3.5838520441632045,1.5708653026671295
1912328786,3283,vehicle,376.9576721191406,-1.958992838859558,-3.4542396802993127,0.0021056963882958904,3.140983056016274
4030311199,3283,vehicle,338.9786376953125,298.7392578125,-0.002777721298398111,-6.488438965360902,-1.5712244299401268
3147513812,3283,vehicle,392.46875,108.01405334472656,-0.003780426197285343,6.889229690905644,1.5713450711375074
1663586846,3283,vehicle,201.8333740234375,330.45794677734375,4.86253918187736,-0.009922091282449724,-0.0020405136371072245
