id,timestamp_ms,agent_type,x,y,vx,vy,psi_rad
-1,4221,vehicle,365.770263671875,2.016505002975464,6.534200574606463,-0.0011067437037089063,-0.00016937706158368486
2985032057,4221,vehicle,92.10575866699219,34.31620407104492,-0.00413952196809106,-5.072988728570815,-1.5716123193528968
3028941286,4221,vehicle,367.2487487792969,330.53656005859375,6.293790275822218,-0.000901762108767497,-0.00014327806664626302
2920337868,4221,vehicle,387.4141845703125,2.6990740299224854,6.099937875898023,1.8847772801455556,0.2996775945623737
1503980471,4221,vehicle,92.10527038574219,90.29743194580078,-0.002427604595408814,-3.715304296844133,-1.5714497333683475
2125414330,4221,vehicle,395.96044921875,157.57415771484375,0.0016591582044292264,-7.429973893882041,-1.5705730207374935
2396446624,4221,vehicle,291.8722839355469,327.04681396484375,-7.276963221907862,-0.00041860206708217544,-3.1415351293102476
4076155829,4221,vehicle,112.70864868164062,-1.9603220224380493,0.04479383670503291,2.457439984028819e-06,-3.1415377924713375
130361148,4221,vehicle,117.02586364746094,326.9712219238281,-7.426115926970806,-0.000965114823206444,-3.1414626913285972
3417340120,4221,vehicle,123.46956634521484,330.4792175292969,6.940364837291087,-7.023656937696014e-05,-1.0120011126385772e-05
2197730220,4221,vehicle,243.23171997070312,-1.9497350454330444,-1.477669990936824,0.0009739802639508337,3.1409335212199987
118743835,4221,vehicle,279.2742614746094,59.338035583496094,7.712641085922921,0.013647258348180667,0.0017694644354549305
904053063,4221,vehicle,226.83387756347656,55.83448791503906,-7.85402584039768,-0.006120179677806515,-3.140813412654836
1291681130,4221,vehicle,248.35667419433594,195.58314514160156,-6.807787319116692,0.0052269475751552325,3.140824864247523
715062232,4221,vehicle,306.3791198730469,59.31911087036133,7.590754227232173,-0.014635967693082534,-0.001928128499180206
220877689,4221,vehicle,122.85487365722656,129.7564697265625,-3.6017164280649476,-0.0008066830966869111,-3.1413686817421174
2069714320,4221,vehicle,-2.418578624725342,193.8519287109375,0.0018604139376035183,3.04522004518904,1.5701853976408324
3190467641,4221,vehicle,121.7145767211914,-1.960008978843689,-4.151254177092181,3.3166375804648183e-06,3.141591854641466
708315452,4221,vehicle,88.76942443847656,76.24994659423828,-0.016575837621929136,1.991131214307699,1.5791209688883208
1314594676,4221,vehicle,88.63375091552734,172.3185577392578,0.06664827964387164,1.9508757208598317,1.5366463458207016
2302084468,4221,vehicle,311.3895568847656,330.8018798828125,2.7246059945689254,0.0016823689411310358,0.0006174722989933795
757051778,4221,vehicle,262.9248352050781,199.06063842773438,7.017192361540223,-0.00017566637417218783,-2.5033712214914173e-05
4203008516,4221,vehicle,153.76492309570312,25.100536346435547,0.003216300783096332,5.622440848708605,1.5702242797927475
2631691725,4221,vehicle,308.2486267089844,199.0576171875,6.294083527757382,-0.0009219187157788969,-0.0001464738599543581
1513387753,4221,vehicle,243.76271057128906,59.33108139038086,7.091172141143185,-0.0010462252209326396,-0.00014753910813574447
156273220,4221,vehicle,92.10006713867188,152.02362060546875,-0.004554942999197791,-6.959722458891362,-1.5714507986327835
3812119762,4221,vehicle,112.6532211303711,55.83742141723633,-5.4786162052991845,-0.0005952898525641513,-3.141483996617318
3616050434,4221,vehicle,335.41619873046875,307.3336486816406,-0.0035003056002834887,3.5925707454332083,1.5717706442797021
2942158310,4221,vehicle,88.6200942993164,20.060836791992188,-0.00032117006001039424,3.363941654132364,1.570891801119976
3608800298,4221,vehicle,113.15410614013672,133.23739624023438,7.426110256893605,-0.0003994938833442905,-5.379584589227795e-05
1146464971,4221,vehicle,1.722342610359192,13.171009063720703,0.010943775753050283,-6.988630309225799,-1.56923038807393
3013099654,4221,vehicle,-2.409724235534668,49.56816482543945,0.001037927364368899,1.4776683976823914,1.5700939180573883
2246582517,4221,vehicle,88.61729431152344,100.67969512939453,-0.006026609017755399,4.494889033891422,1.572137095245697
3192940987,4221,vehicle,374.3563232421875,327.04742431640625,-5.260030077363047,0.00469978839498826,3.1406991630440717
828836647,4221,vehicle,88.63362121582031,257.4233093261719,0.0058470040228464125,6.807789675830337,1.569937457343346
1702089089,4221,vehicle,395.9908752441406,242.40492248535156,-0.0012573073659851587,-7.921323676462438,-1.5709550511958654
2111029583,4221,vehicle,29.117210388183594,330.45318603515625,3.583596681787311,-0.0004199225635977438,-0.00011717907983616381
420096522,4221,vehicle,185.4383087158203,129.7508087158203,-3.0390941142526504,0.001424473210490306,3.141123937237939
510102133,4221,vehicle,158.08074951171875,25.23177146911621,-3.6220415759139935e-07,7.215842969398865e-05,-1.5657768007723152
4109025732,4221,vehicle,130.04710388183594,1.8705592155456543,5.4811196634165364,0.04184258639157591,0.007633800421603518
2913592560,4221,vehicle,212.04852294921875,1.997881293296814,1.950828474917957,-0.06683340172857037,-0.034245590537923525
3970347779,4221,vehicle,116.1895980834961,59.59150314331055,2.7246067077556355,0.001685716633218371,0.0006187008250870574
1933996401,4221,vehicle,395.9606628417969,98.72724151611328,-0.0006035342789600497,-7.418110346084341,-1.5708776863661986
3047764241,4221,vehicle,1.762068748474121,42.32612609863281,0.05158377876658896,-7.057528811802512,-1.5634874143412287
1260711767,4221,vehicle,279.6486511230469,133.4276885986328,6.294686273834107,-0.0007409583527181556,-0.00011771172018150232
3957993155,4221,vehicle,315.78271484375,2.0210700035095215,7.091169280120267,-0.0010462247988198667,-0.00014753910813574447
4289594148,4221,vehicle,-2.408989906311035,87.9134521484375,0.010786653401085549,8.84252271776562,1.5695764658575857
4139896837,4221,vehicle,264.4934387207031,129.4871826171875,-7.18952968354062,-0.0031477465677190947,-3.141154829906584
1686932955,4221,vehicle,176.78334045410156,-1.9628432989120483,-4.154343494045654,0.0009603279574062938,3.1413614912071743
1726501337,4221,vehicle,395.9631042480469,61.8133544921875,0.004134477807812442,-7.055077771845734,-1.5702102981970247
1682591593,4221,vehicle,180.8338623046875,330.457763671875,7.4261264693569595,-0.00039949475550747155,-5.379584589227795e-05
3380823586,4221,vehicle,392.4390563964844,223.9101104736328,-0.023219568126723385,10.816681735361666,1.572942967791555
4176583038,4221,vehicle,174.01849365234375,2.009760618209839,1.4776404067564504,-0.0010042616787216063,-0.0006796386451696402
3855978784,4221,vehicle,301.33984375,330.5379943847656,4.323944935426844e-08,8.885880956086513e-14,2.0550402673425396e-06
1042098875,4221,vehicle,157.83631896972656,33.34416580200195,0.09501603744865082,-3.745775048272018,-1.54543557636629
644930681,4221,vehicle,88.63362884521484,153.83335876464844,0.005847003613305595,6.807789198993355,1.569937457343346
2234188147,4221,vehicle,358.1123046875,-1.954813003540039,-1.4559789433759278,-0.0006940737107009543,-3.141115947754669
4109707537,4221,vehicle,15.245000839233398,326.97650146484375,-3.6017520335966067,-0.00025706682980627385,-3.141521280872579
3675841917,4221,vehicle,266.4083251953125,55.84071350097656,-3.0390941142526504,0.001424473210490306,3.141123937237939
2817926641,4221,vehicle,174.95188903808594,55.83999252319336,-6.2144393920334275,2.648008509685007e-05,3.141588392532049
4029506115,4221,vehicle,-2.270871162414551,21.43773078918457,-0.04229608248681321,5.481325997284893,1.5785125697372921
3277167701,4221,vehicle,88.63375091552734,29.028839111328125,0.06664823080142682,1.9508742911824224,1.5366463458207016
518241310,4221,vehicle,67.98040008544922,-2.2224016189575195,-2.724545573910662,-0.0021629853654445996,-3.1407987652688405
778540568,4221,vehicle,178.86485290527344,59.330745697021484,7.017194745726012,-0.00017566644811496028,-2.503371424674484e-05
657465635,4221,vehicle,1.7650920152664185,301.8513488769531,0.07123869680644752,-7.080516077686388,-1.5607354368287953
835227171,4221,vehicle,134.14169311523438,59.32780075073242,3.1906466413352867,-0.00021243013703308057,-6.657902318831962e-05
715280319,4221,vehicle,133.4272003173828,195.26739501953125,-7.091171736486158,-0.0002662775505146901,-3.141555103018423
3020211281,4221,vehicle,153.76776123046875,36.23249816894531,-0.002138129141159724,4.439335308162635,1.5712779594780375
2101598167,4221,vehicle,272.2634582519531,-1.9627974033355713,-7.189528731541966,-0.0031439167755445115,-3.141155362538802
14974470,4221,vehicle,212.01766967773438,59.331668853759766,7.276962698148814,-0.0009263505714126858,-0.00012729906759649694
1398818972,4221,vehicle,92.113037109375,170.0221405029297,-0.0004913617157180539,-6.384193401501242,-1.5708732921503998
2694688339,4221,vehicle,38.435882568359375,326.97125244140625,-7.426118310899288,-0.0009670928279921166,-3.1414624250124885
3916750283,4221,vehicle,164.00045776367188,326.9491271972656,-6.940372836668109,-0.0012198998512546785,-3.141416884957848
1983197581,4221,vehicle,92.11721801757812,23.882831573486328,0.008933418137402395,-6.893628530922295,-1.569500432608464
2942851653,4221,vehicle,186.20602416992188,198.76422119140625,7.854013960115495,0.004673084152695449,0.000594993034768779
3949181016,4221,vehicle,88.6318130493164,110.73097229003906,-0.00353552256608405,4.302595593296464,1.5716180451492405
3672416715,4221,vehicle,392.4801025390625,315.1253967285156,0.009479353253081973,6.8398047563115485,1.5694104177636194
3325384226,4221,vehicle,292.46502685546875,55.84663391113281,-3.6017520335966067,-0.00025706682980627385,-3.141521280872579
1359910869,4221,vehicle,115.90713500976562,2.018355131149292,3.0406660964110017,-0.0020957065391101434,-0.0006892260250939256
2262630317,4221,vehicle,57.763671875,330.4598083496094,0.8687674318598303,-0.00012123616999839737,-0.00013954962486550676
805172996,4221,vehicle,175.21240234375,195.42022705078125,-4.090895738250545,-0.03309995396031617,-3.1335017038820236
1986857511,4221,vehicle,-2.406064510345459,122.48886108398438,0.06664831627570526,1.9508767931178885,1.5366463458207016
1279946346,4221,vehicle,52.55963134765625,2.281498908996582,2.724605038491449,0.001686256085160356,0.000618899196778606
74618890,4221,vehicle,224.0848388671875,198.76063537597656,7.017192361540223,-0.00017566637417218783,-2.5033712214914173e-05
3085549129,4221,vehicle,392.4754943847656,26.361120223999023,0.007274139968197698,7.095446672640374,1.5697711429332706
2057201815,4221,vehicle,114.24530029296875,198.956787109375,6.565894203876404,0.06108238438791198,0.009302711930593706
1015694095,4221,vehicle,66.9201889038086,330.4612731933594,0.7127576928552436,-0.0003234513750218204,-0.0004538026822587928
1250507297,4221,vehicle,308.2565002441406,-1.9496711492538452,-8.842519879370922,0.009954189702983557,3.1404669353970167
4280502996,4221,vehicle,-1.4484107494354248,315.9593200683594,-0.03755844014609917,7.158976261786072,1.5760426209842981
3428459672,4221,vehicle,23.607873916625977,2.0216407775878906,7.276598394562898,-0.0009263041959056262,-0.00012729906759649694
414519966,4221,vehicle,314.00360107421875,327.045166015625,-6.381322254886628,-0.0012830839467925896,-3.1413915849274923
2866945113,4221,vehicle,239.91384887695312,330.457763671875,7.4261245620083285,-0.00039949468307729364,-5.379584995593928e-05
1853482628,4221,vehicle,1.7223423719406128,70.05099487304688,0.01094378023323507,-6.98863317024524,-1.56923038807393
3880166169,4221,vehicle,335.4999084472656,250.298583984375,0.0010282660459451196,1.4776397942005837,1.5701004428020588
1073352953,4221,vehicle,396.45465087890625,12.936030387878418,0.01294810632349229,-7.712447264687098,-1.5691174700437107
213556023,4221,vehicle,255.16392517089844,327.0445251464844,-7.854011058450264,-0.006120168159105659,-3.140813412654836
1628590046,4221,vehicle,1.697802186012268,179.34341430664062,0.0009213089629367685,-8.692101429750135,-1.5706903329835114
4120465129,4221,vehicle,306.37908935546875,133.2290802001953,7.590756611413533,-0.014635972290096257,-0.001928128499180206
1015227284,4221,vehicle,292.46502685546875,129.75665283203125,-3.6017520335966067,-0.00025706682980627385,-3.141521280872579
2900396540,4221,vehicle,203.69915771484375,-1.959229588508606,-3.0390941176581623,0.0014171889730112133,3.1411263340829203
3587539486,4221,vehicle,394.6860046386719,325.0491638183594,3.718377053788748,-4.695430030545085,-0.9010053205275155
1146849989,4221,vehicle,219.92698669433594,133.09054565429688,5.481118219931392,0.041844280367199296,0.007634111470496461
1457681385,4221,vehicle,395.92718505859375,210.43153381347656,-0.06702072511749035,-1.9508154880257007,-1.6051380553675774
1726747598,4221,vehicle,115.31893157958984,129.49801635742188,-0.4015507619769888,-0.0005417555140092314,-3.140243496181559
367118466,4221,vehicle,392.46923828125,170.83267211914062,-0.0007447876523663345,7.418117008967424,1.5708967279679926
2065705843,4221,vehicle,163.63140869140625,133.23419189453125,7.095829385950476,-0.007895308695431945,-0.0011126684433607804
3978545900,4221,vehicle,334.8319396972656,225.92877197265625,-8.971492834844727e-05,6.296707152681187,1.5708105747067285
714679325,4221,vehicle,288.3027038574219,2.0210697650909424,7.0911649885858905,-0.0010462241656507077,-0.00014753910813574447
3262285446,4221,vehicle,194.62359619140625,55.84790802001953,-6.959717266117375,0.0025967323562701627,3.141219544721073
1401880247,4221,vehicle,210.96343994140625,195.267333984375,-7.18953159088907,-0.0031477474028014716,-3.141154829906584
2250339631,4221,vehicle,228.2322998046875,129.74685668945312,-7.276971328139538,-0.00041860253338731296,-3.1415351293102476
2525145270,4221,vehicle,92.113037109375,220.35214233398438,-0.0004913617157180539,-6.384193401501242,-1.5708732921503998
1825059061,4221,vehicle,251.8137969970703,2.017519235610962,7.426111687405076,-0.00039949399047706815,-5.379584995593928e-05
346279610,4221,vehicle,112.2513656616211,194.9898223876953,-4.98439376552652,0.009663661400902619,3.1396538723162153
893025708,4221,vehicle,395.9500427246094,307.3414306640625,-0.0010733198467147472,-1.4776340401140977,-1.5715227039822157
1724402154,4221,vehicle,88.61164855957031,219.88421630859375,-0.014343071749845752,7.712624564501824,1.572656012184099
2595182244,4221,vehicle,150.35604858398438,198.76422119140625,7.854013960109114,0.004673094876489198,0.0005949944001589863
874453657,4221,vehicle,392.4874572753906,77.515625,0.019242163088527334,8.703080840016533,1.568585370457913
1498616609,4221,vehicle,92.0984878540039,106.0809555053711,-0.015314235738853706,-7.590772916340737,-1.5728138044786861
505512523,4221,vehicle,135.88702392578125,133.2322540283203,3.5835964433687333,-0.00041992253566007417,-0.00011717907983616381
3709073522,4221,vehicle,293.5182800292969,195.57066345214844,-3.0390943526712033,0.0014244733222409886,3.141123937237939
27029540,4221,vehicle,1.5055254697799683,232.9763946533203,-0.0019387545184941287,-6.669628338365213,-1.5710870108278787
1375770528,4221,vehicle,362.9831237792969,327.2001953125,-4.093527749102512,-0.033126701111272944,-3.1335003723014783
4266869573,4221,vehicle,45.47126770019531,-2.001452684402466,-1.9508495281064775,-0.06645805119397036,-3.107539611679277
368528135,4221,vehicle,60.73075866699219,326.70770263671875,-2.7244416429157847,-0.002138233708735842,-3.140807820016547
4012051816,4221,vehicle,338.98065185546875,242.85516357421875,-0.0008101178626709624,-7.0171646604205815,-1.5709117748281516
3938307140,4221,vehicle,92.10359954833984,301.7686462402344,-0.008518972998621139,-7.095870626311278,-1.5719968798143042
1966079641,4221,vehicle,-1.9776558876037598,260.21600341796875,0.001986491356047327,10.211017415412673,1.5706017828772663
1759883367,4221,vehicle,-2.422952175140381,161.2978057861328,-0.0021663716901241504,11.266741544349287,1.5709886070256003
3487645883,4221,vehicle,208.3435821533203,129.75791931152344,-6.959725373039806,0.0025948818937949125,3.1412198110371823
544848518,4221,vehicle,92.11126708984375,80.41349792480469,0.0011938000499677878,-7.189483543464013,-1.57063027870093
1325658571,4221,vehicle,147.72238159179688,129.74685668945312,-7.276967990279436,-0.0004186023413793152,-3.1415351293102476
921579549,4221,vehicle,134.26243591308594,55.835086822509766,-6.383921023426166,-0.0012530039383781917,-3.141396378617454
4072577581,4221,vehicle,135.20587158203125,326.9712219238281,-7.426115449876363,-0.0009670924554051693,-3.1414624250124885
94066344,4221,vehicle,247.0094451904297,133.2596893310547,6.9981102838107905,-0.0003839241007549928,-5.486111032830964e-05
2853390219,4221,vehicle,263.46783447265625,330.5299987792969,1.4776658456356322,-0.0011050218273198984,-0.0007478156340942501
2524564450,4221,vehicle,1.629833459854126,142.940185546875,0.030017874442252696,-7.962324779592373,-1.5670263559557804
1882516347,4221,vehicle,14.334490776062012,-1.965550184249878,-7.853777885150696,-0.006119986460888919,-3.140813412654836
815178544,4221,vehicle,150.9133758544922,330.4460144042969,6.807791977791389,-0.006465247475895108,-0.000949683179703675
2188308515,4221,vehicle,92.0984878540039,242.450927734375,-0.01531922031420804,-7.590738573937511,-1.5728144702689586
1160083145,4221,vehicle,392.47674560546875,256.3590087890625,9.663976573765514e-05,3.2544946656184,1.5707666325487422
1832698586,4221,vehicle,226.31829833984375,326.97064208984375,-3.0390943526712033,0.0014244733222409886,3.141123937237939
3748346955,4221,vehicle,78.25786590576172,2.014286518096924,6.214016334918671,-0.012699662273585688,-0.002043709560452482
3198444053,4221,vehicle,196.39285278320312,327.1202087402344,-4.092511642389172,-0.03311847831043878,-3.1335003723014783
808811405,4221,vehicle,338.947021484375,224.281494140625,-0.06702053083921555,-1.950817403174065,-1.6051379222095228
84250811,4221,vehicle,195.93946838378906,133.50144958496094,2.72453637678743,0.0016816288863054803,0.000617216450875961
3956289865,4221,vehicle,88.61872863769531,301.8948974609375,-0.0004606581984076062,7.0172095147563125,1.570861973715767
1912328786,4221,vehicle,371.73870849609375,-1.9534201622009277,-7.0958292695415714,0.007999245891998689,3.1404653375003626
4030311199,4221,vehicle,338.9764099121094,292.411376953125,-0.0016483653110743546,-6.293346665994973,-1.571058248688106
3147513812,4221,vehicle,392.4667053222656,116.85780334472656,-0.0021633711753555125,11.266741544925827,1.5709883407094913
1663586846,4221,vehicle,207.87640380859375,330.45086669921875,6.959733345202658,-0.0039034480102873217,-0.0005608616605521062
