id,timestamp_ms,agent_type,x,y,vx,vy,psi_rad
-1,17889,vehicle,392.1958923339844,74.65673828125,0.005173993880875001,15.586053943153567,1.5704643637650182
2985032057,17889,vehicle,92.1007308959961,23.029884338378906,-0.0027374555578790496,-5.064779495508826,-1.5713368153381282
3028941286,17889,vehicle,396.9242248535156,267.9675598144531,-0.001387154000604038,-7.234270439670629,-1.5709880743933824
2920337868,17889,vehicle,392.01129150390625,148.6568603515625,0.0026853313719301876,22.357534247303686,1.570676218229734
1503980471,17889,vehicle,92.1933364868164,41.04048156738281,0.0018661343805537404,-1.0623420775755053,-1.5690397057398804
2125414330,17889,vehicle,393.93157958984375,2.6887435913085938,-2.6539303680341577,-5.001312143214064,-2.058659741622076
2396446624,17889,vehicle,211.65628051757812,327.0251159667969,-5.564603802977456,0.00016894157421083912,3.1415622935533665
4076155829,17889,vehicle,112.6908187866211,-1.9369646310806274,6.807209868247445e-06,1.096786144904017e-09,-3.1414315323438435
130361148,17889,vehicle,92.39693450927734,253.28707885742188,-0.00207249373270269,-6.8990084396222295,-1.5710967313658575
3417340120,17889,vehicle,202.1967010498047,330.488037109375,5.569919939745802,-0.0011718538573657871,-0.00021038970986161448
2197730220,17889,vehicle,188.1700897216797,-1.9404646158218384,-0.0037363975211534865,1.7901182032910732e-06,3.141113550909688
118743835,17889,vehicle,313.34326171875,59.33672332763672,5.734515986289311,0.004267676891731891,0.0007442085982594277
904053063,17889,vehicle,178.70040893554688,55.8249397277832,2.2556812510855385e-08,-3.5184448088726795e-11,3.140032840139334
1291681130,17889,vehicle,170.24142456054688,195.60296630859375,-5.52149343290861,0.00014851672737950058,3.1415657556627834
715062232,17889,vehicle,324.1589050292969,59.22554016113281,7.563246556846197,-0.37370686686198157,-0.049370753874703355
220877689,17889,vehicle,112.5047607421875,129.75592041015625,-5.043012088083513,-0.0007386694516213531,-3.1414461797298388
2069714320,17889,vehicle,-2.393852710723877,305.5382995605469,0.00869140718114888,7.63050394978405,1.5696572927966697
3190467641,17889,vehicle,118.23929595947266,-2.3579301834106445,-0.004195441339818001,-0.0004038724353873519,-3.0456237794960246
708315452,17889,vehicle,88.74479675292969,99.75409698486328,3.5571958739255204e-05,0.011899335225833337,1.5678069284712826
1314594676,17889,vehicle,88.64353942871094,172.7102508544922,1.5930258391152363e-07,0.0016478540997319582,1.5706996540473268
2302084468,17889,vehicle,312.6423034667969,330.4279479980469,-0.010435088761132015,0.0012097036083125313,-0.11541136485567595
757051778,17889,vehicle,311.3310546875,199.05479431152344,6.431975354239378,-0.00036656884526874937,-5.699164326403437e-05
4203008516,17889,vehicle,153.76914978027344,42.09428024291992,0.0014665890005683502,5.645256805651205,1.5705365354305594
2631691725,17889,vehicle,322.96173095703125,199.08160400390625,5.58222828392314,0.11582688446588862,0.020746243354150436
1513387753,17889,vehicle,303.4747009277344,59.326263427734375,4.586908173865279,-0.0012362262285019734,-0.00026951186980672827
156273220,17889,vehicle,92.51573944091797,80.52609252929688,1.0497246842095852e-05,0.006785996521079922,-1.572343223914069
3812119762,17889,vehicle,94.38520050048828,53.37469482421875,-2.5370532515520745,-2.206183668448677,-2.425837750594571
3616050434,17889,vehicle,334.9191589355469,319.40740966796875,-0.7380481736183325,5.923316054479653,1.694757953422597
2942158310,17889,vehicle,88.59996795654297,25.917118072509766,-6.171462847898236e-10,-3.1464289199475864e-06,1.5706001849806122
3608800298,17889,vehicle,145.68064880371094,133.23402404785156,2.0316699534322997e-07,-9.847409260180045e-11,-0.0004846952858851307
1146464971,17889,vehicle,60.19765853881836,2.548055648803711,-8.921892418184977e-05,7.584332653583595e-08,-0.0008500809549347115
3013099654,17889,vehicle,-2.398902416229248,116.56488037109375,0.0007526879131700904,5.821411084152555,1.5706670303239731
2246582517,17889,vehicle,88.6150894165039,105.10009765625,7.530086681107e-12,5.522459949068866e-08,1.5706599729470845
3192940987,17889,vehicle,338.886474609375,281.5055236816406,-0.0009530174259161138,-5.885723036857288,-1.5709582469891734
828836647,17889,vehicle,88.65067291259766,305.6158142089844,0.010264039005443006,5.922516034987334,1.5690632747155275
1702089089,17889,vehicle,395.9611511230469,166.91891479492188,-0.007380113207476819,-7.946049124027995,-1.5717251042250617
2111029583,17889,vehicle,54.97348403930664,330.44464111328125,0.006475485254176147,-2.804079511155163e-06,-0.00043302999324688413
420096522,17889,vehicle,130.4552459716797,129.72885131835938,-3.480442091602141,-0.003600999220300795,-3.1405580155062975
510102133,17889,vehicle,158.4371795654297,12.56440544128418,-0.6192649220317575,-5.328157858960125,-1.6865021540433511
4109025732,17889,vehicle,228.95855712890625,1.8851667642593384,6.19546278795482,0.002205565366360734,0.0003559968558725881
2913592560,17889,vehicle,264.43719482421875,1.9320482015609741,4.7649239617811086,-0.0009136628152882604,-0.00019174761474035048
3970347779,17889,vehicle,128.58099365234375,59.21981430053711,-0.01032254105978365,0.0011078125263160276,-0.10691055465614302
1933996401,17889,vehicle,385.6752624511719,-2.1187078952789307,0.005676706055694953,0.0007618453198687469,-3.008184261943364
3047764241,17889,vehicle,51.74595260620117,2.0458083152770996,3.8585152000900065,0.002040144031979181,0.000528738060126001
1260711767,17889,vehicle,312.0583190917969,133.413818359375,4.588051591136389,-0.0013709404782975714,-0.00029880667430689053
3957993155,17889,vehicle,335.0718994140625,33.63330078125,4.463018186078492e-10,-6.378057408369423e-07,1.571496072371315
4289594148,17889,vehicle,-2.4041008949279785,165.64703369140625,0.003073180700112686,7.1276076367301835,1.5703651610144127
4139896837,17889,vehicle,181.10556030273438,129.48802185058594,-5.8768123481934165,-0.0011362552074627617,-3.1413993080946536
1686932955,17889,vehicle,175.89035034179688,-1.9625701904296875,1.689260276073453e-07,-8.705125051594243e-11,3.1410773319188627
1726501337,17889,vehicle,378.8957214355469,-2.3914153575897217,7.036273194162481e-05,1.9921196016795624e-07,-3.13876144703493
1682591593,17889,vehicle,275.28778076171875,330.45721435546875,6.146262506923894,-0.0013062052948614958,-0.0002125202549883232
3380823586,17889,vehicle,375.4582214355469,326.31024169921875,-5.832549477531881,0.055421925814658476,3.1320907611364994
4176583038,17889,vehicle,238.90049743652344,1.991640567779541,5.55912090110243,-0.0016018831349491444,-0.0002881540299465736
3855978784,17889,vehicle,305.56915283203125,330.5410461425781,3.804056543837651e-06,8.206706291740778e-10,0.00021573565139868049
1042098875,17889,vehicle,157.86293029785156,24.58061408996582,0.006273386695095569,-6.561604361926052,-1.5698402519635581
644930681,17889,vehicle,88.63038635253906,165.76617431640625,-7.149897030644547e-10,2.774632886102762e-07,1.5733732014656572
2234188147,17889,vehicle,358.0130310058594,-1.9551103115081787,2.4656197515114757e-05,1.9101494401668684e-08,-3.1408179400286893
4109707537,17889,vehicle,2.608643054962158,198.59939575195312,-0.0025696664491712943,-12.244839398642558,-1.5710061838887948
3675841917,17889,vehicle,184.01995849609375,55.83591842651367,0.43477810909553455,0.002174756134440805,-3.1365907044304064
2817926641,17889,vehicle,115.04832458496094,55.75227737426758,-5.321364402299229,-7.085825311587921e-05,-3.141579337784343
4029506115,17889,vehicle,-2.3176095485687256,106.39276123046875,-0.009283224554608454,5.033991837101519,1.572640432691722
3277167701,17889,vehicle,88.64314270019531,33.23469161987305,1.586633842517281e-07,0.0016480522386722951,1.5707000535214903
518241310,17889,vehicle,1.4874746799468994,1.3213196992874146,-2.6190527640082624,1.9736470286037457,2.495808846126986
778540568,17889,vehicle,264.6781921386719,59.322513580322266,7.501129022272556,-0.001386383910956309,-0.00018482336339685382
657465635,17889,vehicle,1.7180742025375366,118.1645736694336,-0.0006482253704275328,-5.9078759791471045,-1.5709060490318079
835227171,17889,vehicle,134.6495819091797,59.32780456542969,-3.849143143590022e-09,-7.983142744054803e-13,0.00020740051309560257
715280319,17889,vehicle,111.29427337646484,195.26959228515625,-5.168091283986362,0.00036886071837576294,3.141521280872579
3020211281,17889,vehicle,155.5965118408203,53.54438781738281,1.7736031317252963,5.109524232667555,1.2366921154000958
2101598167,17889,vehicle,193.73773193359375,-1.9608904123306274,0.029058045309656565,-1.3619981986967242e-05,3.141123937237939
14974470,17889,vehicle,291.878173828125,59.33194351196289,5.2349598421032475,-0.008208785599836324,-0.0015680691198014928
1398818972,17889,vehicle,137.13217163085938,133.67495727539062,4.064275931013986,0.005774437617756786,0.001420777976280184
2694688339,17889,vehicle,2.30259370803833,233.84739685058594,-0.003264180440257493,-13.380774099844682,-1.571040272350748
3916750283,17889,vehicle,116.79842376708984,326.9374694824219,-1.6401531574510035e-06,7.826627597955822e-09,3.136820801548589
1983197581,17889,vehicle,91.86112976074219,10.609909057617188,-0.8013810869219044,-8.095314947833558,-1.6694680430789863
2942851653,17889,vehicle,269.1910095214844,198.7668914794922,5.890591943019437,-0.0013522706394331636,-0.000229564469710185
3949181016,17889,vehicle,88.6303482055664,112.13860321044922,-3.5194581914863164e-10,1.3552775390092396e-07,1.5733931751738328
3672416715,17889,vehicle,338.8851013183594,300.45660400390625,-0.005543150480537608,-6.139873386613989,-1.5716991384044334
3325384226,17889,vehicle,192.49880981445312,55.84092330932617,-3.834654899098594,0.0010631008446099254,3.141315418520316
1359910869,17889,vehicle,154.24087524414062,32.44692611694336,-0.0016539924577688681,0.8868526293948304,1.572661338506279
2262630317,17889,vehicle,60.96540832519531,330.8641357421875,0.007657890799169684,0.0007657343133994844,0.09966157164938025
805172996,17889,vehicle,120.25943756103516,195.240966796875,-5.3063193848898695,0.1083279789488828,3.121180589098772
1986857511,17889,vehicle,-2.344893455505371,178.46343994140625,0.0010037807920394587,10.411969136490026,1.5706999203634358
1279946346,17889,vehicle,125.67503356933594,2.105703353881836,0.031033037302525462,-0.0005333009618065363,-0.017183251106301162
74618890,17889,vehicle,301.99505615234375,198.75303649902344,2.680416472321974,-0.0007738004189633443,-0.0002886866296552988
3085549129,17889,vehicle,392.52349853515625,226.6072540283203,0.006277104325263321,17.58308489334103,1.5704393300507715
2057201815,17889,vehicle,192.86021423339844,198.97509765625,5.487767084182756,-0.0012188748988604813,-0.00022210761865796314
1015694095,17889,vehicle,66.94755554199219,330.46124267578125,-2.0803235601304027e-07,8.964104985263599e-11,-0.00043089952939340205
1250507297,17889,vehicle,200.86697387695312,-1.9456565380096436,-3.970344432611299,-0.0016653526197900244,-3.141173205718106
4280502996,17889,vehicle,48.153709411621094,331.2244567871094,2.678681758597045e-07,-8.089684385636288e-11,-0.00030200243510569496
3428459672,17889,vehicle,66.85588836669922,2.0130629539489746,0.0,-0.0,-0.0008085357069480567
414519966,17889,vehicle,236.26458740234375,327.0451965332031,-5.817299833562801,-0.0003284390195507923,-3.1415361945746834
2866945113,17889,vehicle,294.2904968261719,330.4563903808594,-1.100064542391055e-06,4.886654639034043e-10,-0.00044421523731592627
1853482628,17889,vehicle,17.13311767578125,2.550266742706299,5.911266891410315,-0.09932346494204897,-0.01680081805287388
3880166169,17889,vehicle,335.51776123046875,308.94183349609375,-4.473802732745886e-05,5.599614620030024,1.5708043162781669
1073352953,17889,vehicle,372.0358581542969,-2.3772799968719482,6.590268183365769e-08,-1.371432884424313e-10,3.1395116595140053
213556023,17889,vehicle,172.17898559570312,327.02557373046875,-5.8905515629246645,0.00022119357697763189,3.141555103018423
1628590046,17889,vehicle,1.6653378009796143,70.86796569824219,-0.0007529713926598792,-5.500699468575283,-1.5709332132749267
4120465129,17889,vehicle,324.18719482421875,133.14024353027344,7.572211791986423,-0.3519930190756584,-0.046451396687758495
1015227284,17889,vehicle,192.22364807128906,129.75083923339844,-5.867867729281085,-0.0015970873107117914,-3.1413204785263873
2900396540,17889,vehicle,181.6448211669922,-1.9666203260421753,-0.0013252336186461622,-4.996115766733085e-06,-3.137822682750677
3587539486,17889,vehicle,396.6389465332031,251.66966247558594,-0.0019801302026450913,-7.379913064430311,-1.5710646402747221
1146849989,17889,vehicle,295.8740234375,133.22923278808594,2.678090137420618,-0.0771402125742733,-0.028796226154214184
1457681385,17889,vehicle,395.85357666015625,151.76702880859375,-0.003224988232097591,-11.212615503009062,-1.571083948192625
1726747598,17889,vehicle,101.8281021118164,129.82379150390625,-5.216044542713753,-0.2857711155697045,-3.0868604321309205
367118466,17889,vehicle,388.88128662109375,324.20263671875,-5.356589472817103,3.663141330029838,2.541783262341133
2065705843,17889,vehicle,248.10870361328125,133.21470642089844,5.791239250188927,-0.00036398284855848346,-6.285059766220869e-05
3978545900,17889,vehicle,334.84149169921875,299.8573303222656,-0.004110850520797005,4.968129364618947,1.5716237709455843
714679325,17889,vehicle,367.8612060546875,1.9289056062698364,5.811013642856295,-0.0008047346073782531,-0.0001384843766841204
3262285446,17889,vehicle,124.73933410644531,55.75193786621094,-3.671278235634226,-0.00013981403654390032,-3.141554570386205
1401880247,17889,vehicle,129.31309509277344,195.27040100097656,-4.305845734021649,0.00017200741237333227,3.141552706173442
2250339631,17889,vehicle,148.93582153320312,129.73219299316406,-5.071535799319075,0.005630785790824126,3.140482381731339
2525145270,17889,vehicle,92.5455322265625,154.58180236816406,4.131706310272889e-08,-4.753152484724158e-05,-1.5699270710150948
1825059061,17889,vehicle,313.625732421875,2.0121803283691406,1.7897567570534717e-07,-1.1191533444380084e-10,-0.0006253102239506051
346279610,17889,vehicle,99.9194107055664,195.54180908203125,-5.593008510592968,0.8610567676010433,2.9888395924172464
893025708,17889,vehicle,395.9248046875,240.34442138671875,-0.00186970496171578,-5.821411786233486,-1.5711175040223602
1724402154,17889,vehicle,88.61561584472656,296.0371398925781,-0.003203093294648216,4.193657128645452,1.5715601213955313
2595182244,17889,vehicle,233.3412628173828,198.76690673828125,5.8906005260880585,-0.0013522726098007948,-0.000229564469710185
874453657,17889,vehicle,392.5543518066406,274.8828125,0.01082337436886625,13.9277149107323,1.5700192163888114
1498616609,17889,vehicle,92.17974090576172,47.55991744995117,-3.817390472796369e-09,6.266588147526524e-07,-1.5647047452755038
505512523,17889,vehicle,235.67733764648438,133.21798706054688,7.572406268086956,0.0006013136229785711,7.940852622353809e-05
3709073522,17889,vehicle,197.16183471679688,195.5666961669922,-6.201164828780342,0.002143608260279641,3.1412469752803007
27029540,17889,vehicle,1.4675031900405884,99.5147476196289,-0.0016853291366073322,-6.2194626432090985,-1.5710673034358122
1375770528,17889,vehicle,338.87725830078125,242.08448791503906,-0.01657427526863148,-1.9916444410796696,-1.5791180394111217
4266869573,17889,vehicle,-1.5109416246414185,13.965456008911133,0.00011922801603215944,5.852203844763256,1.5707759536125574
368528135,17889,vehicle,2.6578774452209473,260.6568908691406,0.06947258660424116,-10.400336931804155,-1.5641165861487598
4012051816,17889,vehicle,338.9733581542969,228.75657653808594,6.968121774648425e-10,2.4501153851224854e-07,-1.5736403165229922
3938307140,17889,vehicle,92.14644622802734,219.82180786132812,-0.0002087674696100805,0.037785623921610466,-1.5652713327974181
1966079641,17889,vehicle,39.79853820800781,331.2388610839844,3.2493104748480186,-0.00034786815141417816,-0.00010705906769386271
1759883367,17889,vehicle,-2.412710428237915,285.429931640625,0.0012453938903403527,9.456773675929545,1.5706646334789922
3487645883,17889,vehicle,139.98394775390625,129.77195739746094,-3.5400031098767983,-0.0017412775909549363,-3.1411007677364555
544848518,17889,vehicle,92.24662780761719,32.761924743652344,-0.0007453496575100085,-4.390181001334278,-1.5709661033143891
1325658571,17889,vehicle,123.12396240234375,129.75079345703125,-3.890794333770778,0.0011895360637551539,3.141286922696652
921579549,17889,vehicle,106.04386138916016,55.805023193359375,-6.102162355742917,0.00025676645350069025,3.14155057564457
4072577581,17889,vehicle,92.3993148803711,271.52825927734375,-0.002072308374889343,-6.8983914123673555,-1.5710967313658575
94066344,17889,vehicle,302.56072998046875,133.26025390625,4.0147766385184545,-0.0007398862611260973,-0.00018429076368812862
2853390219,17889,vehicle,299.99432373046875,330.5154724121094,-4.370622629321184e-07,-1.33280814337981e-10,0.00030494696410635324
2524564450,17889,vehicle,1.608060359954834,54.00941848754883,-0.002709783241443118,-5.561662967486994,-1.5712835521163266
1882516347,17889,vehicle,-2.148787260055542,93.70317840576172,0.004571133314865153,6.048030556339901,1.5700405216775322
815178544,17889,vehicle,229.0284881591797,330.41162109375,5.521495210596041,-0.0012057796881390153,-0.00021837919313185222
2188308515,17889,vehicle,138.4905548095703,199.21534729003906,5.962722537134421,-0.0016959508135050488,-0.000284425571911172
1160083145,17889,vehicle,361.8423767089844,326.564453125,0.5661439569761624,-0.0006118381100709852,3.140511942819439
1832698586,17889,vehicle,130.9976348876953,326.96807861328125,0.07421897005809176,0.0002385729090507864,-3.1383782181540676
3748346955,17889,vehicle,131.7616424560547,1.9195635318756104,-0.9612058805418162,0.00019198846009919402,-0.00019973708175594285
3198444053,17889,vehicle,121.82852172851562,326.855224609375,0.7129231532265634,0.08548163719042139,-3.0222593346205415
808811405,17889,vehicle,338.9310607910156,221.63624572753906,-4.702896916960567e-07,-0.0016473019988442572,-1.571081817663753
84250811,17889,vehicle,288.39453125,133.57705688476562,2.5434808934342663,-0.02642921387737715,-0.010390588268755855
3956289865,17889,vehicle,88.57701110839844,317.3205261230469,-0.14625129089652425,7.544645078016742,1.5901786800504387
1912328786,17889,vehicle,365.2416687011719,-1.9526519775390625,1.495924902522999e-07,1.504316991245231e-10,-3.1405870439621792
4030311199,17889,vehicle,338.9559631347656,235.7322235107422,-8.131308706684895e-10,1.174102695050953e-06,-1.5701037717534214
3147513812,17889,vehicle,392.4808044433594,306.206787109375,0.0016040324243032239,9.35254560066836,1.5706248192206955
1663586846,17889,vehicle,286.8443298339844,330.4075622558594,2.669530724189222,0.0028996959993264552,0.0010862189495062116
