id,timestamp_ms,agent_type,x,y,vx,vy,psi_rad
-1,29547,vehicle,392.21990966796875,293.8857421875,-0.001426723213210739,9.600814713327273,1.570944931183723
2985032057,29547,vehicle,42.06435775756836,-1.9642385244369507,-5.839853762650678,0.00010420155780451825,3.1415748104104897
3028941286,29547,vehicle,396.8994445800781,197.9992218017578,-0.0013704066562512222,-4.865994737294009,-1.5710779560801724
2920337868,29547,vehicle,392.0353088378906,314.20550537109375,-2.8350511165419015e-06,-0.007209912316411208,1.5704031110599463
1503980471,29547,vehicle,114.94442749023438,2.03070330619812,-0.07055277961498485,1.5069053456852938e-05,-0.00021358553567900023
2125414330,29547,vehicle,391.55084228515625,0.3841674029827118,-3.6184430551087086e-08,-3.326392528201532e-08,-2.3982226343032123
2396446624,29547,vehicle,144.15130615234375,327.0060729980469,-3.6209779352086615,0.008985596506976407,3.1391111200860573
4076155829,29547,vehicle,112.6908187866211,-1.915219783782959,2.4549719626436315e-06,3.733189925225355e-10,-3.14144058709155
130361148,29547,vehicle,92.38613891601562,226.82598876953125,-0.0,-0.0,-1.5713916764565838
3417340120,29547,vehicle,267.6207275390625,330.5005798339844,3.796926927101626,0.0024077337243468893,0.0006341268736121512
2197730220,29547,vehicle,188.16998291015625,-1.9401477575302124,9.156425706065099e-08,-4.32590582615342e-11,3.141120208812413
118743835,29547,vehicle,334.71185302734375,108.62186431884766,0.00277293683347919,1.6577282601863124,1.5691235953142177
904053063,29547,vehicle,178.70040893554688,55.8249397277832,3.581161451822226e-09,-5.5859483310574564e-12,3.140032840139334
1291681130,29547,vehicle,113.09477233886719,195.6188507080078,-0.0,-0.0,-3.1376940520700263
715062232,29547,vehicle,338.9866638183594,22.499813079833984,-3.922633411603588e-09,1.6575749184041892e-06,-1.5684298418502522
220877689,29547,vehicle,92.9066390991211,91.64987182617188,1.7254889715554692e-07,0.0003326026915495225,-1.571315110575244
2069714320,29547,vehicle,34.90077590942383,331.1800231933594,0.017436538575253544,2.0757002311765764e-05,0.0011904307966336552
3190467641,29547,vehicle,118.29794311523438,-2.706313133239746,-0.007861782221892419,-0.0015243844164922883,-2.950071157480636
708315452,29547,vehicle,88.76518249511719,99.76769256591797,3.559092604700116e-05,0.011901968961136607,1.5678059963649011
1314594676,29547,vehicle,88.64353942871094,172.73744201660156,1.5899259752294434e-07,0.001646916025094246,1.5706997872053812
2302084468,29547,vehicle,312.61114501953125,330.09967041015625,-0.01043967547837472,0.0012182888814711447,-0.116172504617599
757051778,29547,vehicle,334.6994934082031,248.4739990234375,-0.00033935081919955453,5.885638227216463,1.570853984232497
4203008516,29547,vehicle,112.88423919677734,55.693016052246094,9.061722146864226e-06,2.1533761022305216e-08,-3.1392163149491155
2631691725,29547,vehicle,334.72576904296875,261.3497314453125,0.0004648776629111698,5.57695196121543,1.570712969852777
1513387753,29547,vehicle,339.0132751464844,29.557382583618164,-2.0723155016000505e-05,0.006610080711744036,-1.5676612535596552
156273220,29547,vehicle,92.51573181152344,80.52529907226562,-2.8173507433087448e-11,-1.8201933694504642e-08,-1.5723441560204507
3812119762,29547,vehicle,97.22929382324219,2.7032253742218018,5.271707028734175,-2.6516418571263287,-0.4660406739067433
3616050434,29547,vehicle,270.96630859375,326.42352294921875,-5.979255676166905,-3.503218634229076e-05,-3.141586794635395
2942158310,29547,vehicle,88.58364868164062,26.437789916992188,-0.00010756993399663577,1.9234201878031585,1.5708522531777882
3608800298,29547,vehicle,213.46815490722656,133.21853637695312,6.936787024516345,-0.0012007956833399345,-0.00017310545460050517
1146464971,29547,vehicle,60.19769287109375,2.5480518341064453,-1.361627758169749e-07,1.1574941037468296e-10,-0.0008500809549347115
3013099654,29547,vehicle,-2.377286434173584,175.96435546875,-2.6761806916067484e-07,-0.0004287067605748358,1.570172081835382
2246582517,29547,vehicle,88.6150894165039,105.10009765625,1.7272741006739177e-12,1.26675859734371e-08,1.5706599729470845
3192940987,29547,vehicle,338.87249755859375,248.6110076904297,2.596583003619972e-11,2.2655975981544886e-08,-1.5719424181700121
828836647,29547,vehicle,163.74522399902344,330.7875061035156,16.86117990108851,-0.024993603800619966,-0.0014823153327009413
1702089089,29547,vehicle,396.0252685546875,69.1778564453125,-0.00803278911964843,-9.485095437380732,-1.5716432120215418
2111029583,29547,vehicle,54.97046661376953,330.44464111328125,0.007875012327430741,-3.6324245125700728e-06,-0.00046125950080172403
420096522,29547,vehicle,88.08991241455078,158.67042541503906,-0.0039576051325889575,3.2340690716432365,1.572020049315788
510102133,29547,vehicle,222.97525024414062,1.8643687963485718,8.807906960062873,-0.0015950673811408148,-0.00018109493787074287
4109025732,29547,vehicle,293.4696350097656,1.8699408769607544,5.804269635840222,0.001340562795750641,0.00023096149145730385
2913592560,29547,vehicle,308.84088134765625,1.6736513376235962,0.001851539542288363,1.7905751514763913e-06,0.0009670733745512835
3970347779,29547,vehicle,129.50282287597656,58.88247299194336,5.8978237429292255,-0.3958086745538357,-0.06701048847689821
1933996401,29547,vehicle,385.673828125,-2.1186752319335938,-1.3691879105594637e-08,-1.837574088371223e-09,-3.008180799833947
3047764241,29547,vehicle,53.26544952392578,2.046077251434326,3.1581272614531393e-06,1.4261117520277327e-09,0.00045156877384246126
1260711767,29547,vehicle,338.9930114746094,87.51420593261719,-0.0002416033146884429,-1.9551832526658415,-1.5709198974694762
3957993155,29547,vehicle,335.0718994140625,33.63330078125,3.4203165060407554e-10,-4.887942222231805e-07,1.571496072371315
4289594148,29547,vehicle,-2.404228687286377,181.4108123779297,-0.0,0.0,1.5717477410943275
4139896837,29547,vehicle,114.673583984375,129.48956298828125,-5.864022731751061,1.87402046060933e-05,3.141589457796485
1686932955,29547,vehicle,175.89035034179688,-1.9625589847564697,-3.1778957109556154e-06,1.6376386727743503e-09,3.1410773319188627
1726501337,29547,vehicle,378.8957214355469,-2.4130003452301025,6.494550181354383e-05,1.8238715104590585e-07,-3.1387843502203046
1682591593,29547,vehicle,281.6020202636719,330.4570617675781,3.73811455001345e-08,-1.5808859264381418e-11,-0.0004229099485952924
3380823586,29547,vehicle,368.77252197265625,326.3265380859375,-2.790672637206821e-08,8.999453053151188e-11,3.1383678318258164
4176583038,29547,vehicle,301.5689697265625,1.9687703847885132,2.079799834509448,-0.003185943866295052,-0.0015318499989392526
3855978784,29547,vehicle,305.56915283203125,330.5410461425781,-5.349593976543762e-09,-1.1540988547988096e-12,0.00021573578143584308
1042098875,29547,vehicle,125.5885009765625,-1.9531056880950928,6.597254826127233e-05,-7.595320838510413e-08,3.140441369050552
644930681,29547,vehicle,88.63038635253906,165.76617431640625,-6.459195903958009e-10,2.5065951713834027e-07,1.5733732014656572
2234188147,29547,vehicle,355.64801025390625,-1.9538094997406006,-4.397574236320683,0.003773429664028564,3.14073458308657
4109707537,29547,vehicle,2.608607053756714,196.4036865234375,3.5781363151045825e-07,0.0001996679925353226,-1.5725883678924109
3675841917,29547,vehicle,183.96047973632812,55.834110260009766,-0.01741233757559621,-0.00013773193359268093,-3.1336827988361486
2817926641,29547,vehicle,92.26703643798828,28.29297637939453,0.0013624016879844824,-3.126975001133307,-1.5703606336405596
4029506115,29547,vehicle,-2.3091177940368652,171.3780975341797,0.0010460024859135727,-0.47444177596925124,1.5730010247033186
3277167701,29547,vehicle,88.63059997558594,35.7020149230957,0.00790322188289754,2.1380373796759184,1.5670998592018666
518241310,29547,vehicle,-2.7371456623077393,95.40695190429688,-0.04816637031669057,6.997419046404021,1.57767966610637
778540568,29547,vehicle,335.1467590332031,56.03837585449219,4.47052027418469,-3.461298573050209,-0.6588410865503841
657465635,29547,vehicle,1.7881518602371216,50.70787811279297,-0.0015719902463525687,-5.741948389399528,-1.5710700997549567
835227171,29547,vehicle,137.23733520507812,59.32872009277344,4.974377465032197,0.0012893896562690041,0.0002592062296148135
715280319,29547,vehicle,92.39908599853516,161.53045654296875,3.7101097293113717e-09,6.396337827869502e-06,-1.571376363280316
3020211281,29547,vehicle,220.26332092285156,59.60997772216797,5.953869992441187,-0.0019027334655749538,-0.0003195792657909273
2101598167,29547,vehicle,193.7311248779297,-1.9614672660827637,-1.1413212227420974e-07,5.3586781587525977e-11,3.141123138289612
14974470,29547,vehicle,338.9864501953125,37.714168548583984,0.0114521940705126,-1.6841905571572204,-1.5639966107416519
1398818972,29547,vehicle,190.3131866455078,133.6629638671875,5.654878949644713,-0.0012740636350858962,-0.00022530342822070355
2694688339,29547,vehicle,2.292745590209961,203.62313842773438,6.360405347089116e-11,2.442015928797202e-07,-1.5710567839495064
3916750283,29547,vehicle,116.79842376708984,326.9374694824219,-1.4985064273219081e-06,7.1507052292719715e-09,3.136820801548589
1983197581,29547,vehicle,29.588788986206055,-1.925402045249939,-6.027938738328339,-0.0011221307088630028,-3.1414064986295966
2942851653,29547,vehicle,336.3890075683594,194.5668487548828,4.664516552690236,-4.368742867815594,-0.7526671146520474
3949181016,29547,vehicle,88.6303482055664,112.13860321044922,1.1204550227823611e-10,-4.314662778266232e-08,1.5733931751738328
3672416715,29547,vehicle,338.86767578125,255.48391723632812,1.1712238586634682e-10,-1.167627611157413e-07,-1.5697932471703182
3325384226,29547,vehicle,190.06922912597656,55.84152603149414,0.00019945437157476928,-7.436508047321931e-08,3.1412198110371823
1359910869,29547,vehicle,209.8386688232422,59.604248046875,4.983588940241771,0.0015210510944093766,0.0003052119798437352
2262630317,29547,vehicle,60.90632247924805,331.2117004394531,0.007846292982244629,0.001525262033703979,0.19199815201001116
805172996,29547,vehicle,92.13092803955078,167.52548217773438,-3.6078994456171455e-06,-0.01203681195100126,-1.571096065575585
1986857511,29547,vehicle,-2.3421010971069336,188.38815307617188,1.609378418439333e-07,0.0016466248701840244,1.5706985887828906
1279946346,29547,vehicle,127.79779815673828,2.4932870864868164,-0.22076087819853737,0.008802793819173555,-0.03985367724200699
74618890,29547,vehicle,334.69775390625,236.5208740234375,-0.0002795368391535175,5.847593300813664,1.5708441305364635
3085549129,29547,vehicle,391.97674560546875,320.9991455078125,1.9618541096467612e-07,-7.263290838803556e-07,1.8346064012170558
2057201815,29547,vehicle,259.82135009765625,198.9762725830078,5.548188077238609,-0.0012116088549114588,-0.00021837919313185222
1015694095,29547,vehicle,66.94755554199219,330.46124267578125,1.1761624892347013e-07,-5.068078944684902e-11,-0.00043089952939340205
1250507297,29547,vehicle,199.7627716064453,-1.94624924659729,-3.349915826302118e-07,-4.255493624778034e-10,-3.140322325749825
4280502996,29547,vehicle,48.153709411621094,331.2244567871094,-2.2552456650672084e-08,6.810897033182287e-12,-0.00030200243510569496
3428459672,29547,vehicle,66.85588836669922,2.013062000274658,2.393584067945203e-07,-1.9352986082366111e-10,-0.0008085357069480567
414519966,29547,vehicle,170.35699462890625,327.04443359375,-5.696798801370402,-2.42743886493294e-05,-3.141588392532049
2866945113,29547,vehicle,294.2904968261719,330.4563903808594,1.0206888548726644e-07,-4.534055717160626e-11,-0.00044421523731592627
1853482628,29547,vehicle,46.39568328857422,2.5198090076446533,-4.234702151209049e-09,1.035068706216443e-11,-0.0024442489884003997
3880166169,29547,vehicle,285.0965881347656,326.41986083984375,-5.555777549710356,1.923470977397548e-05,3.141589191480376
1073352953,29547,vehicle,372.0358581542969,-2.3772799968719482,-6.394633187992936e-09,1.3307212990178637e-11,3.1395116595140053
213556023,29547,vehicle,134.5973358154297,327.0172119140625,-1.1190438899579124e-08,2.037560989227797e-11,3.139771850352506
1628590046,29547,vehicle,3.977504253387451,5.38869571685791,3.9663940960269155,-4.864035870627789,-0.8867034131044902
4120465129,29547,vehicle,338.98175048828125,79.81359100341797,-4.457271439946069e-06,0.0020087304898595637,-1.5685773809746426
1015227284,29547,vehicle,125.6531982421875,129.75082397460938,-5.674258706606812,-0.00016320382207320948,-3.14156389145002
2900396540,29547,vehicle,181.6448211669922,-1.9664074182510376,-0.001325216362023932,-5.331688875737465e-06,-3.1375694161310106
3587539486,29547,vehicle,396.6180419921875,184.86782836914062,-0.0024333978240450613,-9.051266343122276,-1.57106517290694
1146849989,29547,vehicle,334.3773498535156,159.4980010986328,-0.007253810853950415,6.402817431879267,1.5719292355226162
1457681385,29547,vehicle,395.8263854980469,51.00624084472656,-0.0032250247136166896,-11.212742341687896,-1.571083948192625
1726747598,29547,vehicle,92.39839935302734,85.52295684814453,0.00027639758944222,0.0068288080815867725,-1.6112494774370911
367118466,29547,vehicle,375.0947570800781,326.35400390625,-1.2659019023830377e-08,9.276299880241322e-11,3.13426496585044
2065705843,29547,vehicle,311.21014404296875,133.19993591308594,-0.03246553961005899,-1.6091526185684212e-05,0.0004956493888976486
3978545900,29547,vehicle,377.23291015625,330.8590087890625,5.440746183272978,-0.0011620645288436865,-0.0002135855031697096
714679325,29547,vehicle,392.12164306640625,50.72453689575195,-0.0024629988223348154,10.432491011746485,1.571032416025532
3262285446,29547,vehicle,88.32018280029297,79.32906341552734,-0.0029490062141471593,5.871330474302877,1.5712985989764856
1401880247,29547,vehicle,92.49674224853516,174.20594787597656,5.727606203518318e-06,0.006082236863957195,-1.5717380205563487
2250339631,29547,vehicle,92.8837661743164,124.76587677001953,-2.62450648067117,-5.462595157423014,-2.0186823647086243
2525145270,29547,vehicle,92.52818298339844,154.5819549560547,2.2254150633475986e-08,-2.5886894475221548e-05,-1.569936658395019
1825059061,29547,vehicle,313.625732421875,2.012183427810669,6.591541667213654e-07,-4.1217589333254004e-10,-0.0006253102239506051
346279610,29547,vehicle,88.1727066040039,255.6317138671875,-0.0013486007555251927,5.964557972081318,1.5710224291714443
893025708,29547,vehicle,395.8976135253906,173.37481689453125,-0.001869702817626507,-5.8214051105136155,-1.5711175040223602
1724402154,29547,vehicle,50.52577590942383,326.5408630371094,-5.583087362955831,0.0009530811811245646,3.141421944963919
2595182244,29547,vehicle,301.8232421875,198.77198791503906,5.617329950616695,-0.0011788365562093066,-0.00020985709389824398
874453657,29547,vehicle,388.6775817871094,324.7012939453125,-8.162819039549988e-07,4.935773267675975e-07,2.597749858965257
1498616609,29547,vehicle,76.97371673583984,-1.9194047451019287,-6.123251534521694,-0.1663662580977004,-3.11442974205153
505512523,29547,vehicle,302.5118713378906,133.20335388183594,2.324390901678459,-0.0010226256336961087,-0.00043995421208109015
3709073522,29547,vehicle,119.152099609375,195.561279296875,-2.9004525993664076,0.00028966396994776404,3.141492785048915
27029540,29547,vehicle,1.4480128288269043,29.36610984802246,-0.002435413412367997,-8.623122825030556,-1.5710787550284995
1375770528,29547,vehicle,338.8888244628906,241.84950256347656,-3.695868355981175e-05,-0.011760766288018094,-1.57393885688119
4266869573,29547,vehicle,-1.5032868385314941,114.32765197753906,0.0003748586495015647,6.160045135536459,1.5707354735639882
368528135,29547,vehicle,2.788278102874756,208.8387451171875,-0.0013291446542187174,-0.027954661293586758,-1.6183069874838556
4012051816,29547,vehicle,338.9733581542969,228.75657653808594,-1.1188369853924165e-09,-3.9340295706762843e-07,-1.5736403165229922
3938307140,29547,vehicle,92.14663696289062,219.810791015625,3.121317370510498e-10,-5.656481007357529e-08,-1.5652782570162525
1966079641,29547,vehicle,41.148319244384766,331.2388916015625,5.200228025471329e-10,-7.20150283938814e-15,-1.3848436652496706e-05
1759883367,29547,vehicle,27.435176849365234,331.1675720214844,2.2118329394235907,-0.0015421246209675733,-0.0006972155733827445
3487645883,29547,vehicle,92.42645263671875,113.326171875,0.00790547588386646,-5.889205394965579,-1.5694539604474422
544848518,29547,vehicle,120.82347106933594,2.092365264892578,-0.0008647511113759758,5.48107185549226e-08,-6.338322988022454e-05
1325658571,29547,vehicle,92.39753723144531,98.92202758789062,-2.0061235596046243e-07,0.001961683844202866,-1.5706940614090374
921579549,29547,vehicle,92.30622863769531,22.44689178466797,-2.470329318624276e-06,-0.0007278635737482955,-1.5741902592880936
4072577581,29547,vehicle,92.38365936279297,233.42498779296875,8.475233428798144e-11,1.4558077430141568e-07,-1.571378493809188
94066344,29547,vehicle,334.4835205078125,170.19517517089844,-0.001515471757954619,5.921435639050117,1.5710522565756533
2853390219,29547,vehicle,299.99432373046875,330.5154724121094,-4.753230832192803e-08,-1.4494833569043438e-11,0.00030494696410635324
2524564450,29547,vehicle,25.104379653930664,2.035919427871704,6.3251711608031815,-0.005296053841966358,-0.0008372979117394938
1882516347,29547,vehicle,-2.141824960708618,161.60623168945312,0.0036931244128356605,4.476256754391807,1.56997127948919
815178544,29547,vehicle,275.25213623046875,330.3910217285156,7.936259657210662e-07,1.0560784366620055e-09,0.0013306996733001564
2188308515,29547,vehicle,205.44888305664062,199.20462036132812,5.688563750592708,-0.0009120035260168529,-0.0001603222813681248
1160083145,29547,vehicle,362.57244873046875,326.5618591308594,0.5437713989032849,-0.0006124232455641143,3.140466402764799
1832698586,29547,vehicle,127.3373794555664,326.9648132324219,-0.0013045774339488605,-4.483254189582426e-06,-3.138156110519155
3748346955,29547,vehicle,133.9247589111328,1.918936848640442,-0.9612058774616349,0.00020683555183520285,-0.0002151833998237571
3198444053,29547,vehicle,121.42837524414062,326.73779296875,0.5289278487304435,0.004685897237008169,-3.1327336482236445
808811405,29547,vehicle,338.91851806640625,221.6090545654297,-4.70289990815655e-07,-0.0016473030465821111,-1.571081817663753
84250811,29547,vehicle,339.0802001953125,104.34636688232422,0.07319000788148769,-7.398235218557939,-1.5609037486096882
3956289865,29547,vehicle,25.55905532836914,326.5733642578125,-5.690143988427965,0.0009152877199378086,3.1414317986599523
1912328786,29547,vehicle,364.6999206542969,-1.9528074264526367,-2.0266164501801014,-0.0012105934665303671,-3.140995306557288
4030311199,29547,vehicle,338.9559631347656,235.7322235107422,-2.2606125963434927e-11,3.2641625568230714e-08,-1.5701037717534214
3147513812,29547,vehicle,382.0475769042969,326.14154052734375,-0.0,0.0,3.023653233135089
1663586846,29547,vehicle,287.7590637207031,330.4103088378906,-5.27864874067127e-07,-6.448444040578849e-10,0.0012216082466646717
