id,timestamp_ms,agent_type,x,y,vx,vy,psi_rad
-1,15008,vehicle,392.1888122558594,42.55872344970703,0.0018633620573747095,6.086825085572716,1.570490196427592
2985032057,15008,vehicle,92.10367584228516,28.704078674316406,6.1577050620786856e-12,-7.643566821323787e-08,-1.5707157661719218
3028941286,15008,vehicle,396.9320983886719,293.4488525390625,-0.004537979220529937,-10.415538752932857,-1.5712320199492336
2920337868,15008,vehicle,392.0096130371094,88.8695068359375,-0.002625274006264488,18.27198581909397,1.5709400043357065
1503980471,15008,vehicle,92.19307708740234,41.197059631347656,-5.359568707002352e-07,0.00026506172091585227,-1.5687743217372538
2125414330,15008,vehicle,395.92620849609375,18.99799919128418,-0.0027991352834606962,-6.571162104475577,-1.5712222994112548
2396446624,15008,vehicle,228.4315185546875,327.0301818847656,-6.117286673189353,-0.0003307137931743194,-3.1415385914196645
4076155829,15008,vehicle,112.6908187866211,-1.9462509155273438,-1.445963656574451e-06,-2.3644121878579333e-10,-3.1414291354988624
130361148,15008,vehicle,92.40532684326172,273.11724853515625,-0.002072282447714524,-6.898305104845615,-1.5710967313658575
3417340120,15008,vehicle,185.7284393310547,330.4856262207031,5.852751249207928,0.0002611771421466274,4.4624678352528194e-05
2197730220,15008,vehicle,194.1466827392578,-1.9455310106277466,-5.56576821544289,0.000542504868646472,3.1414951818938963
118743835,15008,vehicle,306.79681396484375,59.33424758911133,9.319345744057247e-08,-1.4032624967563993e-10,-0.001505751020256476
904053063,15008,vehicle,178.70040893554688,55.8249397277832,4.346547653950124e-06,-6.779808992160925e-09,3.140032840139334
1291681130,15008,vehicle,186.49436950683594,195.59837341308594,-5.639258844723416,0.0004355293880986221,3.141515421918181
715062232,15008,vehicle,313.6129455566406,59.3152961730957,1.1787878404880046e-09,4.402270892530623e-12,0.0037345570384019204
220877689,15008,vehicle,121.40367126464844,129.7562255859375,-0.006675018305282185,1.4523522483586457e-06,3.141375073328734
2069714320,15008,vehicle,-2.3953213691711426,279.86138916015625,0.003727431013814176,9.34018346796926,1.5703972521055483
3190467641,15008,vehicle,118.22987365722656,-2.237384080886841,-0.004087845969712576,-0.00020617719387655897,-3.0911987215466596
708315452,15008,vehicle,88.73974609375,99.75074005126953,3.523377923619057e-05,0.011908745425169773,1.5678376879818732
1314594676,15008,vehicle,88.64353942871094,172.7035369873047,1.5929780088119748e-07,0.0016478046232204129,1.5706996540473268
2302084468,15008,vehicle,312.65130615234375,330.5352783203125,-0.010194581952051527,0.001038593037633007,-0.10152668322930361
757051778,15008,vehicle,305.1543884277344,199.05624389648438,3.2188755416118364e-06,-3.5592553273534034e-09,-0.0011057444846008996
4203008516,15008,vehicle,153.7655029296875,31.262548446655273,-1.0671856996235523e-11,2.210266911653951e-08,1.5712791579005279
2631691725,15008,vehicle,312.3171081542969,199.05612182617188,1.4977264202242083e-09,-3.7685191715313725e-12,-0.0025161545979068643
1513387753,15008,vehicle,299.7991027832031,59.327171325683594,-0.0024552737474139016,3.6342615443206358e-06,-0.001480184803828878
156273220,15008,vehicle,92.52439880371094,89.12567901611328,-0.001993097351767607,-5.815037385790059,-1.5711390756271897
3812119762,15008,vehicle,110.07295989990234,55.837493896484375,-2.5498909070114615,0.001290246457141707,3.141086652982678
3616050434,15008,vehicle,335.4158935546875,308.00689697265625,-1.2363256099892753e-11,2.551428102348514e-08,1.5712808889552365
2942158310,15008,vehicle,88.60916900634766,25.917118072509766,2.7935529992673967e-10,1.4271582539899458e-06,1.5706005844547757
3608800298,15008,vehicle,145.68064880371094,133.23402404785156,9.656624942235247e-08,-4.6805209535930504e-11,-0.0004846952858851307
1146464971,15008,vehicle,57.21835708618164,2.5466952323913574,4.335050627396251,0.009296931971472197,0.002144592651273071
3013099654,15008,vehicle,-2.401592493057251,100.01492309570312,0.000750361979606505,5.82140774659269,1.5706674297981367
2246582517,15008,vehicle,88.6150894165039,105.10009765625,-9.783842177056611e-12,-7.175332616870061e-08,1.5706599729470845
3192940987,15008,vehicle,338.8931884765625,298.16522216796875,-0.0017990829862451635,-5.606175610832932,-1.5711172377062512
828836647,15008,vehicle,88.64752960205078,300.9998474121094,7.335397605956595e-09,-6.647505460948546e-06,1.571899807592571
1702089089,15008,vehicle,395.9722900390625,184.22084045410156,-0.00263761435513063,-4.576743319550617,-1.5713726348547898
2111029583,15008,vehicle,54.97426223754883,330.44464111328125,0.010690025950936414,-4.54369435547002e-06,-0.0004250405099766464
420096522,15008,vehicle,135.77923583984375,129.73800659179688,-0.3153447933341712,-0.0010220571967417675,-3.1383515865431666
510102133,15008,vehicle,158.49197387695312,25.249279022216797,-0.0005268919065606723,0.00484241949875858,-1.4624151246505415
4109025732,15008,vehicle,213.0159454345703,1.897526502609253,4.845338601229098,-0.001460723474807281,-0.00030146983539696976
2913592560,15008,vehicle,248.02357482910156,1.9351943731307983,3.6661779206549148,-0.0007029808801148517,-0.00019174761474035048
3970347779,15008,vehicle,128.5894012451172,59.33689880371094,-0.009724263248377938,0.0008492289715612407,-0.08710992698426866
1933996401,15008,vehicle,393.5009765625,1.9541640281677246,-3.2633392502493517,-4.686005668880828,-2.1791027998175636
3047764241,15008,vehicle,35.893733978271484,2.0490877628326416,5.973750221045362,-0.00210317751239756,-0.0003520698635991846
1260711767,15008,vehicle,306.1383361816406,133.41566467285156,4.0992792290497865e-08,-4.432320082438189e-11,-0.0010812433375535894
3957993155,15008,vehicle,335.0718994140625,33.63330078125,3.172128639077326e-09,-4.533259270571148e-06,1.571496072371315
4289594148,15008,vehicle,-2.409454822540283,149.05303955078125,0.0019934805499078746,4.740590153214793,1.570375813658773
4139896837,15008,vehicle,197.50515747070312,129.48764038085938,-5.795432492122676,-0.0009353107291007801,-3.1414312660277344
1686932955,15008,vehicle,175.89035034179688,-1.9625725746154785,6.74785293528914e-07,-3.4773151576142934e-10,3.1410773319188627
1726501337,15008,vehicle,378.9106140136719,-2.3911566734313965,0.07256438928335869,0.0002041312085792572,-3.1387795565303427
1682591593,15008,vehicle,255.682373046875,330.4571838378906,6.899124042139966,-0.001194276015588939,-0.00017310545460050517
3380823586,15008,vehicle,391.068115234375,322.40460205078125,-3.2348832948388737,5.5221687058604125,2.100708791547501
4176583038,15008,vehicle,223.10365295410156,1.9962818622589111,5.565771346960211,-0.0016097283256068773,-0.0002892192618733146
3855978784,15008,vehicle,305.56915283203125,330.5410461425781,2.8147234643081e-07,6.072358434816252e-11,0.00021573552136151786
1042098875,15008,vehicle,157.8470916748047,32.20794677734375,-2.3460369647130903e-09,1.6142425954496752e-07,-1.5562639893585521
644930681,15008,vehicle,88.63038635253906,165.76617431640625,-9.289900382238944e-10,3.6050957095888615e-07,1.5733732014656572
2234188147,15008,vehicle,358.0129699707031,-1.9551949501037598,-2.4249998265222314e-05,-1.7488714343349957e-08,-3.1408714695665996
4109707537,15008,vehicle,2.6180455684661865,233.80145263671875,-0.0025101559101981495,-12.091693617627918,-1.5710039202018682
3675841917,15008,vehicle,191.9627685546875,55.83735275268555,-8.142700382772992,0.009493838635880719,3.1404267216645563
2817926641,15008,vehicle,122.88453674316406,55.75166320800781,0.871560950476093,-0.0005273556226823269,3.1409875833901273
4029506115,15008,vehicle,-2.2924482822418213,90.32760620117188,-0.0051162996648698705,5.748466122221606,1.571686355231201
3277167701,15008,vehicle,88.64314270019531,33.22755432128906,1.5910525412509135e-07,0.0016480829722748012,1.5706997872053812
518241310,15008,vehicle,18.552061080932617,-2.067819595336914,-3.0518425369599824,0.007969079218127742,3.1389814241409706
778540568,15008,vehicle,245.63864135742188,59.32469177246094,5.647612490195002,-0.0009595840263539279,-0.0001699096775470554
657465635,15008,vehicle,1.7190518379211426,142.62631225585938,0.006514364677426909,-10.978914235556232,-1.570202974504027
835227171,15008,vehicle,134.6495819091797,59.32780456542969,3.9933733238400725e-10,8.282276882221201e-14,0.00020740051309560257
715280319,15008,vehicle,118.0025863647461,195.2687225341797,3.2524065342586e-07,-3.805078871977164e-10,3.1404227269229215
3020211281,15008,vehicle,153.76806640625,38.20585250854492,-0.0012588160678369629,2.3872593898654064,1.5713236326907323
2101598167,15008,vehicle,205.27545166015625,-1.9620736837387085,-5.795432968959828,-0.0009353108060563663,-3.1414312660277344
14974470,15008,vehicle,275.4582824707031,59.33359146118164,6.1172732720301655,-0.0008471468809331415,-0.00013848439293876572
1398818972,15008,vehicle,121.49320220947266,133.678955078125,5.554703550059099,-0.001343210815000167,-0.00024181502697919483
2694688339,15008,vehicle,2.3145506381988525,275.3213806152344,-0.0013522372769315854,-16.248207036016005,-1.5708795505789617
3916750283,15008,vehicle,116.79843139648438,326.9374694824219,1.9979028270491403e-05,-9.53376904661654e-08,3.136820801548589
1983197581,15008,vehicle,92.12187194824219,21.969289779663086,3.4315033099949466e-10,6.21875298472723e-08,-1.5763142634154863
2942851653,15008,vehicle,252.13995361328125,198.76564025878906,6.194197153088289,-0.0005542704681834734,-8.94822126266624e-05
3949181016,15008,vehicle,88.6303482055664,112.13860321044922,8.858386537369634e-10,-3.411199012109525e-07,1.5733931751738328
3672416715,15008,vehicle,339.1924133300781,317.32861328125,-0.8809954785250962,-5.4889035101083525,-1.7299437709027783
3325384226,15008,vehicle,212.734375,55.84191131591797,-7.058999175543328,-0.002263430011051255,-3.1412720089945476
1359910869,15008,vehicle,154.24124145507812,25.51426887512207,-4.558337484098483e-05,0.017641049590871784,1.573380258842546
2262630317,15008,vehicle,60.974979400634766,330.7479248046875,0.004161891561274856,0.00022437396233226115,0.05385939537873422
805172996,15008,vehicle,123.96562194824219,195.37326049804688,-0.6172926516836627,0.05814046290693791,3.047683468283092
1986857511,15008,vehicle,-2.3468141555786133,158.4628448486328,0.0003534413665295149,3.666159612784767,1.5706999203634358
1279946346,15008,vehicle,125.3902816772461,2.0877652168273926,0.010665039866993702,9.659027015870921e-05,0.009056471478896856
74618890,15008,vehicle,290.8586120605469,198.75477600097656,5.647546686668136,-0.0009595727538989179,-0.00016990966129241006
3085549129,15008,vehicle,392.5197448730469,174.0311279296875,-0.0019531045999972281,18.403470889403454,1.5709024537643363
2057201815,15008,vehicle,176.33938598632812,198.974853515625,5.9639924499730546,-0.0013182951470595507,-0.0002210423867312221
1015694095,15008,vehicle,66.94755554199219,330.46124267578125,-3.154705714661349e-07,1.3593612919551185e-10,-0.00043089952939340205
1250507297,15008,vehicle,216.52691650390625,-1.9459031820297241,-5.489442808030142,-0.00043565426159281203,-3.141513291389309
4280502996,15008,vehicle,48.153587341308594,331.2244567871094,-0.00053146717741751,1.605043866384645e-07,-0.00030200243510569496
3428459672,15008,vehicle,66.85588836669922,2.0130629539489746,-1.061161577697076e-06,8.579872133734194e-10,-0.0008085357069480567
414519966,15008,vehicle,252.4278106689453,327.0451354980469,-5.594387517558154,0.00039183726133917683,3.141522612453124
2866945113,15008,vehicle,294.2901611328125,330.4563903808594,-0.0005762668456423413,2.559865304320129e-07,-0.00044421523731592627
1853482628,15008,vehicle,2.3875732421875,7.920656681060791,1.7072996202450594,-5.108810588243264,-1.2482773987741584
3880166169,15008,vehicle,335.50836181640625,299.2948303222656,0.0007225777011782486,5.100062319112827,1.5706546466249043
1073352953,15008,vehicle,372.0358581542969,-2.3772799968719482,-1.5577127876331457e-07,3.24159576212772e-10,3.1395116595140053
213556023,15008,vehicle,189.2299346923828,327.0301208496094,-6.194208589080522,-0.0006384019863049891,-3.141489589255607
1628590046,15008,vehicle,1.67038893699646,87.19892120361328,-0.00102043307821746,-5.5692748088590776,-1.570979552277894
4120465129,15008,vehicle,313.6098937988281,133.22540283203125,2.396985938787316e-09,8.936243847437393e-12,0.003728099652981454
1015227284,15008,vehicle,212.734375,129.75192260742188,-7.058999175543328,-0.002263430011051255,-3.1412720089945476
2900396540,15008,vehicle,181.6448211669922,-1.9666680097579956,-0.0013252338175477238,-4.911764801656501e-06,-3.13788633230073
3587539486,15008,vehicle,396.643310546875,267.962158203125,-0.0023386548162996584,-8.681660337168694,-1.5710657055391581
1146849989,15008,vehicle,293.009765625,133.15257263183594,0.5094439359258358,-0.008519437800306385,-0.01672145481209222
1457681385,15008,vehicle,395.8598327636719,174.4564666748047,-0.0010544708112605625,-3.6661764058967083,-1.571083948192625
1726747598,15008,vehicle,115.30545806884766,129.7663116455078,-0.02760779721663358,0.0027418268391511662,3.0426037548198748
367118466,15008,vehicle,392.4810791015625,304.73638916015625,0.001954592156611361,9.094632892379353,1.570581409694927
2065705843,15008,vehicle,231.49856567382812,133.2187042236328,5.525542258902792,-5.8861630970737245e-05,-1.065264334440162e-05
3978545900,15008,vehicle,334.85595703125,287.8352966308594,0.0005684719482189017,5.8722858153797866,1.5706995208892722
714679325,15008,vehicle,351.51312255859375,1.9299750328063965,5.665691799812121,-0.006198419135512034,-0.0010940264457673884
3262285446,15008,vehicle,132.1898193359375,55.74866485595703,-4.005002995616034,0.008509322189272358,3.139467983672128
1401880247,15008,vehicle,143.9752960205078,195.26910400390625,-5.795434876308436,-0.0009353111138787108,-3.1414312660277344
2250339631,15008,vehicle,164.79156494140625,129.73257446289062,-6.117280951318745,-0.0003274552229076104,-3.1415391240518824
2525145270,15008,vehicle,92.54976654052734,158.78208923339844,-0.0020053510404840144,-5.594327567215185,-1.5711547882776213
1825059061,15008,vehicle,313.6256408691406,2.0121779441833496,-0.0001938951521151212,1.2124464940157416e-07,-0.0006253102889691864
346279610,15008,vehicle,110.9823226928711,194.9922637939453,5.782480981198822e-07,-2.7240692550166683e-09,3.136881787937552
893025708,15008,vehicle,395.9315185546875,256.8943786621094,-0.0018697038896711435,-5.821408448373551,-1.5711175040223602
1724402154,15008,vehicle,88.61621856689453,288.0018310546875,0.0018394944354144522,5.694298447085192,1.57047328535467
2595182244,15008,vehicle,216.29019165039062,198.76565551757812,6.19420478248279,-0.0005542711508785761,-8.94822126266624e-05
874453657,15008,vehicle,392.5633544921875,232.1668701171875,-0.0035169925343452135,16.780282605678565,1.5710059175726858
1498616609,15008,vehicle,92.17972564697266,47.56043243408203,-1.9192850346818515e-05,0.0031506093035189595,-1.5647046121174493
505512523,15008,vehicle,214.51138305664062,133.22036743164062,7.755670705587365,0.0022235129309378485,0.0002866951105100564
3709073522,15008,vehicle,219.07275390625,195.5671844482422,-8.142698480481224,0.009489499348489047,3.1404272542967746
27029540,15008,vehicle,1.4723562002182007,116.97413635253906,-0.0013163326307453099,-4.876906694149077,-1.571066238171376
1375770528,15008,vehicle,338.90093994140625,262.42022705078125,0.005247677699067265,-7.894508048196516,-1.5701316017868128
4266869573,15008,vehicle,9.497892379760742,-2.050788640975952,-3.630463866827387,0.06599775073182143,3.1234157802016753
368528135,15008,vehicle,2.5566246509552,293.9950256347656,0.06746212426860325,-8.778451146958343,-1.563111509153364
4012051816,15008,vehicle,338.9733581542969,228.75657653808594,8.71511814293212e-12,3.064390338705792e-09,-1.5736403165229922
3938307140,15008,vehicle,92.08192443847656,233.90133666992188,-0.0005886160091689584,-5.525538890004617,-1.5709028532384997
1966079641,15008,vehicle,22.088603973388672,331.23980712890625,6.093760613009706,0.005777083180910413,0.0009480322278872861
1759883367,15008,vehicle,-2.414921283721924,258.6682434082031,0.0024549979859758717,9.167936950046835,1.570528545947289
3487645883,15008,vehicle,146.38890075683594,129.77569580078125,-5.811888663895496,-0.0005989984376301251,-3.141489589255607
544848518,15008,vehicle,92.24698638916016,35.24443435668945,4.416391297728016e-09,4.043711531538568e-06,-1.571888489157938
1325658571,15008,vehicle,128.57786560058594,129.74827575683594,4.925352451964291e-08,-5.715082516982846e-11,3.1404323143028456
921579549,15008,vehicle,117.53607940673828,55.81929016113281,-0.032444087976633666,-5.485784566130889e-05,-3.1399018126137017
4072577581,15008,vehicle,92.40771484375,291.35015869140625,-0.0021020614077713,-6.890533603469991,-1.5711013918977652
94066344,15008,vehicle,298.68817138671875,133.25889587402344,-0.0005042372862840319,1.5773343848937675e-06,-0.003128148756332748
2853390219,15008,vehicle,299.99407958984375,330.5155029296875,-0.0006140889896960551,-1.8710269407691978e-07,0.0003046833462684693
2524564450,15008,vehicle,1.6157362461090088,70.75576782226562,-0.002788298188002506,-5.517723809495476,-1.5713016616117392
1882516347,15008,vehicle,-2.15254282951355,72.94245147705078,0.0018935623982898233,8.655150206377638,1.5705775481113466
815178544,15008,vehicle,212.77557373046875,330.4192810058594,5.639262949076307,-0.001516844685185971,-0.0002689792375887124
2188308515,15008,vehicle,121.93099212646484,199.21847534179688,5.601001075008574,-0.001449870832385599,-0.0002588592254464113
1160083145,15008,vehicle,373.22491455078125,326.5545654296875,-6.0740423006044475,0.035376029229026246,3.1357685866018987
1832698586,15008,vehicle,151.87277221679688,326.9671936035156,-8.142698480481224,0.009489499348489047,3.1404272542967746
3748346955,15008,vehicle,131.22708129882812,1.9197055101394653,-0.9612058832981828,0.00017765330629087366,-0.00018482336339685382
3198444053,15008,vehicle,122.00959014892578,327.04266357421875,0.41756485002337335,0.0048024558963370885,-3.130092058738395
808811405,15008,vehicle,338.93414306640625,221.64295959472656,-4.7027789308967827e-07,-0.0016472606714066928,-1.571081817663753
84250811,15008,vehicle,280.8773498535156,133.5849151611328,6.281021709921046,0.060979213432520885,0.009708181327450173
3956289865,15008,vehicle,88.6192398071289,306.89337158203125,5.6378111774312015e-11,5.3859848828009744e-08,1.5697495713284408
1912328786,15008,vehicle,365.2416687011719,-1.9526519775390625,2.927750071960978e-08,2.944174652044496e-11,-3.1405870439621792
4030311199,15008,vehicle,338.9559631347656,235.7354278564453,-9.820095037926443e-06,0.014204092654476372,-1.570104970175912
3147513812,15008,vehicle,392.4767761230469,275.4772644042969,0.0028544085772370556,12.426808029413307,1.5705666291508773
1663586846,15008,vehicle,270.775390625,330.416015625,5.807700957807347,-0.0013332419084370474,-0.00022956448596483033
