id,timestamp_ms,agent_type,x,y,vx,vy,psi_rad
-1,11122,vehicle,392.1678161621094,19.933616638183594,0.046027666704257224,6.07745575005166,1.5632229624449838
2985032057,11122,vehicle,92.10367584228516,28.704078674316406,6.610224114123005e-12,-8.205279273828816e-08,-1.5707157661719218
3028941286,11122,vehicle,396.8763122558594,318.2340393066406,0.45497438939574203,-6.328021663352505,-1.499021472256171
2920337868,11122,vehicle,392.0129699707031,41.00905227661133,0.00024031514539695888,6.310266013337833,1.5707582435913086
1503980471,11122,vehicle,92.16735076904297,50.69538879394531,0.02604628316274333,-5.863574353003937,-1.5663543072546988
2125414330,11122,vehicle,395.9421081542969,57.56916046142578,-0.007223202224927254,-14.316527451804474,-1.5713008626634122
2396446624,11122,vehicle,251.0671844482422,327.0369567871094,-5.5448083876853635,-2.805676410532524e-05,-3.141587593583722
4076155829,11122,vehicle,112.6908187866211,-1.9494200944900513,5.224028355716571e-06,8.667443377944437e-10,-3.1414267386538812
130361148,11122,vehicle,92.41675567626953,299.8404541015625,-0.0032703057267551494,-6.87558144042511,-1.5712719673655848
3417340120,11122,vehicle,163.45506286621094,330.4817810058594,5.9164317668858,0.001273008192669335,0.00021516485327344108
2197730220,11122,vehicle,215.45523071289062,-1.9477053880691528,-5.562310668935618,0.00054513052162017,3.1414946492616784
118743835,11122,vehicle,306.79681396484375,59.33424758911133,-9.321101407901884e-06,1.4035268562187211e-08,-0.001505751020256476
904053063,11122,vehicle,183.6512908935547,55.826263427734375,-5.956501956847479,0.00021573848982027013,3.141556434598968
1291681130,11122,vehicle,208.4896697998047,195.59194946289062,-5.608874313107143,0.0002972529832911443,3.1415396566841007
715062232,11122,vehicle,313.6129455566406,59.3152961730957,3.02254956047722e-08,1.128793621234804e-10,0.0037345570384019204
220877689,11122,vehicle,121.40257263183594,129.75637817382812,-0.007030328119919133,1.4528967735231902e-06,3.141385992289203
2069714320,11122,vehicle,-2.4029839038848877,241.3587188720703,0.00702065124973087,9.147152113788554,1.5700288037687358
3190467641,11122,vehicle,118.2243881225586,-2.0720112323760986,-0.0036432129690071786,-6.457082978044725e-05,-3.12387091443197
708315452,11122,vehicle,88.73219299316406,99.74624633789062,1.145332888666764e-05,0.01213501877753305,1.5698525025045724
1314594676,11122,vehicle,88.64353942871094,172.69447326660156,1.5923565524952455e-07,0.0016471617778162884,1.5706996540473268
2302084468,11122,vehicle,312.6631774902344,330.7301025390625,-0.008548412816655384,0.0005546822322974134,-0.06479632386303873
757051778,11122,vehicle,304.1484069824219,199.0568084716797,3.688511560389062,-0.0014577483052494393,-0.0003952131382770496
4203008516,11122,vehicle,153.7655029296875,31.262548446655273,-5.062855097027143e-12,1.0485767475524635e-08,1.5712791579005279
2631691725,11122,vehicle,312.3171081542969,199.05612182617188,9.593538237603791e-09,-2.413887628811211e-11,-0.0025161545979068643
1513387753,11122,vehicle,284.646240234375,59.33024597167969,5.752049789771957,-0.0012377456488228053,-0.0002151833998237571
156273220,11122,vehicle,92.53801727294922,111.38215637207031,-0.0008148684113888425,-5.912616196747164,-1.5709341453813082
3812119762,11122,vehicle,110.91465759277344,55.83747863769531,1.6908200809297296e-07,-1.7574927482617597e-10,3.1405532218163352
3616050434,11122,vehicle,335.4158935546875,308.00689697265625,-5.936087192913298e-11,1.2250413288875795e-07,1.5712808889552365
2942158310,11122,vehicle,88.61214447021484,25.917118072509766,-7.271675325248964e-10,-3.7149219876929653e-06,1.5706005844547757
3608800298,11122,vehicle,145.6806182861328,133.23402404785156,-5.7458205064038115e-05,2.784972704671969e-08,-0.000484695350903712
1146464971,11122,vehicle,35.09168243408203,2.542579174041748,5.523928074322518,-0.0010032977343062226,-0.00018162758634340405
3013099654,11122,vehicle,-2.4052162170410156,77.69332122802734,0.0007578271956407375,5.819208095796223,1.5706660982175917
2246582517,11122,vehicle,88.6150894165039,105.10009765625,-1.820491988043109e-11,-1.3351232883936532e-07,1.5706599729470845
3192940987,11122,vehicle,339.7107238769531,320.73687744140625,-2.306459789739339,-5.445605976048527,-1.971434025387038
828836647,11122,vehicle,88.64665222167969,297.2180480957031,0.0066943151957808,4.619020379397249,1.5693470345296754
1702089089,11122,vehicle,395.9784240722656,199.02064514160156,-0.001283743038092044,-3.758575458640222,-1.5711378772046993
2111029583,11122,vehicle,54.97517013549805,330.44464111328125,-0.00019172439139523444,7.995885267900853e-08,-0.00041705099419711805
420096522,11122,vehicle,156.26718139648438,129.74105834960938,-2.6155404418117176,-0.0020172397626641446,-3.1408214021381062
510102133,11122,vehicle,158.3405303955078,25.23760986328125,-0.00014180646357156058,0.002935012153221927,-1.5225184093958857
4109025732,11122,vehicle,181.1997833251953,1.8978021144866943,7.988370563687722,0.002302054192067546,0.00028817568113414675
2913592560,11122,vehicle,232.41319274902344,1.9381552934646606,2.737195456613384,-0.00043883342391453647,-0.0001603222813681248
3970347779,11122,vehicle,128.59619140625,59.49859619140625,-0.007753401133772078,0.00038538774387273126,-0.049664762697858904
1933996401,11122,vehicle,395.9383850097656,24.136606216430664,-0.002677636701899018,-5.200079705357571,-1.5713112489916634
3047764241,11122,vehicle,11.712955474853516,2.3056068420410156,7.234703101532,-1.068513511351298,-0.14663275080289495
1260711767,11122,vehicle,306.1383056640625,133.41566467285156,-3.7043544754524744e-05,4.00531015737215e-08,-0.0010812433375535894
3957993155,11122,vehicle,335.070068359375,27.740806579589844,0.005433975758976748,5.833946081500154,1.5698648862036413
4289594148,11122,vehicle,-2.412444829940796,134.1133575439453,-0.00023360253853499296,3.2427453910609083,1.5708683653023832
4139896837,11122,vehicle,219.79080200195312,129.4872589111328,-5.590487955286063,0.00013846184100172883,3.1415678861916554
1686932955,11122,vehicle,175.89035034179688,-1.9625763893127441,-3.899248761280411e-08,2.009367564903538e-11,3.1410773319188627
1726501337,11122,vehicle,394.47064208984375,3.26839017868042,-2.0977578784381032,-5.807731973977207,-1.917414598993925
1682591593,11122,vehicle,228.93313598632812,330.4571838378906,6.900291339485777,-0.0011944779689668662,-0.00017310543834585983
3380823586,11122,vehicle,392.43572998046875,292.0705261230469,0.017035373674764376,8.424979153225864,1.5687743217372538
4176583038,11122,vehicle,201.7950897216797,2.0025405883789062,5.562315230524453,-0.0016116914186813237,-0.00028975189409133047
3855978784,11122,vehicle,305.56915283203125,330.5410461425781,3.5897925573856736e-07,7.744457809619989e-11,0.00021573552136151786
1042098875,11122,vehicle,157.8470916748047,32.20794677734375,1.1078488586005437e-10,-7.62279897449104e-09,-1.5562639893585521
644930681,11122,vehicle,88.63038635253906,165.76617431640625,-5.437110398020405e-09,2.1099584023462122e-06,1.5733732014656572
2234188147,11122,vehicle,358.0129089355469,-1.9549229145050049,-1.1748786035828559e-07,-7.775295226957886e-11,-3.1409308580589084
4109707537,11122,vehicle,2.6298837661743164,281.2558898925781,-0.00032553698743732166,-12.043060298334566,-1.5708233578799609
3675841917,11122,vehicle,222.30059814453125,55.836116790771484,-6.397982501786413,-0.0011058218987020434,-3.141419814435047
2817926641,11122,vehicle,130.51712036132812,55.75621795654297,-8.773733138958436,3.7385383536688156e-05,3.141588392532049
4029506115,11122,vehicle,-2.284794569015503,68.05327606201172,-0.001882347499205608,5.178091183894608,1.5711598482836924
3277167701,11122,vehicle,88.64314270019531,33.21792221069336,1.6265678198780522e-07,0.0016462691047898822,1.5706975235184546
518241310,11122,vehicle,32.05201721191406,-2.126131296157837,-4.729658423284929,-0.0057688986261407,-3.140372925810537
778540568,11122,vehicle,222.77622985839844,59.32718276977539,6.177809005110187,-0.0016978981009918182,-0.00027483822449617736
657465635,11122,vehicle,1.727647066116333,200.68869018554688,0.003060870698118553,-17.179931367954254,-1.5706181613179704
835227171,11122,vehicle,134.6495819091797,59.32780456542969,4.56345458265755e-08,9.46462835502346e-12,0.00020740051309560257
715280319,11122,vehicle,118.0025863647461,195.2687225341797,1.3574849990960218e-07,-1.588158624906856e-10,3.1404227269229215
3020211281,11122,vehicle,153.76817321777344,37.5069694519043,3.45175114355948e-09,-2.091342246774979e-06,1.5724468208804732
2101598167,11122,vehicle,227.56103515625,-1.9626656770706177,-5.590469835474057,0.0001384613922211306,3.1415678861916554
14974470,11122,vehicle,252.8225860595703,59.332313537597656,5.5447997077872335,-0.0010366219894283864,-0.00018695390852356252
1398818972,11122,vehicle,99.46001434326172,133.96861267089844,5.711409316387677,-1.4880549770928488,-0.2548745198194277
2694688339,11122,vehicle,2.3524696826934814,311.72869873046875,-0.13880184723313616,-6.7803310578985725,-1.591264717142973
3916750283,11122,vehicle,124.01496887207031,326.93914794921875,-5.916438565895099,-0.0024091581242789767,-3.14118545625912
1983197581,11122,vehicle,92.12187194824219,21.969289779663086,-3.771648573695199e-09,-6.835182340256511e-07,-1.5763142634154863
2942851653,11122,vehicle,229.38861083984375,198.7639923095703,5.956508958535555,-0.0013578850549990102,-0.00022796658931078278
3949181016,11122,vehicle,88.6303482055664,112.13860321044922,2.623607647078329e-10,-1.0103022459137412e-07,1.5733931751738328
3672416715,11122,vehicle,356.5516052246094,326.3097229003906,-5.543452739602344,3.5431458337879796e-05,3.141586262003177
3325384226,11122,vehicle,243.55023193359375,55.845394134521484,-7.220127623342722,-0.0025093014662513164,-3.141245111067538
1359910869,11122,vehicle,153.96299743652344,10.619316101074219,1.19781593771465,8.0779167857293,1.423586235957186
2262630317,11122,vehicle,60.98088073730469,330.5818176269531,0.003632912440012567,6.782292940243778e-05,0.018666855497394972
805172996,11122,vehicle,126.89253997802734,195.39889526367188,-2.874797820004966,-7.732610194918744e-05,-3.1415657556627834
1986857511,11122,vehicle,-2.348284959793091,142.85301208496094,0.00017786635196061153,2.737200015964796,1.5707313456642986
1279946346,11122,vehicle,104.0120849609375,1.9384063482284546,7.360555931639644,0.018622984533422874,0.0025301003033729023
74618890,11122,vehicle,267.9961242675781,198.75692749023438,6.177789454787439,-0.0016978927278156906,-0.00027483822449617736
3085549129,11122,vehicle,392.50054931640625,98.76992797851562,0.010569640134653502,16.710871214842303,1.5701638260360027
2057201815,11122,vehicle,153.95948791503906,198.97450256347656,5.838684993028788,-0.0007059408879961002,-0.00012090751348959741
1015694095,11122,vehicle,66.94755554199219,330.46124267578125,-1.1596184979282554e-07,4.9967909595904226e-11,-0.00043089952939340205
1250507297,11122,vehicle,240.33555603027344,-1.9460934400558472,-6.447677979966564,-0.001186530287021461,-3.1414086291584686
4280502996,11122,vehicle,34.56223678588867,331.22882080078125,9.138057473034973,0.0020755183708270246,0.000227129052455757
3428459672,11122,vehicle,64.20972442626953,2.013737201690674,6.025501627502283,-0.001100815886066926,-0.0001826928182701451
414519966,11122,vehicle,274.4522705078125,327.04559326171875,-5.855143052273733,-0.0004584397620558615,-3.1415143566537447
2866945113,11122,vehicle,281.1381530761719,330.4568176269531,5.259662078710693,-0.0008740573229872191,-0.00016618126827558979
1853482628,11122,vehicle,1.7228543758392334,29.964330673217773,0.0006966836557757922,-5.918558079723623,-1.5706786150747152
3880166169,11122,vehicle,335.5050964355469,278.0752868652344,0.0010813782318528943,5.562337293413271,1.5706019160353208
1073352953,11122,vehicle,372.0362548828125,-2.377284526824951,0.0009149508530192485,-1.9040100532325045e-06,3.1395116595140053
213556023,11122,vehicle,211.9813232421875,327.0362243652344,-5.956503387358953,0.00021573854163195208,3.141556434598968
1628590046,11122,vehicle,1.6743441820144653,109.56082916259766,0.004577556533154832,-6.304210431446418,-1.5700702159236866
4120465129,11122,vehicle,313.6098937988281,133.22540283203125,1.592402516081728e-06,5.936662771654999e-09,0.003728099652981454
1015227284,11122,vehicle,243.55023193359375,129.75540161132812,-7.220127623342722,-0.0025093014662513164,-3.141245111067538
2900396540,11122,vehicle,181.6448211669922,-1.966733694076538,-0.0013252345882316559,-4.7967105042800445e-06,-3.1379731513522664
3587539486,11122,vehicle,396.6495361328125,288.9444580078125,-0.0004371779190949323,-1.3238509171566712,-1.5711265587700665
1146849989,11122,vehicle,271.20965576171875,133.10243225097656,8.032807005002411,0.0023548137264815337,0.00029314953758507377
1457681385,11122,vehicle,395.8643798828125,190.06683349609375,-0.0007027177526930889,-2.737199454702698,-1.5710530555239803
1726747598,11122,vehicle,115.29408264160156,129.5719451904297,-0.028165680335672617,0.0017324371134309154,3.0801612504088265
367118466,11122,vehicle,392.4764404296875,262.4699401855469,0.0026378839843767305,11.770749750194863,1.5705722217891664
2065705843,11122,vehicle,209.27944946289062,133.22372436523438,5.756380073173907,-0.00030353731540689775,-5.2730589583568915e-05
3978545900,11122,vehicle,334.8468933105469,265.46929931640625,0.0008547443011167134,6.032914101131969,1.5706546466249043
714679325,11122,vehicle,329.1863098144531,2.0030112266540527,5.7520172578399515,-0.01966602925681575,-0.003418966207443726
3262285446,11122,vehicle,154.004150390625,55.79275131225586,-5.90368097515849,-0.028536475275122646,-3.1367590162112995
1401880247,11122,vehicle,166.2610321044922,195.26808166503906,-5.590468404962582,0.00013846135679108337,3.1415678861916554
2250339631,11122,vehicle,187.42721557617188,129.7382354736328,-5.544799804616516,-2.8056720674944763e-05,-3.141587593583722
2525145270,11122,vehicle,92.55510711669922,180.80601501464844,0.005401951224072096,-5.8548063153118886,-1.5698736746352386
1825059061,11122,vehicle,299.9130554199219,2.013174057006836,6.900288954662826,-0.0011981528724623839,-0.00017363807056387567
346279610,11122,vehicle,110.9823226928711,194.9922637939453,-8.327913964953246e-08,3.923197406807534e-10,3.136881787937552
893025708,11122,vehicle,395.9406433105469,279.21630859375,-0.0018751976376910004,-5.819212611379001,-1.5711185692867962
1724402154,11122,vehicle,88.61457061767578,265.57781982421875,-0.0009828281757415138,6.044974724027517,1.5709589127794459
2595182244,11122,vehicle,193.53878784179688,198.76402282714844,5.9565184952784715,-0.0013578872290578037,-0.00022796658931078278
874453657,11122,vehicle,392.54205322265625,175.47787475585938,-0.03521020483971894,14.11388296775608,1.5732910429460283
1498616609,11122,vehicle,92.11588287353516,62.060340881347656,0.025414889143040326,-5.903720988046065,-1.566491460050838
505512523,11122,vehicle,184.10646057128906,133.22303771972656,6.15845652053413,-0.0018631493151001167,-0.00030253509983300145
3709073522,11122,vehicle,249.41058349609375,195.56594848632812,-6.397982501786413,-0.0011058218987020434,-3.141419814435047
27029540,11122,vehicle,1.4820727109909058,151.28536987304688,-0.0034231182940987807,-11.951269613224724,-1.5710827497701345
1375770528,11122,vehicle,338.9124450683594,295.78314208984375,0.0011695878369646605,-7.992225084556345,-1.5706499860929968
4266869573,11122,vehicle,25.107006072998047,-2.0572612285614014,-2.7371883378122472,8.820383910825957e-05,3.141560429340603
368528135,11122,vehicle,7.487658977508545,326.0430603027344,-6.19361898741915,-2.3674845823235717,-2.776484719732617
4012051816,11122,vehicle,338.9733581542969,228.75657653808594,1.743612305171821e-09,6.130850568847739e-07,-1.5736403165229922
3938307140,11122,vehicle,92.08905029296875,256.1204528808594,-0.0008523597078187291,-5.7563962305349365,-1.570944398551505
1966079641,11122,vehicle,1.1254690885543823,327.0038146972656,2.862466366932459,3.8382154694587896,0.9300011526860257
1759883367,11122,vehicle,-2.4171409606933594,222.8422393798828,0.0012858161957919288,7.399475462774457,1.570622555533769
3487645883,11122,vehicle,167.7239990234375,129.76913452148438,-5.903739403924505,0.0007562575002346694,3.1414645555413605
544848518,11122,vehicle,92.24710083007812,36.50962448120117,-0.0018341814109170075,-2.9552599460209303,-1.5714169764869395
1325658571,11122,vehicle,128.57786560058594,129.74827575683594,2.217682193536989e-06,-2.5732649299955726e-09,3.1404323143028456
921579549,11122,vehicle,117.53841400146484,55.82477951049805,-2.5978884004376344e-05,-2.4747822889872324e-08,-3.1406400408678716
4072577581,11122,vehicle,92.64556121826172,317.8041687011719,-0.9953640680015955,-6.536287843448465,-1.7219180686417155
94066344,11122,vehicle,287.1142578125,133.26174926757812,5.9189485159609685,0.001261349747172706,0.00021310368297298028
2853390219,11122,vehicle,291.5928039550781,330.5223388671875,5.819205135723292,-0.0013141864796676445,-0.00022583607669336472
2524564450,11122,vehicle,1.6262940168380737,93.33917999267578,-0.0010838078271615012,-6.055995844180587,-1.57097529122015
1882516347,11122,vehicle,-2.1544387340545654,30.849985122680664,-0.0069141340562163525,8.78137220936665,1.5715836903711786
815178544,11122,vehicle,190.78033447265625,330.42974853515625,5.6088760607124195,-0.0013712478837477388,-0.0002444781880692741
2188308515,11122,vehicle,99.25342559814453,199.85525512695312,5.927327682690056,-1.8942142031762863,-0.30931560783688405
1160083145,11122,vehicle,392.479248046875,312.11419677734375,0.004525458150024325,3.6872731094476516,1.5695690090065335
1832698586,11122,vehicle,182.21058654785156,326.9659423828125,-6.397982501786413,-0.0011058218987020434,-3.141419814435047
3748346955,11122,vehicle,122.84850311279297,1.9212543964385986,9.365893208561511,-0.0017060930205259302,-0.00018216020230677458
3198444053,11122,vehicle,147.15884399414062,327.100341796875,-7.957798509122789,-0.0038380343702731404,-3.1411103551163797
808811405,11122,vehicle,338.9378967285156,221.6520233154297,-4.7169337682462324e-07,-0.0016468419250721936,-1.5710827497701345
84250811,11122,vehicle,245.6458282470703,133.50543212890625,7.3695728355515655,0.06209383944490244,0.008425504638373084
3956289865,11122,vehicle,88.6192398071289,306.89337158203125,-7.817354611952719e-11,-7.468173806887952e-08,1.5697495713284408
1912328786,11122,vehicle,365.2416687011719,-1.9526509046554565,-1.5021212228443136e-08,-1.5105480727165208e-11,-3.1405870439621792
4030311199,11122,vehicle,338.9603576660156,252.8704376220703,-0.0020115464747614766,-6.032930038792779,-1.5711297545633744
3147513812,11122,vehicle,392.470458984375,219.48605346679688,-3.320291827305092e-05,16.623311996426803,1.5707983241657142
1663586846,11122,vehicle,248.49639892578125,330.42962646484375,5.903758701207418,-0.0018867189353694378,-0.0003195792657909273
