id,timestamp_ms,agent_type,x,y,vx,vy,psi_rad
-1,15343,vehicle,392.189208984375,44.59564971923828,0.0011976656122630205,6.048632026355474,1.570598320767849
2985032057,15343,vehicle,92.10367584228516,28.704078674316406,4.256059488029975e-12,-5.283051845504341e-08,-1.5707157661719218
3028941286,15343,vehicle,396.9305419921875,289.73590087890625,-0.0047942835803132956,-11.510375931783152,-1.571212845189385
2920337868,15343,vehicle,392.0096130371094,95.1461181640625,-0.0027124946459541376,19.326839256674084,1.5709366753843437
1503980471,15343,vehicle,92.19307708740234,41.197021484375,-1.790381814322347e-07,8.854475252471447e-05,-1.5687743217372538
2125414330,15343,vehicle,395.9254150390625,16.995630264282227,-0.002969143030421006,-5.598263430006677,-1.571326695325986
2396446624,15343,vehicle,226.40882873535156,327.0295715332031,-6.013454436722735,-8.007398936896672e-05,-3.141579337784343
4076155829,15343,vehicle,112.6908187866211,-1.9416345357894897,2.852614178064716e-06,4.6493463445988775e-10,-3.1414296681310803
130361148,15343,vehicle,92.40435028076172,270.81158447265625,-0.002072339888582493,-6.898496316537427,-1.5710967313658575
3417340120,15343,vehicle,187.63710021972656,330.4856872558594,5.619292165439672,-0.0010266044251486675,-0.00018269283452479042
2197730220,15343,vehicle,192.31089782714844,-1.9453437328338623,-5.5559258197071735,0.000541545513639385,3.1414951818938963
118743835,15343,vehicle,306.79681396484375,59.33424758911133,-2.6495616884320217e-07,3.9895832307650245e-10,-0.001505751020256476
904053063,15343,vehicle,178.70040893554688,55.8249397277832,1.0571720494785022e-06,-1.6489925195693685e-09,3.140032840139334
1291681130,15343,vehicle,184.64306640625,195.59869384765625,-5.516610142844884,0.00017336113353977076,3.1415612282889303
715062232,15343,vehicle,313.6129455566406,59.3152961730957,-2.7683168119338144e-06,-1.0338485097907164e-08,0.0037345570384019204
220877689,15343,vehicle,121.40384674072266,129.75619506835938,0.00019945193594875793,-4.360927404157241e-08,3.1413740080642976
2069714320,15343,vehicle,-2.3947763442993164,283.18280029296875,0.0036594111333987417,9.27183174397642,1.5704016463213468
3190467641,15343,vehicle,118.230712890625,-2.252023458480835,-0.004125853572624876,-0.00022726070648912487,-3.086566152830467
708315452,15343,vehicle,88.74034118652344,99.75112915039062,3.534506376904929e-05,0.01190403351373294,1.5678271684955674
1314594676,15343,vehicle,88.64353942871094,172.70431518554688,1.5909339730992125e-07,0.001647960154110846,1.5706997872053812
2302084468,15343,vehicle,312.6502990722656,330.5220947265625,-0.010238407930210552,0.001064071626989038,-0.10355761819897645
757051778,15343,vehicle,305.1543884277344,199.05624389648438,-1.2532159713599587e-06,1.3857372131119186e-09,-0.0011057444846008996
4203008516,15343,vehicle,153.76548767089844,31.296361923217773,-0.00013064790723840765,0.4580527953748098,1.5710815513476442
2631691725,15343,vehicle,312.3171081542969,199.05612182617188,0.0,-0.0,-0.0025161545979068643
1513387753,15343,vehicle,299.79937744140625,59.32716751098633,-0.0007029914279482708,1.040557988806925e-06,-0.001480184803828878
156273220,15343,vehicle,92.52327728271484,87.21238708496094,-0.0016442320598478992,-5.685070276907136,-1.5710855460892792
3812119762,15343,vehicle,108.9894027709961,55.83781433105469,-3.8718603478307974,0.0011002251104950981,3.1413084943014815
3616050434,15343,vehicle,335.4158935546875,308.00689697265625,3.5925935068483425e-11,-7.414101883537923e-08,1.5712808889552365
2942158310,15343,vehicle,88.60454559326172,25.917118072509766,-7.110529790302691e-10,-3.635069491370171e-06,1.5706007176128303
3608800298,15343,vehicle,145.68064880371094,133.23402404785156,5.667033820446324e-08,-2.7467847928222167e-11,-0.0004846952858851307
1146464971,15343,vehicle,58.40201950073242,2.547636032104492,3.942008619861658,0.0075689385831443695,0.001920069185953651
3013099654,15343,vehicle,-2.401279926300049,101.9393310546875,0.0007503621025322599,5.821408700266998,1.5706674297981367
2246582517,15343,vehicle,88.6150894165039,105.10009765625,4.652800091438368e-12,3.412298323266437e-08,1.5706599729470845
3192940987,15343,vehicle,338.8923645019531,296.3252258300781,-0.0020109242829135917,-5.552126520292204,-1.5711585167031474
828836647,15343,vehicle,88.64752960205078,300.9998474121094,3.9404335120867665e-09,-3.5709111758074252e-06,1.571899807592571
1702089089,15343,vehicle,395.9718322753906,182.85804748535156,-0.0007663352338216571,-3.966285154696537,-1.570989539131982
2111029583,15343,vehicle,54.97414016723633,330.44464111328125,0.0066867115409718824,-2.852808130529011e-06,-0.000426638406630694
420096522,15343,vehicle,134.88027954101562,129.73660278320312,-3.1686818007575734,-0.004799941964094942,-3.140077847561756
510102133,15343,vehicle,158.50045776367188,25.25030517578125,-0.0005725707311239772,0.005045997617323409,-1.4578093207033038
4109025732,15343,vehicle,214.94776916503906,1.8990229368209839,-0.0018826351575535179,-1.8884656708920028e-06,0.001003096659446646
2913592560,15343,vehicle,249.4114990234375,1.934928297996521,0.47542577107946365,-9.116175870783167e-05,-0.00019174761474035048
3970347779,15343,vehicle,128.5885009765625,59.32242202758789,-0.009834599529716484,0.000886724417544081,-0.08992061055398148
1933996401,15343,vehicle,392.1317138671875,0.6344588994979858,-4.071237462148298,-4.029028691266418,-2.3614052311811937
3047764241,15343,vehicle,37.88839340209961,2.0485634803771973,6.001406112546228,-0.000981338576721512,-0.00016351810718551055
1260711767,15343,vehicle,306.1383361816406,133.41566467285156,4.436625182869942e-08,-4.797073289599667e-11,-0.0010812433375535894
3957993155,15343,vehicle,335.0718994140625,33.63330078125,1.0167243398967218e-09,-1.4529912131157402e-06,1.571496072371315
4289594148,15343,vehicle,-2.4093010425567627,150.3470916748047,-0.0005017633879858298,3.609366858891488,1.5709353438037987
4139896837,15343,vehicle,195.61741638183594,129.4877166748047,-5.607250634182275,-0.0007944362283553249,-3.141450973419801
1686932955,15343,vehicle,175.89035034179688,-1.9625723361968994,7.222717109058822e-08,-3.722022978767563e-11,3.1410773319188627
1726501337,15343,vehicle,378.9000549316406,-2.3913474082946777,0.04960734914375045,0.0001407660995487217,-3.1387550554483137
1682591593,15343,vehicle,257.9882507324219,330.45721435546875,6.899113074885491,-0.0011942741170973485,-0.00017310545460050517
3380823586,15343,vehicle,389.6553955078125,323.7425231933594,-3.824686736054706,3.5712941557271973,2.390441942862437
4176583038,15343,vehicle,224.93942260742188,1.9957436323165894,5.555932290304445,-0.001603923412038012,-0.0002886866296552988
3855978784,15343,vehicle,305.56915283203125,330.5410461425781,-4.138437720131431e-06,-8.928080330256946e-10,0.00021573552136151786
1042098875,15343,vehicle,157.8470916748047,32.20794677734375,-1.733621292313663e-10,1.1928564538937132e-08,-1.5562639893585521
644930681,15343,vehicle,88.63038635253906,165.76617431640625,-2.3110444858009589e-10,8.968380948797712e-08,1.5733732014656572
2234188147,15343,vehicle,358.0129699707031,-1.9552053213119507,5.065092903496745e-05,3.6636560435857126e-08,-3.1408693390377276
4109707537,15343,vehicle,2.6169750690460205,229.7083282470703,-0.0025222362148981966,-12.087856983255696,-1.5710049854663044
3675841917,15343,vehicle,189.72372436523438,55.83697509765625,-6.344690305736661,0.00046635533372346185,3.141519150343707
2817926641,15343,vehicle,122.81330871582031,55.75175094604492,0.8800110631505439,-0.0004923927691740158,3.1410331234447675
4029506115,15343,vehicle,-2.2932183742523193,92.49191284179688,-0.0019412526036474704,5.001220803207994,1.5711844825237757
3277167701,15343,vehicle,88.64314270019531,33.2283821105957,1.5904453149725813e-07,0.0016474539802939013,1.5706997872053812
518241310,15343,vehicle,16.68031883239746,-2.06117844581604,0.5928379771468004,-0.0012805853541712276,3.13943256362963
778540568,15343,vehicle,247.5025177001953,59.324867248535156,5.549286840890736,-0.0001270963226860016,-2.2903181311020116e-05
657465635,15343,vehicle,1.7192658185958862,138.9954071044922,0.0009064667397106415,-10.505323370926295,-1.570710040375578
835227171,15343,vehicle,134.6495819091797,59.32780456542969,-3.0286710265591407e-09,-6.2814793391274e-13,0.00020740051309560257
715280319,15343,vehicle,118.0025863647461,195.2687225341797,1.5014476800483198e-07,-1.7565844812303952e-10,3.1404227269229215
3020211281,15343,vehicle,153.7682342529297,39.25131607055664,0.0007985634612172791,3.7717670548983646,1.5705846054882353
2101598167,15343,vehicle,203.38771057128906,-1.9619767665863037,-5.607248249784738,-0.0007959291911005131,-3.141450707103692
14974470,15343,vehicle,277.48095703125,59.33369064331055,6.013449095746946,-0.0010761934727000148,-0.0001789644252533248
1398818972,15343,vehicle,123.36748504638672,133.67849731445312,5.685026535262498,-0.001120370482898016,-0.00019707392066586362
2694688339,15343,vehicle,2.313439130783081,269.9931335449219,-0.0049135547622493544,-15.722270197779299,-1.5711088487488174
3916750283,15343,vehicle,116.79842376708984,326.9374694824219,6.274344700989171e-06,-2.994047182286798e-08,3.136820801548589
1983197581,15343,vehicle,92.12187194824219,21.969289779663086,4.871509086282453e-10,8.828408115535066e-08,-1.5763142634154863
2942851653,15343,vehicle,254.18946838378906,198.76576232910156,6.056164116013805,-0.0013418946022849747,-0.00022157500269459263
3949181016,15343,vehicle,88.6303482055664,112.13860321044922,-6.364572830601119e-11,2.450877985585439e-08,1.5733931751738328
3672416715,15343,vehicle,339.0403747558594,315.4586181640625,-0.533441336486793,-5.773866516578198,-1.6629237241742802
3325384226,15343,vehicle,210.24388122558594,55.84172058105469,-7.8912740543115065,-0.0037155820480047853,-3.141121806709067
1359910869,15343,vehicle,154.24183654785156,25.514245986938477,-3.438805550076279e-05,0.01740460798413338,1.5727721260076264
2262630317,15343,vehicle,60.97410202026367,330.76239013671875,0.004146864272794571,0.00024375831536313413,0.05871379709135225
805172996,15343,vehicle,123.97518920898438,195.35330200195312,-0.5999554841809857,0.06143206462006682,3.039553902739516
1986857511,15343,vehicle,-2.3466806411743164,159.8507843017578,4.5530599919059504e-05,0.4755618848462687,1.5707005861537082
1279946346,15343,vehicle,125.39091491699219,2.0836708545684814,0.010385689183326314,6.815989099220102e-05,0.006562772218376673
74618890,15343,vehicle,292.7224426269531,198.7549591064453,5.549244879220826,-0.00012709536163026737,-2.2903181311020116e-05
3085549129,15343,vehicle,392.51959228515625,180.15248107910156,0.0034410083785462175,18.458238280945984,1.5706099055185911
2057201815,15343,vehicle,178.28042602539062,198.974853515625,5.685930594652338,-0.00123563193526671,-0.0002173139286958205
1015694095,15343,vehicle,66.94755554199219,330.46124267578125,7.260025861504407e-08,-3.1283419207238545e-11,-0.00043089952939340205
1250507297,15343,vehicle,214.80276489257812,-1.94610595703125,-5.181617699275296,-0.0006237366183589136,-3.1414722787085214
4280502996,15343,vehicle,48.15364074707031,331.2244567871094,-0.0001742535162182285,5.262499915324776e-08,-0.00030200250012427625
3428459672,15343,vehicle,66.85588836669922,2.0130629539489746,-1.249671459734713e-06,1.0104042173266051e-09,-0.0008085357069480567
414519966,15343,vehicle,250.56991577148438,327.0451354980469,-5.6123795419041835,0.00031836408878047854,3.1415359282585746
2866945113,15343,vehicle,294.29034423828125,330.4563903808594,-0.0003271530117761872,1.4532637295924053e-07,-0.00044421526982521694
1853482628,15343,vehicle,3.5409905910491943,6.337193489074707,3.528010187006736,-5.203700808023249,-0.9750015843105034
3880166169,15343,vehicle,335.509765625,300.55926513671875,0.001233858140553039,3.2569830464677643,1.5704174921298328
1073352953,15343,vehicle,372.0358581542969,-2.3772799968719482,-8.462954220377377e-09,1.7611383018521525e-11,3.1395116595140053
213556023,15343,vehicle,187.18045043945312,327.0296325683594,-6.056170937608087,0.00018386557032901285,3.1415622935533665
1628590046,15343,vehicle,1.6699556112289429,85.34400177001953,-0.0018193027794226825,-5.673891729504395,-1.571116971390142
4120465129,15343,vehicle,313.6098937988281,133.22540283203125,5.575364504731871e-08,2.078561077326861e-10,0.003728099652981454
1015227284,15343,vehicle,210.24388122558594,129.75177001953125,-7.891273577474401,-0.003715581823487505,-3.141121806709067
2900396540,15343,vehicle,181.6448211669922,-1.9666622877120972,-0.0013252299405161162,-4.9212796754163276e-06,-3.1378791417657865
3587539486,15343,vehicle,396.6432800292969,267.30487060546875,-0.0011660718216268096,-4.477019634978841,-1.5710567839495064
1146849989,15343,vehicle,292.98236083984375,133.194580078125,0.5610588317402717,-0.014868576058058365,-0.026494720259573105
1457681385,15343,vehicle,395.85943603515625,173.0685272216797,-0.00013674184538998565,-0.4754230481432108,-1.571083948192625
1726747598,15343,vehicle,115.30644989013672,129.7797393798828,-0.027448509404785566,0.0027853351196534845,3.040463904883996
367118466,15343,vehicle,392.48187255859375,307.7384033203125,0.0019013659622400707,8.648707180829643,1.5705764828469106
2065705843,15343,vehicle,233.39288330078125,133.21826171875,5.920653060679904,-0.0018290475973603423,-0.000308926653939901
3978545900,15343,vehicle,334.8567810058594,289.73590087890625,0.000369374115801101,5.547904955965434,1.5707297477676445
714679325,15343,vehicle,353.44451904296875,1.9292676448822021,5.827214463340094,-0.0037524489755174123,-0.0006439523515811598
3262285446,15343,vehicle,130.79808044433594,55.74993133544922,-3.6943036575261927,0.00384489725356174,3.1405518902357903
1401880247,15343,vehicle,142.0875701904297,195.269287109375,-5.607247296110431,-0.0007959290557297955,-3.141450707103692
2250339631,15343,vehicle,162.76889038085938,129.73208618164062,-6.013448237839679,-8.007390682584593e-05,-3.141579337784343
2525145270,15343,vehicle,92.54923248291016,156.92422485351562,-0.0019490276233632684,-5.612326760420973,-1.5711436030010428
1825059061,15343,vehicle,313.6257019042969,2.012178659439087,-5.808777451725919e-05,3.6322884026418167e-08,-0.0006253102239506051
346279610,15343,vehicle,110.9823226928711,194.9922637939453,-3.9275234553395306e-07,1.8502172212642826e-09,3.136881787937552
893025708,15343,vehicle,395.93072509765625,254.969970703125,-0.001869704349118845,-5.8214098788849515,-1.5711175040223602
1724402154,15343,vehicle,88.6165542602539,289.8492431640625,0.002111797363454795,5.491457056253902,1.5704117663334891
2595182244,15343,vehicle,218.33970642089844,198.76577758789062,6.05616602336239,-0.0013418950249057496,-0.00022157500269459263
874453657,15343,vehicle,392.5616760253906,237.58351135253906,-0.015572663149648242,16.066585623205313,1.571765584273631
1498616609,15343,vehicle,92.17973327636719,47.56009292602539,-4.949707103608601e-06,0.0008125387248237124,-1.5647047452755038
505512523,15343,vehicle,217.19796752929688,133.22032165527344,6.156849779902568,-0.001000197557770566,-0.0001624528102401882
3709073522,15343,vehicle,216.2913055419922,195.5690460205078,-6.893958206403835,-0.006666416864445108,-3.1406256597979856
27029540,15343,vehicle,1.4720052480697632,115.70592498779297,-0.0006042724944746566,-2.3164927171299703,-1.57105718342367
1375770528,15343,vehicle,338.9001159667969,259.33453369140625,0.0034235577947710275,-5.778934418341683,-1.5702039066104085
4266869573,15343,vehicle,8.103434562683105,-1.7424917221069336,-3.4716824776003783,0.780755935919856,2.9203803734356693
368528135,15343,vehicle,2.5737111568450928,290.09332275390625,0.050314397000242934,-8.337381179945446,-1.5647616037647771
4012051816,15343,vehicle,338.9733581542969,228.75657653808594,9.270963751438953e-10,3.2598355276963466e-07,-1.5736403165229922
3938307140,15343,vehicle,92.08128356933594,232.00701904296875,-0.0023958943219902014,-5.920651427919126,-1.5712009941225342
1966079641,15343,vehicle,24.08835220336914,331.2404479980469,5.953885581894305,0.0023153833569284884,0.00038888608260280043
1759883367,15343,vehicle,-2.4144210815429688,261.7214050292969,0.0015725783230736933,9.119584901643993,1.5706238871143139
3487645883,15343,vehicle,144.91851806640625,129.7755126953125,-3.9308432319606617,-0.0029070943009298585,-3.1408530937550783
544848518,15343,vehicle,92.24698638916016,35.24443435668945,5.302585460300381e-10,4.855123680688383e-07,-1.571888489157938
1325658571,15343,vehicle,128.57786560058594,129.74827575683594,2.42452593320481e-07,-2.8132739551063475e-10,3.1404323143028456
921579549,15343,vehicle,117.35970306396484,55.81755065917969,-1.0292993191663427,-0.001161442652228666,-3.1404642722359264
4072577581,15343,vehicle,92.40673828125,289.0467224121094,-0.0020843743989836763,-6.8927280135453985,-1.571098728736675
94066344,15343,vehicle,298.68829345703125,133.25889587402344,-0.0001581803199407497,4.948131850675935e-07,-0.003128148756332748
2853390219,15343,vehicle,299.994140625,330.5155029296875,-0.00027614277669009364,-8.416586729326272e-08,0.0003047911145669753
2524564450,15343,vehicle,1.6147191524505615,68.86351013183594,-0.0019222887736527004,-5.887497111262289,-1.5711228303445404
1882516347,15343,vehicle,-2.152472972869873,75.92853546142578,0.0015551492045386035,8.606464245482112,1.5706156313149346
815178544,15343,vehicle,214.62689208984375,330.41845703125,5.516610485025458,-0.001231157976959983,-0.00022317289934864015
2188308515,15343,vehicle,123.77718353271484,199.21832275390625,5.648098385194797,-0.0009716999298433037,-0.00017204019016447346
1160083145,15343,vehicle,370.4687805175781,326.561279296875,-6.85363567568755,0.014738783925220624,3.139442151009554
1832698586,15343,vehicle,149.0913848876953,326.9690246582031,-6.893959636914641,-0.006666418247740607,-3.1406256597979856
3748346955,15343,vehicle,131.28924560546875,1.9196897745132446,-0.9612058829175029,0.00017970119880089357,-0.00018695390852356252
3198444053,15343,vehicle,121.94806671142578,326.964599609375,0.44753304871413574,0.014380715062123572,-3.1094704034695844
808811405,15343,vehicle,338.9337463378906,221.64218139648438,-4.702872987392701e-07,-0.0016472936169414274,-1.571081817663753
84250811,15343,vehicle,283.63983154296875,133.5966033935547,7.01997035992387,0.04820697736491932,0.006867011845337056
3956289865,15343,vehicle,88.6192398071289,306.89337158203125,-5.290433059444436e-11,-5.054123237703265e-08,1.5697495713284408
1912328786,15343,vehicle,365.2416687011719,-1.9526519775390625,2.2553625776377205e-08,2.268015086343482e-11,-3.1405870439621792
4030311199,15343,vehicle,338.9559631347656,235.73294067382812,-2.456080554522563e-06,0.003545722539185123,-1.570103638595367
3147513812,15343,vehicle,392.47760009765625,279.38507080078125,0.003954188676932911,10.857568974486426,1.5704321395158283
1663586846,15343,vehicle,272.6858825683594,330.414794921875,5.673790835908117,-0.001042604937417577,-0.0001837580827061768
