id,timestamp_ms,agent_type,x,y,vx,vy,psi_rad
-1,19229,vehicle,392.2019958496094,98.41793060302734,0.002542652368180559,19.114108870188605,1.570663301898447
2985032057,19229,vehicle,92.09595489501953,14.328261375427246,-0.0025481925451951632,-6.695801250046945,-1.571176892514669
3028941286,19229,vehicle,396.9211120605469,258.7384948730469,-0.003445587074231398,-8.657048493389075,-1.5711943362198089
2920337868,19229,vehicle,392.0137939453125,177.9447021484375,0.006419373582357497,21.426077834746504,1.5704967211722627
1503980471,19229,vehicle,92.19136810302734,36.00674057006836,-0.00550510621847371,-5.904403504303675,-1.5717286994925332
2125414330,19229,vehicle,391.5576171875,0.3893352448940277,0.02555749858119541,0.023495464091053447,-2.398206655336672
2396446624,19229,vehicle,203.79542541503906,327.0227966308594,-5.7860007273906415,0.00011864970045166514,3.1415721472493994
4076155829,19229,vehicle,112.6908187866211,-1.9384607076644897,-2.169298085799233e-06,-3.472091372838095e-10,-3.1414325976082793
130361148,19229,vehicle,92.39302825927734,244.0636444091797,-0.00207250633817995,-6.899050401290258,-1.5710967313658575
3417340120,19229,vehicle,209.8270721435547,330.4891662597656,5.510614268190955,-0.001182857600813041,-0.00021465076760574127
2197730220,19229,vehicle,188.17001342773438,-1.9401874542236328,0.00010952197274535684,-5.180142282596104e-08,3.141119676180195
118743835,19229,vehicle,321.1641845703125,59.338645935058594,5.751240692423404,0.0006599316056313856,0.00011474595448672668
904053063,19229,vehicle,178.70040893554688,55.8249397277832,-1.6899604252120805e-08,2.636025139822483e-11,3.140032840139334
1291681130,19229,vehicle,162.648681640625,195.6051483154297,-5.508364200513905,2.933932241876408e-05,3.141587327267613
715062232,19229,vehicle,334.4150695800781,57.14811706542969,6.7176258474153965,-3.2798491463368142,-0.4541996937785194
220877689,19229,vehicle,103.58900451660156,129.77825927734375,-6.9053767108293975,0.1930050019401061,3.1136499684843546
2069714320,19229,vehicle,-2.391206979751587,316.5379333496094,0.010079937916011009,8.325892068715948,1.5695856537633466
3190467641,19229,vehicle,118.24349212646484,-2.391645669937134,-0.007956976983961537,-0.00091718656424396,-3.026830916947772
708315452,19229,vehicle,88.74713897705078,99.75566101074219,3.559091490716883e-05,0.011901965235862965,1.5678059963649011
1314594676,19229,vehicle,88.64353942871094,172.71337890625,1.5899323812812415e-07,0.001646922660767559,1.5706997872053812
2302084468,19229,vehicle,312.63800048828125,330.3816833496094,-0.010469921802913385,0.001258733708979612,-0.11964953605918487
757051778,19229,vehicle,318.8518371582031,199.0534210205078,5.533183448468008,-0.0011818077889422197,-0.0002135855031697096
4203008516,19229,vehicle,153.5911865234375,49.8634033203125,-0.19927996113871543,5.195653558106268,1.6091326638446417
2631691725,19229,vehicle,330.39093017578125,200.37857055664062,5.246860442966286,2.022815428914371,0.3679692341323573
1513387753,19229,vehicle,310.01580810546875,59.3250617980957,5.937126129902227,-0.0005945131814125967,-0.00010013484073233403
156273220,19229,vehicle,92.51573181152344,80.52530670166016,4.010901107766563e-08,2.5913051895357028e-05,-1.5723441560204507
3812119762,19229,vehicle,94.08531951904297,52.9923095703125,-0.04128765061302932,-0.041644210656770445,-2.351895082928521
3616050434,19229,vehicle,330.6866455078125,325.496826171875,-4.255997080053486,3.2788057701552042,2.485164990198266
2942158310,19229,vehicle,88.60153198242188,25.917118072509766,2.2244933721643348e-10,1.1318198639532166e-06,1.5705997855064489
3608800298,19229,vehicle,145.69044494628906,133.23402404785156,0.2734233718761092,-0.0001315075997493428,-0.0004809668928683104
1146464971,19229,vehicle,60.19769287109375,2.548051118850708,1.8795570925250674e-06,-1.597776072939076e-09,-0.0008500809549347115
3013099654,19229,vehicle,-2.397651195526123,124.26253509521484,0.0007526879131700904,5.821411084152555,1.5706670303239731
2246582517,19229,vehicle,88.6150894165039,105.10009765625,0.0,0.0,1.5706599729470845
3192940987,19229,vehicle,338.88336181640625,273.8976745605469,-0.0013176861829995582,-5.525212130777928,-1.5710348128705132
828836647,19229,vehicle,88.65513610839844,313.82183837890625,-0.000345108117413673,5.837202538778941,1.5708554489710964
1702089089,19229,vehicle,395.9576721191406,156.8572540283203,-0.0004959415968725341,-7.2460274526630855,-1.5708647700349117
2111029583,19229,vehicle,54.97306442260742,330.44464111328125,-0.00021011514210057572,9.188147717491786e-08,-0.0004372910509910109
420096522,19229,vehicle,125.07952880859375,129.72683715820312,-5.353511771516241,0.0006444283469961895,3.1414722787085214
510102133,19229,vehicle,159.1515350341797,5.514803409576416,1.6439293063558076,-7.008724345601004,-1.3404063940501962
4109025732,19229,vehicle,236.51524353027344,1.884080410003662,6.205230921526415,-0.0018244185143560811,-0.00029401298434474787
2913592560,19229,vehicle,272.5089111328125,1.9305018186569214,4.743340405048985,-0.0009095242197165413,-0.00019174761474035048
3970347779,19229,vehicle,128.5767822265625,59.17036437988281,-0.0104112055033191,0.0011827253842758973,-0.11311626095062406
1933996401,19229,vehicle,385.6738586425781,-2.1186788082122803,4.973961093474297e-05,6.675505934171052e-06,-3.008180799833947
3047764241,19229,vehicle,53.26449203491211,2.046074867248535,-0.007780621896744163,-3.5154378331793573e-06,0.0004518196155291196
1260711767,19229,vehicle,320.27606201171875,133.4118194580078,7.263044125826824,-0.0018336839943014563,-0.0002524676875941571
3957993155,19229,vehicle,335.0718994140625,33.63330078125,1.8308426934237247e-11,-2.6164401123829177e-08,1.571496072371315
4289594148,19229,vehicle,-2.40397572517395,173.67291259765625,0.0005158557028088381,5.9235634579154555,1.570709241427251
4139896837,19229,vehicle,173.4671630859375,129.48818969726562,-5.956886153931524,-0.0012802367167630178,-3.1413777364898237
1686932955,19229,vehicle,175.89035034179688,-1.962569236755371,7.561861385542896e-07,-3.896791389482144e-10,3.1410773319188627
1726501337,19229,vehicle,378.8957214355469,-2.397580146789551,-7.437165988485199e-05,-2.1038383479798486e-07,-3.138763843879911
1682591593,19229,vehicle,281.2004699707031,330.4570617675781,3.0252569859249485,-0.0008685172189534236,-0.00028708873300125124
3380823586,19229,vehicle,369.3069763183594,326.32537841796875,-3.039107635673239,0.007583750053211685,3.139097271648389
4176583038,19229,vehicle,246.2480010986328,1.9894814491271973,5.559121377939569,-0.0016018832723516912,-0.0002881540299465736
3855978784,19229,vehicle,305.56915283203125,330.5410461425781,-6.197117696898591e-08,-1.3369392438759265e-11,0.00021573565139868049
1042098875,19229,vehicle,157.86048889160156,16.940656661987305,-0.002489882768181154,-5.551870741416903,-1.571244803122466
644930681,19229,vehicle,88.63038635253906,165.76617431640625,9.344329851924375e-11,-3.6262179433658024e-08,1.5733732014656572
2234188147,19229,vehicle,358.01300048828125,-1.9551705121994019,-1.557415314886272e-05,-1.2505161008546061e-08,-3.140789710521134
4109707537,19229,vehicle,2.6082916259765625,196.52923583984375,4.613736312419534e-07,0.0001989235786040689,-1.5731156737882466
3675841917,19229,vehicle,183.96047973632812,55.83399200439453,-0.017601503799918095,-0.00014225191425279947,-3.1335110249458387
2817926641,19229,vehicle,108.0340805053711,55.75288009643555,-5.441463790298292,0.0013071328416162885,3.141352436459468
4029506115,19229,vehicle,-2.3329787254333496,113.27230072021484,-0.005620465068159559,6.380795864476874,1.5716771673254404
3277167701,19229,vehicle,88.64314270019531,33.23801040649414,1.585837536562714e-07,0.0016472251078145479,1.5707000535214903
518241310,19229,vehicle,-2.458512544631958,11.460205078125,-0.3189015825100923,7.1376720616629745,1.6154452877345111
778540568,19229,vehicle,272.8946228027344,59.32014465332031,5.87065949871829,-0.0019668212952062025,-0.00033502560011338685
657465635,19229,vehicle,1.7174835205078125,110.44991302490234,-0.0022733672800751546,-5.977835222932287,-1.5711766261985598
835227171,19229,vehicle,134.6495819091797,59.32780456542969,-4.6510410521827256e-08,-9.646283144825622e-12,0.00020740051309560257
715280319,19229,vehicle,103.97553253173828,195.25070190429688,-4.898684859764247,-0.05682825883361524,-3.129992456513626
3020211281,19229,vehicle,161.25108337402344,58.8742790222168,5.308985669202219,2.2372231694577227,0.3988201244376759
2101598167,19229,vehicle,193.7312469482422,-1.9614653587341309,0.0002479580015913516,-1.1642008410420739e-07,3.141123138289612
14974470,19229,vehicle,298.84521484375,59.32847595214844,5.215244997168152,-0.0016139058759369693,-0.0003094592536486262
1398818972,19229,vehicle,138.7360076904297,133.6754150390625,-0.02766294667050045,-1.281018851994028e-05,0.00046308109388473685
2694688339,19229,vehicle,2.2976417541503906,217.06927490234375,-0.005633091820844867,-9.444919813700203,-1.5713927417210198
3916750283,19229,vehicle,116.79842376708984,326.9374694824219,-0.0,0.0,3.136820801548589
1983197581,19229,vehicle,88.79682159423828,0.9786890149116516,-4.7204734201604435,-5.292079735615855,-2.2991674228221513
2942851653,19229,vehicle,276.9046936035156,198.767578125,6.15950673664866,0.0008678752799120616,0.0001409001258177049
3949181016,19229,vehicle,88.6303482055664,112.13860321044922,5.402900009574116e-10,-2.0805557645781383e-07,1.5733931751738328
3672416715,19229,vehicle,338.8811950683594,292.6364440917969,-0.001262584970383545,-5.538464879127177,-1.5710242933842073
3325384226,19229,vehicle,190.06871032714844,55.84153366088867,-0.006663606935233958,2.5767568930534455e-06,3.1412059625995137
1359910869,19229,vehicle,154.24169921875,39.53506851196289,-0.000832065411622856,0.494789705412177,1.572477979865227
2262630317,19229,vehicle,60.96115493774414,330.8971862792969,0.008023003895529176,0.0009525807951580425,0.11817793981983432
805172996,19229,vehicle,114.02892303466797,195.29208374023438,-3.5011331279282865,0.017825000645021304,3.136501488533889
1986857511,19229,vehicle,-2.344175100326538,185.94464111328125,0.00024764677358241787,2.5938572765386416,1.5707008524698172
1279946346,19229,vehicle,125.95345306396484,2.207084894180298,0.7292112627303382,-0.007779197811124998,-0.010667557022124095
74618890,19229,vehicle,308.02801513671875,198.75253295898438,5.247693836777882,-0.0013695943562961708,-0.0002609897543184747
3085549129,19229,vehicle,392.525146484375,248.94728088378906,0.0007080116373392077,16.360237106261945,1.5707530504271827
2057201815,19229,vehicle,200.526611328125,198.9752960205078,5.496382612274731,-0.0010539181791787858,-0.00019174759848570515
1015694095,19229,vehicle,66.94755554199219,330.46124267578125,-3.109519748335454e-07,1.3398906791250396e-10,-0.00043089952939340205
1250507297,19229,vehicle,199.76524353027344,-1.9462183713912964,0.018470389778990112,2.3453625032016992e-05,-3.1403228583820435
4280502996,19229,vehicle,48.153709411621094,331.2244567871094,0.0,-0.0,-0.00030200243510569496
3428459672,19229,vehicle,66.85588836669922,2.0130629539489746,-2.4238175093609917e-08,1.95974343049197e-11,-0.0008085357069480567
414519966,19229,vehicle,228.62911987304688,327.044921875,-5.540466290196451,0.0004515077208943207,3.141511160860437
2866945113,19229,vehicle,294.2904968261719,330.4563903808594,1.8222200615785727e-07,-8.094579703386536e-11,-0.00044421523731592627
1853482628,19229,vehicle,24.798297882080078,2.52632212638855,5.950751568228885,-0.005023756974031051,-0.0008442220655551185
3880166169,19229,vehicle,335.47760009765625,316.3515319824219,-0.09704033405167864,5.502790322387295,1.5884292495303658
1073352953,19229,vehicle,372.0358581542969,-2.3772799968719482,-1.031697913629044e-08,2.1469603454289297e-11,3.1395116595140053
213556023,19229,vehicle,164.46530151367188,327.02337646484375,-6.159495966077911,-0.0020504663246648596,-3.141259758453533
1628590046,19229,vehicle,1.6629515886306763,63.275634765625,-0.0008512706217445444,-5.515904837723489,-1.5709506569800666
4120465129,19229,vehicle,334.46673583984375,131.16165161132812,6.727439915097807,-3.208381103576856,-0.4450052965625889
1015227284,19229,vehicle,184.16184997558594,129.7513427734375,-5.218549719517848,0.0003043626648015784,3.1415343303619205
2900396540,19229,vehicle,181.6448211669922,-1.9665980339050293,-0.0013252333539620295,-5.035290669975697e-06,-3.137793121662577
3587539486,19229,vehicle,396.63616943359375,243.11007690429688,-0.0024341061362362264,-9.158229504408261,-1.5710621102716864
1146849989,19229,vehicle,300.5758056640625,133.19125366210938,4.123365492098752,-0.02629370728902252,-0.006376672393937077
1457681385,19229,vehicle,395.8504638671875,140.18539428710938,-0.0032250211477539204,-11.212729943922296,-1.571083948192625
1726747598,19229,vehicle,92.22940063476562,124.22403717041016,-2.1579830144515504,-7.112716450939366,-1.8653675097041251
367118466,19229,vehicle,380.76806640625,326.2802734375,-5.271420552298046,0.31368529289098385,3.0821559580652957
2065705843,19229,vehicle,255.7852020263672,133.21295166015625,5.970418403208261,-0.0007727488975142638,-0.00012942960459588299
3978545900,19229,vehicle,334.8408508300781,306.16082763671875,-0.00014756438662314844,4.560451505180959,1.570828684202141
714679325,19229,vehicle,375.49603271484375,1.9291352033615112,6.140036102429834,-0.00021257476820068003,-3.46210941710301e-05
3262285446,19229,vehicle,118.71453094482422,55.75296401977539,-4.849639751723366,0.00116884117846859,3.141351637511141
1401880247,19229,vehicle,123.83049774169922,195.27037048339844,-5.074167190427015,-0.0007878268320322791,-3.1414373912982416
2250339631,19229,vehicle,143.64646911621094,129.73387145996094,-3.3367089072516483,0.0008770673019412839,3.1413297995902023
2525145270,19229,vehicle,92.54637145996094,154.58193969726562,2.3774504491648734e-08,-2.741760605797304e-05,-1.5699292015439668
1825059061,19229,vehicle,313.625732421875,2.0121803283691406,-6.317970261878846e-07,3.95069191429254e-10,-0.0006253102239506051
346279610,19229,vehicle,92.83712005615234,197.94134521484375,-4.887381857796682,3.139817858719247,2.570554989493913
893025708,19229,vehicle,395.9216613769531,232.6467742919922,-0.0018697038896711435,-5.821408448373551,-1.5711175040223602
1724402154,19229,vehicle,88.61280822753906,302.6054992675781,-0.0013959712519583196,5.348758038505487,1.5710573165817243
2595182244,19229,vehicle,241.054931640625,198.76759338378906,6.159508643949159,0.0008682169600005167,0.0001409555541582638
874453657,19229,vehicle,392.5499572753906,291.6192626953125,-0.0010558399181964757,12.142761184564943,1.5708832790044878
1498616609,19229,vehicle,92.18217468261719,45.76419448852539,0.0073099744179933,-3.8405561020900953,-1.5688929655638169
505512523,19229,vehicle,244.12753295898438,133.21640014648438,6.107298291994265,-0.0010019067102755702,-0.00016405072314888108
3709073522,19229,vehicle,186.44049072265625,195.568115234375,-7.84185712702726,0.009331033140341359,3.1404027532147456
27029540,19229,vehicle,1.46519136428833,91.21477508544922,-0.0026569265876724636,-9.524190532113703,-1.5710752929190823
1375770528,19229,vehicle,338.8954162597656,241.8570098876953,-1.8788951828847385e-05,-0.011910400434523958,-1.572373850266605
4266869573,19229,vehicle,-1.5101258754730225,25.17337417602539,0.0003517654570091426,6.072905053441363,1.5707384030411873
368528135,19229,vehicle,2.6943414211273193,246.33518981933594,0.11044381402231264,-13.505291439584042,-1.5626186911936448
4012051816,19229,vehicle,338.9733581542969,228.75657653808594,1.7442107774568457e-09,6.132954903703715e-07,-1.5736403165229922
3938307140,19229,vehicle,92.14663696289062,219.8109130859375,-2.1412808527210933e-06,0.00038804495144478807,-1.5652782570162525
1966079641,19229,vehicle,41.14763259887695,331.2388916015625,-0.003465361427183453,4.798983468490963e-08,-1.3848435636581372e-05
1759883367,19229,vehicle,-2.4111878871917725,297.2088928222656,0.002571362721886769,7.3564210212451595,1.5704467869018237
3487645883,19229,vehicle,134.42172241210938,129.77230834960938,-4.38409845792658,0.0007939381177993229,3.1414115586356677
544848518,19229,vehicle,92.24541473388672,25.780879974365234,-0.0010120305487257633,-5.727370172732723,-1.5709730275332234
1325658571,19229,vehicle,116.33527374267578,129.7509307861328,-6.044458368013408,-0.0005070670407827614,-3.1415087640154558
921579549,19229,vehicle,100.36936950683594,55.518943786621094,-2.0684044405036004,-0.18469312545150982,-3.0525362804214344
4072577581,19229,vehicle,92.3954086303711,262.3049621582031,-0.0020752033789704248,-6.89885442039864,-1.571097130840021
94066344,19229,vehicle,308.34197998046875,133.26034545898438,4.675874705943566,-0.00019675116186125975,-4.20779370959293e-05
2853390219,19229,vehicle,299.99432373046875,330.5154724121094,-4.0881372829072695e-07,-1.2466650919161317e-10,0.00030494696410635324
2524564450,19229,vehicle,1.6045762300491333,46.20230484008789,-0.002500501550445394,-5.652753276906294,-1.5712386778519587
1882516347,19229,vehicle,-2.1475002765655518,102.02125549316406,0.0011574417261500831,6.0657638399189935,1.5706055113027924
815178544,19229,vehicle,236.62124633789062,330.4080505371094,5.508364093624759,-0.0010855549224393385,-0.00019707392066586362
2188308515,19229,vehicle,146.0834197998047,199.21456909179688,5.839167696595947,-0.0020931168000511793,-0.00035846148272466544
1160083145,19229,vehicle,361.94140625,326.5641784667969,0.5614219792155486,-0.0006435159278615527,3.140446429056623
1832698586,19229,vehicle,128.25938415527344,326.9656066894531,-0.9452621327860153,-0.0018696645242189372,-3.1396147238481915
3748346955,19229,vehicle,132.01028442382812,1.9194954633712769,-0.9612058797150193,0.00019608419823436096,-0.00020399812324542433
3198444053,19229,vehicle,121.92180633544922,326.9339294433594,-0.016667197716664712,-0.0032820502187558684,-2.9471635182024873
808811405,19229,vehicle,338.92962646484375,221.63311767578125,-4.7029015699320965e-07,-0.0016473036286586964,-1.571081817663753
84250811,19229,vehicle,292.5628356933594,133.552490234375,2.338534581064527,0.002125781615139865,0.000909022704571361
3956289865,19229,vehicle,85.57598114013672,325.3205261230469,-4.238859233055056,3.1779687645131274,2.498269074342001
1912328786,19229,vehicle,365.2416687011719,-1.9526519775390625,3.22704935031226e-08,3.245152989347326e-11,-3.1405870439621792
4030311199,19229,vehicle,338.9559631347656,235.7322235107422,1.5286515732411805e-09,-2.207263303705118e-06,-1.5701037717534214
3147513812,19229,vehicle,392.4832763671875,316.97991943359375,0.0011248890105419193,7.2951406565283445,1.570642129767781
1663586846,19229,vehicle,287.7568359375,330.41021728515625,-0.017076807407367063,-2.0849432037669576e-05,0.0012209203500745096
