id,timestamp_ms,agent_type,x,y,vx,vy,psi_rad
-1,21239,vehicle,392.20953369140625,140.75567626953125,0.0012702536754370592,22.39305874082769,1.5707396014636779
2985032057,21239,vehicle,89.7164306640625,2.72369384765625,-2.7293527677735123,-4.992050682373463,-2.0711330560616257
3028941286,21239,vehicle,396.916748046875,245.72169494628906,-0.0012088302592691692,-5.155116893181999,-1.5710308181288781
2920337868,21239,vehicle,392.0192565917969,219.60009765625,0.002797888967002521,19.52768496496721,1.5706530487282504
1503980471,21239,vehicle,92.18663787841797,24.890811920166016,-0.0035635047995604776,-6.150646607933116,-1.5713756974900432
2125414330,21239,vehicle,391.55084228515625,0.38416942954063416,2.461649181940299e-05,2.262966612439785e-05,-2.3982223679871035
2396446624,21239,vehicle,192.1464080810547,327.0192565917969,-5.6355419134753895,0.0001650919154481871,3.1415633588178022
4076155829,21239,vehicle,112.6908187866211,-1.9307529926300049,6.5637454182165725e-06,1.041826568368446e-09,-3.1414339291888242
130361148,21239,vehicle,92.38742065429688,230.59388732910156,-0.002596453953667654,-5.281429129374884,-1.5712879463321252
3417340120,21239,vehicle,221.3746795654297,330.4914245605469,5.827896587753217,0.0002906565492568004,4.9873319582677584e-05
2197730220,21239,vehicle,188.16998291015625,-1.9401520490646362,1.4951198786886477e-06,-7.063616307980157e-10,3.141120208812413
118743835,21239,vehicle,332.2849426269531,61.80551528930664,4.557824228259331,3.4151765847178734,0.6430528023439582
904053063,21239,vehicle,178.70040893554688,55.8249397277832,-4.0969794565761525e-08,6.390528845381505e-11,3.140032840139334
1291681130,21239,vehicle,151.2684783935547,195.6085662841797,-5.774963651360242,0.0015364279196951698,3.141326603796894
715062232,21239,vehicle,338.77801513671875,46.28272247314453,0.6407781577703061,-6.0236731086643935,-1.4648182280601745
220877689,21239,vehicle,91.72762298583984,122.44207000732422,-1.0015723555603693,-6.924963424335655,-1.7144324554497208
2069714320,21239,vehicle,3.373899221420288,330.5218811035156,6.51508343211462,4.957244677973232,0.6504326880406769
3190467641,21239,vehicle,118.25176239013672,-2.449038505554199,-0.008374411615695536,-0.0011800604637939435,-3.001601726677015
708315452,21239,vehicle,88.75064849853516,99.75800323486328,3.559092604700116e-05,0.011901968961136607,1.5678059963649011
1314594676,21239,vehicle,88.64353942871094,172.7180633544922,1.5931221749730997e-07,0.0016479537512469765,1.5706996540473268
2302084468,21239,vehicle,312.6316223144531,330.3155517578125,-0.01048541497901744,0.001308650171032911,-0.12416467601606201
757051778,21239,vehicle,330.2783203125,200.26123046875,5.174974887458047,1.9149199362140203,0.3544103819429778
4203008516,21239,vehicle,144.58201599121094,55.64679718017578,-6.095834479960275,0.5642886977099726,3.0492861586271016
2631691725,21239,vehicle,334.6717834472656,212.55474853515625,0.21626526486282283,7.52402697291774,1.5420609517909962
1513387753,21239,vehicle,321.08074951171875,59.323055267333984,5.088875605637807,-0.001295618432854333,-0.00025459816770228454
156273220,21239,vehicle,92.51573181152344,80.52529907226562,1.4881730762899693e-09,9.614574161527668e-07,-1.5723441560204507
3812119762,21239,vehicle,92.60205078125,46.75326156616211,-0.6576466830275042,-5.839911919378907,-1.6829363145017897
3616050434,21239,vehicle,319.08172607421875,326.4353332519531,-5.658923705933933,0.00863999626989789,3.140065863336851
2942158310,21239,vehicle,88.5938491821289,25.917118072509766,-6.013103868513221e-10,-3.065691939955867e-06,1.5706001849806122
3608800298,21239,vehicle,154.6595916748047,133.23269653320312,8.277118671354,-0.0004364573816335956,-5.273059364723025e-05
1146464971,21239,vehicle,60.19769287109375,2.5480520725250244,-3.420756982924073e-07,2.907921063101441e-10,-0.0008500809549347115
3013099654,21239,vehicle,-2.3957743644714355,135.80902099609375,0.0007526881597835367,5.821412991501171,1.5706670303239731
2246582517,21239,vehicle,88.6150894165039,105.10009765625,7.530044536029446e-12,5.5224290404601485e-08,1.5706599729470845
3192940987,21239,vehicle,338.878662109375,262.50244140625,-0.0009197261747889825,-5.8783201451820615,-1.5709527875089389
828836647,21239,vehicle,90.13951110839844,324.9971923828125,1.5191776549342395,5.234822942902512,1.2883487852740902
1702089089,21239,vehicle,396.0527648925781,140.41464233398438,-0.005100639771734651,-8.901963680016332,-1.571369305903427
2111029583,21239,vehicle,54.97254180908203,330.44464111328125,-0.00019873777150394782,8.785894195661539e-08,-0.0004420847409531535
420096522,21239,vehicle,114.61060333251953,129.72410583496094,-7.540629192961412,0.006787687501636225,3.1406925051413466
510102133,21239,vehicle,170.81602478027344,1.98078453540802,5.772646966620681,-0.28880099619981864,-0.049987537821976506
4109025732,21239,vehicle,248.05813598632812,1.877793550491333,9.080363052856374,-0.0020023083649337585,-0.0002205097220039156
2913592560,21239,vehicle,284.4606628417969,1.9282118082046509,4.743340405048985,-0.0009095242197165413,-0.00019174761474035048
3970347779,21239,vehicle,128.57037353515625,59.10044860839844,-0.010461270815670085,0.0012597737522683286,-0.11984553639303629
1933996401,21239,vehicle,385.673828125,-2.1186752319335938,-2.0049375116526697e-07,-2.690807588792552e-08,-3.008180799833947
3047764241,21239,vehicle,53.26544952392578,2.046077251434326,-7.705324729803678e-06,-3.4794842768010445e-09,0.00045156877384246126
1260711767,21239,vehicle,333.62115478515625,131.3136444091797,4.643960401527613,-2.196799733060269,-0.4418515811997171
3957993155,21239,vehicle,335.0718994140625,33.63330078125,4.1218135167861947e-10,-5.890445017378439e-07,1.571496072371315
4289594148,21239,vehicle,-2.403973340988159,181.3851776123047,7.28337802175704e-05,-0.07813889119071753,1.5717284331764243
4139896837,21239,vehicle,161.97708129882812,129.48841857910156,-5.705353194074362,-0.0008675930881522062,-3.14144058709155
1686932955,21239,vehicle,175.89035034179688,-1.9625669717788696,1.807720666273492e-07,-9.315577167800372e-11,3.1410773319188627
1726501337,21239,vehicle,378.8957214355469,-2.397622585296631,7.594767062595623e-05,2.144982349318744e-07,-3.138768371253764
1682591593,21239,vehicle,281.6019592285156,330.4570617675781,-6.902170681624906e-05,2.9189972709549603e-08,-0.0004229100136138737
3380823586,21239,vehicle,368.7726135253906,326.3265380859375,0.00018655042136244475,-6.015939443105923e-07,3.1383678318258164
4176583038,21239,vehicle,257.2692565917969,1.986242651939392,5.5591223316138985,-0.0016018833664336613,-0.0002881539974372829
3855978784,21239,vehicle,305.56915283203125,330.5410461425781,7.904738297606461e-07,1.7053319648958526e-10,0.0002157354075790006
1042098875,21239,vehicle,156.78680419921875,5.355751037597656,-0.9136945880448942,-5.972256931211294,-1.7226090257865365
644930681,21239,vehicle,88.63038635253906,165.76617431640625,-8.755155331904346e-10,3.397579266207956e-07,1.5733732014656572
2234188147,21239,vehicle,358.01300048828125,-1.955035924911499,9.17560134092061e-05,7.787788364385614e-08,-3.140743904150385
4109707537,21239,vehicle,2.6083755493164062,196.40333557128906,3.2020356434902404e-07,0.00017677609970752638,-1.572607675810314
3675841917,21239,vehicle,183.96047973632812,55.83407211303711,-0.017412313232552167,-0.00013561241943853565,-3.1338045052979653
2817926641,21239,vehicle,103.71812438964844,55.802825927734375,-1.7461552100204196,0.07254953045187311,3.1000683795571686
4029506115,21239,vehicle,-2.3347327709198,125.61064910888672,-0.00020794554127377855,1.5967734916706504,1.5709265553722014
3277167701,21239,vehicle,88.64314270019531,33.24299240112305,1.5908784539836293e-07,0.0016479026449421315,1.5706997872053812
518241310,21239,vehicle,-2.5673625469207764,27.752635955810547,-0.046687400338958254,6.481501756192971,1.577999378595234
778540568,21239,vehicle,284.7663269042969,59.319461822509766,6.189708702762149,-0.00029341860671474034,-4.740426740341044e-05
657465635,21239,vehicle,1.7159181833267212,98.77655792236328,-0.0015586895399904508,-5.809210568174007,-1.5710646402747221
835227171,21239,vehicle,134.6495819091797,59.32780456542969,4.877708088000206e-08,1.0116391746870239e-11,0.00020740051309560257
715280319,21239,vehicle,93.5958480834961,191.58770751953125,-3.9260615373295478,-4.559273559326934,-2.2817082713478096
3020211281,21239,vehicle,172.73187255859375,59.61441421508789,5.781996964507316,0.022706489916736166,0.003927081478897007
2101598167,21239,vehicle,193.7311248779297,-1.9614672660827637,-8.413171240501207e-07,3.9501129107196814e-10,3.141123138289612
14974470,21239,vehicle,309.209716796875,59.32631301879883,5.383843804148932,-0.0010093980875351015,-0.00018748650823228772
1398818972,21239,vehicle,142.72984313964844,133.67889404296875,5.2996122813428865,0.0015975313263242566,0.00030144304774147384
2694688339,21239,vehicle,2.2930171489715576,204.4329071044922,-0.0016109691652739695,-3.542656532216694,-1.5712510615510276
3916750283,21239,vehicle,116.79842376708984,326.9374694824219,-1.80904360487809e-06,8.632553941394532e-09,3.136820801548589
1983197581,21239,vehicle,77.60659790039062,-1.8611758947372437,-5.7229190899186015,-0.3032969960158129,-3.088645282693492
2942851653,21239,vehicle,288.685302734375,198.76852416992188,5.95045936870277,0.0011523622408895415,0.00019365937234098213
3949181016,21239,vehicle,88.6303482055664,112.13860321044922,-1.4271364310172267e-10,5.495635534862345e-08,1.5733931751738328
3672416715,21239,vehicle,338.87652587890625,280.84796142578125,-0.0011418361918894208,-5.564597012671347,-1.5710015233568873
3325384226,21239,vehicle,190.06887817382812,55.841522216796875,0.00017622838259624373,-6.251403554572941e-08,3.1412379205325944
1359910869,21239,vehicle,154.9921417236328,50.827659606933594,1.0766420395118026,7.286700534764955,1.4241032886828249
2262630317,21239,vehicle,60.952293395996094,330.95770263671875,0.008477254448215088,0.001219600687852368,0.14288698144018488
805172996,21239,vehicle,103.41090393066406,195.3947296142578,-7.773339566359607,0.3944935324712683,3.0908865990669026
1986857511,21239,vehicle,-2.340498685836792,188.3684844970703,2.6620430828939894e-06,0.0013762618048253719,1.568862072895172
1279946346,21239,vehicle,126.30926513671875,2.2424919605255127,0.029213542396935056,-0.0008599579074905556,-0.0294284626775936
74618890,21239,vehicle,319.3737487792969,198.7501983642578,6.10608998341922,-0.0010212221891690413,-0.00016724650020233083
3085549129,21239,vehicle,392.5246276855469,279.0011901855469,-0.0016971113179886485,13.660331620652665,1.5709205632597487
2057201815,21239,vehicle,212.15728759765625,198.97544860839844,5.65216766297079,-0.001231305398438637,-0.00021784657716848168
1015694095,21239,vehicle,66.94755554199219,330.46124267578125,2.5707305895513445e-08,-1.1077266697937282e-11,-0.00043089952939340205
1250507297,21239,vehicle,199.7627716064453,-1.94624924659729,6.251448170558216e-06,7.941392922940133e-09,-3.140322325749825
4280502996,21239,vehicle,48.153709411621094,331.2244567871094,1.1741996705720884e-07,-3.546111705939018e-11,-0.00030200243510569496
3428459672,21239,vehicle,66.85588836669922,2.01306414604187,0.0,-0.0,-0.0008085357069480567
414519966,21239,vehicle,217.2484588623047,327.0450439453125,-5.818357943770286,-9.142182446364414e-05,-3.1415769409393617
2866945113,21239,vehicle,294.2904968261719,330.4563903808594,1.2360094305363484e-07,-5.4905425862486965e-11,-0.00044421523731592627
1853482628,21239,vehicle,36.33184814453125,2.5230538845062256,5.5712500059362915,-0.002195896277071837,-0.00039414784133172723
3880166169,21239,vehicle,330.8310852050781,325.79656982421875,-4.597395805783874,3.040675539918943,2.557251434584531
1073352953,21239,vehicle,372.0358581542969,-2.3772799968719482,6.591288520525012e-08,-1.371645216289186e-10,3.1395116595140053
213556023,21239,vehicle,152.68472290039062,327.0201110839844,-5.950455221927535,-0.0022978181324346046,-3.1412064952317316
1628590046,21239,vehicle,1.6592556238174438,51.86579513549805,-0.0026648103135736264,-5.809110030265933,-1.5712550562926628
4120465129,21239,vehicle,338.7754211425781,120.2994384765625,0.6420905042771446,-6.0177716733578075,-1.4644994476776918
1015227284,21239,vehicle,172.03579711914062,129.751220703125,-5.719727035133803,-0.0023458135223456615,-3.141182526781921
2900396540,21239,vehicle,181.6448211669922,-1.9665621519088745,-0.0013252271942834756,-5.093501459157704e-06,-3.1377491795045906
3587539486,21239,vehicle,396.6324157714844,231.19009399414062,-0.0014259159330678843,-5.603582677616426,-1.5710507918370538
1146849989,21239,vehicle,310.4945983886719,133.16732788085938,4.868708619395901,-0.004299577600017322,-0.0008831040874331128
1457681385,21239,vehicle,395.84576416015625,122.81292724609375,-0.0032250247136166896,-11.212742341687896,-1.571083948192625
1726747598,21239,vehicle,92.3221206665039,106.75199890136719,0.039794394259325565,-5.594163023571249,-1.5636828903652404
367118466,21239,vehicle,375.09918212890625,326.35394287109375,0.021401820774736072,-0.0001564410697376679,3.1342830753458526
2065705843,21239,vehicle,267.3299865722656,133.21026611328125,5.8257217247563595,-0.0004313124254362649,-7.403587830420282e-05
3978545900,21239,vehicle,335.0509948730469,316.6198425292969,0.5010532570836363,5.761142297295632,1.4840434548114019
714679325,21239,vehicle,385.93994140625,2.275562286376953,4.629474961664569,0.819986045919822,0.17530474257285156
3262285446,21239,vehicle,111.8102798461914,55.75288391113281,-1.944497935154736,-0.0007027240059484232,-3.1412312626298693
1401880247,21239,vehicle,114.44100952148438,195.26939392089844,-6.097387912697994,-0.0020801296720710017,-3.141251502654154
2250339631,21239,vehicle,135.51315307617188,129.73394775390625,-4.232736580059998,-0.00025137584412611474,-3.1415332650974843
2525145270,21239,vehicle,92.53937530517578,154.58193969726562,-1.950388636133741e-08,2.2516781166224763e-05,-1.5699301336503484
1825059061,21239,vehicle,313.625732421875,2.0121803283691406,-2.0192162568909843e-07,1.262636734370282e-10,-0.0006253102239506051
346279610,21239,vehicle,88.42188262939453,208.12200927734375,-0.6764721092028644,5.628220554458142,1.6904154029491136
893025708,21239,vehicle,395.9169921875,221.10028076171875,-0.0018697032770742083,-5.821406541025016,-1.5711175040223602
1724402154,21239,vehicle,88.61029052734375,313.3433837890625,-0.00060029988364751,5.3668756149259345,1.5709081795606799
2595182244,21239,vehicle,252.8355255126953,198.76852416992188,5.950456507659925,0.001152464696352095,0.00019367668353825344
874453657,21239,vehicle,392.54144287109375,311.6140441894531,-0.011706745891949163,7.666210296033208,1.572323383363948
1498616609,21239,vehicle,92.17964935302734,35.68758773803711,0.0001366142665135789,-4.749794958057313,-1.5707675646551238
505512523,21239,vehicle,256.7165222167969,133.21376037597656,5.7778720629750495,0.000510995460439004,8.844007855092846e-05
3709073522,21239,vehicle,170.37844848632812,195.5690460205078,-7.870835021590868,0.008916941505313176,3.1404597448620737
27029540,21239,vehicle,1.4619309902191162,79.44635772705078,-8.888326528047007e-05,-0.34195797480335766,-1.5710562513172883
1375770528,21239,vehicle,338.8903503417969,241.8546600341797,-3.204380987802222e-05,-0.01180265498670235,-1.573511286368178
4266869573,21239,vehicle,-1.5087926387786865,42.52082061767578,0.0003748540648026599,6.159969795265602,1.5707354735639882
368528135,21239,vehicle,2.7433440685272217,226.37234497070312,0.042511749647520164,-5.942895951086136,-1.5636430761069438
4012051816,21239,vehicle,338.9733581542969,228.75657653808594,1.7688807038856166e-09,6.219698746948362e-07,-1.5736403165229922
3938307140,21239,vehicle,92.14663696289062,219.810791015625,5.917014671936264e-09,-1.0722870230459555e-06,-1.5652782570162525
1966079641,21239,vehicle,41.1483154296875,331.2388916015625,1.2513071111407704e-07,-1.732864726255937e-12,-1.3848436652496706e-05
1759883367,21239,vehicle,-2.409331798553467,309.4627990722656,0.0007243954450824763,5.958507493808223,1.5706747534911345
3487645883,21239,vehicle,125.06449890136719,129.77369689941406,-4.833540916232897,-4.50537433345916e-05,-3.141583332525978
544848518,21239,vehicle,92.2433853149414,14.06197452545166,-0.0006861340030636697,-5.558553176494214,-1.5709197643114217
1325658571,21239,vehicle,104.55378723144531,129.75247192382812,-5.826373286002882,0.0018418169953175656,3.1412765363684008
921579549,21239,vehicle,96.47827911376953,54.81072998046875,-4.441474045803522,-1.2761903865261988,-2.861795356827779
4072577581,21239,vehicle,92.3895492553711,248.4698028564453,-0.00207525702348984,-6.89903275748774,-1.571097130840021
94066344,21239,vehicle,320.1046142578125,133.2604522705078,5.84896419363935,0.0004919132849099425,8.410263210109594e-05
2853390219,21239,vehicle,299.99432373046875,330.5154724121094,3.4562896714107686e-08,1.0539850750398146e-11,0.00030494696410635324
2524564450,21239,vehicle,1.5988736152648926,34.628631591796875,-0.0019221712284410986,-5.887137099227035,-1.5711228303445404
1882516347,21239,vehicle,-2.14583420753479,113.02645874023438,0.0007247085255296237,5.547878218047228,1.5706656987434282
815178544,21239,vehicle,248.00149536132812,330.4023742675781,5.774965158641819,-0.0026422260153423985,-0.00045753104276632245
2188308515,21239,vehicle,157.64968872070312,199.2122344970703,6.115042969940285,-0.0028629635737878363,-0.00046818368712663944
1160083145,21239,vehicle,362.0553283691406,326.5636901855469,0.5630290640892837,-0.0006227164799110155,3.1404866427890834
1832698586,21239,vehicle,127.70616912841797,326.96484375,-0.017404737103383455,-3.769783038836612e-05,-3.1394267046752318
3748346955,21239,vehicle,132.3832244873047,1.9193919897079468,-0.9612058787640084,0.00020069192120923275,-0.00020879181320756696
3198444053,21239,vehicle,121.99663543701172,326.5976867675781,-0.027459248847170416,-0.00905167003709292,-2.823169667325597
808811405,21239,vehicle,338.927490234375,221.62843322753906,-4.702750016002278e-07,-0.0016472505432741068,-1.571081817663753
84250811,21239,vehicle,300.86181640625,133.52273559570312,1.2547291440780468,0.00013853389508573354,0.00011040940204238705
3956289865,21239,vehicle,73.93538665771484,326.54217529296875,-5.539867377396976,0.06521817058216871,3.129820682623316
1912328786,21239,vehicle,365.2416687011719,-1.9526530504226685,2.5134614115593196e-08,2.527561846099942e-11,-3.1405870439621792
4030311199,21239,vehicle,338.9559631347656,235.7322235107422,-6.21003545950868e-11,8.966846091302475e-08,-1.5701037717534214
3147513812,21239,vehicle,385.76397705078125,325.65283203125,-5.221407002761761,2.074294170273421,2.763444285138935
1663586846,21239,vehicle,287.7590637207031,330.4103088378906,-2.7740047463984677e-06,-3.38874262788208e-09,0.0012216060360329074
