id,timestamp_ms,agent_type,x,y,vx,vy,psi_rad
-1,48039,vehicle,392.2198791503906,306.496337890625,2.5881035549900677e-11,-1.208726815352506e-07,1.571010444946539
2985032057,48039,vehicle,-2.261059284210205,125.27164459228516,-0.009177331107189763,17.00483074498043,1.5713360163898011
3028941286,48039,vehicle,396.8598327636719,91.66936492919922,-0.0024038991415577643,-6.784282258435069,-1.5711506603779317
2920337868,48039,vehicle,392.0353088378906,314.20721435546875,-2.073869532988834e-12,-5.272340822389727e-09,1.570402977901892
1503980471,48039,vehicle,120.5705337524414,2.0296201705932617,3.584417781226339,-0.001922540812222405,-0.0005363606435419586
2125414330,48039,vehicle,358.60247802734375,-1.6013845205307007,-9.276927368954762e-08,9.20297014061153e-11,3.1406006260837387
2396446624,48039,vehicle,141.33351135253906,327.0087585449219,-0.055634823970994354,6.64666256284685e-05,3.1403979595247837
4076155829,48039,vehicle,18.424665451049805,-1.9562642574310303,-5.6209635731041905,-6.287203220494549e-05,-3.141581468313215
130361148,48039,vehicle,92.38439178466797,221.8739471435547,-0.0011106314160708563,-4.011880720902633,-1.5710731623902103
3417340120,48039,vehicle,300.4178466796875,330.5010986328125,4.513846739907989e-08,-8.943710264313983e-11,-0.0019813917209817906
2197730220,48039,vehicle,154.23284912109375,35.147953033447266,1.642495558579816e-07,-0.00035293079233892434,1.571261714195388
118743835,48039,vehicle,334.7076416015625,118.0740966796875,-0.011012132415143648,7.712361580127089,1.5722241806133426
904053063,48039,vehicle,157.9290008544922,41.29726028442383,-0.1170335355149299,-5.974495560829946,-1.5903826781899388
1291681130,48039,vehicle,113.09465789794922,195.61886596679688,-7.586336082355004e-09,-2.957625122435632e-11,-3.1376940520700263
715062232,48039,vehicle,338.9866638183594,22.499813079833984,-3.960721045334207e-10,1.6736694905318022e-07,-1.5684298418502522
220877689,48039,vehicle,92.90372467041016,73.33943939208984,0.001352072779610172,-6.09843477519656,-1.5705746186341476
2069714320,48039,vehicle,92.00688171386719,303.6037902832031,-0.03290950870266756,-6.87008175750807,-1.5755865546476222
3190467641,48039,vehicle,28.996889114379883,-1.9506266117095947,-5.596399781773294,-0.00016096443279394634,-3.14156389145002
708315452,48039,vehicle,88.42843627929688,169.31019592285156,-0.00250106695127104,0.015537794865876565,1.7303939782850561
1314594676,48039,vehicle,145.9346160888672,199.01153564453125,10.41235808722618,-0.0020242746394647485,-0.00019441077583042972
2302084468,48039,vehicle,396.78436279296875,196.4821014404297,0.0136339095239938,-17.628942939559685,-1.5700229448143377
757051778,48039,vehicle,334.7028503417969,297.8030090332031,5.931119482034252e-11,2.903647324179614e-07,1.5705920623392875
4203008516,48039,vehicle,112.88423919677734,55.693016052246094,-3.99008836246966e-08,-9.481819003359715e-11,-3.1392163149491155
2631691725,48039,vehicle,334.72576904296875,304.8206481933594,-2.758775351929981e-12,7.320866041513625e-08,1.5708340105243213
1513387753,48039,vehicle,339.01324462890625,29.555875778198242,-4.346476816522447e-10,1.386399056840262e-07,-1.5676612535596552
156273220,48039,vehicle,92.2970199584961,53.47859573364258,-0.07132313607240874,-5.553693571343609,-1.5836380895712587
3812119762,48039,vehicle,111.79308319091797,2.0924599170684814,2.832106916848902,-0.0032100281216725195,-0.0011334412299005613
3616050434,48039,vehicle,163.59169006347656,326.3911437988281,-5.837874338751586,-0.0009281678351484453,-3.1414336628727155
2942158310,48039,vehicle,124.82677459716797,59.34003829956055,2.6038459647326166e-05,1.8010134522838816e-08,0.0006916742347542245
3608800298,48039,vehicle,298.1677551269531,133.19717407226562,-2.885140537373914e-07,5.439984160627188e-11,-0.00018855178892296473
1146464971,48039,vehicle,65.2109375,2.55277419090271,5.707215977204873,0.00643116589410624,0.0011268476955708507
3013099654,48039,vehicle,-2.3421521186828613,236.79994201660156,0.0007423866348253555,5.724054288405584,1.5706666308498098
2246582517,48039,vehicle,127.98575592041016,133.3568572998047,-2.5820170207386868e-06,-2.430939291338527e-10,9.414884815362068e-05
3192940987,48039,vehicle,338.8669738769531,219.46205139160156,1.878242271761229e-10,9.212553247186774e-08,-1.5728351097674067
828836647,48039,vehicle,293.2968444824219,330.7931823730469,1.6599927066028774e-06,2.0130535038676373e-09,0.0012126875672730446
1702089089,48039,vehicle,371.1454162597656,-2.4276890754699707,2.3103945259508454e-07,3.017409770773299e-10,-3.1402866393912183
2111029583,48039,vehicle,92.00755310058594,261.9991455078125,-4.201437762330341e-05,-7.170968532439176,-1.5708021857492949
420096522,48039,vehicle,88.3571548461914,231.90858459472656,0.0027907027391150517,6.164064729295208,1.5703435894095832
510102133,48039,vehicle,300.3173828125,1.8787841796875,4.350469490289523,0.0009278494655385075,0.00021327570588445678
4109025732,48039,vehicle,308.4188537597656,1.3357938528060913,2.9298580923115525,-0.035410301262304225,-0.012085423986482283
2913592560,48039,vehicle,322.7043762207031,1.7418569326400757,4.2205322234693075,-0.0012791071681770999,-0.0003030677320510173
3970347779,48039,vehicle,157.46839904785156,29.85612678527832,0.0008647172133294374,0.009694217737655072,-1.6597601551153751
1933996401,48039,vehicle,337.9419860839844,1.0783088207244873,1.804523527491977e-07,-1.642617587865835e-07,2.4031281770311383
3047764241,48039,vehicle,54.486244201660156,2.045797824859619,3.0741555168726338,-0.0005665384743143297,-0.00018429076368812862
1260711767,48039,vehicle,273.0129089355469,55.681522369384766,-5.48623943280219,-7.305369694581488e-05,-3.141579337784343
3957993155,48039,vehicle,335.0694885253906,43.495574951171875,0.0008094717863280673,6.228514141888134,1.5706663645337007
4289594148,48039,vehicle,-2.385240316390991,253.9163055419922,-0.0027620011971845127,8.127851016915317,1.5711361461499906
4139896837,48039,vehicle,112.17839813232422,129.49009704589844,-5.056298692498271e-08,6.946978573250394e-11,3.140218728783421
1686932955,48039,vehicle,112.7573013305664,-1.9680248498916626,-3.1498090715597984e-06,8.972309275478702e-09,3.1387441364878446
1726501337,48039,vehicle,335.24267578125,5.902233600616455,0.0006344177162190269,-0.0027882710593956856,1.794518369960311
1682591593,48039,vehicle,313.8250427246094,330.4513854980469,1.2305854978730126e-07,-1.607818017082759e-10,-0.0013065464406813864
3380823586,48039,vehicle,364.1904602050781,326.3251037597656,-6.282308178746074,-0.008770290374706727,-3.1401966245463737
4176583038,48039,vehicle,314.7802429199219,1.963511347770691,3.5901111892795172,-0.0006903074162339524,-0.000192280230703721
3855978784,48039,vehicle,338.6291809082031,261.5411682128906,-0.002239876925968524,-5.760681193724728,-1.5711851483140482
1042098875,48039,vehicle,41.014915466308594,-1.9605587720870972,-6.17360664254602,-0.0016852342139355644,-3.1413196795780602
644930681,48039,vehicle,88.35797882080078,243.0545196533203,0.0022485191377017914,5.800787013094076,1.5704087036982355
2234188147,48039,vehicle,335.15338134765625,31.102176666259766,0.003474116711374237,5.224303044089972,1.5701313354707038
4109707537,48039,vehicle,2.582934617996216,108.2325668334961,0.0020622061094967624,-8.095611309611343,-1.5705415954366304
3675841917,48039,vehicle,159.80821228027344,55.79529571533203,-7.312201153554094,-0.010800049550799988,-3.1401156644492354
2817926641,48039,vehicle,92.80719757080078,28.063854217529297,0.0012474701732893094,-0.00765424199698535,-1.4092391213746567
4029506115,48039,vehicle,-2.527891159057617,227.4833221435547,-0.009773319433381762,5.722909211557523,1.57250407884391
3277167701,48039,vehicle,132.2281951904297,59.399505615234375,0.0024878125776227216,-6.280923019849217e-07,-0.0002524676875941571
518241310,48039,vehicle,-2.6724843978881836,198.9015350341797,0.007335140041340171,4.427416447241293,1.5691395742807583
778540568,48039,vehicle,338.9315185546875,42.95614242553711,-2.642076124377114e-09,8.671416344761086e-08,-1.5403369544593333
657465635,48039,vehicle,20.29448699951172,2.0589969158172607,4.6622958169158336e-08,-3.034373625220915e-10,-0.006508233071935642
835227171,48039,vehicle,157.7899627685547,23.67967414855957,2.164189918098001e-11,1.3117667484682343e-07,-1.570961309624427
715280319,48039,vehicle,92.39816284179688,157.3996124267578,-0.0008708967723516671,-4.910152834905924,-1.570973693323496
3020211281,48039,vehicle,311.7214050292969,59.5904541015625,-1.4302696080755901e-05,-1.7925416483139775e-08,0.001253288680440631
2101598167,48039,vehicle,125.23838806152344,-2.030271291732788,0.0007911079229406958,-7.034766786713706e-07,3.1407034241018157
14974470,48039,vehicle,338.9898681640625,36.57738494873047,1.976041498642056e-09,-4.1751424284404225e-07,-1.5660634900636623
1398818972,48039,vehicle,291.2897644042969,133.63796997070312,0.07195131507482447,-0.00010335878002480924,-0.0014365089619515785
2694688339,48039,vehicle,2.2718656063079834,126.754638671875,-0.0029366371147768137,-7.016789298663016,-1.5712148425602026
3916750283,48039,vehicle,107.19969177246094,326.935546875,-5.904016966295076,-0.0002500012374794069,-3.141550309328461
1983197581,48039,vehicle,-2.144371509552002,172.4974365234375,0.0015988423224118956,12.067438973367548,1.5706638345306652
2942851653,48039,vehicle,338.80303955078125,86.85359954833984,0.00027558449244224057,-6.159536832366517,-1.5707515856885832
3949181016,48039,vehicle,88.34362030029297,174.86178588867188,4.485180699285721e-10,-1.6820501856156413e-07,1.5734628168363385
3672416715,48039,vehicle,338.85546875,226.30577087402344,3.507891294482561e-10,-2.7010972262326164e-07,-1.5694976362893194
3325384226,48039,vehicle,170.7943115234375,55.840267181396484,-5.6071079441731655,-0.0013887347769422325,-3.141344979608416
1359910869,48039,vehicle,306.3953552246094,59.60517883300781,0.017331687750373536,2.5398271781131373e-05,0.0014654229851303528
2262630317,48039,vehicle,199.91220092773438,330.62420654296875,11.928118488897828,-0.0022744813079632873,-0.00019068231779502813
805172996,48039,vehicle,92.1414566040039,165.3821258544922,0.03272669532673425,-2.9547020998429954,-1.5597206392954206
1986857511,48039,vehicle,-2.474867582321167,271.1727294921875,0.0010839659155565367,11.212735123691445,1.5706996540473268
1279946346,48039,vehicle,138.20130920410156,2.5880239009857178,1.8031044969710435,-0.06938986067128561,-0.038464568256232456
74618890,48039,vehicle,334.70416259765625,291.78424072265625,1.9655275676264398e-10,2.3422497288127645e-07,1.5699571647354127
3085549129,48039,vehicle,391.97674560546875,320.9991455078125,1.0085944963715711e-09,-3.7340774370232555e-09,1.8346064012170558
2057201815,48039,vehicle,306.45654296875,198.97398376464844,4.111789853663761e-08,-4.973654834782343e-11,-0.0012096076370768274
1015694095,48039,vehicle,268.2995910644531,330.625732421875,11.30015803198048,-0.005669735939837113,-0.0005017394843523471
1250507297,48039,vehicle,154.22927856445312,29.45922088623047,-0.0015355328021989122,2.8901389334395824,1.5713276274323673
4280502996,48039,vehicle,92.22553253173828,289.4574279785156,-0.0017039700860545018,-5.499182437115781,-1.5711061855877273
3428459672,48039,vehicle,76.6613540649414,2.0088605880737305,6.173169587874941,-0.0005556768539819304,-9.00148367173556e-05
414519966,48039,vehicle,148.38682556152344,327.0789489746094,4.970020390532349e-06,1.6200821637085844e-09,-3.1412666826723674
2866945113,48039,vehicle,338.6262512207031,289.1840515136719,-0.0020762406719566245,-6.890102550488033,-1.5710976634722391
1853482628,48039,vehicle,46.4180793762207,2.5199601650238037,0.2698747281694386,-0.0005348718911207644,-0.0019819239630883187
3880166169,48039,vehicle,182.86697387695312,326.41986083984375,-5.555769920315825,1.9234683360176828e-05,3.141589191480376
1073352953,48039,vehicle,335.1918640136719,12.712992668151855,-0.021126152398367532,1.1956271451895923,1.5884640037825912
213556023,48039,vehicle,133.7943572998047,327.0174865722656,-2.582496055616713,0.002344575510471304,3.140684781974185
1628590046,48039,vehicle,33.744266510009766,2.3478176593780518,1.0785584776895171e-07,2.1039479099671345e-10,0.0019507011300875542
4120465129,48039,vehicle,259.2314147949219,55.67689514160156,-5.70409725533261,0.00042230785100235807,3.141518617711489
1015227284,48039,vehicle,117.51499938964844,129.7515106201172,-0.006808444810214602,8.03246952629252e-07,3.1414746755535026
2900396540,48039,vehicle,118.2197036743164,-1.9651076793670654,-0.0013252415475520278,-4.673560443880178e-06,-3.13806609567431
3587539486,48039,vehicle,396.5866394042969,78.26844787597656,-0.0017853884132993927,-6.844328170607698,-1.57105718342367
1146849989,48039,vehicle,334.37548828125,174.00718688964844,0.23348978040871074,4.901609881905117,1.5231969828416378
1457681385,48039,vehicle,363.8738098144531,-2.6954262256622314,-0.0024844231054484346,1.21080466802794e-07,3.1415439177418447
1726747598,48039,vehicle,92.10157012939453,63.76606750488281,0.07419911474651193,-4.378497418661715,-1.5538516980431585
367118466,48039,vehicle,373.9725036621094,326.3570556640625,-3.1725473378446494,0.014238358192122423,3.1371046945207914
2065705843,48039,vehicle,311.215087890625,133.19998168945312,2.1344500455106097e-08,1.0532823585107748e-11,0.0004934677554206829
3978545900,48039,vehicle,396.8514709472656,119.73846435546875,-0.004026399661650325,-12.8890651135916,-1.5711087155907628
714679325,48039,vehicle,392.1418151855469,299.22723388671875,-1.4706738718077364e-10,-4.4480760108678303e-07,1.5704656953455634
3262285446,48039,vehicle,88.34334564208984,162.98065185546875,7.020776756820854e-07,-0.00037825580839335706,1.5726524169166274
1401880247,48039,vehicle,92.49700927734375,174.13999938964844,-0.0004598055903023244,-0.6482224025733038,-1.5715056597512391
2250339631,48039,vehicle,92.39034271240234,103.3693618774414,-0.001305652612887474,-3.513179536433667,-1.5711679709250173
2525145270,48039,vehicle,92.49669647216797,146.62876892089844,-0.00032066296831726436,-6.304026118706091,-1.5708471931717172
1825059061,48039,vehicle,331.9465026855469,1.988249659538269,-0.00020692336745184965,7.381065302178306e-07,-0.003567037443903481
346279610,48039,vehicle,88.17655181884766,305.6376037597656,0.0,0.0,1.5679661855044693
893025708,48039,vehicle,395.8544921875,67.14791107177734,-0.0018697038896711435,-5.821408448373551,-1.5711175040223602
1724402154,48039,vehicle,2.380519390106201,199.52056884765625,-0.006000301179695028,-15.146720651409478,-1.5711924720070458
2595182244,48039,vehicle,313.6766662597656,198.77235412597656,-1.1237764771740546e-08,2.7791173991270302e-11,-0.002473011128173255
874453657,48039,vehicle,388.6775817871094,324.7012939453125,3.5354863138462485e-07,-2.137785825162506e-07,2.597749858965257
1498616609,48039,vehicle,-2.4461793899536133,35.604793548583984,0.0191580441522267,10.516359044913429,1.5689745914512279
505512523,48039,vehicle,305.6009216308594,133.2028350830078,-0.4440484927809751,-3.423344698382567e-05,7.709393787513491e-05
3709073522,48039,vehicle,118.92913055419922,195.56103515625,-0.017407599059342478,-1.8743048171755044e-05,-3.1405159375610743
27029540,48039,vehicle,27.766937255859375,2.8842544555664062,0.004001138654921135,0.0002820835469438965,0.07038435987694633
1375770528,48039,vehicle,299.12677001953125,195.27581787109375,-4.969501012095155,-0.00025278051130916886,-3.1415417872129727
4266869573,48039,vehicle,-1.5131028890609741,207.4478302001953,-0.014012602405775917,10.5549442736669,1.572123912598301
368528135,48039,vehicle,2.2856252193450928,145.05099487304688,0.05629552788154788,-7.346156426985044,-1.5631332139162482
4012051816,48039,vehicle,338.7906494140625,153.3585968017578,4.4302428016701e-06,0.0036791487466272827,-1.572000475081776
3938307140,48039,vehicle,92.14930725097656,211.74855041503906,-0.004432424300811448,-6.657387211601242,-1.5714621170674163
1966079641,48039,vehicle,130.10009765625,330.64971923828125,13.436282768934205,-0.0030343967822594065,-0.00022583602792942875
1759883367,48039,vehicle,65.09627532958984,331.1673889160156,-2.1106879577857135e-06,1.450244555178529e-09,-0.0006870955612404434
3487645883,48039,vehicle,92.42138671875,93.92777252197266,-0.004269247537535002,-5.245663812942605,-1.5716101888240248
544848518,48039,vehicle,128.9423370361328,2.0987563133239746,3.8860184932654613,0.00040751771929262127,0.00010486767330237915
1325658571,48039,vehicle,92.39360809326172,84.2950210571289,-0.001109409896988254,-5.299953344580045,-1.5710056512565769
921579549,48039,vehicle,92.27289581298828,22.447547912597656,-2.524294664630147e-07,-7.475180916421688e-05,-1.574173215057117
4072577581,48039,vehicle,92.38262176513672,230.61288452148438,-0.0014098109320604152,-3.9877588641032684,-1.5711498614296047
94066344,48039,vehicle,334.4732666015625,183.3646240234375,0.0007647781990310666,5.91491932693173,1.5706670303239731
2853390219,48039,vehicle,379.037841796875,330.6495361328125,5.552608774617424,-0.0014610042977068957,-0.00026312033195447404
2524564450,48039,vehicle,39.81764221191406,2.0300540924072266,-3.9589493888762547e-07,5.231597384755483e-10,-0.0013214602728229927
1882516347,48039,vehicle,-2.1364734172821045,216.8041534423828,0.0014304459972657039,5.050524985875449,1.5705130996129666
815178544,48039,vehicle,307.15032958984375,330.3822937011719,6.28539574971596e-07,9.952129735982515e-10,0.0015833722832079282
2188308515,48039,vehicle,298.7968444824219,199.190673828125,-0.00010546509875850807,-1.2510920855223417e-07,0.0011862611550148374
1160083145,48039,vehicle,352.29803466796875,326.56005859375,-5.197563135214754,0.0006131982950343983,3.1414746755535026
1832698586,48039,vehicle,124.85686492919922,326.95947265625,-4.814344239473861,-0.001266751805412673,-3.141329533274093
3748346955,48039,vehicle,148.0639190673828,2.1783196926116943,5.63666049340072,0.018427953995411292,0.003269291872843419
3198444053,48039,vehicle,116.31544494628906,327.4164123535156,-3.957845341243846,0.1537591826311939,3.102762965948111
808811405,48039,vehicle,262.61529541015625,195.30758666992188,-5.8349337531263,-0.00023309052814292594,-3.141552706173442
84250811,48039,vehicle,338.6669006347656,48.357723236083984,0.0004894464162068109,0.014230894090247184,-1.605176005413111
3956289865,48039,vehicle,2.4317233562469482,164.1591339111328,-0.002864188441978122,-7.7961902125507985,-1.571163709867273
1912328786,48039,vehicle,335.135498046875,20.880008697509766,0.0011473569821643227,3.3618822524090652,1.570455042701203
4030311199,48039,vehicle,338.791015625,161.99053955078125,-0.0013259709176785953,-4.603731918116173,-1.5710843476667886
3147513812,48039,vehicle,382.04132080078125,326.1418762207031,-0.08027184118921003,0.009501167008103406,3.023778401706323
1663586846,48039,vehicle,338.6336364746094,307.59716796875,-0.001472258115672297,-5.81002121391672,-1.5710497265726175
