id,timestamp_ms,agent_type,x,y,vx,vy,psi_rad
-1,15812,vehicle,392.1901550292969,48.20229721069336,0.00362419752908242,9.024290310765807,1.5703947221025127
2985032057,15812,vehicle,92.10367584228516,28.704078674316406,5.433201189408073e-12,-6.744239278475173e-08,-1.5707157661719218
3028941286,15812,vehicle,396.9291076660156,285.1502685546875,-0.001339966153196081,-8.834920781564373,-1.5709479938189765
2920337868,15812,vehicle,392.0096740722656,104.20439147949219,0.0020660468135634486,19.34631908828898,1.5706895340351845
1503980471,15812,vehicle,92.19307708740234,41.196990966796875,-4.451714287471005e-08,2.2016306060618134e-05,-1.5687743217372538
2125414330,15812,vehicle,395.92425537109375,14.406548500061035,-0.0023844306662031823,-5.7541031665439215,-1.571210714660513
2396446624,15812,vehicle,223.66758728027344,327.02874755859375,-5.7477745993681415,0.00013623452206657465,3.1415689514560916
4076155829,15812,vehicle,112.6908187866211,-1.9446979761123657,-1.497155020251369e-06,-2.4281835037040014e-10,-3.1414304670794073
130361148,15812,vehicle,92.40298461914062,267.5834045410156,-0.002072397759182642,-6.898688958740649,-1.5710967313658575
3417340120,15812,vehicle,190.25079345703125,330.4859313964844,5.840890711174018,0.0014225263592231902,0.0002435461304516823
2197730220,15812,vehicle,190.00259399414062,-1.9448291063308716,-4.422663687655911,-9.422612679332623e-05,-3.1415713483010728
118743835,15812,vehicle,306.79681396484375,59.33424758911133,9.020731260821058e-08,-1.3582985564947294e-10,-0.001505751020256476
904053063,15812,vehicle,178.70040893554688,55.8249397277832,9.914270312035791e-07,-1.546442472594726e-09,3.140032840139334
1291681130,15812,vehicle,181.9677276611328,195.5995635986328,-5.809055991793678,0.0018363427002077673,3.1412765363684008
715062232,15812,vehicle,313.9349060058594,59.31575012207031,1.5918839692522897,0.004585459713802795,0.002880515866698761
220877689,15812,vehicle,121.23072052001953,129.75624084472656,-1.7976011034613062,-3.3989839335384347e-05,-3.1415737451460535
2069714320,15812,vehicle,-2.3939104080200195,287.8329772949219,0.0037117121405993232,9.272948475900705,1.5703960536830577
3190467641,15812,vehicle,118.23200225830078,-2.272221088409424,-0.004156015375687622,-0.0002577902503721634,-3.079643798209024
708315452,15812,vehicle,88.74115753173828,99.75167846679688,3.5441750623475264e-05,0.011900837844341313,1.5678182469059154
1314594676,15812,vehicle,88.64353942871094,172.70541381835938,1.5930121090046532e-07,0.0016478398970627616,1.5706996540473268
2302084468,15812,vehicle,312.64886474609375,330.5040283203125,-0.010304551991704387,0.0010984431665348867,-0.10619682748400178
757051778,15812,vehicle,305.1543884277344,199.05624389648438,-9.277392804513362e-07,1.02584301059616e-09,-0.0011057444846008996
4203008516,15812,vehicle,153.76559448242188,31.968080520629883,8.812298443236732e-05,2.305896757349333,1.570758110433254
2631691725,15812,vehicle,312.59649658203125,199.05572509765625,1.7194090250471987,-0.004084532069650414,-0.0023755396923506806
1513387753,15812,vehicle,299.7995910644531,59.32716751098633,-0.00013461237345943782,1.9925131761374462e-07,-0.0014801846737917154
156273220,15812,vehicle,92.521728515625,84.60269165039062,-0.0017498856374000063,-5.549585066521766,-1.571111645067962
3812119762,15812,vehicle,106.87622833251953,55.8383674621582,-4.735761040542241,0.0010884237775427498,3.1413628227877193
3616050434,15812,vehicle,335.4162902832031,308.3311462402344,0.00037874255909202544,1.8397854176729926,1.5705904644426334
2942158310,15812,vehicle,88.6076431274414,25.917118072509766,2.2906612772442313e-10,1.1662761837817365e-06,1.5705999186645032
3608800298,15812,vehicle,145.68064880371094,133.23402404785156,1.1321037709734837e-07,-5.4872540389422654e-11,-0.0004846952858851307
1146464971,15812,vehicle,59.98570251464844,2.5484862327575684,1.9645170706127908,-0.0004248242309901856,-0.00021624868051443413
3013099654,15812,vehicle,-2.4008419513702393,104.63351440429688,0.0007503618566807501,5.821406792918381,1.5706674297981367
2246582517,15812,vehicle,88.6150894165039,105.10009765625,-3.3693418025658946e-11,-2.471028016991994e-07,1.5706599729470845
3192940987,15812,vehicle,338.8913269042969,293.55194091796875,-0.0010872558678787997,-6.1951083182883275,-1.5709718291107329
828836647,15812,vehicle,88.64752960205078,300.9998474121094,1.0763573905894782e-09,-9.754197408557244e-07,1.571899807592571
1702089089,15812,vehicle,395.9706115722656,180.6842498779297,-0.004909635233297379,-5.358338014113945,-1.5717125873679383
2111029583,15812,vehicle,54.97394943237305,330.44464111328125,-0.00019873850025193578,8.52129004183631e-08,-0.00042876893550275734
420096522,15812,vehicle,134.24266052246094,129.7362823486328,-1.7309605348881008,-0.002369913410409551,-3.1402235224733834
510102133,15812,vehicle,158.55419921875,24.36504364013672,0.3183600618368339,-4.7823705757300505,-1.5043248912509548
4109025732,15812,vehicle,216.67434692382812,1.8943500518798828,6.138992948289407,-0.008942978079949638,-0.0014567489862361807
2913592560,15812,vehicle,252.19093322753906,1.9343949556350708,4.741200359922312,-0.0009091138711630357,-0.00019174761474035048
3970347779,15812,vehicle,128.58718872070312,59.30253219604492,-0.009966122178612716,0.0009359649147537907,-0.09363999797714295
1933996401,15812,vehicle,389.8777160644531,-1.1244065761566162,-5.128354113790854,-3.8993462177802027,-2.4915001177993465
3047764241,15812,vehicle,40.618675231933594,2.0479140281677246,5.77016781752159,-0.00034114483191115784,-5.912216807243643e-05
1260711767,15812,vehicle,306.1383361816406,133.41566467285156,-5.289008448186642e-08,5.718707375422408e-11,-0.0010812433375535894
3957993155,15812,vehicle,335.0718994140625,33.63330078125,-1.4373754383934575e-10,2.0541397505505042e-07,1.571496072371315
4289594148,15812,vehicle,-2.409001350402832,152.3231658935547,0.0021696945891710945,4.827889908578633,1.5703469183609458
4139896837,15812,vehicle,193.02015686035156,129.4878692626953,-5.7998647664932585,0.00016990571596163254,3.1415633588178022
1686932955,15812,vehicle,175.89035034179688,-1.962571620941162,3.614354770739732e-07,-1.8625555046644274e-10,3.1410773319188627
1726501337,15812,vehicle,378.8955078125,-2.3914196491241455,0.005061752769629731,1.4352474505373596e-05,-3.1387571859771857
1682591593,15812,vehicle,261.2164306640625,330.45721435546875,6.899102584468168,-0.0011942723011488707,-0.00017310545460050517
3380823586,15812,vehicle,387.50244140625,325.040771484375,-5.062589918097254,3.1431105467721503,2.585982948004851
4176583038,15812,vehicle,227.51210021972656,1.9949870109558105,5.5610354022131325,-0.0016024348061747995,-0.0002881540299465736
3855978784,15812,vehicle,305.56915283203125,330.5410461425781,-9.563829505606009e-09,-2.063259020267145e-12,0.00021573565139868049
1042098875,15812,vehicle,157.8470916748047,32.20794677734375,-3.4683063675496926e-10,2.386444867143321e-08,-1.5562639893585521
644930681,15812,vehicle,88.63038635253906,165.76617431640625,-4.560551280864488e-10,1.769795496132336e-07,1.5733732014656572
2234188147,15812,vehicle,358.0129699707031,-1.955140233039856,-6.779505565168531e-05,-4.96690812377456e-08,-3.1408600179739126
4109707537,15812,vehicle,2.615471124649048,223.97825622558594,-0.002508304829931919,-12.082776762961656,-1.5710039202018682
3675841917,15812,vehicle,187.11907958984375,55.83714294433594,-0.36779363796902426,-0.0008931041163605234,-3.139164383307859
2817926641,15812,vehicle,122.6378173828125,55.751869201660156,-0.19884269622367745,9.558380612140236e-05,3.141111953013034
4029506115,15812,vehicle,-2.292907238006592,94.6717758178711,-0.0012971778839868196,4.1436155196125055,1.5711093813810355
3277167701,15812,vehicle,88.64314270019531,33.22954559326172,1.5769158703394346e-07,0.0016470705083521035,1.5707005861537082
518241310,15812,vehicle,14.766270637512207,-2.073699951171875,-4.0729881973533635,-0.022441634402372214,-3.1360828396105283
778540568,15812,vehicle,250.19520568847656,59.32471466064453,5.757498720242575,-0.0004906605977755243,-8.52211386278903e-05
657465635,15812,vehicle,1.7191965579986572,134.32330322265625,-0.0005287272076129894,-9.90192984123062,-1.5708497231747527
835227171,15812,vehicle,134.6495819091797,59.32780456542969,4.436796079476004e-08,9.201937965779183e-12,0.00020740051309560257
715280319,15812,vehicle,118.0025863647461,195.2687225341797,2.7123645818716135e-07,-3.1732691023914424e-10,3.1404227269229215
3020211281,15812,vehicle,153.7693634033203,41.45321273803711,0.004867912046679993,5.577874443683478,1.5699236089056776
2101598167,15812,vehicle,200.7904510498047,-1.9618159532546997,-5.799865720167575,0.00016990574389930417,3.1415633588178022
14974470,15812,vehicle,280.22216796875,59.333831787109375,5.74776588484184,-0.0012368238235811932,-0.0002151833998237571
1398818972,15812,vehicle,126.01985931396484,133.6781005859375,5.6559480456179685,-0.001147777629995048,-0.0002029328425547473
2694688339,15812,vehicle,2.3113291263580322,262.9218444824219,-0.007293138141751462,-13.918813702074806,-1.5713203037393697
3916750283,15812,vehicle,116.79842376708984,326.9374694824219,1.0478941085881352e-06,-5.000433595334048e-09,3.136820801548589
1983197581,15812,vehicle,92.121826171875,21.589366912841797,-0.007522367239079936,-1.7937285524150495,-1.5749900065634443
2942851653,15812,vehicle,256.9719543457031,198.7660369873047,5.825790253893891,-0.001328085462530353,-0.00022796657305613747
3949181016,15812,vehicle,88.6303482055664,112.13860321044922,7.144251953395576e-10,-2.7511178365130337e-07,1.5733931751738328
3672416715,15812,vehicle,338.9429931640625,312.62030029296875,-0.20411408886051027,-6.129831375519961,-1.6040825114695245
3325384226,15812,vehicle,206.63441467285156,55.84141159057617,-7.765647031264684,-0.003648158482260625,-3.1411228719735034
1359910869,15812,vehicle,154.24136352539062,25.68172836303711,-0.0021521585603212034,2.009752551743825,1.5718671838692175
2262630317,15812,vehicle,60.97273635864258,330.7824401855469,0.004170145930825499,0.0002748993033595499,0.06582554823938108
805172996,15812,vehicle,123.99838256835938,195.3119354248047,-0.5745024549777401,0.06476576481539217,3.029332956791901
1986857511,15812,vehicle,-2.3463544845581055,163.24365234375,0.001064002264729697,11.036631532879149,1.5706999203634358
1279946346,15812,vehicle,125.39176177978516,2.0789449214935303,-0.0020365980198779375,-5.932406326924903e-06,0.002912891739220313
74618890,15812,vehicle,295.40985107421875,198.75477600097656,5.615184281291604,-0.0005383490521456357,-9.587379924285257e-05
3085549129,15812,vehicle,392.5218811035156,188.97129821777344,0.010840703500245784,19.342430891540737,1.5702358645434895
2057201815,15812,vehicle,180.8893280029297,198.9749755859375,5.839395003552168,-0.000706026686144804,-0.00012090750536227475
1015694095,15812,vehicle,66.94755554199219,330.46124267578125,4.696612582475149e-07,-2.0237682767856636e-10,-0.00043089952939340205
1250507297,15812,vehicle,212.02764892578125,-1.9456121921539307,-6.618627785219435,0.003974769910974629,3.1409921107639804
4280502996,15812,vehicle,48.15369415283203,331.2244567871094,-3.615090298568918e-05,1.0917659889624359e-08,-0.0003020024025964043
3428459672,15812,vehicle,66.85588836669922,2.0130629539489746,4.27107987037128e-08,-3.4533213349355295e-11,-0.0008085357069480567
414519966,15812,vehicle,247.91567993164062,327.0451965332031,-5.677540779111958,4.536061707937688e-06,3.141591854641466
2866945113,15812,vehicle,294.2904968261719,330.4563903808594,0.0,-0.0,-0.00044421526982521694
1853482628,15812,vehicle,5.634329319000244,4.5622639656066895,4.3352126256528685,-3.622604042398235,-0.6960881241352596
3880166169,15812,vehicle,335.51007080078125,301.5334167480469,0.0008839429984915353,0.7357898409314423,1.5695949748271618
1073352953,15812,vehicle,372.0358581542969,-2.3772799968719482,-2.2715234691432342e-07,4.727033705832616e-10,3.1395116595140053
213556023,15812,vehicle,184.39794921875,327.02880859375,-5.825791355126572,0.00021100428373370118,3.141556434598968
1628590046,15812,vehicle,1.6688635349273682,82.6343994140625,-0.002513391152713787,-5.809555463700386,-1.57122895731398
4120465129,15812,vehicle,313.9479675292969,133.22573852539062,1.6156712616007116,0.00430579061560105,0.002665010218531432
1015227284,15812,vehicle,206.63441467285156,129.75144958496094,-7.765647028347515,-0.003654362832963566,-3.1411220730251763
2900396540,15812,vehicle,181.6448211669922,-1.966654658317566,-0.0013252373385452107,-4.9354246255117e-06,-3.1378684891214266
3587539486,15812,vehicle,396.6421813964844,263.7432861328125,-0.0014715601996296253,-5.525614542514261,-1.5710626429039045
1146849989,15812,vehicle,292.9640808105469,133.22781372070312,0.6014320098776647,-0.024989514579863224,-0.04152613824538755
1457681385,15812,vehicle,395.8584289550781,169.67562866210938,-0.003174373278765184,-11.036637803378852,-1.571083948192625
1726747598,15812,vehicle,114.46519470214844,129.75656127929688,-4.033263818002123,0.24808443988912143,3.0801604514604994
367118466,15812,vehicle,392.4822692871094,311.8106689453125,0.002370808644604385,7.7511841009284055,1.570490462743701
2065705843,15812,vehicle,236.17919921875,133.21751403808594,5.970398376047784,-0.0007727463054067877,-0.00012942960459588299
3978545900,15812,vehicle,334.857177734375,292.3302917480469,-0.01037329768078455,5.100637378120066,1.5728300497613357
714679325,15812,vehicle,356.1322937011719,1.9288514852523804,5.679055281240727,-0.0021567165926987377,-0.0003797667714452994
3262285446,15812,vehicle,129.8253631591797,55.7503662109375,-0.5476154052564364,-6.314820239483746e-05,-3.141477338714593
1401880247,15812,vehicle,139.490234375,195.2694854736328,-5.799862382307468,0.0001699056461174534,3.1415633588178022
2250339631,15812,vehicle,160.02769470214844,129.7313995361328,-5.747763155276348,0.00013623425081718082,3.1415689514560916
2525145270,15812,vehicle,92.54173278808594,155.00985717773438,0.0034588817740385806,-2.634456986476147,-1.5694833883774875
1825059061,15812,vehicle,313.625732421875,2.0121796131134033,-1.0039021473854072e-05,6.277503584255556e-09,-0.0006253102239506051
346279610,15812,vehicle,110.6742935180664,194.9921112060547,-1.7527829087516291,0.00476224741350936,3.1388756966456945
893025708,15812,vehicle,395.92962646484375,252.2758026123047,-0.0018697026644772731,-5.821404633676482,-1.5711175040223602
1724402154,15812,vehicle,88.6165542602539,292.0489501953125,0.00206314217910779,4.039085814937269,1.5702855324978193
2595182244,15812,vehicle,221.12220764160156,198.76605224609375,5.825795499102495,-0.001328086658262604,-0.00022796657305613747
874453657,15812,vehicle,392.5599670410156,245.02926635742188,-0.011354398007409755,15.411181081834117,1.571533090310467
1498616609,15812,vehicle,92.17973327636719,47.55997848510742,-1.0038493048258708e-06,0.00016479084862692557,-1.5647047452755038
505512523,15812,vehicle,220.97845458984375,133.22000122070312,5.539889067621979,-0.0017232223420429876,-0.00031105718281196435
3709073522,15812,vehicle,212.80047607421875,195.56698608398438,-7.64906572355289,0.007883461450774723,3.1405620102479324
27029540,15812,vehicle,1.47124445438385,112.94336700439453,-0.0019324424036879441,-7.004051895586608,-1.5710722302838287
1375770528,15812,vehicle,338.8984680175781,254.97293090820312,0.005384582862090836,-8.165897501439902,-1.570136928108993
4266869573,15812,vehicle,5.01317024230957,-0.4741179049015045,-5.3444672759688245,2.4206082930109294,2.716314323327803
368528135,15812,vehicle,2.587834119796753,284.8040466308594,0.057769428740062,-10.804595050694285,-1.565449631432399
4012051816,15812,vehicle,338.9733581542969,228.75657653808594,-1.1466813853557318e-09,-4.0319354267246526e-07,-1.5736403165229922
3938307140,15812,vehicle,92.08026123046875,229.22071838378906,-0.001345957408112596,-5.970447865406339,-1.5710217633811718
1966079641,15812,vehicle,26.942638397216797,331.24053955078125,6.168641089137065,0.00012448152240484414,2.0179731741429745e-05
1759883367,15812,vehicle,-2.4137141704559326,265.39239501953125,0.0018857063555127703,7.638303047109798,1.5705494517618463
3487645883,15812,vehicle,142.84597778320312,129.77513122558594,-4.125178703717702,-0.0009535861548654186,-3.1413614912071743
544848518,15812,vehicle,92.24698638916016,35.24443435668945,6.203282062917602e-11,5.679814472986282e-08,-1.571888489157938
1325658571,15812,vehicle,128.57786560058594,129.74827575683594,2.3534523807126767e-07,-2.730804482874841e-10,3.1404323143028456
921579549,15812,vehicle,116.365966796875,55.81559753417969,-2.9531738806568137,-0.0026480713852885264,-3.1406959672507635
4072577581,15812,vehicle,92.4053726196289,285.82086181640625,-0.002077680287265674,-6.894879981759165,-1.5710976634722391
94066344,15812,vehicle,298.6883544921875,133.25888061523438,-3.3560412211862304e-05,1.0498230415106746e-07,-0.003128148756332748
2853390219,15812,vehicle,299.9942626953125,330.5154724121094,-0.00010713513850167036,-3.2661362321754974e-08,0.00030486133463478014
2524564450,15812,vehicle,1.6139200925827026,66.04341888427734,-0.001030290746060273,-5.970178992063036,-1.5709688996335338
1882516347,15812,vehicle,-2.151583194732666,79.78097534179688,0.001802514690775121,8.259094041585392,1.5705780807435645
815178544,15812,vehicle,217.3022003173828,330.4170227050781,5.809055532102578,-0.002951761674040206,-0.0005081310384592467
2188308515,15812,vehicle,126.47505950927734,199.21774291992188,5.824105774973159,-0.0022676398760902456,-0.00038935415136958463
1160083145,15812,vehicle,366.82623291015625,326.5643005371094,-8.690750061587833,0.0010253176309161967,3.1414746755535026
1832698586,15812,vehicle,145.60064697265625,326.96697998046875,-7.64906572355289,0.007883461450774723,3.1405620102479324
3748346955,15812,vehicle,131.3762664794922,1.9196666479110718,-0.9612058823383094,0.0001827729985042394,-0.0001901496855770123
3198444053,15812,vehicle,121.88117980957031,326.8843688964844,0.5033215379673408,0.028334317046798042,-3.08535734401168
808811405,15812,vehicle,338.9332275390625,221.64108276367188,-4.702860690253659e-07,-0.0016472893095746952,-1.571081817663753
84250811,15812,vehicle,285.2256774902344,133.59681701660156,3.8634196703362265,-0.0008827884024748939,-0.00022849922152879865
3956289865,15812,vehicle,88.6192626953125,307.3096923828125,0.001310375606703949,1.88664724620114,1.570101774382604
1912328786,15812,vehicle,365.2416687011719,-1.9526519775390625,-4.228635568553976e-08,-4.2523580728089956e-11,-3.1405870439621792
4030311199,15812,vehicle,338.9559631347656,235.7324676513672,-4.0018094992554234e-07,0.0005778326082114614,-1.5701037717534214
3147513812,15812,vehicle,392.4786376953125,284.4050598144531,0.0011570996822099523,11.055561005121511,1.5706916645640565
1663586846,15812,vehicle,275.2904357910156,330.4131164550781,5.537752497565301,-0.0012034306803209447,-0.0002173139124411752
