id,timestamp_ms,agent_type,x,y,vx,vy,psi_rad
-1,49245,vehicle,392.2198791503906,306.496337890625,1.637772616025723e-11,-7.648919899760008e-08,1.571010444946539
2985032057,49245,vehicle,-2.2620866298675537,145.15736389160156,-0.003043640277059912,15.687954607398643,1.570990338080309
3028941286,49245,vehicle,396.85699462890625,84.42171478271484,-0.0017055702724752006,-5.9080326479468255,-1.571085013457061
2920337868,49245,vehicle,392.0353088378906,314.20721435546875,1.1890312141597384e-10,3.022840979044251e-07,1.570402977901892
1503980471,49245,vehicle,125.52159881591797,2.027653694152832,4.654852580922773,-0.002665274080084982,-0.0005725796343670363
2125414330,49245,vehicle,358.60247802734375,-1.6013845205307007,-9.191952894454972e-08,9.118673096942444e-11,3.1406006260837387
2396446624,49245,vehicle,138.19960021972656,327.0108642578125,-3.5005632236486712,0.002110628693423511,3.1409897139189993
4076155829,49245,vehicle,11.557841300964355,-1.9559829235076904,-5.802314280747364,-9.116973599490258e-05,-3.1415769409393617
130361148,49245,vehicle,92.38279724121094,215.46109008789062,-0.0012428538851052607,-5.899920332654671,-1.5710069828371218
3417340120,49245,vehicle,300.4178466796875,330.5010986328125,1.4278370879795498e-08,-2.829108287312209e-11,-0.0019813917209817906
2197730220,49245,vehicle,154.2329559326172,35.148040771484375,8.66153846625399e-09,-1.8595495732413927e-05,1.5712621136695515
118743835,49245,vehicle,332.15069580078125,127.03443145751953,-4.32950492438306,6.00746956993811,2.195271649743762
904053063,49245,vehicle,157.90536499023438,36.87813186645508,-0.008904682328417002,-1.8818248829872648,-1.5755282314197494
1291681130,49245,vehicle,113.09465789794922,195.61886596679688,8.932290615513055e-08,3.4823618197964764e-10,-3.1376940520700263
715062232,49245,vehicle,338.9866638183594,22.499813079833984,5.320619715835692e-10,-2.2483176136846014e-07,-1.5684298418502522
220877689,49245,vehicle,92.8392105102539,67.568603515625,-0.11310552750389369,-5.669869587696422,-1.5907422049370996
2069714320,49245,vehicle,91.98472595214844,295.2877197265625,-0.01867669345082786,-6.065784788492189,-1.5738753404891916
3190467641,49245,vehicle,22.66019630432129,-1.950730800628662,-7.36883306435328,-0.00010008438643833232,-3.1415790714682337
708315452,49245,vehicle,88.17659759521484,169.25796508789062,-0.0028234794373206275,0.009628847259874874,1.8560317985028523
1314594676,49245,vehicle,153.10560607910156,199.00990295410156,10.412355226203285,-0.002024274083251061,-0.00019441077583042972
2302084468,49245,vehicle,396.7928466796875,173.84495544433594,0.014697807711407575,-17.623923848659405,-1.5699623578995383
757051778,49245,vehicle,334.7028503417969,297.8030090332031,-3.3995468686947856e-11,-1.6642870201163476e-07,1.5705920623392875
4203008516,49245,vehicle,112.88423919677734,55.693016052246094,-3.26642962997189e-08,-7.762157557692484e-11,-3.1392163149491155
2631691725,49245,vehicle,334.72576904296875,304.8206481933594,3.967366053721615e-13,-1.0528061082112224e-08,1.5708340105243213
1513387753,49245,vehicle,339.01324462890625,29.555875778198242,-5.789350720712466e-10,1.8466336570351295e-07,-1.5676612535596552
156273220,49245,vehicle,92.21022033691406,46.499305725097656,-0.05615184457710072,-5.783171330330029,-1.580505546339053
3812119762,49245,vehicle,116.92009735107422,2.091092109680176,4.636769675598953,-0.0009434226318454066,-0.00020346549102740846
3616050434,49245,vehicle,157.24130249023438,326.39208984375,-4.5061212682750895,0.007407931885095489,3.1399486842488873
2942158310,49245,vehicle,124.82677459716797,59.334476470947266,-8.870276976542936e-06,-6.121812282957471e-09,0.0006901488338183272
3608800298,49245,vehicle,298.1677551269531,133.19717407226562,-3.563408349445043e-08,6.718870269131513e-12,-0.00018855178892296473
1146464971,49245,vehicle,71.85121154785156,2.553532600402832,5.218152884390194,-0.0010978457723779128,-0.00021038972611625982
3013099654,49245,vehicle,-2.341867685317993,243.72781372070312,0.0007424012299729435,5.724166821973973,1.5706666308498098
2246582517,49245,vehicle,129.53070068359375,133.3579864501953,2.085635657245167,0.0010073089256402714,0.0004829745041124247
3192940987,49245,vehicle,338.8669738769531,219.46205139160156,6.238068006612412e-11,3.059697597829104e-08,-1.5728351097674067
828836647,49245,vehicle,293.2968444824219,330.7931823730469,-7.14801558591726e-08,-8.668313880955867e-11,0.0012126875672730446
1702089089,49245,vehicle,371.1454162597656,-2.4276890754699707,-8.610120734149154e-08,-1.1244946323644541e-10,-3.1402866393912183
2111029583,49245,vehicle,92.00555419921875,252.38526916503906,0.0018788843139014,-8.354162958576584,-1.5705714228408394
420096522,49245,vehicle,88.35671997070312,238.76222229003906,0.002493862634007731,6.653140077491712,1.5704214868714679
510102133,49245,vehicle,304.88995361328125,1.8784470558166504,5.3425325997044,-0.0006118050317604395,-0.00011451591874608458
4109025732,49245,vehicle,312.64984130859375,1.3164461851119995,2.9529610565967293,-0.009830297741949807,-0.003328950582376072
2913592560,49245,vehicle,326.200439453125,1.7425271272659302,2.0322892237957255,0.01929522185310425,0.009494043410159086
3970347779,49245,vehicle,157.46878051757812,29.85389518737793,0.0008355100864488007,0.010789858825375183,-1.6480768674131974
1933996401,49245,vehicle,337.9419860839844,1.0783088207244873,3.926257078582979e-08,-3.5739843972701026e-08,2.4031281770311383
3047764241,49245,vehicle,60.02705383300781,2.043433904647827,5.896507048288195,-0.0037122716069955316,-0.0006295712166761506
1260711767,49245,vehicle,266.06005859375,55.68150329589844,-5.456671714109123,-8.573877517060368e-05,-3.1415769409393617
3957993155,49245,vehicle,333.5862731933594,50.25166702270508,-1.8186883611232596,5.103825186590372,1.9131065364565585
4289594148,49245,vehicle,-2.3834002017974854,264.14923095703125,0.002332957818207456,8.764489817066677,1.5705301438439432
4139896837,49245,vehicle,112.17839813232422,129.49009704589844,-2.7511263280612766e-08,3.779843085951802e-11,3.140218728783421
1686932955,49245,vehicle,112.7573013305664,-1.9680248498916626,-1.8105679530335381e-07,5.157447727726152e-10,3.1387441364878446
1726501337,49245,vehicle,335.1603698730469,6.702856063842773,-0.3807445063556046,2.379926945048737,1.7294336423959735
1682591593,49245,vehicle,313.8250427246094,330.4513854980469,-9.574204894904462e-08,1.2509150445764346e-10,-0.0013065464406813864
3380823586,49245,vehicle,357.230224609375,326.3235778808594,-5.87170455081092,-0.0005691975431384964,-3.141495714526114
4176583038,49245,vehicle,318.66302490234375,1.961122751235962,2.9328343527969305,-0.0004467669144471292,-0.00015233281435253243
3855978784,49245,vehicle,338.6291809082031,254.5722198486328,-0.001633958522547802,-5.930797351823229,-1.5710718308096654
1042098875,49245,vehicle,34.216304779052734,-1.9588624238967896,-5.118279945532425,0.0021822918524936875,3.1411662814992716
644930681,49245,vehicle,88.36060333251953,249.8504638671875,0.002511034080381019,5.796970300425073,1.5703631636435953
2234188147,49245,vehicle,335.1570129394531,38.09427261352539,0.0009893864464918772,5.804817115390375,1.5706258844851315
4109707537,49245,vehicle,2.5816738605499268,98.74720764160156,-0.001872626621984567,-5.661508250481357,-1.5711270914022843
3675841917,49245,vehicle,149.56776428222656,55.76942825317383,-7.688305808338515,-0.017981350683317198,-3.1392538655204856
2817926641,49245,vehicle,92.83844757080078,28.06944465637207,0.0013713547367673992,-0.007986491571761758,-1.4007453685520126
4029506115,49245,vehicle,-2.5623011589050293,233.48020935058594,-0.003018078002259572,0.8015728399226391,1.5745615039440506
3277167701,49245,vehicle,132.23101806640625,59.39968490600586,0.002485563440859344,-5.983988197340091e-07,-0.00024074976254316314
518241310,49245,vehicle,-2.648735284805298,205.05880737304688,0.02267794851374448,4.434847546647239,1.5656827911858355
778540568,49245,vehicle,338.9315185546875,42.95614242553711,-5.373911795464851e-09,1.763742768368735e-07,-1.5403369544593333
657465635,49245,vehicle,20.29448699951172,2.0589969158172607,6.5154188156467e-08,-4.240446292518754e-10,-0.006508233071935642
835227171,49245,vehicle,157.7899627685547,23.67967414855957,-1.0914900278287689e-11,-6.615779478580916e-08,-1.570961309624427
715280319,49245,vehicle,92.39664459228516,151.21665954589844,-0.001486430181848782,-5.277967243691793,-1.5710779560801724
3020211281,49245,vehicle,311.7214050292969,59.5904541015625,1.0265717842545687e-06,1.2865916039891073e-09,0.0012532888104777936
2101598167,49245,vehicle,125.2381591796875,-2.030271291732788,1.2899381902147799e-05,-1.1470513787430204e-08,3.1407034241018157
14974470,49245,vehicle,338.9898376464844,36.57738494873047,2.432050061217053e-09,-5.138634692467959e-07,-1.5660634900636623
1398818972,49245,vehicle,291.3095703125,133.64193725585938,0.0,-0.0,-0.0013757890191349344
2694688339,49245,vehicle,2.269291877746582,118.4953384399414,-0.002525318435703273,-6.696616650311489,-1.5711734304052518
3916750283,49245,vehicle,100.32676696777344,326.32574462890625,-5.725016381209231,-1.0832924565195041,-2.954582818683339
1983197581,49245,vehicle,-2.136657476425171,185.32647705078125,0.003987820717311415,9.761415620671661,1.5703877978836784
2942851653,49245,vehicle,338.8026428222656,79.90947723388672,-0.004750127359264638,-3.647528654805916,-1.5720986125679453
3949181016,49245,vehicle,88.34362030029297,174.86178588867188,1.6874305532603113e-11,-6.328268726780676e-09,1.5734628168363385
3672416715,49245,vehicle,338.85546875,226.30577087402344,1.7618696993932435e-10,-1.3566501805513812e-07,-1.5694976362893194
3325384226,49245,vehicle,163.1021728515625,55.53996276855469,-8.349108839255926,-0.11419507463607109,-3.127915989811691
1359910869,49245,vehicle,306.3953552246094,59.60513687133789,0.017437448991241455,2.5304434940221897e-05,0.0014511536171665997
2262630317,49245,vehicle,214.6370391845703,330.62139892578125,11.928118488897828,-0.0022744813079632873,-0.00019068231779502813
805172996,49245,vehicle,92.1676025390625,160.1590576171875,0.015706879226467414,-3.9067341250523575,-1.5667758856552585
1986857511,49245,vehicle,-2.473862409591675,281.5965576171875,0.0010839660077508531,11.212736077365756,1.5706996540473268
1279946346,49245,vehicle,144.00726318359375,2.442103624343872,3.07065275237059,-0.059748491423172824,-0.019455457027464866
74618890,49245,vehicle,334.70416259765625,291.78424072265625,1.316342698102804e-10,1.5686390658866286e-07,1.5699571647354127
3085549129,49245,vehicle,391.97674560546875,320.9991455078125,-1.9368818022978674e-09,7.170836904385534e-09,1.8346064012170558
2057201815,49245,vehicle,306.45654296875,198.97398376464844,-4.220910308664134e-09,5.105647834887314e-12,-0.0012096076370768274
1015694095,49245,vehicle,279.3155517578125,330.6219482421875,6.5940728201585825,-0.0035438256994617654,-0.0005374258754686996
1250507297,49245,vehicle,154.22787475585938,30.01693344116211,1.652551985384611e-05,-0.016940282047868713,1.5717718427021927
4280502996,49245,vehicle,92.22650146484375,282.52197265625,-0.0020377452420493676,-5.593277083180098,-1.5711606472320194
3428459672,49245,vehicle,83.37789154052734,3.4275221824645996,5.371696530283038,2.07077695468384,0.3679422696263203
414519966,49245,vehicle,147.86341857910156,327.0802307128906,-1.9365495442596254,-1.7019233204851843e-05,-3.141583865158196
2866945113,49245,vehicle,338.6234436035156,280.88934326171875,-0.0020743401898852946,-6.895984814510399,-1.571097130840021
1853482628,49245,vehicle,50.30082321166992,2.521118640899658,4.102233397982407,-0.0003124523465868437,-7.616639904894355e-05
3880166169,49245,vehicle,176.19981384277344,326.41986083984375,-5.5557713508273,1.9234688312764074e-05,3.141589191480376
1073352953,49245,vehicle,335.1731262207031,16.858356475830078,-0.016880540063123544,4.308243105948935,1.5747145025486757
213556023,49245,vehicle,129.1202392578125,327.0176086425781,-4.732241120783442,-0.0005583005172742706,-3.1414746755535026
1628590046,49245,vehicle,33.744266510009766,2.3478176593780518,-3.7771356786910974e-08,-7.368072182667585e-11,0.0019507011300875542
4120465129,49245,vehicle,252.31982421875,55.67684555053711,-6.156141501438697,0.0017771959912327479,3.141303966927629
1015227284,49245,vehicle,117.51541900634766,129.75149536132812,0.00022330123299401598,-2.723667183753566e-08,3.1414706808118678
2900396540,49245,vehicle,118.2197036743164,-1.9650869369506836,-0.0013252414226176258,-4.708853759462313e-06,-3.1380394640634095
3587539486,49245,vehicle,396.5846252441406,71.401123046875,-0.0021397294315578324,-8.099342063548574,-1.5710605123750325
1146849989,49245,vehicle,334.51873779296875,180.28245544433594,0.06687049825678285,4.978029312025142,1.5573640080468094
1457681385,49245,vehicle,363.8710021972656,-2.6955690383911133,-0.002484442896053122,1.210814313146956e-07,3.1415439177418447
1726747598,49245,vehicle,92.16243743896484,56.41673278808594,0.022255794570634063,-4.930587130523103,-1.5662825350633214
367118466,49245,vehicle,368.91522216796875,326.3616027832031,-6.514785402726356,0.002177415416920665,3.141258426872988
2065705843,49245,vehicle,311.215087890625,133.19998168945312,1.1243687277822688e-08,5.5483975740034754e-12,0.0004934677554206829
3978545900,49245,vehicle,396.8483581542969,106.3018798828125,-0.0021610065793282256,-9.805971861186578,-1.5710167033751006
714679325,49245,vehicle,392.1418151855469,299.22723388671875,-3.544757936070333e-11,-1.0721175538657492e-07,1.5704656953455634
3262285446,49245,vehicle,88.3433609008789,162.9807586669922,1.6043460671357432e-08,-8.643676327944214e-06,1.5726524169166274
1401880247,49245,vehicle,92.49649047851562,170.47958374023438,-0.0005561807340114697,-4.741028753082161,-1.5709136390409146
2250339631,49245,vehicle,92.39553833007812,98.05174255371094,0.011392943822383345,-5.244861149789177,-1.5686241194517734
2525145270,49245,vehicle,93.26152038574219,139.5109100341797,0.9533761242340983,-5.625951102665675,-1.402930625384477
1825059061,49245,vehicle,331.94671630859375,1.9882502555847168,-5.694389226637394e-06,2.0312185740748497e-08,-0.003567037443903481
346279610,49245,vehicle,88.17655181884766,305.6376037597656,3.5225058220770147e-10,1.2446362410415843e-07,1.5679661855044693
893025708,49245,vehicle,395.8516845703125,60.220375061035156,-0.0018697032770742083,-5.821406541025016,-1.5711175040223602
1724402154,49245,vehicle,2.3637685775756836,183.40318298339844,-0.021405291752648038,-12.690523215097988,-1.5724830398712983
2595182244,49245,vehicle,313.6766662597656,198.77235412597656,-7.196708760064178e-09,1.7797577131921513e-11,-0.002473011128173255
874453657,49245,vehicle,388.5296936035156,324.7571716308594,-0.9231189739070678,0.5356204049478277,2.6158375164568572
1498616609,49245,vehicle,-2.433013677597046,50.28391647338867,0.006540671626170449,13.158211989802135,1.5702992477774333
505512523,49245,vehicle,305.61077880859375,133.2028350830078,-0.44404864157789464,-3.691337156915713e-05,8.312911701060228e-05
3709073522,49245,vehicle,118.92913055419922,195.56103515625,-0.01740761522553717,-1.9290105776812954e-05,-3.1404845122602114
27029540,49245,vehicle,27.7639102935791,2.906721353530884,-0.0003514955087075673,-3.47737687393742e-05,0.09861003081534087
1375770528,49245,vehicle,288.51202392578125,195.2728271484375,-7.460995790080354,-0.004428986447813194,-3.1409990349828147
4266869573,49245,vehicle,-1.5168999433517456,214.62408447265625,-0.0011785145603618631,10.41234581953577,1.570909511141225
368528135,49245,vehicle,2.3323452472686768,135.3102264404297,0.03182271848435773,-4.492200193615874,-1.5637124514533403
4012051816,49245,vehicle,338.79058837890625,153.35791015625,6.521968295832503e-08,5.4108623573855926e-05,-1.5720016735042666
3938307140,49245,vehicle,92.24896240234375,202.74639892578125,0.11973806895163569,-7.7612972798965085,-1.5553699661806126
1966079641,49245,vehicle,148.27635192871094,330.6452331542969,17.29454527625098,-0.005425650307459808,-0.00031372031139275297
1759883367,49245,vehicle,65.09627532958984,331.1673889160156,-1.5951694863268177e-07,1.0960340459606978e-10,-0.0006870955612404434
3487645883,49245,vehicle,92.41857147216797,88.28746032714844,-0.0013724044817875229,-4.584778580298262,-1.5710956661014215
544848518,49245,vehicle,134.16928100585938,2.0982820987701416,4.450014544859031,-0.0006423298548971852,-0.0001443433148276494
1325658571,49245,vehicle,92.39219665527344,78.702392578125,-0.0013746487802923824,-3.807981004552033,-1.5711573182806569
921579549,49245,vehicle,92.27445983886719,22.447580337524414,2.4181567180067277e-07,7.163417397970368e-05,-1.5741720166346265
4072577581,49245,vehicle,92.38117218017578,225.5965118408203,-0.0012933876762607499,-4.579526718600517,-1.5710787550284995
94066344,49245,vehicle,334.49920654296875,190.23739624023438,0.026504451384082126,5.83945553639271,1.5662575013490745
2853390219,49245,vehicle,385.7418518066406,330.5262145996094,5.373518994503895,-0.3421341854099127,-0.06358458556705267
2524564450,49245,vehicle,40.88675308227539,2.030705690383911,3.05855557782881,-0.0003926095204623597,-0.0001283643564144966
1882516347,49245,vehicle,-2.1357035636901855,222.93386840820312,-0.0003362808181763224,5.77900694822371,1.5708545168647148
815178544,49245,vehicle,307.15032958984375,330.3822937011719,7.394866482009732e-07,1.1708841218637357e-09,0.0015833729333937412
2188308515,49245,vehicle,298.796875,199.190673828125,-3.342723552104612e-06,-3.9653484392779415e-09,0.0011862621953121382
1160083145,49245,vehicle,343.51263427734375,326.34832763671875,-6.938231227315836,-0.046693669463064476,-3.134862845515163
1832698586,49245,vehicle,119.46237182617188,326.9588317871094,-4.954066721952885,0.0005580841104063919,3.1414800018756828
3748346955,49245,vehicle,154.9589385986328,2.110883951187134,7.525031714885628,-0.09079529765428282,-0.01206518396219768
3198444053,49245,vehicle,110.05025482177734,327.381591796875,-5.195129314883672,-0.005059631607093678,-3.1406187355791513
808811405,49245,vehicle,252.56483459472656,195.30758666992188,-5.8349337531263,-0.00023309052814292594,-3.141552706173442
84250811,49245,vehicle,338.6336975097656,48.35784912109375,0.0003978831511787,0.010570948610758088,-1.6084178714080644
3956289865,49245,vehicle,2.4289259910583496,153.5136260986328,-0.0031171793294923317,-9.024525104039451,-1.5711417387882798
1912328786,49245,vehicle,335.13836669921875,26.633779525756836,0.003932504029106271,6.10808675059918,1.57015250760137
4030311199,49245,vehicle,338.7906188964844,160.2179718017578,-2.2574086627044444e-07,0.0072759017313270506,-1.5707653009681972
3147513812,49245,vehicle,378.5315246582031,326.27410888671875,-3.84672583139134,0.1462300017884722,3.1035968016854145
1663586846,49245,vehicle,338.63079833984375,300.7939758300781,-0.0019781896179443753,-5.733674661801663,-1.5711413393141163
