id,timestamp_ms,agent_type,x,y,vx,vy,psi_rad
-1,35443,vehicle,392.2198791503906,306.496337890625,9.529499394343271e-11,-4.450579820355133e-07,1.571010444946539
2985032057,35443,vehicle,8.210866928100586,-1.6564750671386719,-5.623265092048546,0.856560103792841,2.9904302985363507
3028941286,35443,vehicle,396.88616943359375,163.4148712158203,-0.0025594688327734453,-7.132201689190778,-1.5711551877517849
2920337868,35443,vehicle,392.0353088378906,314.20721435546875,2.7307179293521306e-10,6.942228228120801e-07,1.570402977901892
1503980471,35443,vehicle,115.15225219726562,2.0321717262268066,1.090972889536296,0.00015389463005828792,0.0001410618270293999
2125414330,35443,vehicle,376.5565490722656,-1.591242790222168,-4.785558894908869,-0.01101655045209843,-3.1392906171435286
2396446624,35443,vehicle,141.33572387695312,327.0087585449219,2.006036352501874e-07,-2.400874789223649e-10,3.1403958289959117
4076155829,35443,vehicle,89.49781036376953,-1.9395339488983154,-5.800870432047321,-0.011986626475302574,-3.1395263069000006
130361148,35443,vehicle,92.38613891601562,226.82598876953125,-2.195697617190034e-11,-3.688080298143061e-08,-1.5713916764565838
3417340120,35443,vehicle,268.4974060058594,330.4993591308594,0.06868366314879111,-0.00010005494530200184,-0.0014567492463105059
2197730220,35443,vehicle,175.7826385498047,-1.9393619298934937,-4.365648746482893,8.138498111750383e-06,3.1415907893770303
118743835,35443,vehicle,334.71221923828125,108.75579071044922,1.2693332330321229e-09,6.053929035884771e-07,1.5686996200686771
904053063,35443,vehicle,178.70040893554688,55.8249397277832,-5.070349700364948e-08,7.908806075252379e-11,3.140032840139334
1291681130,35443,vehicle,113.09465789794922,195.61886596679688,6.338493965621548e-08,2.4711387404431205e-10,-3.1376940520700263
715062232,35443,vehicle,338.9866638183594,22.499813079833984,1.6416094732169503e-10,-6.936897749786762e-08,-1.5684298418502522
220877689,35443,vehicle,92.90677642822266,91.6514663696289,-2.3939555789614547e-06,-0.004476668138707778,-1.5713310895417845
2069714320,35443,vehicle,42.52349853515625,331.1775817871094,4.708249100718605,-0.004729645767102662,-0.0010045441681221447
3190467641,35443,vehicle,99.87654876708984,-2.6407923698425293,-7.541606816949135,0.20645407299026336,3.114224146015376
708315452,35443,vehicle,88.71935272216797,114.83736419677734,-0.0010458872634049184,5.638535402572374,1.5709818159648206
1314594676,35443,vehicle,88.692626953125,186.81761169433594,0.13690676481853403,2.720825932038576,1.5205206391041628
2302084468,35443,vehicle,353.547607421875,330.67132568359375,6.030387812893425,0.05981652313085525,0.009918858175621456
757051778,35443,vehicle,334.7030029296875,282.4749450683594,0.0009241989312922113,5.803190634567811,1.5706370697617098
4203008516,35443,vehicle,112.88423919677734,55.693016052246094,-3.5211130069084575e-08,-8.36737264665916e-11,-3.1392163149491155
2631691725,35443,vehicle,334.72576904296875,295.2819519042969,0.0005131464750012482,5.717603183607451,1.570706578266161
1513387753,35443,vehicle,339.01324462890625,29.555875778198242,-6.595067354353736e-10,2.1036337120485366e-07,-1.5676612535596552
156273220,35443,vehicle,92.51573181152344,80.52529907226562,-4.4532111899798204e-10,-2.877066513644092e-07,-1.5723441560204507
3812119762,35443,vehicle,109.01225280761719,2.0952491760253906,-4.783387385660522e-07,2.698643559991864e-09,-0.005641639933075208
3616050434,35443,vehicle,236.7261505126953,326.4132080078125,-5.599723813382324,0.0001685165223491105,3.141562559869475
2942158310,35443,vehicle,88.65192413330078,45.55873489379883,0.12856603617935997,4.294914912662471,1.5408707850998398
3608800298,35443,vehicle,254.05165100097656,133.20822143554688,6.936256305405766,-0.0011970093392750737,-0.0001725728223824893
1146464971,35443,vehicle,60.19769287109375,2.5480518341064453,1.0701106247074573e-06,-9.096808808603185e-10,-0.0008500809549347115
3013099654,35443,vehicle,-2.370199680328369,184.0694122314453,0.011627187561834545,3.7304401395809643,1.5676794962131224
2246582517,35443,vehicle,88.8919448852539,124.01620483398438,0.28842303489836335,4.992120392212955,1.5130848270245525
3192940987,35443,vehicle,338.870849609375,240.1743927001953,-0.0018791121133752162,-2.8005338563440545,-1.571467310231542
828836647,35443,vehicle,255.43478393554688,330.7931823730469,7.550195822262708,0.01097588550627363,0.0014537209408678417
1702089089,35443,vehicle,396.0134582519531,23.106348037719727,0.0018134797359196787,-5.88548012450844,-1.5704881990567745
2111029583,35443,vehicle,71.43550872802734,330.4441223144531,4.715327235811713,0.0005052294004027664,0.00010714620072012839
420096522,35443,vehicle,88.08954620361328,170.66220092773438,-0.0005694657321955575,3.364763926954135,1.570965570682171
510102133,35443,vehicle,255.08433532714844,1.8584734201431274,1.311862092977285,-0.0002180068870966231,-0.00016618125202094445
4109025732,35443,vehicle,297.8106384277344,1.9713413715362549,0.21940547799233565,-0.035232801624583164,-0.15922371038359884
2913592560,35443,vehicle,308.85467529296875,1.67251718044281,0.0016461341572055722,-3.156422752978801e-07,-0.00019174759848570515
3970347779,35443,vehicle,158.2568817138672,48.94744110107422,0.032095327637835694,-2.3342336557176773,-1.557047358193199
1933996401,35443,vehicle,366.8766174316406,-2.27264404296875,-5.5998382564338085,-6.710972110251164e-05,-3.141580669364888
3047764241,35443,vehicle,53.26545333862305,2.0460774898529053,-3.666119123082983e-08,-1.6555049105151084e-11,0.0004515687413331706
1260711767,35443,vehicle,338.6466979980469,66.71240997314453,-0.5967544749861834,-6.623457123375636,-1.660650849341952
3957993155,35443,vehicle,335.0718994140625,33.63330078125,-1.3259779611297666e-09,1.8949426611566921e-06,1.571496072371315
4289594148,35443,vehicle,-2.401855945587158,191.28843688964844,0.0013011303994973655,3.4872672514700116,1.5704232179261766
4139896837,35443,vehicle,112.17839813232422,129.49009704589844,1.282511374541649e-07,-1.76207530067584e-10,3.140218728783421
1686932955,35443,vehicle,150.89767456054688,-1.963765263557434,-5.599555169090648,0.0019028372996183433,3.1412528342346993
1726501337,35443,vehicle,355.7849426269531,-2.4149229526519775,-4.477645731094465,0.005583143634569762,3.140345761567418
1682591593,35443,vehicle,286.037109375,330.4570617675781,2.7203783073761096,-0.0007056439985265146,-0.00025939185766442715
3380823586,35443,vehicle,368.77252197265625,326.3265380859375,9.923087157467263e-09,-3.200029836008879e-11,3.1383678318258164
4176583038,35443,vehicle,302.4993591308594,1.9665971994400024,1.396037567149088e-06,-7.339080022813399e-10,-0.000525707869144479
3855978784,35443,vehicle,330.71710205078125,330.0779113769531,5.397910734650943,-0.44618425219251306,-0.08247120803043342
1042098875,35443,vehicle,110.80961608886719,-1.9541007280349731,-5.5876359348859825,-0.0008124902992855302,-3.141447244994275
644930681,35443,vehicle,88.63380432128906,178.0092010498047,-0.00016670023698019256,2.9807083560105263,1.5708522531777882
2234188147,35443,vehicle,335.1531677246094,18.36540412902832,-0.004915495254322333,5.738338749323861,1.5716529325595205
4109707537,35443,vehicle,2.6082851886749268,195.850830078125,-1.359433505887112e-05,-0.010690226889136938,-1.5720679862154094
3675841917,35443,vehicle,183.96047973632812,55.83414077758789,-0.017409250079904678,-0.00013902895857886854,-3.133606898745082
2817926641,35443,vehicle,92.41898345947266,28.03146743774414,6.49499155148691e-05,-0.003517360349265079,-1.5523328972734862
4029506115,35443,vehicle,-2.588829517364502,178.56314086914062,-0.0003872668345846462,0.023320426770098407,1.5874011361915406
3277167701,35443,vehicle,89.49019622802734,55.09109115600586,1.0467707268701822,3.503112475778867,1.2804301420888486
518241310,35443,vehicle,-2.686509847640991,145.6682586669922,0.04425236907708982,4.3638808575961265,1.560656074628311
778540568,35443,vehicle,338.9315185546875,42.95614242553711,-4.32710408178531e-08,1.4201756230290913e-06,-1.5403369544593333
657465635,35443,vehicle,1.772315502166748,16.66124725341797,-0.0028820005631823653,-6.013741279483265,-1.5712755626330563
835227171,35443,vehicle,157.79693603515625,38.98588180541992,-0.009099177663223568,-5.369183459537086,-1.5724910293545684
715280319,35443,vehicle,92.39908599853516,161.5304412841797,-4.312770808669874e-11,-7.435343178258678e-08,-1.571376363280316
3020211281,35443,vehicle,254.17308044433594,59.60285949707031,5.929478451538034,-0.0015159511338845603,-0.0002556634809022522
2101598167,35443,vehicle,183.52915954589844,-1.9619719982147217,-4.343842950650574,-0.0005321442649318299,-3.1414701481796494
14974470,35443,vehicle,338.9898376464844,36.57738494873047,-2.243814343134311e-09,4.7409148400988214e-07,-1.5660634900636623
1398818972,35443,vehicle,223.6481170654297,133.65354919433594,5.691357972871337,-0.0011519322515627674,-0.00020240024284602211
2694688339,35443,vehicle,2.292447090148926,202.720947265625,2.348977032369094e-07,0.001105295585653861,-1.5710088470498849
3916750283,35443,vehicle,116.79842376708984,326.9374694824219,-1.5038611301000333e-06,7.176257272598984e-09,3.136820801548589
1983197581,35443,vehicle,-1.4237477779388428,5.785574436187744,-2.3505839628059406,4.972288562622976,2.01239650558771
2942851653,35443,vehicle,339.00457763671875,160.77682495117188,-0.0018986831804382138,-5.991120991252554,-1.571113242964616
3949181016,35443,vehicle,88.44046783447266,135.56455993652344,-0.06693380996870077,5.530564600444636,1.5828982634204347
3672416715,35443,vehicle,338.86444091796875,248.61297607421875,4.1535269767642226e-07,-3.1192457675933563,-1.5707961936368422
3325384226,35443,vehicle,190.0694122314453,55.8415412902832,-0.006652897663896184,2.5566697473627534e-06,3.141208359444495
1359910869,35443,vehicle,243.9740447998047,59.605995178222656,6.030990326332095,-0.0030099245315340487,-0.0004990762907529772
2262630317,35443,vehicle,81.07679748535156,331.19537353515625,0.3813693636351664,-0.016469212422400636,-0.04315759905154849
805172996,35443,vehicle,92.12051391601562,167.520263671875,-3.650875620116114e-05,-0.011764652258495932,-1.5738995752551115
1986857511,35443,vehicle,-2.459044933319092,199.39512634277344,-0.005506883183842853,2.148916579435824,1.5733589535538253
1279946346,35443,vehicle,128.8984375,2.681256055831909,0.028688166287107356,-0.0014738057995930822,-0.051328177275911595
74618890,35443,vehicle,334.7012939453125,270.5169372558594,0.0008353419361480161,5.8738870026745955,1.5706541139926864
3085549129,35443,vehicle,391.97674560546875,320.9991455078125,-5.355833346791019e-09,1.982867894744225e-08,1.8346064012170558
2057201815,35443,vehicle,293.6936340332031,198.9768524169922,5.510086881216328,-0.0012062233754008176,-0.0002189118578591587
1015694095,35443,vehicle,91.84986877441406,330.5672302246094,5.529197344869669,0.04349288159570322,0.00786587670540116
1250507297,35443,vehicle,191.73287963867188,-1.9451861381530762,-3.567876088924073,0.00028790541248411645,3.141511959808764
4280502996,35443,vehicle,60.93191146850586,331.22454833984375,4.56685634346518,-0.0006105461272396358,-0.0001336906785946551
3428459672,35443,vehicle,66.85588836669922,2.013062000274658,-2.3646050182651083e-07,1.9118680067110704e-10,-0.0008085357069480567
414519966,35443,vehicle,148.3866424560547,327.0549621582031,-0.0006530199528420687,-2.1982191074623784e-07,-3.141256030028007
2866945113,35443,vehicle,302.0826416015625,330.4564514160156,3.353236141152563,-0.0006197563889285963,-0.00018482336339685382
1853482628,35443,vehicle,46.39568328857422,2.5198090076446533,-5.0116557521274974e-08,1.224975889715348e-10,-0.0024442489884003997
3880166169,35443,vehicle,252.50115966796875,326.41986083984375,-5.559392452238216,-4.441667299823422e-06,-3.141591854641466
1073352953,35443,vehicle,344.75775146484375,-1.7907819747924805,-5.555085771754997,0.6938627416272832,3.017330356075023
213556023,35443,vehicle,134.5973358154297,327.0172119140625,4.464958950798316e-08,-8.12982069630199e-11,3.139771850352506
1628590046,35443,vehicle,33.7172966003418,2.348151445388794,0.4628092323474748,0.0008957153279193069,0.0019353853530763466
4120465129,35443,vehicle,331.9132080078125,56.13439178466797,-5.658540298035965,-1.6771244735355868,-2.853452738396997
1015227284,35443,vehicle,117.51148223876953,129.75152587890625,-0.0064239734535685945,5.645665142474339e-07,3.1415047692738205
2900396540,35443,vehicle,162.93397521972656,-1.8718830347061157,-5.364166318319125,0.0059313997383478425,3.140486909105192
3587539486,35443,vehicle,396.6076965332031,149.87295532226562,-0.0020497328050805372,-7.665951931627771,-1.5710637081683405
1146849989,35443,vehicle,334.3442077636719,168.20172119140625,0.0696278849035626,0.5879831905184411,1.4529270806349162
1457681385,35443,vehicle,395.8126525878906,10.290091514587402,-0.002994612924931906,-10.411648319647796,-1.571083948192625
1726747598,35443,vehicle,92.18325805664062,85.53089904785156,0.0008614230815710154,0.009690137107459612,-1.6594601500185777
367118466,35443,vehicle,375.0947570800781,326.35400390625,-6.324751934306322e-08,4.6346636734107136e-10,3.13426496585044
2065705843,35443,vehicle,311.215087890625,133.19998168945312,1.1243167693510426e-08,5.54814117587834e-12,0.0004934677554206829
3978545900,35443,vehicle,396.89080810546875,311.3073425292969,0.04978571193484555,-5.611709531357485,-1.5619248045716245
714679325,35443,vehicle,392.1212158203125,156.98974609375,0.00526751741909822,21.475777933711115,1.5705510496585002
3262285446,35443,vehicle,88.31588745117188,103.95867919921875,0.0010211120305726642,4.208793039431535,1.5705537128195903
1401880247,35443,vehicle,92.49676513671875,174.20469665527344,-3.368462667012976e-10,-3.5780364047554606e-07,-1.5717377542402395
2250339631,35443,vehicle,92.39317321777344,111.54768371582031,7.102518400698849e-11,2.511252616446342e-07,-1.571079154502663
2525145270,35443,vehicle,92.51754760742188,154.5819549560547,2.159280167508886e-08,-2.5258433972321482e-05,-1.5699414520849813
1825059061,35443,vehicle,313.625732421875,2.012185573577881,9.663209923729097e-07,-6.042504749054492e-10,-0.0006253102239506051
346279610,35443,vehicle,88.17512512207031,289.45233154296875,0.0017576569951272755,5.525232035495305,1.5704782122026866
893025708,35443,vehicle,395.88385009765625,139.505126953125,-0.001869703583372676,-5.821407494699284,-1.5711175040223602
1724402154,35443,vehicle,16.429956436157227,326.5305480957031,-5.584525980894856,0.0009518395163444414,3.141422211280028
2595182244,35443,vehicle,313.6766662597656,198.77235412597656,-8.486218432760264e-07,2.0986555403422777e-09,-0.002473011128173255
874453657,35443,vehicle,388.6775817871094,324.7012939453125,7.139072147802934e-08,-4.316749065783335e-08,2.597749858965257
1498616609,35443,vehicle,42.49798583984375,-1.9611631631851196,-6.0616283355004565,0.002419849728118841,3.1411934457423905
505512523,35443,vehicle,305.49810791015625,133.20278930664062,-0.4440461366128366,5.25059444950945e-05,-0.00011824434427219551
3709073522,35443,vehicle,118.92913818359375,195.5609130859375,-0.017408531139417583,-1.1418893954923495e-05,-3.1409367170133065
27029540,35443,vehicle,15.87336254119873,2.5675010681152344,6.281218978794185,-0.15817563794191514,-0.025176994393985703
1375770528,35443,vehicle,338.9190673828125,231.9881591796875,0.006964033745771124,-2.90162585932211,-1.5683962860205172
4266869573,35443,vehicle,-1.4904459714889526,162.65353393554688,0.001805024087809666,0.667954449807283,1.5680940172367932
368528135,35443,vehicle,2.612842321395874,208.08657836914062,-0.002070597161693876,-0.02817020270334893,-1.6441674800910155
4012051816,35443,vehicle,338.9678955078125,216.26974487304688,-0.001237034567304375,-2.9361476676491054,-1.571217638879347
3938307140,35443,vehicle,92.14663696289062,219.810791015625,2.049916568732215e-10,-3.714878290574101e-08,-1.5652782570162525
1966079641,35443,vehicle,51.21654510498047,331.23876953125,4.644000422192306,-0.0010017855103876376,-0.00021571606455106362
1759883367,35443,vehicle,33.09629821777344,331.1674499511719,3.2241549143497807,-0.00047397165518570615,-0.00014700647591772863
3487645883,35443,vehicle,92.42707824707031,105.2142333984375,-9.597318215672293e-10,9.220239128845239e-07,-1.5697554302828391
544848518,35443,vehicle,121.72016143798828,2.0930323600769043,-0.0059343604691128775,-1.0755601656557345e-05,0.0018124261132352222
1325658571,35443,vehicle,92.39752960205078,98.92157745361328,0.0,-0.0,-1.5706940614090374
921579549,35443,vehicle,92.29558563232422,22.447101593017578,-2.435332784446898e-07,-7.185388151886874e-05,-1.574185598756186
4072577581,35443,vehicle,92.38365936279297,233.42498779296875,-7.78328952183756e-11,-1.3369511585970438e-07,-1.571378493809188
94066344,35443,vehicle,334.482177734375,173.806396484375,2.085956782905235e-12,1.7985383727929926e-08,1.5706803461294236
2853390219,35443,vehicle,310.3385009765625,330.5134582519531,4.360276644875776,-0.000687437385695762,-0.00015765912027804557
2524564450,35443,vehicle,39.8176383972168,2.030052900314331,3.5669066398562382e-06,-4.71352816511647e-09,-0.0013214602728229927
1882516347,35443,vehicle,-2.1403822898864746,170.279296875,0.0008316155776965185,3.1383551449443217,1.5705313422664338
815178544,35443,vehicle,276.7044677734375,330.3908386230469,3.4492024303759883,-0.0008597891853384375,-0.0002492718780314167
2188308515,35443,vehicle,239.05902099609375,199.1995849609375,5.919581548317982,-0.0020115880767244405,-0.0003398192900755295
1160083145,35443,vehicle,362.9403381347656,326.56048583984375,0.4896890320213186,-0.0005581639339897418,3.1404528206432394
1832698586,35443,vehicle,127.3373794555664,326.9634094238281,-0.0013252104335076049,-6.035410207736277e-06,-3.137038381809649
3748346955,35443,vehicle,135.01873779296875,1.9186142683029175,-0.9612058772407549,0.00020785949027204984,-0.00021624866425978882
3198444053,35443,vehicle,121.48399353027344,326.880615234375,-0.026010724008285614,0.007497483134361017,2.860954064239423
808811405,35443,vehicle,338.84503173828125,207.4729461669922,-0.24801204393088186,-2.727585393142273,-1.6614742987510045
84250811,35443,vehicle,339.1642761230469,79.02832794189453,-0.016127197417186982,-3.2590335937133754,-1.5757447464163727
3956289865,35443,vehicle,2.483365535736084,309.5719909667969,-0.031119961226334314,-6.0337403766159685,-1.5759539377199985
1912328786,35443,vehicle,335.5372619628906,5.058800220489502,-2.0348378745786326,5.146809314438706,1.9472955327407233
4030311199,35443,vehicle,338.95556640625,224.67047119140625,-0.0010625777715289138,-3.7219324979343003,-1.571081817663753
3147513812,35443,vehicle,382.0475769042969,326.14154052734375,6.427026759028339e-08,-7.615339946931864e-09,3.023653233135089
1663586846,35443,vehicle,294.0733947753906,330.4092102050781,2.701329943132169,-0.00013524863290081374,-5.0067424429828346e-05
