id,timestamp_ms,agent_type,x,y,vx,vy,psi_rad
-1,16482,vehicle,392.19171142578125,55.29476547241211,0.004427499494125375,12.077716969541374,1.5704297426708471
2985032057,16482,vehicle,92.10363006591797,28.403255462646484,-0.00016275459260052318,-1.4960418851059987,-1.5709051169254262
3028941286,16482,vehicle,396.927490234375,279.4449462890625,-0.0014108514044558023,-7.419687613818835,-1.5709864764967283
2920337868,16482,vehicle,392.0103454589844,117.60237884521484,-0.0029985119526928926,20.966892028020418,1.5709393385454338
1503980471,16482,vehicle,92.19307708740234,41.19698715209961,-5.795242630201937e-09,2.86608320307435e-06,-1.5687743217372538
2125414330,16482,vehicle,395.92279052734375,10.359843254089355,-0.0024796736506148657,-5.955238779709716,-1.5712127120313304
2396446624,16482,vehicle,219.9171600341797,327.0275573730469,-5.8381084657933044,-0.0009282050591750091,-3.1414336628727155
4076155829,16482,vehicle,112.6908187866211,-1.9431343078613281,-1.9258777432910667e-06,-3.108127165116503e-10,-3.1414312660277344
130361148,16482,vehicle,92.40103149414062,262.9716796875,-0.002072447608115443,-6.898854898064216,-1.5710967313658575
3417340120,16482,vehicle,194.1494140625,330.48681640625,5.69484469449966,-0.0005672191568777726,-9.960221664164085e-05
2197730220,16482,vehicle,188.2131805419922,-1.9414910078048706,-0.43413162119214055,3.121638597516447e-05,3.141520748240361
118743835,16482,vehicle,307.33624267578125,59.33473587036133,2.134765794086714,-0.0015270514713768895,-0.0007153249387581208
904053063,16482,vehicle,178.70040893554688,55.8249397277832,6.613642026477194e-08,-1.031605615580765e-10,3.140032840139334
1291681130,16482,vehicle,178.17140197753906,195.60072326660156,-5.558773036852423,0.0002087351037493883,3.141555103018423
715062232,16482,vehicle,315.96063232421875,59.31631088256836,4.392026293303534,0.0010731394053253489,0.00024433810553586155
220877689,16482,vehicle,118.98223114013672,129.7560272216797,-3.6626426446902003,-0.0007296147215414183,-3.141393449140255
2069714320,16482,vehicle,-2.3924479484558105,294.4198913574219,-0.0041132497671335965,7.404117395374868,1.5713518621982872
3190467641,16482,vehicle,118.23407745361328,-2.3008623123168945,-0.004208394799413302,-0.00030541462512254113,-3.0691469487724765
708315452,16482,vehicle,88.7423324584961,99.75245666503906,3.552844416443793e-05,0.01190227462298007,1.5678113226870813
1314594676,16482,vehicle,88.64353942871094,172.70697021484375,1.593065566402416e-07,0.0016478951943403712,1.5706996540473268
2302084468,16482,vehicle,312.6467590332031,330.4787292480469,-0.010364485057143677,0.0011403763794098516,-0.10958650724183304
757051778,16482,vehicle,305.7271728515625,199.0560302734375,2.228082852203049,-0.0018382741712073874,-0.0008250473057065479
4203008516,16482,vehicle,153.76657104492188,34.39995193481445,0.0027874620782779766,4.823383002690495,1.5702184208383494
2631691725,16482,vehicle,314.89190673828125,199.05308532714844,4.9742113513797355,-0.006430157955903557,-0.0012926982630872997
1513387753,16482,vehicle,299.7996520996094,59.32716751098633,-1.2105418517583935e-05,1.7918271193869423e-08,-0.0014801849338660405
156273220,16482,vehicle,92.51841735839844,81.08299255371094,-0.008916058754039391,-3.40512157437561,-1.5734147467786626
3812119762,16482,vehicle,103.320068359375,55.82148361206055,-6.531647458592385,-0.07965139267759444,-3.1293985715905386
3616050434,16482,vehicle,335.41619873046875,310.716552734375,-0.0003086826767381212,5.186057081572626,1.57085584844526
2942158310,16482,vehicle,88.60688018798828,25.917118072509766,0.0,0.0,1.5706001849806122
3608800298,16482,vehicle,145.68064880371094,133.23402404785156,3.688408789232822e-08,-1.7877544925572022e-11,-0.0004846952858851307
1146464971,16482,vehicle,60.19424819946289,2.5482797622680664,-0.019366914885650868,1.64325005965998e-05,-0.0008484829282435014
3013099654,16482,vehicle,-2.4002163410186768,108.48233795166016,0.0007526873582898361,5.821406792618166,1.5706670303239731
2246582517,16482,vehicle,88.6150894165039,105.10009765625,-5.645450369453338e-12,-4.1402941134774285e-08,1.5706599729470845
3192940987,16482,vehicle,338.8897705078125,289.4942626953125,-0.001159090556179642,-5.9784492322738565,-1.5709902049222544
828836647,16482,vehicle,88.64738464355469,301.0218505859375,-0.0003016173254372987,0.26020753784179584,1.5719554676593537
1702089089,16482,vehicle,395.9676208496094,176.77542114257812,-0.00673319681624124,-6.457909411796893,-1.5718389543616627
2111029583,16482,vehicle,54.973777770996094,330.44464111328125,-0.00017624221623411746,7.584880897576627e-08,-0.0004303668321568049
420096522,16482,vehicle,134.48248291015625,129.73721313476562,-0.01993448899029976,-0.0001425722835693405,-3.1344407344823852
510102133,16482,vehicle,158.61512756347656,20.704833984375,0.0481910434427519,-5.779399228405858,-1.562458102579913
4109025732,16482,vehicle,220.14634704589844,1.8902637958526611,6.165921734171089,-0.00589179980576535,-0.0009555421341018494
2913592560,16482,vehicle,256.07098388671875,1.933651089668274,4.7649239617811086,-0.0009136628152882604,-0.00019174761474035048
3970347779,16482,vehicle,128.58526611328125,59.27493667602539,-0.010115631445460436,0.0009993284136845316,-0.09847099716168191
1933996401,16482,vehicle,387.0075988769531,-1.9943883419036865,-2.5959311050579035,-0.591534331410972,-2.917548367932479
3047764241,16482,vehicle,44.33784103393555,2.047173023223877,5.595884717144244,-0.0009627171713332018,-0.0001720402064191188
1260711767,16482,vehicle,306.5848388671875,133.41555786132812,2.1322505076640343,-0.001089141424659712,-0.0005107942645679073
3957993155,16482,vehicle,335.0718994140625,33.63330078125,-2.3483956284307197e-10,3.3560701550391334e-07,1.571496072371315
4289594148,16482,vehicle,-2.406764268875122,156.2460174560547,0.0035245601896640413,6.324729891048299,1.5702390603367975
4139896837,16482,vehicle,189.1025390625,129.4878387451172,-5.816334639148425,-0.0009959964708284922,-3.141421412331701
1686932955,16482,vehicle,175.89035034179688,-1.9625712633132935,-2.1327625187363367e-06,1.0990588421405361e-09,3.1410773319188627
1726501337,16482,vehicle,378.89556884765625,-2.388331890106201,-0.000459281163685733,-1.301668779994169e-06,-3.138758517557731
1682591593,16482,vehicle,265.8281555175781,330.45721435546875,6.899091617213694,-0.0011942704026572802,-0.00017310545460050517
3380823586,16482,vehicle,383.5440673828125,326.03961181640625,-5.924438394799872,1.079804110598064,2.961308898332443
4176583038,16482,vehicle,231.18585205078125,1.9939074516296387,5.56103349486458,-0.001602434256564612,-0.0002881540299465736
3855978784,16482,vehicle,305.56915283203125,330.5410461425781,2.29945679364409e-09,4.960748169360124e-13,0.00021573565139868049
1042098875,16482,vehicle,157.85118103027344,31.4137020111084,0.02745605290588611,-2.5765870693701878,-1.5601407529573805
644930681,16482,vehicle,88.63038635253906,165.76617431640625,1.228650113090335e-10,-4.767974971783618e-08,1.5733732014656572
2234188147,16482,vehicle,358.0130310058594,-1.9551513195037842,-5.54373864626008e-05,-4.1368368774248844e-08,-3.140846435852353
4109707537,16482,vehicle,2.6133313179016113,215.79359436035156,-0.0023972688729248107,-12.139705421260572,-1.570993800189726
3675841917,16482,vehicle,185.70974731445312,55.836360931396484,-0.0012937751224957916,-3.168172607176288e-06,-3.139143876967465
2817926641,16482,vehicle,120.85721588134766,55.75215530395508,-3.0536717966904265,0.0004952643769116783,3.1414304670794073
4029506115,16482,vehicle,-2.293367624282837,98.77284240722656,-0.0014421541278049697,6.465906459196792,1.5710193665361907
3277167701,16482,vehicle,88.64314270019531,33.231204986572266,1.5844433574070864e-07,0.0016480564296449743,1.5707001866795447
518241310,16482,vehicle,11.64217758178711,-2.0539958477020264,-5.161201712077913,0.020872065711507744,3.1375486434745077
778540568,16482,vehicle,254.42230224609375,59.324153900146484,6.856525851333434,-0.000799789442912658,-0.00011664645574547064
657465635,16482,vehicle,1.7172273397445679,127.64523315429688,0.0019273185036086688,-8.907025128700877,-1.5705799449563276
835227171,16482,vehicle,134.6495819091797,59.32780456542969,8.141231957788095e-10,1.688495709485767e-13,0.00020740051309560257
715280319,16482,vehicle,117.69229888916016,195.26893615722656,-1.7947850813495185,0.0015352727106022512,3.1407372462476597
3020211281,16482,vehicle,153.90565490722656,45.52123260498047,0.5327933104968036,6.231093034736108,1.4854982065568576
2101598167,16482,vehicle,197.03038024902344,-1.9615027904510498,-5.092118794757658,-0.002073497295298645,-3.14118545625912
14974470,16482,vehicle,283.97259521484375,59.3341064453125,5.838109013235137,-0.00019279299155367552,-3.3023191421490555e-05
1398818972,16482,vehicle,129.7509002685547,133.67733764648438,5.706490892634077,-0.0010729297107776369,-0.00018801917295959423
2694688339,16482,vehicle,2.3083696365356445,252.9282684326172,-0.004250373937613681,-14.006039928195559,-1.571099794001111
3916750283,16482,vehicle,116.79842376708984,326.9374694824219,3.017275711151362e-06,-1.4398102545642591e-08,3.136820801548589
1983197581,16482,vehicle,92.12025451660156,19.329818725585938,-0.0037610504174830557,-4.873188951625122,-1.5715681108788015
2942851653,16482,vehicle,260.7743835449219,198.76641845703125,5.537936578762194,-0.0010972821652041722,-0.00019813916884725
3949181016,16482,vehicle,88.6303482055664,112.13860321044922,-6.652664062075e-10,2.561816531793079e-07,1.5733931751738328
3672416715,16482,vehicle,338.9005432128906,308.61029052734375,-0.04631929617541815,-5.8422021528987385,-1.5787245573600626
3325384226,16482,vehicle,201.17837524414062,55.8406867980957,-8.590940920330844,-0.00501280252423982,-3.141009154994957
1359910869,16482,vehicle,154.24044799804688,26.992305755615234,-0.0016522519910746477,2.3389631634462345,1.57150273027404
2262630317,16482,vehicle,60.970550537109375,330.81072998046875,0.004232199157086511,0.0003249879734498315,0.07663898511170077
805172996,16482,vehicle,124.05194091796875,195.22569274902344,-0.5363250268874435,0.067486299494731,3.0164195549822157
1986857511,16482,vehicle,-2.3458027839660645,168.99526977539062,0.0010794756396466014,11.197133012235822,1.5706999203634358
1279946346,16482,vehicle,125.39313507080078,2.082528829574585,-0.0033746528039624137,9.260479503292654e-06,-0.002744121187217647
74618890,16482,vehicle,298.00341796875,198.75411987304688,2.208888534167869,-0.0010188708230459446,-0.0004612594682924334
3085549129,16482,vehicle,392.5235595703125,201.5370330810547,-0.004499414507304912,18.454411911820625,1.5710401391926934
2057201815,16482,vehicle,184.84786987304688,198.9749755859375,5.721865042045997,-0.0012434410843351592,-0.00021731394495046584
1015694095,16482,vehicle,66.94755554199219,330.46124267578125,0.0,-0.0,-0.00043089952939340205
1250507297,16482,vehicle,208.1842498779297,-1.9453864097595215,-5.341450051612551,-0.0013186706848183412,-3.141345778556743
4280502996,16482,vehicle,48.15370559692383,331.2244567871094,-3.6883471375982353e-06,1.1138897310285096e-09,-0.0003020024025964043
3428459672,16482,vehicle,66.85588836669922,2.0130629539489746,-1.4449553982054995e-07,1.1682982889803815e-10,-0.0008085357069480567
414519966,16482,vehicle,244.18310546875,327.04510498046875,-5.619891639892049,0.00020205013615601325,3.141556700915077
2866945113,16482,vehicle,294.2904968261719,330.4563903808594,-4.996208606828476e-06,2.2193921379443153e-09,-0.00044421523731592627
1853482628,16482,vehicle,9.035093307495117,3.0481388568878174,5.7466004432144056,-1.9284819987151005,-0.3237771051882324
3880166169,16482,vehicle,335.5135192871094,303.2547302246094,0.004338367371316311,3.634196314548203,1.5696025648362686
1073352953,16482,vehicle,372.0358581542969,-2.3772799968719482,7.060563322621937e-08,-1.469301165564796e-10,3.1395116595140053
213556023,16482,vehicle,180.5955352783203,327.0276184082031,-5.537930011636148,3.539615934372625e-05,3.141586262003177
1628590046,16482,vehicle,1.6678260564804077,78.85653686523438,-0.0008525509469431611,-5.52420085050311,-1.5709506569800666
4120465129,16482,vehicle,315.9817199707031,133.22616577148438,4.398510885957345,0.0006427692404706824,0.00014613337389873134
1015227284,16482,vehicle,201.7229461669922,129.7510528564453,-7.55603738482011,-0.0007888194373972875,-3.141488257675062
2900396540,16482,vehicle,181.6448211669922,-1.9666434526443481,-0.00132522830087526,-4.955155302904336e-06,-3.1378535754193217
3587539486,16482,vehicle,396.641357421875,260.3933410644531,-0.0011701515863540713,-4.467559184371806,-1.571058248688106
1146849989,16482,vehicle,292.9541931152344,133.25418090820312,0.6192308385081693,-0.039013415123946515,-0.0629198605589689
1457681385,16482,vehicle,395.85687255859375,163.9239959716797,-0.0032205358409847307,-11.197135462145456,-1.571083948192625
1726747598,16482,vehicle,110.2726058959961,129.87765502929688,-10.074587711106785,0.15393712244917193,3.1263140984160085
367118466,16482,vehicle,392.48345947265625,316.48968505859375,0.00116530065984378,7.040433787229354,1.5706308113331482
2065705843,16482,vehicle,240.02247619628906,133.21664428710938,5.630213259497403,-0.00011395565311527776,-2.024002428460221e-05
3978545900,16482,vehicle,334.84765625,294.9323425292969,-0.02084040108119878,4.217848313419248,1.5757372895653206
714679325,16482,vehicle,359.8796081542969,1.9287327527999878,5.787343398587469,-0.0010942964895074177,-0.00018908442114098058
3262285446,16482,vehicle,129.60597229003906,55.75016403198242,-1.122383770142231,-0.0003754295653698034,-3.1412581605568795
1401880247,16482,vehicle,135.572509765625,195.26954650878906,-5.816344175093842,-0.001000645062360951,-3.141420613383374
2250339631,16482,vehicle,156.27719116210938,129.73036193847656,-5.838102743747479,-0.0009282041494228324,-3.1414336628727155
2525145270,16482,vehicle,92.54633331298828,154.59156799316406,-5.82211642238847e-05,0.07347226071266183,-1.5700039032125435
1825059061,16482,vehicle,313.625732421875,2.0121803283691406,2.376312285545301e-06,-1.4859325611238331e-09,-0.0006253102239506051
346279610,16482,vehicle,108.32324981689453,194.99240112304688,-5.113949570701577,-0.002640776981158146,-3.141076266654427
893025708,16482,vehicle,395.9280700683594,248.42697143554688,-0.0018697032770742083,-5.821406541025016,-1.5711175040223602
1724402154,16482,vehicle,88.6167984008789,293.9112243652344,0.0012642130579970665,1.7442728468015283,1.5700715475042315
2595182244,16482,vehicle,224.9246063232422,198.7664337158203,5.537938486110789,-0.0010972825431246425,-0.00019813916884725
874453657,16482,vehicle,392.55816650390625,255.23171997070312,-0.011992978588055427,14.599727473158186,1.5716177788331316
1498616609,16482,vehicle,92.17974090576172,47.5599250793457,-6.932273670829407e-08,1.1379947723610055e-05,-1.5647047452755038
505512523,16482,vehicle,226.0876922607422,133.2194061279297,7.232713591060425,0.0012515279425905311,0.00017303712007155805
3709073522,16482,vehicle,207.55963134765625,195.56759643554688,-6.369973180724475,-0.0001577676619266802,-3.1415678861916554
27029540,16482,vehicle,1.4698529243469238,107.97905731201172,-0.0016580317720832547,-6.1277592323217505,-1.5710669039616487
1375770528,16482,vehicle,338.8968200683594,248.733642578125,0.0035519971317052755,-6.4246248916653395,-1.570243454552596
4266869573,16482,vehicle,0.7909113764762878,2.914699077606201,-3.353185292803948,4.814932971780769,2.179111321933052
368528135,16482,vehicle,2.6160495281219482,276.38092041015625,0.05329102286564691,-10.608493468322575,-1.5657729391887347
4012051816,16482,vehicle,338.9733581542969,228.75657653808594,7.650388262670434e-10,2.6900124008632233e-07,-1.5736403165229922
3938307140,16482,vehicle,92.07904815673828,225.37744140625,-0.0006499996887000362,-5.630236111313636,-1.5709117748281516
1966079641,16482,vehicle,31.89677619934082,331.2397155761719,9.15018707950103,-0.002748757511582897,-0.00030040450594235674
1759883367,16482,vehicle,-2.4133710861206055,271.2415466308594,-0.0010326494050296355,9.955154365386887,1.5709000569193552
3487645883,16482,vehicle,141.5829620361328,129.7742156982422,0.04172450147023034,3.261345334003347e-05,-3.140811015809855
544848518,16482,vehicle,92.24698638916016,35.24443435668945,1.5219922828657961e-10,1.3935580726968802e-07,-1.571888489157938
1325658571,16482,vehicle,128.4619140625,129.74879455566406,-1.0804646168987915,0.0019572445334580407,3.1397811714163213
921579549,16482,vehicle,113.57942199707031,55.8149299621582,-5.294076276323201,-0.002609721029382087,-3.1410997024720193
4072577581,16482,vehicle,92.4034194946289,281.21112060546875,-0.002078244695782886,-6.896752998031548,-1.5710976634722391
94066344,16482,vehicle,298.6883544921875,133.25888061523438,-1.3196901369643468e-06,4.128200525945416e-09,-0.003128148756332748
2853390219,16482,vehicle,299.9942932128906,330.5154724121094,-1.1691064539711661e-05,-3.5646241737899168e-09,0.0003049015811366053
2524564450,16482,vehicle,1.6117751598358154,62.19675064086914,-0.002788156020181934,-5.517442475608058,-1.5713016616117392
1882516347,16482,vehicle,-2.1497933864593506,84.35122680664062,0.002970687116399694,6.64565973642483,1.5703493152059267
815178544,16482,vehicle,221.0985107421875,330.4153747558594,5.558771464465729,-0.0012731355746107831,-0.00022903182123752382
2188308515,16482,vehicle,130.26524353027344,199.21722412109375,5.604743811883719,-0.0012776943528892465,-0.00022796658931078278
1160083145,16482,vehicle,361.7305908203125,326.5647888183594,-1.5209439467092591,0.0012690278154366282,3.1407582852202713
1832698586,16482,vehicle,140.35972595214844,326.96759033203125,-6.36997222705016,-0.0001577676383066487,-3.1415678861916554
3748346955,16482,vehicle,131.50057983398438,1.919633150100708,-0.961205881650173,0.00018635678305051884,-0.0001938781111031232
3198444053,16482,vehicle,121.8243408203125,326.8202209472656,0.5776002517697493,0.0479271951269417,-3.058805894259699
808811405,16482,vehicle,338.9325256347656,221.6395263671875,-4.702750016002278e-07,-0.0016472505432741068,-1.571081817663753
84250811,16482,vehicle,287.05859375,133.60678100585938,-0.001611532225310061,-1.1086860211825154e-05,0.006879592680744428
3956289865,16482,vehicle,88.61967468261719,309.2617492675781,0.0010041345961124082,3.191249451016807,1.5704816743121037
1912328786,16482,vehicle,365.2416687011719,-1.9526519775390625,1.240595176587504e-08,1.2475548740781574e-11,-3.1405870439621792
4030311199,16482,vehicle,338.9559631347656,235.7322540283203,-3.3221093742157394e-08,4.796887819932436e-05,-1.5701037717534214
3147513812,16482,vehicle,392.4787902832031,292.29345703125,0.0009499289730081017,11.599748572554306,1.5707144345913766
1663586846,16482,vehicle,279.18560791015625,330.410888671875,5.902575667272766,-0.0018894847645316156,-0.0003201118980089431
