id,timestamp_ms,agent_type,x,y,vx,vy,psi_rad
-1,20703,vehicle,392.2076416015625,128.74395751953125,0.005980895747847565,22.570735138974058,1.5705313422664338
2985032057,20703,vehicle,91.064453125,5.414511203765869,-0.8447937622913103,-5.627874244987218,-1.7197927329337777
3028941286,20703,vehicle,396.9176330566406,248.5702362060547,-0.0013906465336396077,-6.019353229099995,-1.571027356019461
2920337868,20703,vehicle,392.0181579589844,208.77099609375,0.006379118465805168,20.08652585778106,1.5704787448349047
1503980471,20703,vehicle,92.18767547607422,27.975988388061523,-0.0009095989216817293,-5.408528728291506,-1.570964505417735
2125414330,20703,vehicle,391.5509338378906,0.38418570160865784,0.00014400683830555523,0.0001323838788399661,-2.3982223679871035
2396446624,20703,vehicle,195.22894287109375,327.02020263671875,-5.940689086906478,9.492607215776487e-06,3.141591055693139
4076155829,20703,vehicle,112.6908187866211,-1.9353700876235962,-5.165503742515525e-06,-8.212671510101584e-10,-3.1414336628727155
130361148,20703,vehicle,92.38872528076172,233.91786193847656,-0.0020725102057695638,-6.899063275892948,-1.5710967313658575
3417340120,20703,vehicle,218.2372283935547,330.49053955078125,5.733501375920219,0.0008183771897562961,0.00014273602298860388
2197730220,20703,vehicle,188.16998291015625,-1.9401557445526123,1.2623215480774607e-06,-5.963772671349482e-10,3.141120208812413
118743835,20703,vehicle,330.0964660644531,60.19854736328125,4.810471539808154,1.1524881277229573,0.23514690437331356
904053063,20703,vehicle,178.70040893554688,55.8249397277832,-1.9396642010805305e-08,3.025516763932692e-11,3.140032840139334
1291681130,20703,vehicle,154.337890625,195.60748291015625,-5.557932339566054,0.0006438726108207748,3.1414768060823746
715062232,20703,vehicle,338.413818359375,49.53901672363281,1.1766121393716402,-6.151880443983237,-1.3818180163687104
220877689,20703,vehicle,92.85292053222656,126.72702026367188,-4.146078598475614,-4.451479248731402,-2.3206876286427542
2069714320,20703,vehicle,0.00724803889170289,327.11224365234375,3.8256064468131377,7.080054394642935,1.0754031568806541
3190467641,20703,vehicle,118.24900817871094,-2.430356979370117,-0.008122498579185544,-0.0010917798647005466,-3.0079791985394277
708315452,20703,vehicle,88.74971771240234,99.75737762451172,3.5590951111623924e-05,0.011901977343002303,1.5678059963649011
1314594676,20703,vehicle,88.64353942871094,172.71681213378906,1.5931020299747847e-07,0.0016479329129044668,1.5706996540473268
2302084468,20703,vehicle,312.63323974609375,330.3327331542969,-0.01048724917911916,0.0012979319688326545,-0.12313670415766984
757051778,20703,vehicle,327.35784912109375,199.4842071533203,5.956138505795233,0.7050426051893256,0.1178241555137741
4203008516,20703,vehicle,147.88633728027344,55.26544952392578,-5.854966297831836,2.2574403921957287,2.773596255214317
2631691725,20703,vehicle,334.50531005859375,208.56546020507812,0.861355520289923,7.363010090238227,1.454341485489857
1513387753,20703,vehicle,318.08465576171875,59.32359313964844,5.991426882776766,-0.000861631293146302,-0.00014381069886427886
156273220,20703,vehicle,92.51573181152344,80.52529907226562,3.734839609495406e-09,2.4129513548535525e-06,-1.5723441560204507
3812119762,20703,vehicle,92.87950134277344,49.32636642456055,-1.081907995912313,-4.258986508892848,-1.8195638021158522
3616050434,20703,vehicle,322.0755310058594,326.4334716796875,-5.711183178714258,0.014718556838596386,3.1390155126029233
2942158310,20703,vehicle,88.59857940673828,25.917118072509766,3.204710456614801e-10,1.6294493119400927e-06,1.5705996523483943
3608800298,20703,vehicle,150.62042236328125,133.23300170898438,6.455365560491162,-0.0011208973369029422,-0.000173638086818521
1146464971,20703,vehicle,60.19769287109375,2.548051357269287,1.4489460392004662e-07,-1.2317217293485718e-10,-0.0008500809549347115
3013099654,20703,vehicle,-2.396275043487549,132.72996520996094,0.0007526877282100056,5.821409653641092,1.5706670303239731
2246582517,20703,vehicle,88.6150894165039,105.10009765625,-2.7217853018546645e-12,-1.996119162501725e-08,1.5706599729470845
3192940987,20703,vehicle,338.8799133300781,265.50091552734375,-0.001218363979252935,-5.582524643507176,-1.5710145728462286
828836647,20703,vehicle,89.47859191894531,322.1296691894531,0.724725012916596,5.627115752120872,1.442709863112827
1702089089,20703,vehicle,396.053466796875,144.89913940429688,0.0037400731917746574,-8.329617614316291,-1.5703473178351093
2111029583,20703,vehicle,54.97275161743164,330.44464111328125,0.006708830411398085,-2.9515783880678535e-06,-0.00043995421208109015
420096522,20703,vehicle,117.3426513671875,129.7250518798828,-7.547974371768127,0.006263620005735254,3.1407628125941245
510102133,20703,vehicle,168.69888305664062,2.0848357677459717,1.3638573033857955,-0.052324568832271365,-0.03834632806502214
4109025732,20703,vehicle,244.86618041992188,1.8792272806167603,5.643160173052597,-0.0013856411515068459,-0.0002455434687599511
2913592560,20703,vehicle,281.1696472167969,1.9288420677185059,4.7649239617811086,-0.0009136628152882604,-0.00019174761474035048
3970347779,20703,vehicle,128.57208251953125,59.11867141723633,-0.010463923429550978,0.0012437724754575967,-0.11830783550200294
1933996401,20703,vehicle,385.673828125,-2.11867618560791,-9.351505453538726e-08,-1.2550566636002035e-08,-3.008180799833947
3047764241,20703,vehicle,53.265438079833984,2.046077251434326,-3.0069361518264428e-05,-1.3578383678903338e-08,0.0004515687088238799
1260711767,20703,vehicle,330.82342529296875,132.35986328125,7.17455947969613,-1.1182139607278063,-0.15461426123461924
3957993155,20703,vehicle,335.0718994140625,33.63330078125,2.8692558323820206e-10,-4.1004265847079546e-07,1.571496072371315
4289594148,20703,vehicle,-2.404005289077759,180.87283325195312,-0.0018149263569070828,2.827772511747555,1.5714381486176057
4139896837,20703,vehicle,165.0722198486328,129.48838806152344,-5.964530343230447,-0.00121993001104947,-3.141388122818075
1686932955,20703,vehicle,175.89035034179688,-1.9625680446624756,1.1352048743629649e-06,-5.849957244882992e-10,3.1410773319188627
1726501337,20703,vehicle,378.8957214355469,-2.396069049835205,7.485229378984648e-05,2.1152418044110405e-07,-3.1387667733571103
1682591593,20703,vehicle,281.6017761230469,330.4570617675781,-0.0004993731989988526,2.1118990650910868e-07,-0.0004229099485952924
3380823586,20703,vehicle,368.7730407714844,326.3265075683594,0.0008800524168674159,-2.8377876507691136e-06,3.138368098141925
4176583038,20703,vehicle,254.3294219970703,1.9871069192886353,5.555930858937889,-0.001606882447464619,-0.00028921929438260527
3855978784,20703,vehicle,305.56915283203125,330.5410461425781,-4.215696138439525e-09,-9.094749387649932e-13,0.0002157354075790006
1042098875,20703,vehicle,157.28170776367188,8.60124397277832,-0.8417326004154287,-6.210903223495017,-1.7055006126277585
644930681,20703,vehicle,88.63038635253906,165.76617431640625,2.2865234851326037e-10,-8.873223249934414e-08,1.5733732014656572
2234188147,20703,vehicle,358.01300048828125,-1.9551056623458862,-3.761050682258334e-05,-3.141107340907808e-08,-3.1407574862719443
4109707537,20703,vehicle,2.608353853225708,196.40325927734375,-8.116869661508034e-06,-0.004474206449907605,-1.5726104721294585
3675841917,20703,vehicle,183.96047973632812,55.83407211303711,-0.017412318820318146,-0.00013561246295776562,-3.1338045052979653
2817926641,20703,vehicle,105.32134246826172,55.753841400146484,1.0166559908602946,-0.0003197579662803427,3.141278134265055
4029506115,20703,vehicle,-2.3347198963165283,122.23957061767578,-0.001043102149087389,6.4420756449204655,1.5709582469891734
3277167701,20703,vehicle,88.64314270019531,33.24166488647461,1.5909157664256812e-07,0.0016479412948287979,1.5706997872053812
518241310,20703,vehicle,-2.5506415367126465,24.41846466064453,-0.08624695139528521,8.85962850443411,1.5805308463694088
778540568,20703,vehicle,281.62139892578125,59.31949234008789,5.526809621825537,-0.0008831269779071638,-0.00015978964915010896
657465635,20703,vehicle,1.716520071029663,101.9518051147461,-0.0017466244998006232,-6.008670076189679,-1.5710870108278787
835227171,20703,vehicle,134.6495819091797,59.32780456542969,4.5596059280120806e-08,9.456646225427028e-12,0.00020740051309560257
715280319,20703,vehicle,95.78694152832031,193.94908142089844,-5.008546002990573,-2.1076628503610007,-2.743273503042675
3020211281,20703,vehicle,169.60610961914062,59.596595764160156,5.9498241113908215,0.10305267339493408,0.017318557374731303
2101598167,20703,vehicle,193.7311248779297,-1.9614672660827637,-0.0,0.0,3.141123138289612
14974470,20703,vehicle,306.4079284667969,59.32686996459961,6.001098596337414,-0.0006616503430521275,-0.00011025486912928046
1398818972,20703,vehicle,140.37039184570312,133.67845153808594,3.4593632592201073,0.0017442579390825428,0.0005042135388987132
2694688339,20703,vehicle,2.293679714202881,206.3309326171875,-0.0023066905137118835,-5.281387302205462,-1.5712330852136696
3916750283,20703,vehicle,116.79842376708984,326.9374694824219,1.4476820546187515e-06,-6.908177001807213e-09,3.136820801548589
1983197581,20703,vehicle,80.75251007080078,-1.6826894283294678,-6.0752357430554875,-0.6281670957006643,-3.0385608099690256
2942851653,20703,vehicle,285.6597900390625,198.76820373535156,5.617324705408071,-0.0011788354554650516,-0.00020985709389824398
3949181016,20703,vehicle,88.6303482055664,112.13860321044922,-0.0,0.0,1.5733931751738328
3672416715,20703,vehicle,338.8777770996094,283.8927001953125,-0.001305064512472786,-5.8062013113071,-1.5710210975908994
3325384226,20703,vehicle,190.0688018798828,55.84153366088867,-0.004464810902654293,1.5731146268051981e-06,3.1412403173775756
1359910869,20703,vehicle,154.51687622070312,47.29997634887695,0.7115974090704159,6.727839671456291,1.4654190372020963
2262630317,20703,vehicle,60.95530319213867,330.9374084472656,0.00852573716448112,0.0011723952465047325,0.13665540919361643
805172996,20703,vehicle,106.73867797851562,195.3098907470703,-2.9894749629386217,0.005232272517860263,3.139842424121393
1986857511,20703,vehicle,-2.3374550342559814,188.36720275878906,3.972606325932597e-06,0.0007294069013877305,1.5653500292076301
1279946346,20703,vehicle,126.30860900878906,2.245478868484497,0.029269978627739127,-0.000686606190092739,-0.023453392375297217
74618890,20703,vehicle,316.24853515625,198.75083923339844,5.70274347600987,-0.000786703508444834,-0.00013795176072074986
3085549129,20703,vehicle,392.52490234375,271.437744140625,-0.004356731015851666,14.331359201058481,1.5711003266333292
2057201815,20703,vehicle,209.02149963378906,198.97544860839844,6.050474976272453,-0.00132129786438684,-0.00021837919313185222
1015694095,20703,vehicle,66.94755554199219,330.46124267578125,-4.662665198503139e-08,2.0091403641026447e-11,-0.00043089952939340205
1250507297,20703,vehicle,199.76278686523438,-1.9462496042251587,2.5560323887396736e-05,3.2470008498735555e-08,-3.140322325749825
4280502996,20703,vehicle,48.153709411621094,331.2244567871094,-7.087573227066819e-08,2.1404644386381306e-11,-0.00030200243510569496
3428459672,20703,vehicle,66.85588836669922,2.0130629539489746,-6.284492648231997e-09,5.081237813400684e-12,-0.0008085357069480567
414519966,20703,vehicle,220.35923767089844,327.0450439453125,-5.7685985536701665,-0.00018127994516654782,-3.1415612282889303
2866945113,20703,vehicle,294.2904968261719,330.4563903808594,4.958519150105583e-08,-2.2026499058806146e-11,-0.00044421523731592627
1853482628,20703,vehicle,33.268341064453125,2.5237534046173096,5.923854349026165,-0.0001546065363739418,-2.609897665094587e-05
3880166169,20703,vehicle,333.15325927734375,323.94635009765625,-3.287205894831919,4.328525721000078,2.2203044318841254
1073352953,20703,vehicle,372.0358581542969,-2.3772799968719482,-7.414020620109111e-08,1.5428555259529176e-10,3.1395116595140053
213556023,20703,vehicle,155.71022033691406,327.02099609375,-5.617314337789864,0.00010023074694419747,3.1415748104104897
1628590046,20703,vehicle,1.6603895425796509,54.929813385009766,-0.0008320248930569591,-5.505198892662101,-1.5709474611867587
4120465129,20703,vehicle,338.4114074707031,123.55235290527344,1.163885042580544,-6.148223126646361,-1.3837059312654676
1015227284,20703,vehicle,175.12278747558594,129.751220703125,-5.917461353146777,-0.0007060100500334152,-3.1414733439729576
2900396540,20703,vehicle,181.6448211669922,-1.9665720462799072,-0.001325228301607883,-5.0779765820772895e-06,-3.1377608974133873
3587539486,20703,vehicle,396.6335144042969,234.80540466308594,-0.0008694891514685357,-3.512508046298375,-1.5710438676182195
1146849989,20703,vehicle,307.73443603515625,133.17031860351562,4.930372358514158,-0.007108790397675415,-0.0014418354141688995
1457681385,20703,vehicle,395.8470153808594,127.4455795288086,-0.0032250219706453287,-11.212732804945126,-1.571083948192625
1726747598,20703,vehicle,92.30216217041016,112.09523010253906,0.09050132712659514,-8.004905294514433,-1.5594910748094557
367118466,20703,vehicle,375.1461486816406,326.35357666015625,-1.1985638445291678,0.008747106827382195,3.134294793254649
2065705843,20703,vehicle,264.17926025390625,133.21104431152344,6.012631600281332,-0.0018766775458890852,-0.0003121224797572867
3978545900,20703,vehicle,334.8408203125,313.8486022949219,0.0006008926124076419,5.530179944771406,1.5706876698224213
714679325,20703,vehicle,383.6941833496094,1.928346037864685,3.5059390658244363,-0.008354655577889662,-0.0023829962833285773
3262285446,20703,vehicle,113.07877349853516,55.75309371948242,-2.4922514357415126,-0.00099559011051292,-3.1411931794262813
1401880247,20703,vehicle,117.24906921386719,195.2698516845703,-4.056244365242011,0.0002560176426596957,3.1415295366719582
2250339631,20703,vehicle,137.3994140625,129.73399353027344,-4.964148514097288,-0.00026969467449630447,-3.1415383251035554
2525145270,20703,vehicle,92.5402603149414,154.58193969726562,-2.467317968238179e-08,2.845836046610596e-05,-1.5699293347020213
1825059061,20703,vehicle,313.625732421875,2.0121803283691406,3.2532071151629434e-06,-2.0342639348813796e-09,-0.0006253102239506051
346279610,20703,vehicle,88.80387115478516,205.01876831054688,-1.2931479440294662,5.9547845932913015,1.7846372433677902
893025708,20703,vehicle,395.9182434082031,224.17935180664062,-0.0018697040428203773,-5.821408925210685,-1.5711175040223602
1724402154,20703,vehicle,88.61066436767578,310.47021484375,0.0010188848610170182,4.827567946678583,1.5705852712785078
2595182244,20703,vehicle,249.80999755859375,198.76820373535156,5.617318506525151,-0.0011788341545854774,-0.00020985709389824398
874453657,20703,vehicle,392.5433654785156,306.9729309082031,-0.011018095961954482,9.00276940365456,1.5720201824738425
1498616609,20703,vehicle,92.1806640625,38.438629150390625,-0.0010646448555925005,-5.128509887814906,-1.5710039202018682
505512523,20703,vehicle,253.30807495117188,133.21453857421875,5.223377934780914,-0.001605294469879426,-0.0003073287897951441
3709073522,20703,vehicle,174.4476318359375,195.57095336914062,-6.8939577295669,-0.006666416403346608,-3.1406256597979856
27029540,20703,vehicle,1.4629724025726318,83.16950988769531,-0.0022394493712163213,-8.043031380736027,-1.5710747602868644
1375770528,20703,vehicle,338.8916320800781,241.85528564453125,-3.0083320009179068e-05,-0.011813501707816337,-1.5733428414292303
4266869573,20703,vehicle,-1.5091476440429688,37.88821029663086,0.00037482884895868353,6.159555423775891,1.5707354735639882
368528135,20703,vehicle,2.7322237491607666,230.97071838378906,0.06641761793560262,-9.453208299851203,-1.5637705083651041
4012051816,20703,vehicle,338.9733581542969,228.75657653808594,5.039845931411096e-10,1.77209934822362e-07,-1.5736403165229922
3938307140,20703,vehicle,92.14663696289062,219.810791015625,-1.2956322933001612e-08,2.3479571570682075e-06,-1.5652782570162525
1966079641,20703,vehicle,41.14830780029297,331.2388916015625,-8.378421625017516e-06,1.1602804112938083e-10,-1.3848436652496706e-05
1759883367,20703,vehicle,-2.409672975540161,306.2020568847656,0.0005795580745789452,6.298707935372922,1.5707043145792343
3487645883,20703,vehicle,127.84430694580078,129.7731475830078,-4.732075212280984,0.0001411455201453953,3.1415628261855844
544848518,20703,vehicle,92.24386596679688,16.85143280029297,-0.001522892652365839,-5.3819902172797445,-1.5710792876607176
1325658571,20703,vehicle,107.58352661132812,129.75152587890625,-5.578358929224154,0.0014856068798020817,3.1413263374807854
921579549,20703,vehicle,98.58033752441406,55.33082580566406,-3.3178979513814593,-0.3450788023697356,-3.0379600008271037
4072577581,20703,vehicle,92.39111328125,252.1591796875,-0.0020752511426735403,-6.899013207165138,-1.571097130840021
94066344,20703,vehicle,317.1022033691406,133.2616729736328,5.711766508256401,-0.0015546003570906547,-0.0002721750471514528
2853390219,20703,vehicle,299.99432373046875,330.5154724121094,-2.6382649504042226e-07,-8.045309120724538e-11,0.00030494696410635324
2524564450,20703,vehicle,1.6006147861480713,37.64369201660156,-0.0025004920586217598,-5.652731819236274,-1.5712386778519587
1882516347,20703,vehicle,-2.1463263034820557,110.1397933959961,0.0006289065867217477,5.4791278478174785,1.5706815445519142
815178544,20703,vehicle,244.93206787109375,330.4040832519531,5.557932114385536,-0.0017081124235708651,-0.00030732875728585343
2188308515,20703,vehicle,154.4098358154297,199.21339416503906,5.919285431387678,-0.002014640060536775,-0.0003403518897842547
1160083145,20703,vehicle,362.01214599609375,326.5638122558594,0.5522478104028807,-0.0005850545764375972,3.14053324810816
1832698586,20703,vehicle,127.70616912841797,326.96484375,-0.017404722202257215,-3.769779811323745e-05,-3.1394267046752318
3748346955,20703,vehicle,132.28378295898438,1.9194210767745972,-0.9612058789772531,0.00019966798277076716,-0.00020772654877153525
3198444053,20703,vehicle,121.9786376953125,326.6702575683594,-0.026532892866409287,-0.008340338264545005,-2.8370327523800043
808811405,20703,vehicle,338.92803955078125,221.6296844482422,-4.702761980786211e-07,-0.0016472547342255216,-1.571081817663753
84250811,20703,vehicle,297.89373779296875,133.5341796875,2.629521437208209,-0.014151474031768864,-0.0053817159308321245
3956289865,20703,vehicle,76.92219543457031,326.50140380859375,-5.747687503560298,0.2215041412590132,3.1030737568473232
1912328786,20703,vehicle,365.2416687011719,-1.9526530504226685,7.76125011516461e-08,7.804790468996573e-11,-3.1405870439621792
4030311199,20703,vehicle,338.9559631347656,235.7322235107422,4.842807920170554e-11,-6.992667522279438e-08,-1.5701037717534214
3147513812,20703,vehicle,388.6369934082031,324.34686279296875,-4.904831967708078,3.7101183154020854,2.493994700792424
1663586846,20703,vehicle,287.7590637207031,330.4103088378906,-2.195699379278268e-05,-2.6822832334987244e-08,0.0012216070763302084
