id,timestamp_ms,agent_type,x,y,vx,vy,psi_rad
-1,12730,vehicle,392.1834716796875,29.33173179626465,0.0020130055680495657,5.900630130721206,1.5704551758592575
2985032057,12730,vehicle,92.10367584228516,28.704078674316406,3.681789776899345e-12,-4.570210151035865e-08,-1.5707157661719218
3028941286,12730,vehicle,396.9346008300781,308.7676086425781,0.007409148793792821,-6.00688048234514,-1.5695628837360265
2920337868,12730,vehicle,392.0120544433594,54.74240493774414,-0.0025985709114551133,11.906611159001997,1.5710145728462286
1503980471,12730,vehicle,92.19200134277344,42.46123123168945,0.007554769152203421,-3.991507294860839,-1.5689036182081773
2125414330,12730,vehicle,395.9339294433594,37.39573287963867,-0.005804629962845669,-11.086476713750631,-1.5713199042652062
2396446624,12730,vehicle,241.67279052734375,327.0341491699219,-5.531260964705469,0.00016792928442601872,3.1415622935533665
4076155829,12730,vehicle,112.6908187866211,-1.946297526359558,3.9710880088683296e-06,6.546325595933945e-10,-3.1414278039183174
130361148,12730,vehicle,92.41197204589844,288.7919006347656,-0.0020882560078610856,-6.893422287304703,-1.571099261368893
3417340120,12730,vehicle,172.69651794433594,330.48333740234375,5.716792549718379,-0.0006211694196281631,-0.00010865698060255557
2197730220,12730,vehicle,206.63909912109375,-1.9468108415603638,-5.554655525523755,0.0005414216959106471,3.1414951818938963
118743835,12730,vehicle,306.79681396484375,59.33424758911133,1.1417546398984731e-08,-1.7191995132156274e-11,-0.001505751020256476
904053063,12730,vehicle,178.70364379882812,55.82490158081055,0.012826067614291723,-2.0013120599964527e-05,3.140032307507116
1291681130,12730,vehicle,199.43450927734375,195.59434509277344,-5.505702015538916,0.0001876809137532014,3.1415585651278404
715062232,12730,vehicle,313.6129455566406,59.3152961730957,1.894627250116001e-07,7.075626426489156e-10,0.0037345570384019204
220877689,12730,vehicle,121.40311431884766,129.7563018798828,0.0001979719191777224,-4.1967597150463574e-08,3.1413806659670227
2069714320,12730,vehicle,-2.3992559909820557,257.27349853515625,0.0037502711166487106,9.276698308105072,1.5703920589414226
3190467641,12730,vehicle,118.22592163085938,-2.139252185821533,-0.003777780055951351,-0.00010106508480090569,-3.1148465267621273
708315452,12730,vehicle,88.73563385009766,99.74808502197266,3.1240968625305275e-05,0.011942133422078548,1.5681803036561117
1314594676,12730,vehicle,88.64353942871094,172.69821166992188,1.5916874909590348e-07,0.0016464696887312613,1.5706996540473268
2302084468,12730,vehicle,312.65777587890625,330.6306457519531,-0.009602897236400045,0.0008101209637680903,-0.08416285627723016
757051778,12730,vehicle,305.154052734375,199.05625915527344,-0.0009018760481789602,9.972447552241116e-07,-0.0011057443545637372
4203008516,12730,vehicle,153.7655029296875,31.262548446655273,-1.9871687151002778e-12,4.115659777309021e-09,1.5712791579005279
2631691725,12730,vehicle,312.3171081542969,199.05612182617188,1.2270905416844146e-08,-3.087556024317363e-11,-0.0025161545979068643
1513387753,12730,vehicle,294.045166015625,59.330291748046875,5.931511759383333,-0.001191061397343331,-0.00020080232993732923
156273220,12730,vehicle,92.53265380859375,102.20411682128906,-0.002803605213536399,-5.920898727406692,-1.5712698368367126
3812119762,12730,vehicle,110.91465759277344,55.83747863769531,5.416563469332115e-08,-5.6301502006152146e-11,3.1405532218163352
3616050434,12730,vehicle,335.4158935546875,308.00689697265625,5.797154491731089e-12,-1.196369529543833e-08,1.5712808889552365
2942158310,12730,vehicle,88.60973358154297,25.917118072509766,1.4351734738434985e-09,7.3369431862969034e-06,1.5706007176128303
3608800298,12730,vehicle,145.68064880371094,133.23402404785156,-5.521888999125257e-07,2.676433776648079e-10,-0.0004846952858851307
1146464971,12730,vehicle,44.30475616455078,2.5441603660583496,5.9228489446587025,0.0016636744247921474,0.0002808909017573373
3013099654,12730,vehicle,-2.4037203788757324,86.9289321899414,0.0007511317326149235,5.821365784823149,1.5706672966400823
2246582517,12730,vehicle,88.6150894165039,105.10009765625,-3.499075008652116e-11,-2.5661725305967333e-07,1.5706599729470845
3192940987,12730,vehicle,338.9188537597656,311.4553527832031,-0.09760305186023535,-5.578266343093724,-1.5882915641020086
828836647,12730,vehicle,88.6478042602539,300.9924011230469,5.022292254985544e-05,-0.045695128259320615,1.5718954133767722
1702089089,12730,vehicle,395.9761962890625,193.3122100830078,-0.0014356564440458656,-3.6923274587011643,-1.5711851483140482
2111029583,12730,vehicle,54.974754333496094,330.44464111328125,7.2154050009637e-05,-3.0360941085591304e-08,-0.00042077941972322897
420096522,12730,vehicle,148.51651000976562,129.7376708984375,-6.624790834547224,0.0032304125325876127,3.1411050287941995
510102133,12730,vehicle,158.41012573242188,25.24173927307129,-0.000282866489655931,0.003916755126316655,-1.4987018929253615
4109025732,12730,vehicle,197.56236267089844,1.8987067937850952,7.519417587479962,0.0031316175570162835,0.0004164707358682994
2913592560,12730,vehicle,238.2264862060547,1.937072515487671,3.658148698314117,-0.0007014412958639151,-0.00019174761474035048
3970347779,12730,vehicle,128.59613037109375,59.4639892578125,-0.00842563453940904,0.0005189197778473593,-0.061510519871288166
1933996401,12730,vehicle,395.9356994628906,14.4182710647583,-0.001743381164170288,-5.818919874334646,-1.5710959324175304
3047764241,12730,vehicle,22.970661163330078,2.055706739425659,5.788393153487219,-0.014993072843265643,-0.0025901902161367418
1260711767,12730,vehicle,306.1383361816406,133.41566467285156,1.3499767486361632e-06,-1.4596539341360407e-09,-0.0010812433375535894
3957993155,12730,vehicle,335.0718688964844,33.62762451171875,1.4896599424157838e-05,-0.0211357533589762,1.571501132377386
4289594148,12730,vehicle,-2.4117484092712402,139.70921325683594,-0.0002778708343838512,2.8743450507319395,1.5708929995424665
4139896837,12730,vehicle,210.6204833984375,129.4875030517578,-5.695676316886763,0.000335223928815048,3.1415337977297026
1686932955,12730,vehicle,175.89035034179688,-1.962575078010559,1.387468885188124e-06,-7.149928475695411e-10,3.1410773319188627
1726501337,12730,vehicle,387.39508056640625,-2.083019733428955,-5.3916554777331935,-1.5081039450796812,-2.8688522010842714
1682591593,12730,vehicle,240.00253295898438,330.45721435546875,6.899377242667198,-0.0011943197338348149,-0.00017310543834585983
3380823586,12730,vehicle,392.4390869140625,305.96697998046875,0.0085309485985746,8.096336638673643,1.5697426471096068
4176583038,12730,vehicle,210.61122131347656,1.999955654144287,5.554656750104406,-0.0016065141311745236,-0.00028921932689189594
3855978784,12730,vehicle,305.56915283203125,330.5410461425781,-2.9188989745445726e-07,-6.297102018442585e-11,0.00021573552136151786
1042098875,12730,vehicle,157.8470916748047,32.20794677734375,1.6383422751516777e-09,-1.1272976198817918e-07,-1.5562639893585521
644930681,12730,vehicle,88.63038635253906,165.76617431640625,5.645753480538175e-12,-2.190925716383107e-09,1.5733732014656572
2234188147,12730,vehicle,358.0130310058594,-1.9546157121658325,-0.00016394608694103843,-1.1334523042197976e-07,-3.1409012969708088
4109707537,12730,vehicle,2.625295400619507,261.6337890625,-0.002537278150211137,-12.09050438006836,-1.5710061838887948
3675841917,12730,vehicle,210.32164001464844,55.83478546142578,-7.301168380927927,0.00918932788565963,3.140334043658622
2817926641,12730,vehicle,123.74258422851562,55.75363540649414,-0.938511119079062,0.0011212341973528155,3.1403979595247837
4029506115,12730,vehicle,-2.2877447605133057,77.55018615722656,-0.0022271743243871735,4.800744493757646,1.5712602494567884
3277167701,12730,vehicle,88.64314270019531,33.22190856933594,1.59096622813195e-07,0.0016479935653080546,1.5706997872053812
518241310,12730,vehicle,27.14571189880371,-2.106783866882324,-1.9416268037260533,0.00535134169188509,3.1388365481776703
778540568,12730,vehicle,232.283935546875,59.32468795776367,5.991011340548672,-0.001828445909549622,-0.0003051981959044994
657465635,12730,vehicle,1.721392273902893,173.72401428222656,-0.0001972088164362391,-15.58961105221945,-1.5708089768100744
835227171,12730,vehicle,134.6495819091797,59.32780456542969,-4.870879061913691e-08,-1.0102228311524295e-11,0.00020740051309560257
715280319,12730,vehicle,118.0025863647461,195.2687225341797,2.7403808009165476e-08,-3.2060460391112744e-11,3.1404227269229215
3020211281,12730,vehicle,153.76817321777344,37.5069694519043,1.0779261547799503e-09,-6.530924196552436e-07,1.5724468208804732
2101598167,12730,vehicle,218.39071655273438,-1.9623584747314453,-5.695661058097727,0.0003352230307458943,3.1415337977297026
14974470,12730,vehicle,262.21697998046875,59.332820892333984,5.531261784495398,-0.0012285354932387235,-0.00022210763491260847
1398818972,12730,vehicle,108.71339416503906,133.68162536621094,5.5327679671268575,-0.008151213430351063,-0.0014732603249203468
2694688339,12730,vehicle,2.3200910091400146,300.7179870605469,-0.004477568008787859,-7.374114107680213,-1.5714035275234346
3916750283,12730,vehicle,116.81704711914062,326.93701171875,0.046001462400732156,-0.00021626726899601762,3.1368913753174765
1983197581,12730,vehicle,92.12187194824219,21.969289779663086,7.8513582815194e-11,1.4228649468338564e-08,-1.5763142634154863
2942851653,12730,vehicle,238.72244262695312,198.7647247314453,6.196771617472177,0.00022901645885626694,3.6957382470942415e-05
3949181016,12730,vehicle,88.6303482055664,112.13860321044922,2.070618228910977e-10,-7.973563613554437e-08,1.5733931751738328
3672416715,12730,vehicle,347.0344543457031,326.0135498046875,-5.642176322587174,-0.5653537032435065,-3.04172464534404
3325384226,12730,vehicle,230.89251708984375,55.84402847290039,-7.755451765427106,-0.0036681537598058592,-3.141119676180195
1359910869,12730,vehicle,154.2416229248047,21.976667404174805,0.002556709846361005,4.376695363002289,1.5702121624097878
2262630317,12730,vehicle,60.97922897338867,330.6492004394531,0.0038109221591591806,0.00010870066343042399,0.028515722470617785
805172996,12730,vehicle,124.02257537841797,195.34104919433594,-0.6567270649218983,0.00862046843354064,3.1284669978412287
1986857511,12730,vehicle,-2.3477563858032227,148.6656036376953,0.0003526714811285569,3.658173782514871,1.5706999203634358
1279946346,12730,vehicle,119.65438079833984,1.9833306074142456,6.498314605397389,0.07104934599503936,0.010933067941021191
74618890,12730,vehicle,277.5040283203125,198.75469970703125,5.990771493413509,-0.0018219911469814659,-0.00030413296397775833
3085549129,12730,vehicle,392.5170593261719,129.15257263183594,0.0017150520559160833,20.18780891762753,1.570711371956123
2057201815,12730,vehicle,163.26959228515625,198.97462463378906,5.92292342160599,-0.0013029074783254923,-0.00021997708978589974
1015694095,12730,vehicle,66.94755554199219,330.46124267578125,2.3017839717854622e-08,-9.918376915939232e-12,-0.00043089952939340205
1250507297,12730,vehicle,230.02273559570312,-1.9459154605865479,-6.419980973954109,0.000608668991453402,3.141497845054986
4280502996,12730,vehicle,46.04561996459961,331.2257080078125,4.107589230422799,-0.002820118135156043,-0.0006865627339666837
3428459672,12730,vehicle,66.85529327392578,2.013071298599243,-0.002958615507575244,2.3921468022775575e-06,-0.0008085357069480567
414519966,12730,vehicle,265.3369140625,327.0453796386719,-5.696893215127726,-2.4274790951801195e-05,-3.141588392532049
2866945113,12730,vehicle,290.2092590332031,330.45635986328125,5.104949371960184,-0.001022366681263209,-0.00020026969771931339
1853482628,12730,vehicle,1.7234854698181152,20.72053337097168,-0.0011725036312651234,-5.717761396352252,-1.5710013901988327
3880166169,12730,vehicle,335.50592041015625,286.89141845703125,0.0010754472848344186,5.554657355149384,1.570602714983648
1073352953,12730,vehicle,372.0358581542969,-2.3772807121276855,1.5739090057913897e-06,-3.2753000448177483e-09,3.1395116595140053
213556023,12730,vehicle,202.64747619628906,327.03363037109375,-6.196769551449672,-0.0014209079420699218,-3.141363355419937
1628590046,12730,vehicle,1.6739214658737183,100.20675659179688,-0.002902240550248489,-6.054292936885241,-1.571275695791111
4120465129,12730,vehicle,313.6098937988281,133.22540283203125,1.5947277652362626e-07,5.945331572382916e-10,0.003728099652981454
1015227284,12730,vehicle,230.89251708984375,129.7540740966797,-7.755450811752896,-0.0036681533087394684,-3.141119676180195
2900396540,12730,vehicle,181.6448211669922,-1.966707706451416,-0.0013252379150960182,-4.842251402518907e-06,-3.1379387965742045
3587539486,12730,vehicle,396.6470642089844,281.38543701171875,-0.0024831280571938077,-9.480414065371162,-1.571058248688106
1146849989,12730,vehicle,285.3787536621094,133.10336303710938,7.013844259250362,0.0040762054528399065,0.0005811655981021271
1457681385,12730,vehicle,395.86248779296875,184.25355529785156,-0.0010521625322861604,-3.658150998437526,-1.571083948192625
1726747598,12730,vehicle,115.29910278320312,129.6690216064453,-0.028513549518697192,0.0023124694546737797,3.0606690417583184
367118466,12730,vehicle,392.4776611328125,281.4669189453125,0.0016153677951764606,11.675847895458096,1.570657975576267
2065705843,12730,vehicle,218.5232391357422,133.22157287597656,5.803698528271012,-0.00036476587446488247,-6.285058953488603e-05
3978545900,12730,vehicle,334.85064697265625,274.7599792480469,0.0005233182476305877,5.813688254645037,1.570706311950052
714679325,12730,vehicle,338.5851745605469,1.9688329696655273,5.931465655717686,-0.0234167754307689,-0.003947869739859137
3262285446,12730,vehicle,144.8376007080078,55.749393463134766,-5.915109274874023,-0.024539991063014584,-3.137443981243668
1401880247,12730,vehicle,157.0906219482422,195.26856994628906,-5.695665826469301,0.0003352233113925048,3.1415337977297026
2250339631,12730,vehicle,178.03285217285156,129.73590087890625,-5.53125858042945,0.00017087533856993063,3.141561760921148
2525145270,12730,vehicle,92.55319213867188,171.69102478027344,-0.0015952679035096562,-5.6967466028093305,-1.5710763581835183
1825059061,12730,vehicle,310.9824523925781,2.0123257637023926,6.8993781963415,-0.0011943198989210245,-0.00017310543834585983
346279610,12730,vehicle,110.9823226928711,194.9922637939453,-2.872835421076777e-06,1.3533641823852002e-08,3.136881787937552
893025708,12730,vehicle,395.93682861328125,269.98040771484375,-0.0018689144852734754,-5.821364102769038,-1.5711173708643056
1724402154,12730,vehicle,88.61521911621094,274.8371887207031,-0.0009225242455113026,6.071901251330038,1.5709482601350857
2595182244,12730,vehicle,202.8726348876953,198.76473999023438,6.196774955312472,0.00022955196810113174,3.704377997450713e-05
874453657,12730,vehicle,392.5349426269531,196.86892700195312,0.0010732050515628207,13.12643809699703,1.5707145677494312
1498616609,12730,vehicle,92.15516662597656,52.93848419189453,0.026940153982836907,-5.285559663125794,-1.5656994359426484
505512523,12730,vehicle,196.70835876464844,133.221923828125,5.5378114918816275,-0.0017107776287599965,-0.000308926653939901
3709073522,12730,vehicle,237.43161010742188,195.5646209716797,-7.301168380927927,0.00918932788565963,3.140334043658622
27029540,12730,vehicle,1.4764379262924194,131.65240478515625,-0.0034231182940987807,-11.951269613224724,-1.5710827497701345
1375770528,12730,vehicle,338.90545654296875,279.4088134765625,0.004323982948472279,-7.5029012618088355,-1.5702200187350035
4266869573,12730,vehicle,19.294456481933594,-2.05722975730896,-3.658092021940971,2.922626501580885e-06,3.141591854641466
368528135,12730,vehicle,2.7823431491851807,314.0545349121094,-0.5180461931925221,-3.867639180782283,-1.7039475902380787
4012051816,12730,vehicle,338.9733581542969,228.75657653808594,2.2896121746470014e-10,8.05068309149837e-08,-1.5736403165229922
3938307140,12730,vehicle,92.08600616455078,246.87664794921875,-0.0009211897055401964,-5.803705619183618,-1.5709550511958654
1966079641,12730,vehicle,9.02933406829834,331.0672607421875,5.693662284897359,0.8583194018724546,0.14962333090424262
1759883367,12730,vehicle,-2.4164955615997314,236.8634490966797,0.0021642729853732457,8.729008406316336,1.5705483864974101
3487645883,12730,vehicle,159.73214721679688,129.77420043945312,-5.811743293509624,0.0040288221651881085,3.1408994327580455
544848518,12730,vehicle,92.24696350097656,35.24491500854492,2.6742847291192245e-06,0.00244801671388567,-1.571888755474047
1325658571,12730,vehicle,128.57786560058594,129.74827575683594,1.3749531272249578e-07,-1.5954128472451534e-10,3.1404323143028456
921579549,12730,vehicle,117.53841400146484,55.82167434692383,-2.1744535104773914e-05,-2.0679381487535533e-08,-3.1406416387645257
4072577581,12730,vehicle,92.41702270507812,306.9687194824219,-0.01657827983655776,-6.834679524530635,-1.5732219339157407
94066344,12730,vehicle,296.0162353515625,133.26263427734375,3.5410510616698123,-0.0122840735949092,-0.0034690333758628906
2853390219,12730,vehicle,299.21142578125,330.5170593261719,2.12499546529464,-0.0014306471626015181,-0.0006732470585534501
2524564450,12730,vehicle,1.6221380233764648,83.96586608886719,-0.0006201561592850033,-6.040588347072127,-1.5708989916549192
1882516347,12730,vehicle,-2.161593198776245,49.73731994628906,0.003438099699953823,12.935716172133272,1.5705305433181067
815178544,12730,vehicle,199.83544921875,330.4255065917969,5.505698063639901,-0.0012433852712890414,-0.00022583607669336472
2188308515,12730,vehicle,108.74565887451172,199.2406005859375,5.640422517672443,-0.07391528811980724,-0.013103815747031282
1160083145,12730,vehicle,390.51385498046875,323.8905334472656,-4.13967099476472,5.4790079668185445,2.217840741559693
1832698586,12730,vehicle,170.2316131591797,326.9646301269531,-7.301168380927927,0.00918932788565963,3.140334043658622
3748346955,12730,vehicle,130.8043975830078,1.9198046922683716,-0.9594669809815525,0.00015689021043962305,-0.00016351809093086522
3198444053,12730,vehicle,130.8185577392578,327.0967102050781,-7.52629859145523,-0.004527882668511586,-3.140991045499544
808811405,12730,vehicle,338.93658447265625,221.6482696533203,-4.702879302139777e-07,-0.001647295828832452,-1.571081817663753
84250811,12730,vehicle,260.3708801269531,133.53271484375,2.9491757758809807,-0.010149146308797648,-0.0034413365005260665
3956289865,12730,vehicle,88.6192398071289,306.89337158203125,7.303211881136091e-11,6.976996488487214e-08,1.5697495713284408
1912328786,12730,vehicle,365.2416687011719,-1.9526509046554565,1.388062828942736e-08,1.395849815036004e-11,-3.1405870439621792
4030311199,12730,vehicle,338.95654296875,243.5797576904297,-0.0016419526520906446,-5.813698536748827,-1.5710787550284995
3147513812,12730,vehicle,392.47308349609375,244.27114868164062,0.002980814988819532,14.650222475073795,1.5705928612876146
1663586846,12730,vehicle,257.6632080078125,330.42401123046875,5.915169760163917,-0.0022621378902980306,-0.00038242990002608794
