id,timestamp_ms,agent_type,x,y,vx,vy,psi_rad
-1,37989,vehicle,392.2198791503906,306.496337890625,2.7669704060301977e-11,-1.2922633333612288e-07,1.571010444946539
2985032057,37989,vehicle,-2.037336826324463,6.982743263244629,-1.661347638249984,5.46656033055724,1.865837291320415
3028941286,37989,vehicle,396.8807373046875,148.2433319091797,-0.0012314297806016025,-4.92694743979862,-1.5710462644632006
2920337868,37989,vehicle,392.0353088378906,314.20721435546875,-2.0370736442394217e-11,-5.178795658017672e-08,1.570402977901892
1503980471,37989,vehicle,115.45919036865234,2.032989025115967,-0.0006279873503131726,6.325137982686705e-07,-0.001007207524267968
2125414330,37989,vehicle,363.5970764160156,-1.6005522012710571,-6.106928759270926,-0.0035292308990832306,-3.141014747633246
2396446624,37989,vehicle,141.33572387695312,327.0087585449219,2.3765453282107246e-07,-2.84430925532943e-10,3.1403958289959117
4076155829,37989,vehicle,75.18822479248047,-1.9617414474487305,-5.684735556531538,-0.0015760080973527438,-3.141315418520316
130361148,37989,vehicle,92.38613891601562,226.82598876953125,-4.1136267237801046e-11,-6.909597002388664e-08,-1.5713916764565838
3417340120,37989,vehicle,277.1895446777344,330.500732421875,4.422916613733811,0.0015609758307869154,0.00035292905164178355
2197730220,37989,vehicle,162.63661193847656,-1.4684276580810547,-5.521911708817293,0.5734902495574918,3.038106474687058
118743835,37989,vehicle,334.71221923828125,108.75579071044922,0.0,0.0,1.5686996200686771
904053063,37989,vehicle,178.70040893554688,55.8249397277832,-4.096978390763345e-08,6.390527182911004e-11,3.140032840139334
1291681130,37989,vehicle,113.09465789794922,195.61886596679688,1.1753366843059396e-07,4.582192598754913e-10,-3.1376940520700263
715062232,37989,vehicle,338.9866638183594,22.499813079833984,-3.9526643679606467e-10,1.6702650056006884e-07,-1.5684298418502522
220877689,37989,vehicle,92.90682220458984,91.65225219726562,1.0681711764776359e-07,0.00019743609321215755,-1.5713373479703463
2069714320,37989,vehicle,53.23579406738281,331.17510986328125,5.460986434261441,-0.001401992226378934,-0.0002567287453382839
3190467641,37989,vehicle,86.33916473388672,-2.2218940258026123,-6.789729371130785,0.21319158372441727,3.1102038380337924
708315452,37989,vehicle,88.6310806274414,130.02505493164062,-0.14440779501299772,6.793138713700943,1.592051015454819
1314594676,37989,vehicle,90.44658660888672,195.96241760253906,2.0513387834979597,3.0373644995426883,0.9767938917241267
2302084468,37989,vehicle,379.14697265625,330.75250244140625,6.810868786315003,0.0650226100556194,0.009546599229796119
757051778,37989,vehicle,334.7029724121094,296.4064636230469,-0.003331912045713496,3.9467237236442583,1.5716405488604517
4203008516,37989,vehicle,112.88423919677734,55.693016052246094,-3.7620410258616894e-08,-8.93990028540514e-11,-3.1392163149491155
2631691725,37989,vehicle,334.7257995605469,304.8191833496094,2.587669837948465e-07,-0.006915683387594117,1.5708337442082123
1513387753,37989,vehicle,339.01324462890625,29.555875778198242,-7.039187057941009e-10,2.2452949158623896e-07,-1.5676612535596552
156273220,37989,vehicle,92.51573181152344,80.52529907226562,-2.775829945342861e-10,-1.7933682106265984e-07,-1.5723441560204507
3812119762,37989,vehicle,109.21378326416016,2.0951437950134277,0.47424797183011674,-0.0022473962975116234,-0.004738827803389696
3616050434,37989,vehicle,221.93186950683594,326.40875244140625,-6.097272391849689,-0.00022733226035935187,-3.141555369334532
2942158310,37989,vehicle,90.42076110839844,56.174560546875,2.5662180561269863,3.792161175201829,0.9758683766662969
3608800298,37989,vehicle,271.576171875,133.20376586914062,6.9362563047671975,-0.0012007039256019647,-0.00017310547085515047
1146464971,37989,vehicle,60.19769287109375,2.5480518341064453,2.9450928468487564e-07,-2.5035679426780763e-10,-0.0008500809549347115
3013099654,37989,vehicle,-2.357098340988159,191.70516967773438,0.0011165046319418681,3.457652388552841,1.5704734185127245
2246582517,37989,vehicle,97.548583984375,133.46189880371094,6.273804623348445,1.0558215619154308,0.16672818208506268
3192940987,37989,vehicle,338.8694763183594,231.97360229492188,-0.0014786863640857634,-3.445468585285148,-1.5712254952045628
828836647,37989,vehicle,267.5577392578125,330.79779052734375,4.051030460362214,0.0022989226017056915,0.0005674907600457882
1702089089,37989,vehicle,395.7057800292969,8.083980560302734,-0.9169691930364071,-5.800633073973957,-1.7275798159611695
2111029583,37989,vehicle,83.21531677246094,330.1897888183594,6.609263382516344,-0.4408241546380557,-0.06659928392102236
420096522,37989,vehicle,88.090576171875,178.6237335205078,-0.000608519518735264,4.0766315006035985,1.5709455969739956
510102133,37989,vehicle,270.37841796875,1.8554795980453491,4.7594823106517685,-0.0008340325720644158,-0.00017523598347256856
4109025732,37989,vehicle,297.7369079589844,1.639426827430725,0.00689092796026861,-0.002186349020894609,-0.3072330491539557
2913592560,37989,vehicle,308.860595703125,1.672493815422058,0.0016461298498387437,-3.1564144937062477e-07,-0.00019174759848570515
3970347779,37989,vehicle,157.65457153320312,35.87283706665039,-0.07636492105830005,-3.2596711344389164,-1.594219228056307
1933996401,37989,vehicle,353.1302185058594,-2.272679328918457,-5.611017217454536,0.0003302412446977161,3.1415337977297026
3047764241,37989,vehicle,53.26544952392578,2.0460774898529053,1.3441343555538403e-08,6.069690566798227e-12,0.0004515687088238799
1260711767,37989,vehicle,330.61529541015625,56.0186767578125,-5.7215657408942855,-1.3792149582463151,-2.905049886620628
3957993155,37989,vehicle,335.0718994140625,33.63330078125,3.8040539725288357e-10,-5.436337834563769e-07,1.571496072371315
4289594148,37989,vehicle,-2.4004368782043457,198.97560119628906,0.000532552367392137,3.254190639788438,1.5706326755459112
4139896837,37989,vehicle,112.17839813232422,129.49009704589844,3.3555391658067395e-08,-4.6102613995385306e-11,3.140218728783421
1686932955,37989,vehicle,136.10362243652344,-1.963808298110962,-6.097225188710812,-7.794188582916874e-05,-3.1415798704165607
1726501337,37989,vehicle,341.6794738769531,-1.3614578247070312,-5.904225140687905,0.8058456860968365,3.005944543466607
1682591593,37989,vehicle,295.0387268066406,330.4570617675781,3.7072209397470193,-0.0008234020885656778,-0.00022210763491260847
3380823586,37989,vehicle,368.77252197265625,326.3265380859375,-1.19270168624638e-08,3.8462636887900463e-11,3.1383678318258164
4176583038,37989,vehicle,302.4993591308594,1.9665971994400024,9.226868659754892e-08,-4.850637908850661e-11,-0.000525707869144479
3855978784,37989,vehicle,338.599365234375,319.6593933105469,0.3617397422705856,-5.56127943400285,-1.5058416946498094
1042098875,37989,vehicle,97.54691314697266,-1.9561688899993896,-5.670610402687619,-0.0023860764798907365,-3.1411718741375605
644930681,37989,vehicle,88.60669708251953,186.84207153320312,-0.0296521237166936,3.4229205400778833,1.5794589240306518
2234188147,37989,vehicle,335.15179443359375,26.41896629333496,1.5713699926307834e-05,-0.008782952936963824,1.5725854384152118
4109707537,37989,vehicle,2.606738328933716,192.0426788330078,-0.000406953728877971,-4.575105649015076,-1.5708852763753052
3675841917,37989,vehicle,183.96047973632812,55.83414840698242,-0.01744312568166836,-0.00013990342535832984,-3.1335722776509107
2817926641,37989,vehicle,92.52152252197266,28.03434181213379,0.00013821807947150973,-0.003779668180383993,-1.5342437750432865
4029506115,37989,vehicle,-2.5298848152160645,186.49205017089844,0.006882587846689695,4.122781253842665,1.5691269242655803
3277167701,37989,vehicle,98.80873107910156,59.256160736083984,5.15075120328183,0.22872377311571532,0.04437675258669473
518241310,37989,vehicle,-2.734464645385742,162.19100952148438,-0.02453759001224579,3.387769529180708,1.5780391928535307
778540568,37989,vehicle,338.9315185546875,42.95614242553711,1.531328274482834e-08,-5.025890399609812e-07,-1.5403369544593333
657465635,37989,vehicle,5.826196670532227,4.368100643157959,4.567126020955584,-3.924741576776587,-0.709894949911639
835227171,37989,vehicle,157.7900848388672,24.408056259155273,-0.0010904509390620974,-4.267403463278465,-1.5710518571014898
715280319,37989,vehicle,92.39908599853516,161.5304412841797,-2.2193056867620846e-11,-3.826147998721596e-08,-1.571376363280316
3020211281,37989,vehicle,268.8078918457031,59.59992599487305,5.700048871328444,-0.0007711514490286585,-0.00013528856712137998
2101598167,37989,vehicle,171.88217163085938,-1.9626212120056152,-5.2003927104243735,-0.0003628564688010508,-3.141522878769233
14974470,37989,vehicle,338.9898681640625,36.57738494873047,-1.4014811346951924e-09,2.961164202343838e-07,-1.5660634900636623
1398818972,37989,vehicle,238.04861450195312,133.6493682861328,5.537186439384713,-0.001424504062598344,-0.0002572613450470091
2694688339,37989,vehicle,2.292065382003784,201.021728515625,-0.0005695096397942323,-3.1634206259207365,-1.570976356484586
3916750283,37989,vehicle,116.79842376708984,326.9374694824219,-1.4730867945672392e-06,7.029405582136099e-09,3.136820801548589
1983197581,37989,vehicle,-2.111891031265259,20.613338470458984,-0.008935791387209041,5.833327601804855,1.5723281770539101
2942851653,37989,vehicle,339.00457763671875,145.79519653320312,-0.0018906169791768589,-5.826135328617529,-1.5711208329737227
3949181016,37989,vehicle,88.3433837890625,150.02891540527344,-0.0036190793663565817,5.6270849987554925,1.5714394801981508
3672416715,37989,vehicle,338.86151123046875,240.3202362060547,-0.0009374677181263013,-3.2852369401414934,-1.5710816845056985
3325384226,37989,vehicle,190.0695343017578,55.8415412902832,-0.007053245253482194,2.751845638193762e-06,3.1412025004900967
1359910869,37989,vehicle,258.6374816894531,59.60631561279297,6.402636234014616,-0.007662835336685753,-0.001196824463844447
2262630317,37989,vehicle,93.61193084716797,330.86907958984375,4.84892387023091,-0.11660006647866758,-0.02404195305679933
805172996,37989,vehicle,92.11827850341797,167.51878356933594,-3.688948533501187e-05,-0.011761172563912712,-1.5739328647687374
1986857511,37989,vehicle,-2.48103928565979,207.44740295410156,0.00033204093891263733,2.7371954716513285,1.5706750198072434
1279946346,37989,vehicle,129.3508758544922,2.770540952682495,-0.5453495465117821,0.025812181954420216,-0.04729614722434242
74618890,37989,vehicle,334.70263671875,285.3218688964844,-3.633640422318284e-05,5.685036659124599,1.5708027183815128
3085549129,37989,vehicle,391.97674560546875,320.9991455078125,-1.437720965850622e-09,5.322814509331097e-09,1.8346064012170558
2057201815,37989,vehicle,306.36151123046875,198.97398376464844,1.35960625381076,-0.0017177322015225417,-0.001263403491096428
1015694095,37989,vehicle,106.355712890625,330.64849853515625,5.701906431505271,0.0059558764624849155,0.0010445408685579593
1250507297,37989,vehicle,181.3872833251953,-1.9434362649917603,-3.4307361867243538,-0.0008944734659916214,-3.1413319301190743
4280502996,37989,vehicle,73.02885437011719,331.22454833984375,4.18199483940454,-0.0007952050813583567,-0.0001901497018316576
3428459672,37989,vehicle,66.85588836669922,2.0130608081817627,0.0,-0.0,-0.0008085357069480567
414519966,37989,vehicle,148.38682556152344,327.0597229003906,6.9872890625426e-06,2.335338769699833e-09,-3.141258426872988
2866945113,37989,vehicle,313.3193664550781,330.4564514160156,5.055225302511374,-0.0008400836777526066,-0.00016618125202094445
1853482628,37989,vehicle,46.39568328857422,2.5198092460632324,-9.326939070838538e-08,2.279740678870678e-10,-0.0024442489884003997
3880166169,37989,vehicle,238.42654418945312,326.41986083984375,-5.555771827664458,1.923468996362649e-05,3.141589191480376
1073352953,37989,vehicle,335.3521728515625,7.305607318878174,-0.7847057487375432,5.722046292868827,1.707083462421647
213556023,37989,vehicle,134.5973358154297,327.0172119140625,3.885541442517957e-08,-7.074814255587644e-11,3.139771850352506
1628590046,37989,vehicle,33.7442626953125,2.3478176593780518,-5.32424097576756e-06,-1.0386015369683354e-08,0.0019507010000503915
4120465129,37989,vehicle,317.0317687988281,55.68068313598633,-6.117788045791135,-0.003867876831562876,-3.1409604191470084
1015227284,37989,vehicle,117.5121841430664,129.75152587890625,-0.006808445758834077,6.400591722450269e-07,3.1414986440033132
2900396540,37989,vehicle,146.7078857421875,-1.940024495124817,-6.846791327256515,-0.025664627568776396,-3.1378442543555067
3587539486,37989,vehicle,396.60382080078125,137.14166259765625,-0.0019772123780165377,-7.626405936474753,-1.5710555855270159
1146849989,37989,vehicle,334.0067443847656,168.27737426757812,-0.0005290358679398465,-0.005195026754001328,1.4693111139771926
1457681385,37989,vehicle,388.7170104980469,-2.9300990104675293,-5.013377045698309,-2.409212707242808,-2.6936201960986925
1726747598,37989,vehicle,92.08136749267578,85.5379409790039,0.0010399482199473986,0.010158037898837726,-1.6728177670980882
367118466,37989,vehicle,375.0947570800781,326.35400390625,6.197546883537684e-08,-4.541450115947067e-10,3.13426496585044
2065705843,37989,vehicle,311.215087890625,133.19998168945312,2.1362521593047647e-08,1.0541716436319726e-11,0.0004934677554206829
3978545900,37989,vehicle,396.905029296875,295.0115966796875,-0.0037247521020574974,-9.709271670183286,-1.5711799551499226
714679325,37989,vehicle,392.1251525878906,213.24673461914062,0.00037507654406417594,22.534215924002496,1.5707796820380835
3262285446,37989,vehicle,88.31952667236328,116.98666381835938,0.0030512801122784335,5.632920869289876,1.5702546398291746
1401880247,37989,vehicle,92.49676513671875,174.20469665527344,-1.4512187662365655e-10,-1.5415084239194668e-07,-1.5717377542402395
2250339631,37989,vehicle,92.39317321777344,111.54768371582031,2.5295066940302092e-11,8.943630900099991e-08,-1.571079154502663
2525145270,37989,vehicle,92.509033203125,154.58193969726562,-2.8048473357470128e-08,3.289200581170448e-05,-1.5699435826138533
1825059061,37989,vehicle,313.625732421875,2.0121867656707764,1.158725127350908e-06,-7.245627633187822e-10,-0.0006253102239506051
346279610,37989,vehicle,88.17613983154297,304.050048828125,0.0017584009189019125,5.525257784466449,1.5704780790446322
893025708,37989,vehicle,395.8779296875,124.87958526611328,-0.0018697038896711435,-5.821408448373551,-1.5711175040223602
1724402154,37989,vehicle,4.046933174133301,321.8702087402344,-3.630370606394373,-5.64640605995906,-2.142201240805099
2595182244,37989,vehicle,313.6766662597656,198.77235412597656,-9.84605472809129e-09,2.4349452549857325e-11,-0.002473011128173255
874453657,37989,vehicle,388.6775817871094,324.7012939453125,-2.817885594421395e-06,1.703877584560678e-06,2.597749858965257
1498616609,37989,vehicle,27.475431442260742,-1.958360195159912,-6.0652627805085855,0.0004118956825053583,3.1415247429819964
505512523,37989,vehicle,305.5188903808594,133.2028045654297,-0.44404804658898206,2.0576741958812864e-05,-4.6338998903717414e-05
3709073522,37989,vehicle,118.92913818359375,195.56092834472656,-0.01740856867842633,-1.3611833929958053e-05,-3.140810749493746
27029540,37989,vehicle,27.77762222290039,2.5258259773254395,-0.001021633435412915,-2.4196272052318355e-06,0.0023683863480359704
1375770528,37989,vehicle,338.92498779296875,223.3959503173828,0.004364338457019233,-3.641329772472626,-1.5695977711463065
4266869573,37989,vehicle,-1.5183783769607544,170.93597412109375,-0.015550195455732167,4.262490994980411,1.5744444580141417
368528135,37989,vehicle,2.535548686981201,207.6840362548828,-0.26140655080469133,-3.7204748046047196,-1.6409426583270388
4012051816,37989,vehicle,338.95233154296875,207.44056701660156,-0.021062440608326745,-4.249729891080296,-1.575752469583534
3938307140,37989,vehicle,92.14663696289062,219.810791015625,4.3830273573060604e-10,-7.942963838142267e-08,-1.5652782570162525
1966079641,37989,vehicle,62.82830810546875,331.2375183105469,5.050088778460553,-0.0010248289671223152,-0.00020293285880939262
1759883367,37989,vehicle,43.25645065307617,331.1674499511719,4.807174174843341,-0.0005453770187887683,-0.00011345064618273023
3487645883,37989,vehicle,92.42707824707031,105.2142333984375,-2.0266889718802502e-10,1.9470602662746468e-07,-1.5697554302828391
544848518,37989,vehicle,122.09159088134766,2.0941574573516846,-0.0007729764557138809,-2.5206778605577407e-06,0.003260990560457263
1325658571,37989,vehicle,92.39752960205078,98.92157745361328,-3.2158078464897498e-12,3.144571164780618e-08,-1.5706940614090374
921579549,37989,vehicle,92.29102325439453,22.44719123840332,-2.410054426870007e-07,-7.116676653038867e-05,-1.5741828024370415
4072577581,37989,vehicle,92.38365936279297,233.42498779296875,-1.33918565914016e-10,-2.3003459058545726e-07,-1.571378493809188
94066344,37989,vehicle,334.482177734375,173.806396484375,-3.277335796680918e-10,-2.8257604563835817e-06,1.5706803461294236
2853390219,37989,vehicle,322.9384460449219,330.5103759765625,5.5570485965815575,-0.0014947310921112121,-0.0002689793026072937
2524564450,37989,vehicle,39.81764221191406,2.0300536155700684,-3.6674236045512164e-09,4.846357418023659e-12,-0.0013214602728229927
1882516347,37989,vehicle,-2.1395294666290283,177.79446411132812,0.00017059315115838518,3.578583236442896,1.5707486562113842
815178544,37989,vehicle,286.27093505859375,330.3873291015625,3.590420224301452,-0.00039586128437302243,-0.0001102548610019578
2188308515,37989,vehicle,253.8286590576172,199.19691467285156,5.811057688629667,-0.002033517744626515,-0.00034993933472712125
1160083145,37989,vehicle,363.0965881347656,326.5599670410156,0.5438945321637486,-0.000621252808271001,3.1404504237982582
1832698586,37989,vehicle,127.3373794555664,326.96343994140625,-0.0013252112003841216,-6.071412810684443e-06,-3.13701121756653
3748346955,37989,vehicle,135.4911346435547,1.9184751510620117,-0.9612058772407549,0.00020785949027204984,-0.00021624866425978882
3198444053,37989,vehicle,121.56929779052734,327.2210388183594,-0.02975326670611454,0.010377416984883439,2.8060029309389463
808811405,37989,vehicle,336.6063537597656,198.44371032714844,-2.2149178434040064,-2.9198007609653858,-2.2197694028211283
84250811,37989,vehicle,338.9778137207031,60.43792724609375,-0.02420671851105383,-8.376594853142038,-1.5736861228937415
3956289865,37989,vehicle,2.4692869186401367,293.6455078125,-0.0018826999349295555,-8.48160532082949,-1.5710183012717547
1912328786,37989,vehicle,335.1355285644531,18.402822494506836,0.000998533618528953,2.445812021509831,1.5703880641997874
4030311199,37989,vehicle,338.9538269042969,216.0630645751953,-0.0008336605013960747,-3.0215655607305525,-1.5710722302838287
3147513812,37989,vehicle,382.0475769042969,326.14154052734375,1.1426462904274279e-07,-1.3539137562298007e-08,3.023653233135089
1663586846,37989,vehicle,303.92254638671875,330.4058837890625,4.957376387139059,-0.0032213593554476986,-0.0006498112409607528
