id,timestamp_ms,agent_type,x,y,vx,vy,psi_rad
-1,16147,vehicle,392.19091796875,51.49658966064453,0.004177467826497113,10.623856676845895,1.5704031110599463
2985032057,16147,vehicle,92.10380554199219,28.697816848754883,7.747056018103734e-06,-0.08311343156948797,-1.5707031161567437
3028941286,16147,vehicle,396.92828369140625,282.2078857421875,-0.0020841511549515917,-8.778300037928926,-1.5710337476060772
2920337868,16147,vehicle,392.0104064941406,110.75019073486328,-0.000890098758179196,20.073657969767737,1.5708406684270464
1503980471,16147,vehicle,92.19307708740234,41.19698715209961,-6.135019330557118e-09,3.034122464900749e-06,-1.5687743217372538
2125414330,16147,vehicle,395.9234924316406,12.395294189453125,-0.0016875012813479466,-6.116273647211136,-1.5710722302838287
2396446624,16147,vehicle,221.78445434570312,327.0281677246094,-5.564736363707375,0.00016894559875942948,3.1415622935533665
4076155829,16147,vehicle,112.6908187866211,-1.9400763511657715,7.031386211854818e-06,1.134778288477714e-09,-3.1414312660277344
130361148,16147,vehicle,92.40200805664062,265.2775573730469,-0.0020724264079945965,-6.898784326167987,-1.5710967313658575
3417340120,16147,vehicle,192.2198028564453,330.4866027832031,5.895724695584895,0.0009579327821149178,0.00016247922403884164
2197730220,16147,vehicle,188.9304962158203,-1.9417872428894043,-2.762260425886993,-0.00024790880987345793,-3.1415029050610577
118743835,16147,vehicle,306.85308837890625,59.33468246459961,0.6215031832965916,-0.0008097062442451988,-0.0013028184052667634
904053063,16147,vehicle,178.70040893554688,55.8249397277832,2.0497909524989053e-09,-3.1972940913629407e-12,3.140032840139334
1291681130,16147,vehicle,180.0479278564453,195.60018920898438,-5.717080038840752,0.0009409362241904736,3.141428070234426
715062232,16147,vehicle,314.715087890625,59.31624221801758,3.0008566648160366,0.004767968100361169,0.0015888676536994686
220877689,16147,vehicle,120.2625732421875,129.75619506835938,-3.0103422536419977,-0.0007984958439564334,-3.141327402745221
2069714320,16147,vehicle,-2.3933393955230713,291.155029296875,0.003608304824197827,9.27375341789928,1.570407238959636
3190467641,16147,vehicle,118.23299407958984,-2.2865874767303467,-0.004186391396709128,-0.00028130208506187555,-3.0744991036152087
708315452,16147,vehicle,88.74174499511719,99.75206756591797,3.5500641253902194e-05,0.011902517782212838,1.5678137195320623
1314594676,16147,vehicle,88.64353942871094,172.70619201660156,1.5930211123558552e-07,0.0016478492102884642,1.5706996540473268
2302084468,16147,vehicle,312.6477966308594,330.4913330078125,-0.010335955402043812,0.0011200899912015537,-0.10794705695240187
757051778,16147,vehicle,305.2204895019531,199.05625915527344,0.6809493138557987,-0.0007137850465552279,-0.0010482201400366068
4203008516,16147,vehicle,153.76593017578125,32.9686279296875,0.001204041224870197,3.6212237263749456,1.5704638311328003
2631691725,16147,vehicle,313.4770812988281,199.05462646484375,3.418328527267617,-0.006381603086664043,-0.0018668760541827086
1513387753,16147,vehicle,299.7996520996094,59.32716751098633,-3.938970308410306e-05,5.830408251281299e-08,-0.001480184803828878
156273220,16147,vehicle,92.52046966552734,82.67030334472656,-0.0029883336057174156,-5.905790049767325,-1.5713023274020117
3812119762,16147,vehicle,105.28665924072266,55.8388557434082,-5.09384566971966,0.0013335114454125455,3.1413308648546385
3616050434,16147,vehicle,335.4162292480469,309.2464904785156,0.0002504750366366594,3.535781136223989,1.5707254867099005
2942158310,16147,vehicle,88.60301208496094,25.917118072509766,-7.084404588943102e-10,-3.6045375267833237e-06,1.5705997855064489
3608800298,16147,vehicle,145.68064880371094,133.23402404785156,7.509092198617137e-08,-3.6396218749647493e-11,-0.0004846952858851307
1146464971,16147,vehicle,60.18589401245117,2.5484185218811035,-0.03521035938679379,2.8618870206149963e-05,-0.0008127966996736022
3013099654,16147,vehicle,-2.400529146194458,106.55792999267578,0.0007503616108292402,5.821404885569764,1.5706674297981367
2246582517,16147,vehicle,88.6150894165039,105.10009765625,-1.9139358602247006e-11,-1.403653713535172e-07,1.5706599729470845
3192940987,16147,vehicle,338.8905334472656,291.5015869140625,-0.0004835569461578982,-6.1342077064656095,-1.5708751563631629
828836647,16147,vehicle,88.64752960205078,300.9998474121094,7.199607076097732e-10,-6.524448970043557e-07,1.571899807592571
1702089089,16147,vehicle,395.9691467285156,178.8029022216797,-0.004883972637930281,-5.682107256953083,-1.5716558620367196
2111029583,16147,vehicle,54.973934173583984,330.44464111328125,0.006608488362043284,-2.8335146939160868e-06,-0.00042876893550275734
420096522,16147,vehicle,134.3514404296875,129.73695373535156,0.44979005867229194,0.0020585425961453406,-3.137016011256492
510102133,16147,vehicle,158.5992889404297,22.52939224243164,0.15667909296015087,-6.766028925164659,-1.5476437363841293
4109025732,16147,vehicle,218.46432495117188,1.8920921087265015,4.29577635368611,-0.006081690607199443,-0.0014157363054489605
2913592560,16147,vehicle,254.1602020263672,1.934017300605774,10.412379072349928,-0.002002094674879647,-0.000192280230703721
3970347779,16147,vehicle,128.58624267578125,59.28861999511719,-0.010048194523048332,0.0009688552583085815,-0.09612367865450766
1933996401,16147,vehicle,388.2884826660156,-1.7629454135894775,-4.343248779618754,-1.716458826352731,-2.765229668333724
3047764241,16147,vehicle,42.50083923339844,2.0475404262542725,5.597488402557283,-9.24234711935848e-05,-1.6511596726660613e-05
1260711767,16147,vehicle,306.15594482421875,133.41566467285156,0.22535248878622602,-0.00019180796517460588,-0.0008511462193707432
3957993155,16147,vehicle,335.0718994140625,33.63330078125,5.67030191523286e-10,-8.103375256447189e-07,1.571496072371315
4289594148,16147,vehicle,-2.4080047607421875,154.15855407714844,0.005112411251681829,6.023462033302637,1.5699475773554883
4139896837,16147,vehicle,191.05386352539062,129.48782348632812,-5.965722912938168,-0.0012201739282555195,-3.141388122818075
1686932955,16147,vehicle,175.89035034179688,-1.9625712633132935,-3.4497697891892614e-08,1.7777412894541198e-11,3.1410773319188627
1726501337,16147,vehicle,378.8952941894531,-2.3882269859313965,-0.0001951222816957809,-5.532643929730842e-07,-3.1387571859771857
1682591593,16147,vehicle,263.5223083496094,330.45721435546875,6.899096385585205,-0.0011942712280884065,-0.00017310545460050517
3380823586,16147,vehicle,385.55224609375,325.6956481933594,-5.898240378035735,2.0982520886242657,2.79981161403673
4176583038,16147,vehicle,229.3471221923828,1.9944480657577515,5.564281221378845,-0.0016418982252914026,-0.00029507821627148894
3855978784,16147,vehicle,305.56915283203125,330.5410461425781,6.919699763140408e-09,1.492825959044029e-12,0.00021573565139868049
1042098875,16147,vehicle,157.84788513183594,32.045894622802734,0.015359427302899369,-1.121374804290493,-1.5571002219408372
644930681,16147,vehicle,88.63038635253906,165.76617431640625,-5.69597158741813e-10,2.2104136628849583e-07,1.5733732014656572
2234188147,16147,vehicle,358.01300048828125,-1.955182433128357,-5.424840104305689e-05,-4.00621568995824e-08,-3.140854159019514
4109707537,16147,vehicle,2.614398241043091,219.88609313964844,-0.002468116176314517,-12.035868391654201,-1.5710013901988327
3675841917,16147,vehicle,186.505615234375,55.83586883544922,-4.426697395264103,-0.003378730423609742,-3.1408293916213763
2817926641,16147,vehicle,122.00244140625,55.75202178955078,-2.874873486411952,0.0009340626802328763,3.1412677479368036
4029506115,16147,vehicle,-2.293085813522339,97.25572967529297,-0.0034348767996050856,8.00604746567302,1.5712253620465084
3277167701,16147,vehicle,88.64314270019531,33.23037338256836,1.5835508927783694e-07,0.0016471281338730163,1.5707001866795447
518241310,16147,vehicle,12.78940200805664,-2.0774941444396973,-6.956192386997476,-0.018253178518679247,-3.138968640967738
778540568,16147,vehicle,252.19601440429688,59.32442855834961,6.361141174616242,-0.0006200311683939805,-9.747168776957746e-05
657465635,16147,vehicle,1.7183140516281128,130.93948364257812,-0.004487795512851131,-10.389263137465788,-1.5712282915237075
835227171,16147,vehicle,134.6495819091797,59.32780456542969,-4.787643956008723e-08,-9.929598272326499e-12,0.00020740051309560257
715280319,16147,vehicle,117.99986267089844,195.26870727539062,-0.0559558328601557,6.290111389946011e-05,3.140468533293671
3020211281,16147,vehicle,153.77061462402344,43.45242691040039,0.004865607741238578,6.279444239980325,1.570021480075738
2101598167,16147,vehicle,198.82415771484375,-1.9618582725524902,-5.965739602238356,-0.001220177341731014,-3.141388122818075
14974470,16147,vehicle,282.1053161621094,59.33393478393555,5.564732891152713,-0.0012359696816985348,-0.00022210763491260847
1398818972,16147,vehicle,127.88582611083984,133.67784118652344,5.562002977333319,-0.0013272009133175442,-0.00023861923367109975
2694688339,16147,vehicle,2.3096296787261963,258.0272521972656,-0.00360512850524565,-15.356809192923116,-1.571031084444987
3916750283,16147,vehicle,116.79842376708984,326.9374694824219,-2.3674950742255915e-06,1.1297421952200838e-08,3.136820801548589
1983197581,16147,vehicle,92.120849609375,20.71503448486328,-0.008206440066063655,-3.3465027324144967,-1.5732485655266415
2942851653,16147,vehicle,258.89678955078125,198.76622009277344,5.673632012268534,-0.001226915547725355,-0.00021624869676907947
3949181016,16147,vehicle,88.6303482055664,112.13860321044922,2.7733319108860175e-10,-1.0679582602042701e-07,1.5733931751738328
3672416715,16147,vehicle,338.91424560546875,310.5914306640625,-0.09640878510232251,-6.001702884262426,-1.586858517119437
3325384226,16147,vehicle,203.9474639892578,55.84098434448242,-6.131028172723229,-0.00017960707244167617,-3.1415633588178022
1359910869,16147,vehicle,154.24078369140625,26.63433837890625,-0.001088684320741801,2.7574637171236454,1.5711911404265009
2262630317,16147,vehicle,60.97167205810547,330.7967224121094,0.0041987569999861266,0.0002991738596163637,0.07113274143277222
805172996,16147,vehicle,124.02210998535156,195.27281188964844,-0.5556816732210028,0.0663881885627747,3.0226846414466273
1986857511,16147,vehicle,-2.346079111099243,166.10885620117188,0.001076043231027528,11.161529489146881,1.5706999203634358
1279946346,16147,vehicle,125.39244842529297,2.07997465133667,-0.0028183691959106603,1.3915700898602606e-06,-0.0004937500661006907
74618890,16147,vehicle,296.9429626464844,198.75445556640625,4.456182295537172,-0.0012816934157188068,-0.0002876213977285577
3085549129,16147,vehicle,392.524169921875,195.3980255126953,-0.0014782560057447353,18.62670129632164,1.570875688995381
2057201815,16147,vehicle,182.89361572265625,198.9749755859375,6.00892958124605,-0.0013346289642474766,-0.00022210760240331783
1015694095,16147,vehicle,66.94755554199219,330.46124267578125,4.860548418816184e-07,-2.0944081558877358e-10,-0.00043089952939340205
1250507297,16147,vehicle,209.96514892578125,-1.9450395107269287,-5.651988907592387,-0.0009242024443690579,-3.1414291354988624
4280502996,16147,vehicle,48.15370559692383,331.2244567871094,-6.473510598346783e-06,1.9550158133700487e-09,-0.0003020024025964043
3428459672,16147,vehicle,66.85588836669922,2.0130629539489746,-2.8061298771712997e-07,2.268856698433337e-10,-0.0008085357069480567
414519966,16147,vehicle,246.04090881347656,327.04510498046875,-5.59427737869722,0.0001892104654670339,3.141558831443949
2866945113,16147,vehicle,294.2904968261719,330.4563903808594,-2.08981198128961e-05,9.283263183372544e-09,-0.00044421520480663566
1853482628,16147,vehicle,7.174752235412598,3.624099016189575,4.52531173237934,-2.785886695007815,-0.5518279835475162
3880166169,16147,vehicle,335.51177978515625,302.142578125,0.005380299755443677,2.8350628821585366,1.5688985582021062
1073352953,16147,vehicle,372.0358581542969,-2.3772799968719482,-3.902394395567111e-09,8.120871341142567e-12,3.1395116595140053
213556023,16147,vehicle,182.47311401367188,327.0281982421875,-5.673628328490543,0.00014052101172663456,3.1415678861916554
1628590046,16147,vehicle,1.6682533025741577,80.7212142944336,-0.0015183754215008498,-5.681517398121621,-1.5710635750102862
4120465129,16147,vehicle,314.7333984375,133.22616577148438,3.0120640016880795,0.004305973516076595,0.0014295747302558522
1015227284,16147,vehicle,204.14480590820312,129.751220703125,-6.592810942669636,-0.001474848301051247,-3.1413689480582265
2900396540,16147,vehicle,181.6448211669922,-1.9666500091552734,-0.0013252385901656688,-4.943193907100284e-06,-3.137862630167028
3587539486,16147,vehicle,396.6413879394531,261.04705810546875,-0.002361058218845626,-8.674777663308554,-1.5710685018583026
1146849989,16147,vehicle,292.9581298828125,133.24224853515625,0.6147451152779609,-0.03223613872680083,-0.05239023343506759
1457681385,16147,vehicle,395.8576354980469,166.81040954589844,-0.00321029578030057,-11.161532894038007,-1.571083948192625
1726747598,16147,vehicle,112.49571990966797,129.8292999267578,-3.544763618094703,0.14394129938032868,3.1010082091058577
367118466,16147,vehicle,392.48297119140625,314.1482238769531,0.0021904530459042493,6.87709964199967,1.570477812728523
2065705843,16147,vehicle,238.1291961669922,133.21702575683594,5.803791511321565,-0.0003678630048623259,-6.338322175290187e-05
3978545900,16147,vehicle,334.85247802734375,293.6123352050781,-0.02644681567336158,3.4026317412081952,1.5785686292782384
714679325,16147,vehicle,357.9996337890625,1.9287484884262085,5.534819355876886,-0.0016538411937733473,-0.0002988067068161812
3262285446,16147,vehicle,129.80050659179688,55.75067901611328,0.07424686993040379,2.9877212384049216e-05,-3.1411902499490822
1401880247,16147,vehicle,137.5238800048828,195.26942443847656,-5.965733403355429,-0.0012201760738686875,-3.141388122818075
2250339631,16147,vehicle,158.1444854736328,129.7309112548828,-5.564731118498638,0.00016894543951470107,3.1415622935533665
2525145270,16147,vehicle,92.54706573486328,154.60069274902344,0.0001465986972724366,-0.1794226315746146,-1.5699792689724603
1825059061,16147,vehicle,313.625732421875,2.0121803283691406,-1.896457858796852e-06,1.1858746429612335e-09,-0.0006253102239506051
346279610,16147,vehicle,109.77430725097656,194.9925537109375,-3.4910559936294177,0.003622207751383881,3.1405550860290985
893025708,16147,vehicle,395.9288635253906,250.35137939453125,-0.0018697032770742083,-5.821406541025016,-1.5711175040223602
1724402154,16147,vehicle,88.61659240722656,293.1568908691406,0.0018710358926174887,2.243889743842181,1.569962491057593
2595182244,16147,vehicle,223.04702758789062,198.76625061035156,5.673636303802877,-0.001226916383541128,-0.00021624868051443413
874453657,16147,vehicle,392.5579528808594,250.16407775878906,-0.0009910787826867347,15.505989996708518,1.5708602426610585
1498616609,16147,vehicle,92.17974090576172,47.559940338134766,-3.0418978976853253e-07,4.9935476728051114e-05,-1.5647047452755038
505512523,16147,vehicle,223.6388397216797,133.21971130371094,8.369078098080115,0.0030011036900703058,0.00035859428317697227
3709073522,16147,vehicle,209.83059692382812,195.56802368164062,-8.341488423258351,0.009299088742782069,3.140477854357486
27029540,16147,vehicle,1.4704101085662842,109.9898910522461,-0.0021486336337168898,-7.821601572555507,-1.5710710318613383
1375770528,16147,vehicle,338.89739990234375,251.9954071044922,0.005100836742307439,-6.531393920364999,-1.570015354805231
4266869573,16147,vehicle,2.529567003250122,0.7951785326004028,-5.00328075332443,3.027157384937085,2.597479548114614
368528135,16147,vehicle,2.6019976139068604,280.6051940917969,0.07027020168377239,-11.75388025692989,-1.5648179296218323
4012051816,16147,vehicle,338.9733581542969,228.75657653808594,-9.258050200350958e-10,-3.255294893760761e-07,-1.5736403165229922
3938307140,16147,vehicle,92.07958984375,227.27072143554688,-0.0009212082485347308,-5.803822444285906,-1.5709550511958654
1966079641,16147,vehicle,29.10564422607422,331.2404479980469,7.343135743707365,-0.0011498900688375812,-0.0001565938720966592
1759883367,16147,vehicle,-2.4134013652801514,268.1201477050781,0.0002210609176380077,8.691828724911026,1.5707708936064864
3487645883,16147,vehicle,141.86317443847656,129.77490234375,-2.05951356724733,-0.0017183933758773712,-3.1407582852202713
544848518,16147,vehicle,92.24698638916016,35.24443435668945,8.704439317802208e-11,7.969910108074434e-08,-1.571888489157938
1325658571,16147,vehicle,128.57786560058594,129.74827575683594,-8.273123456875597e-08,9.599634481056058e-11,3.1404323143028456
921579549,16147,vehicle,115.1697998046875,55.815311431884766,-4.162092301006393,-0.0026779726298272687,-3.14094923387043
4072577581,16147,vehicle,92.4043960571289,283.5161437988281,-0.0020780041611958666,-6.8959547726649575,-1.5710976634722391
94066344,16147,vehicle,298.6883544921875,133.25888061523438,-8.970161383802911e-06,2.8060090702512292e-08,-0.003128148756332748
2853390219,16147,vehicle,299.9942932128906,330.5154724121094,-4.2620742371343586e-05,-1.2995132140935947e-08,0.0003049015811366053
2524564450,16147,vehicle,1.6129508018493652,64.08319854736328,-0.0022166524588947325,-5.7462120549056985,-1.5711820856787946
1882516347,16147,vehicle,-2.15073299407959,82.1181411743164,0.007418362768603267,6.5067663819739066,1.5696562275322337
815178544,16147,vehicle,219.22203063964844,330.4161682128906,5.717079754402466,-0.0020341272812442962,-0.0003557982891252956
2188308515,16147,vehicle,128.38877868652344,199.21742248535156,5.725018736023193,-0.0016649339143795351,-0.0002908171910366528
1160083145,16147,vehicle,364.32867431640625,326.56500244140625,-7.192631720980073,8.619811621049392e-05,3.141580669364888
1832698586,16147,vehicle,142.63070678710938,326.968017578125,-8.341486515910903,0.009299086616471719,3.140477854357486
3748346955,16147,vehicle,131.4384307861328,1.9196497201919556,-0.961205882045027,0.00018430892179130528,-0.00019174759848570515
3198444053,16147,vehicle,121.847412109375,326.8451232910156,0.5413530430261396,0.03823410657025361,-3.0710828005688553
808811405,16147,vehicle,338.9328918457031,221.6403045654297,-4.7027550013289167e-07,-0.001647252289503863,-1.571081817663753
84250811,16147,vehicle,286.4962158203125,133.58689880371094,2.779272538656058,0.005027730174169937,0.0018090074362304281
3956289865,16147,vehicle,88.61943817138672,308.2086181640625,0.001368889489073308,3.208547061734087,1.5703696883882658
1912328786,16147,vehicle,365.2416687011719,-1.9526519775390625,1.9550376313659725e-08,1.9660053271574218e-11,-3.1405870439621792
4030311199,16147,vehicle,338.9559631347656,235.7322998046875,-1.2092266403490853e-07,0.00017460365957992264,-1.5701037717534214
3147513812,16147,vehicle,392.4787292480469,288.25982666015625,-0.0007134873390013121,12.013898828300837,1.5708557152872054
1663586846,16147,vehicle,277.2189636230469,330.4120178222656,5.894234638407883,-0.002417383581020446,-0.00041012677536291203
