id,timestamp_ms,agent_type,x,y,vx,vy,psi_rad
-1,31490,vehicle,392.21990966796875,305.92352294921875,-0.00039472999935889443,3.177247499741545,1.5709205632597487
2985032057,31490,vehicle,30.90005874633789,-1.9644578695297241,-5.990663983796583,0.000507340483780269,3.1415079650671287
3028941286,31490,vehicle,396.895263671875,186.8728790283203,-0.0010836480236138374,-4.5111187586995705,-1.5710365439252216
2920337868,31490,vehicle,392.0353088378906,314.20721435546875,-2.3622368321313777e-09,-6.005448985139176e-06,1.570402977901892
1503980471,31490,vehicle,114.96377563476562,2.0320870876312256,-7.287534917802315e-06,1.261512175920136e-09,-0.00017310547085515047
2125414330,31490,vehicle,391.5230407714844,0.36280035972595215,-0.32411929029477404,-0.2964597228219054,-2.400735593107811
2396446624,31490,vehicle,141.3361053466797,327.0087585449219,0.001012628871276774,-1.211939716274975e-06,3.1403958289959117
4076155829,31490,vehicle,111.50668334960938,-1.9157166481018066,-2.952912463641723,-0.0018543506792771595,-3.1409646802047524
130361148,31490,vehicle,92.38613891601562,226.82598876953125,-9.787923889717725e-11,-1.6440628698039643e-07,-1.5713916764565838
3417340120,31490,vehicle,268.4901428222656,330.4994201660156,-0.00016084226144467793,2.1588790938537264e-07,-0.0013422329293256109
2197730220,31490,vehicle,188.00210571289062,-1.9400784969329834,-0.7054778289864362,0.0003013597154230884,3.1411654825509445
118743835,31490,vehicle,334.71221923828125,108.75570678710938,-4.2580424969064125e-07,-0.00020308210986074972,1.5686996200686771
904053063,31490,vehicle,178.70040893554688,55.8249397277832,1.4852970992107171e-08,-2.3167882722067374e-11,3.140032840139334
1291681130,31490,vehicle,113.09465789794922,195.61886596679688,3.0881216809027546e-06,1.2039416874530096e-08,-3.1376940520700263
715062232,31490,vehicle,338.9866638183594,22.499813079833984,-5.532079836428558e-10,2.3376736547310602e-07,-1.5684298418502522
220877689,31490,vehicle,92.90670013427734,91.65042877197266,1.1027798661020917e-07,0.0002099831473612869,-1.5713215021618603
2069714320,31490,vehicle,34.900634765625,331.1800231933594,0.01743652818570407,2.1642264531318163e-05,0.0012412019862511445
3190467641,31490,vehicle,118.06092834472656,-2.741375684738159,-1.0752007678845517,-0.16438342994125707,-2.9898811547195763
708315452,31490,vehicle,88.76858520507812,99.76995849609375,3.5590953896582006e-05,0.011901978274320714,1.5678059963649011
1314594676,31490,vehicle,88.59749603271484,174.55825805664062,0.007846049058608015,2.139837424212457,1.5671296866060755
2302084468,31490,vehicle,316.8771667480469,329.9957275390625,6.241221849440804,-0.020574017677564022,-0.003296460797300081
757051778,31490,vehicle,334.7005310058594,259.7906494140625,-8.721710138283404e-05,5.848118781393092,1.570811240497001
4203008516,31490,vehicle,112.88423919677734,55.693016052246094,-7.47085793256543e-09,-1.775332180176453e-11,-3.1392163149491155
2631691725,31490,vehicle,334.72576904296875,272.51702880859375,0.0006629594248835006,6.0202426545369265,1.5706862050838217
1513387753,31490,vehicle,339.01324462890625,29.555877685546875,-2.2292258340028534e-08,7.110578807178003e-06,-1.5676612535596552
156273220,31490,vehicle,92.51573181152344,80.52529907226562,7.745703095359216e-10,5.004232238172467e-07,-1.5723441560204507
3812119762,31490,vehicle,108.06095123291016,2.0987143516540527,2.645419065183514,-0.01933089966787771,-0.007307180878810764
3616050434,31490,vehicle,259.6539611816406,326.4201354980469,-5.864305972553665,7.652619828691107e-05,3.141579604100452
2942158310,31490,vehicle,88.58406829833984,32.506431579589844,0.0004408082626418065,2.261211590715922,1.5706013834031027
3608800298,31490,vehicle,226.84251403808594,133.2151336669922,6.936353102708881,-0.0012007205691074423,-0.00017310545460050517
1146464971,31490,vehicle,60.19769287109375,2.5480518341064453,4.3351390356842083e-07,-3.685220018922106e-10,-0.0008500809549347115
3013099654,31490,vehicle,-2.3787319660186768,175.9596405029297,-6.70818748784309e-08,-9.582960609305233e-05,1.5700963149023692
2246582517,31490,vehicle,88.61460876464844,105.21393585205078,-8.407641704326812e-05,0.9217564425270994,1.5708875400622317
3192940987,31490,vehicle,338.87249755859375,248.6110076904297,-1.9458971703721005e-11,-1.697854429958319e-08,-1.5719424181700121
828836647,31490,vehicle,198.20123291015625,330.75982666015625,19.387326174021748,-0.025123934822203226,-0.0012958940563953948
1702089089,31490,vehicle,396.0196838378906,52.071258544921875,-0.0004836690814764224,-8.427594170996333,-1.5708537179163877
2111029583,31490,vehicle,54.98189926147461,330.44464111328125,0.14591816172840158,-6.357554818131601e-05,-0.00043569315433696337
420096522,31490,vehicle,88.0892562866211,159.91363525390625,-2.3597091826353082e-05,0.017438598775737547,1.5721494789447659
510102133,31490,vehicle,233.09962463378906,1.8624976873397827,4.649349143841168,-0.0007998749187389862,-0.00017204019016447346
4109025732,31490,vehicle,297.7718505859375,1.892533540725708,-0.5960612942421972,0.012554437518683627,-0.021059212635910585
2913592560,31490,vehicle,308.8454284667969,1.6725707054138184,0.0016497753999534558,-2.9261491191016046e-07,-0.00017736651234463193
3970347779,31490,vehicle,137.9779815673828,58.75347900390625,4.93170467168177,0.05005404092426971,0.010149091572750709
1933996401,31490,vehicle,384.75732421875,-2.165052652359009,-2.8432366784198275,-0.2548133447753978,-3.052210575820118
3047764241,31490,vehicle,53.26544952392578,2.046077251434326,-1.3484784357616439e-08,-6.089307951797969e-12,0.00045156877384246126
1260711767,31490,vehicle,338.9930419921875,87.18038177490234,4.123228322589427e-05,-1.0714504710846875,-1.570757844117145
3957993155,31490,vehicle,335.0718994140625,33.63330078125,1.770801030075359e-10,-2.5306351347280204e-07,1.571496072371315
4289594148,31490,vehicle,-2.404228687286377,181.4108123779297,-1.0207575156422568e-09,1.0728840298700482e-06,1.5717477410943275
4139896837,31490,vehicle,112.17880249023438,129.49008178710938,0.0012348450241276275,-1.696585278204948e-06,3.140218728783421
1686932955,31490,vehicle,174.1779327392578,-1.962430477142334,-4.203162192796926,6.492344844633061e-05,3.141577207255471
1726501337,31490,vehicle,376.1959533691406,-2.4165608882904053,-4.39971892436271,-0.005285613530077233,-3.1403913016220586
1682591593,31490,vehicle,281.6020202636719,330.4570617675781,-6.226592728596967e-08,2.633288167765109e-11,-0.0004229099485952924
3380823586,31490,vehicle,368.77252197265625,326.3265380859375,-2.195967802181093e-08,7.081629309893043e-11,3.1383678318258164
4176583038,31490,vehicle,302.49908447265625,1.9666117429733276,0.00222858313346729,-1.1727711759903214e-06,-0.0005262406639089481
3855978784,31490,vehicle,305.9616394042969,330.5418701171875,1.814074393857129,0.0009363423210596488,0.0005161542663731795
1042098875,31490,vehicle,125.58846282958984,-1.9531060457229614,1.879354305680523e-07,-2.163672511837616e-10,3.140441369050552
644930681,31490,vehicle,88.6302719116211,165.78836059570312,-0.0005514540933485138,0.27099490681817145,1.5728312481838262
2234188147,31490,vehicle,343.27252197265625,-1.4259839057922363,-8.010206406987521,0.6981690982584755,3.0546524282236116
4109707537,31490,vehicle,2.608670711517334,196.4036865234375,-0.0,-0.0,-1.5725841068346669
3675841917,31490,vehicle,183.96047973632812,55.83412170410156,-0.017441021532205874,-0.0001384140456790559,-3.133656699857466
2817926641,31490,vehicle,92.28205871582031,28.02968978881836,5.483271395055686e-06,-0.0010196427296570176,-1.5654187387637541
4029506115,31490,vehicle,-2.46966552734375,171.5218505859375,0.05309966576961008,-0.6198810661595251,1.6562487772181056
3277167701,31490,vehicle,88.63487243652344,41.36885070800781,0.006271264892414074,2.1426872031956217,1.5678695127568996
518241310,31490,vehicle,-2.735004425048828,112.3028564453125,-0.049199159541176686,6.93091478311145,1.5778947163643937
778540568,31490,vehicle,338.8558044433594,45.53350830078125,0.3341238415951335,-3.9058670499401646,-1.485459990195215
657465635,31490,vehicle,1.7829357385635376,39.51535415649414,-0.0015853999646592636,-5.584498657251745,-1.571080219767099
835227171,31490,vehicle,148.48281860351562,59.053157806396484,5.885093850563176,-0.30803499324344413,-0.05229383948717433
715280319,31490,vehicle,92.39908599853516,161.5304412841797,1.0942098534919444e-09,1.8864498325274963e-06,-1.571376363280316
3020211281,31490,vehicle,231.4432830810547,59.60762023925781,5.959185335194127,-0.0017774703501974058,-0.00029827404208887466
2101598167,31490,vehicle,193.7311248779297,-1.9614672660827637,-1.061498718496482e-07,4.9838992607923595e-11,3.141123138289612
14974470,31490,vehicle,338.9898681640625,36.57748031616211,-6.358708426916289e-07,0.00013434822310514393,-1.5660633569056077
1398818972,31490,vehicle,201.33901977539062,133.6601104736328,5.777975924474586,-0.001135610753520233,-0.00019654127219320247
2694688339,31490,vehicle,2.292745590209961,203.62313842773438,-7.120947880581272e-11,-2.7340188562781696e-07,-1.5710567839495064
3916750283,31490,vehicle,116.79842376708984,326.9374694824219,5.263229116221211e-07,-2.5115541233601e-09,3.136820801548589
1983197581,31490,vehicle,18.315715789794922,-1.9223687648773193,-5.758529660704035,0.00016562763503443544,3.14156389145002
2942851653,31490,vehicle,338.93377685546875,183.76446533203125,0.30667053361246943,-5.861912463793221,-1.51852819513462
3949181016,31490,vehicle,88.6296157836914,113.39470672607422,-0.0015861744251436626,3.189281546021973,1.571293672128469
3672416715,31490,vehicle,338.86767578125,255.48391723632812,9.06654542939543e-11,-9.038706565673675e-08,-1.5697932471703182
3325384226,31490,vehicle,190.06922912597656,55.8415412902832,-0.0,0.0,3.141216082611656
1359910869,31490,vehicle,220.4618682861328,59.606571197509766,6.229205951080375,-0.007013990747724844,-0.0011259842488111768
2262630317,31490,vehicle,61.49271011352539,331.3147888183594,3.2920038590375973,0.4497616553995913,0.13578180080990798
805172996,31490,vehicle,92.1256332397461,167.5233917236328,-2.8513127035131735e-05,-0.011832975888355817,-1.5732059549492003
1986857511,31490,vehicle,-2.404114007949829,188.681640625,-0.019347117078553987,2.3176475300843,1.5791438720736954
1279946346,31490,vehicle,128.21629333496094,2.560361623764038,0.028962790106483918,-0.0013232189078118922,-0.045655111521824804
74618890,31490,vehicle,334.69891357421875,247.83116149902344,-6.724848726260645e-05,5.804914474097776,1.5708079115456384
3085549129,31490,vehicle,391.97674560546875,320.9991455078125,-1.1960007149426875e-09,4.42790368220083e-09,1.8346064012170558
2057201815,31490,vehicle,270.9940185546875,198.97650146484375,5.923276281094523,-0.0013029850993301353,-0.00021997708978589974
1015694095,31490,vehicle,68.71619415283203,330.46124267578125,4.21679393986436,-0.0007905921180686414,-0.00018748654074157836
1250507297,31490,vehicle,199.7627716064453,-1.94624924659729,1.347365149215036e-07,1.7115963803371057e-10,-3.140322325749825
4280502996,31490,vehicle,48.153709411621094,331.2244567871094,1.0229395530441745e-07,-3.0893024537731476e-11,-0.00030200243510569496
3428459672,31490,vehicle,66.85588836669922,2.013062000274658,-9.953477630506461e-08,8.047743826257115e-11,-0.0008085357069480567
414519966,31490,vehicle,159.31967163085938,327.0442810058594,-5.66607760505369,0.0003153742582196435,3.1415369935230104
2866945113,31490,vehicle,294.2904968261719,330.4563903808594,4.2004184427525304e-08,-1.865889998103779e-11,-0.00044421523731592627
1853482628,31490,vehicle,46.39568328857422,2.5198090076446533,2.2028512624814624e-07,-5.384327692546106e-10,-0.0024442489884003997
3880166169,31490,vehicle,274.354736328125,326.41986083984375,-5.551512718199896,-2.956914532401099e-06,-3.1415921209575752
1073352953,31490,vehicle,365.8738098144531,-2.3799424171447754,-5.365009209252764,-0.004050615819593206,-3.1408376474207556
213556023,31490,vehicle,134.5973358154297,327.0172119140625,5.6872221470630146e-09,-1.0355323940300305e-11,3.139771850352506
1628590046,31490,vehicle,14.565679550170898,2.418752908706665,5.801434286333591,-0.2528874549960899,-0.04356292800826935
4120465129,31490,vehicle,338.9816589355469,78.25126647949219,0.0002837767988104813,-3.5697278863645736,-1.5707168314363578
1015227284,31490,vehicle,117.75492858886719,129.7514190673828,-3.4687452302722424,-9.699718697698131e-05,-3.141564690398347
2900396540,31490,vehicle,180.9246368408203,-1.9678634405136108,-1.3668160859263452,-0.0023980683343474796,-3.139838163063649
3587539486,31490,vehicle,396.6150207519531,173.58245849609375,-0.0018748111280983961,-6.878159267497365,-1.5710689013324661
1146849989,31490,vehicle,334.33203125,167.8595733642578,-0.013053059479881458,1.0191035019710892,1.5836040011093058
1457681385,31490,vehicle,395.8218688964844,34.21255111694336,-0.0032250219706453287,-11.212732804945126,-1.571083948192625
1726747598,31490,vehicle,92.3627700805664,85.5223159790039,0.0004406804134682413,0.007898193580527806,-1.626533625249165
367118466,31490,vehicle,375.0947570800781,326.35400390625,2.867694805640099e-08,-2.1013948183544775e-10,3.13426496585044
2065705843,31490,vehicle,311.2150573730469,133.19998168945312,-1.815054890372452e-05,-8.956712534315046e-09,0.0004934678204392642
3978545900,31490,vehicle,388.3068542480469,329.97503662109375,5.507981789252856,-1.6248537072414064,-0.28686319576621216
714679325,31490,vehicle,392.11944580078125,77.08415985107422,-0.002576144123100816,16.041885169126857,1.5709569154086285
3262285446,31490,vehicle,88.31706237792969,90.10012817382812,-0.01384828439994167,3.9139819730054093,1.5743344694611214
1401880247,31490,vehicle,92.49676513671875,174.20469665527344,8.857433238561076e-09,9.408511155733257e-06,-1.5717377542402395
2250339631,31490,vehicle,92.39378356933594,114.09814453125,-0.00040866999739836855,-4.409568290846575,-1.5708890048008313
2525145270,31490,vehicle,92.52054595947266,154.58193969726562,-2.3391898729326353e-08,2.7248352999067135e-05,-1.5699378568175095
1825059061,31490,vehicle,313.625732421875,2.0121846199035645,-9.442261871550664e-07,5.904343655057758e-10,-0.0006253102239506051
346279610,31490,vehicle,88.17344665527344,266.81396484375,0.001426218108604369,5.6224229911054815,1.5705426607010666
893025708,31490,vehicle,395.89306640625,162.21322631835938,-0.0018697040428203773,-5.821408925210685,-1.5711175040223602
1724402154,31490,vehicle,39.34653854370117,326.53753662109375,-5.996414871978,-0.0017869780129298187,-3.1412946458638134
2595182244,31490,vehicle,313.0155944824219,198.7723388671875,3.6475283781998047,-0.0044004240450934195,-0.001206411973805895
874453657,31490,vehicle,388.6775817871094,324.7012939453125,-1.542117932283413e-07,9.324651727410878e-08,2.597749858965257
1498616609,31490,vehicle,65.61087799072266,-1.964311122894287,-6.147577042660024,-0.0017288819760844223,-3.141311423778681
505512523,31490,vehicle,305.46771240234375,133.20274353027344,-0.45218868124558614,0.00013174511078671293,-0.0002913498557639593
3709073522,31490,vehicle,118.92913818359375,195.5608673095703,-0.017408518633923495,-1.0575102667028338e-05,-3.140985186545146
27029540,31490,vehicle,1.4446914196014404,17.414268493652344,-0.0016868028145972322,-6.261825811166182,-1.5710657055391581
1375770528,31490,vehicle,338.8888244628906,241.84837341308594,-3.695866307288099e-05,-0.011760759768792262,-1.57393885688119
4266869573,31490,vehicle,-1.5019991397857666,131.12103271484375,0.0003748586495015647,6.160045135536459,1.5707354735639882
368528135,31490,vehicle,2.7466049194335938,208.8388671875,-0.0016529912828140958,-0.027401473098097564,-1.6310482159290673
4012051816,31490,vehicle,338.9725341796875,228.02120971679688,-0.005192106432504184,-2.5433437279290256,-1.5728377729284968
3938307140,31490,vehicle,92.14663696289062,219.810791015625,1.99286111968184e-11,-3.6114818634857156e-09,-1.5652782570162525
1966079641,31490,vehicle,41.148319244384766,331.2388916015625,-4.6522739434153684e-08,6.442672099956735e-13,-1.3848436652496706e-05
1759883367,31490,vehicle,27.711965560913086,331.1675720214844,0.0,-0.0,-0.0005651226532776517
3487645883,31490,vehicle,92.42707824707031,105.24803161621094,0.00039326235916705256,-0.38330293389324077,-1.5697703439849435
544848518,31490,vehicle,121.06754302978516,2.092430591583252,0.703756093821865,1.4866177081517611e-05,2.1124047393427365e-05
1325658571,31490,vehicle,92.39752960205078,98.92157745361328,-3.819954845476199e-11,3.7353350794763494e-07,-1.5706940614090374
921579549,31490,vehicle,92.30633544921875,22.44695281982422,2.081480633291223e-07,6.13533009366098e-05,-1.5741889277075485
4072577581,31490,vehicle,92.38365936279297,233.42498779296875,-1.4855616129210625e-10,-2.5517787999401087e-07,-1.571378493809188
94066344,31490,vehicle,334.4821472167969,173.80601501464844,-2.6923194141686974e-07,-0.002318689816833085,1.570680212971369
2853390219,31490,vehicle,299.99432373046875,330.5154724121094,-1.4576886575043452e-08,-4.44517744497177e-12,0.00030494696410635324
2524564450,31490,vehicle,36.50794982910156,2.0307724475860596,4.873841061482666,-0.002614136778938747,-0.0005363606435419586
1882516347,31490,vehicle,-2.140923023223877,164.36050415039062,-1.246338802203158e-06,-0.001190213881735158,1.5697491718542775
815178544,31490,vehicle,275.25213623046875,330.3910217285156,1.3864145901999316e-07,1.8449025311986133e-10,0.0013306996733001564
2188308515,31490,vehicle,216.38339233398438,199.20323181152344,5.518387217333872,-0.0010522589675443974,-0.00019068233404967346
1160083145,31490,vehicle,362.68389892578125,326.5613708496094,0.5279425823997559,-0.0005753338495684557,3.1405028880717327
1832698586,31490,vehicle,127.3373794555664,326.9634094238281,-0.0013251581900710623,-5.926120563380787e-06,-3.137120673487332
3748346955,31490,vehicle,134.28526306152344,1.9188305139541626,-0.9612058773513312,0.00020734752105365577,-0.00021571603204177298
3198444053,31490,vehicle,121.31243896484375,326.86431884765625,0.6064448863033781,-0.044819152814053194,3.067822026130162
808811405,31490,vehicle,338.9936218261719,219.73291015625,-0.001865107621263455,-2.1803731093758083,-1.57165173413703
84250811,31490,vehicle,339.13201904296875,93.94713592529297,-0.0007515036215339616,0.18666619780118776,-1.5667704261750237
3956289865,31490,vehicle,14.250041007995605,326.5767517089844,-6.063339699155883,-0.0003665516636797574,-3.1415321998330485
1912328786,31490,vehicle,355.7555236816406,-1.9512197971343994,-5.772998222681633,0.001128482753571897,3.141397177565781
4030311199,31490,vehicle,338.9559631347656,235.7322235107422,-6.092865406237498e-12,8.797660932692203e-09,-1.5701037717534214
3147513812,31490,vehicle,382.0475769042969,326.14154052734375,2.7322569127880196e-07,-3.2374324852478165e-08,3.023653233135089
1663586846,31490,vehicle,287.7590637207031,330.4103088378906,0.0,0.0,0.0012216088968504848
