id,timestamp_ms,agent_type,x,y,vx,vy,psi_rad
-1,47436,vehicle,392.2198791503906,306.496337890625,-1.4040691494545186e-11,6.557450254579845e-08,1.571010444946539
2985032057,47436,vehicle,-2.2613000869750977,114.64193725585938,-0.0021002517486656976,18.108636734284804,1.5709123074603695
3028941286,47436,vehicle,396.8612060546875,95.076904296875,-0.0012865688096907763,-5.066579655374826,-1.5710502592048357
2920337868,47436,vehicle,392.0353088378906,314.20721435546875,-1.274905553476712e-10,-3.241156923019819e-07,1.570402977901892
1503980471,47436,vehicle,118.29786682128906,2.0311992168426514,3.7747511552231288,-0.0048615224540129376,-0.0012879047031623197
2125414330,47436,vehicle,358.60247802734375,-1.6013845205307007,-0.0,0.0,3.1406006260837387
2396446624,47436,vehicle,141.33572387695312,327.0087585449219,1.383324108183917e-07,-1.6555971044701951e-10,3.1403958289959117
4076155829,47436,vehicle,21.82727813720703,-1.9569358825683594,-5.685821532896444,5.905480882141035e-05,3.141582267261542
130361148,47436,vehicle,92.38518524169922,224.27145385742188,-0.001262495436954612,-3.5590012218458282,-1.5711510598520952
3417340120,47436,vehicle,300.4178466796875,330.5010986328125,2.1556755631642413e-06,-4.2712433034879366e-09,-0.0019813917209817906
2197730220,47436,vehicle,154.23269653320312,35.14777374267578,1.5751569882432887e-07,-0.000339725076491594,1.5712599831406795
118743835,47436,vehicle,334.7102966308594,114.14910888671875,-0.0013368209971839772,5.190979785446363,1.5710538544723072
904053063,47436,vehicle,158.01815795898438,44.8828125,-0.46209324551668757,-5.712885540101967,-1.6515067525811105
1291681130,47436,vehicle,113.09465789794922,195.61886596679688,1.6858552733154633e-07,6.572511229426806e-10,-3.1376940520700263
715062232,47436,vehicle,338.9866638183594,22.499813079833984,-2.3752027034486164e-11,1.0036819692903083e-08,-1.5684298418502522
220877689,47436,vehicle,92.90436553955078,76.4989242553711,0.0014372127361718932,-5.88831645592062,-1.5705522480809908
2069714320,47436,vehicle,92.04563903808594,308.6571044921875,-0.11783079603801556,-7.184738551645873,-1.5871950075231684
3190467641,47436,vehicle,32.775238037109375,-1.9505441188812256,-4.975427623646348,-0.0001974304423854874,-3.141552972489551
708315452,47436,vehicle,88.35997009277344,169.3690185546875,-0.06885217209428765,0.5335405578611478,1.6991347255160876
1314594676,47436,vehicle,142.34912109375,199.01235961914062,10.41235808722618,-0.0020242746394647485,-0.00019441077583042972
2302084468,47436,vehicle,396.78021240234375,207.8003692626953,0.013167127289433532,-17.67037664026155,-1.5700511743218923
757051778,47436,vehicle,334.7028503417969,297.8030090332031,-2.4935657424014824e-11,-1.2207536060471836e-07,1.5705920623392875
4203008516,47436,vehicle,112.88423919677734,55.693016052246094,-1.2328896842739713e-08,-2.9297689112226995e-11,-3.1392163149491155
2631691725,47436,vehicle,334.72576904296875,304.8206481933594,3.588042920750641e-12,-9.521464498963456e-08,1.5708340105243213
1513387753,47436,vehicle,339.01324462890625,29.555875778198242,-1.0661889056310852e-09,3.4008309616687313e-07,-1.5676612535596552
156273220,47436,vehicle,92.34188079833984,56.87841033935547,-0.07523876442129758,-5.793998508442911,-1.5837812344798505
3812119762,47436,vehicle,110.7772216796875,2.0930936336517334,0.4234436022493881,-0.0008322423080019294,-0.001965412234292665
3616050434,47436,vehicle,166.96054077148438,326.3922424316406,-5.709514139138227,0.00014901248784027506,3.1415665546111105
2942158310,47436,vehicle,124.8267822265625,59.34161376953125,7.765530202642183e-05,5.3763872240650884e-08,0.0006923398949895816
3608800298,47436,vehicle,298.1677551269531,133.19717407226562,1.700921755405789e-07,-3.2071184360037636e-11,-0.00018855178892296473
1146464971,47436,vehicle,61.9603385925293,2.5493767261505127,4.152865373005576,0.005294280640026007,0.0012748493621486143
3013099654,47436,vehicle,-2.342297315597534,233.33616638183594,0.0007484355695309142,5.7236818777941245,1.5706655655853736
2246582517,47436,vehicle,127.98574829101562,133.3568572998047,-3.639110202372219e-05,-3.4261753207396422e-09,9.414870998913542e-05
3192940987,47436,vehicle,338.8669738769531,219.46205139160156,-0.0,-0.0,-1.5728351097674067
828836647,47436,vehicle,293.2968444824219,330.7931823730469,-8.997757482134483e-07,-1.0911473980768075e-09,0.0012126875672730446
1702089089,47436,vehicle,371.1454162597656,-2.4276890754699707,-1.6347136962593464e-06,-2.1349605117679495e-09,-3.1402866393912183
2111029583,47436,vehicle,92.00856018066406,266.787109375,-0.0006379943153822917,-6.663777320838402,-1.570892067436085
420096522,47436,vehicle,88.35794830322266,228.5623016357422,0.005833188166615372,7.607935099744999,1.5700296027170628
510102133,47436,vehicle,298.24786376953125,1.878320574760437,2.0603359258044662,0.0019283692008432829,0.0009359486545897019
4109025732,47436,vehicle,305.9452819824219,1.3688377141952515,6.233639657590985,-0.10399614617248765,-0.016681506355443732
2913592560,47436,vehicle,320.6168518066406,1.7427294254302979,4.220445630125733,-0.0028414030355665555,-0.0006732470585534501
3970347779,47436,vehicle,157.48565673828125,29.8553466796875,0.0009174519693179592,0.01059783471269041,-1.6571507898793154
1933996401,47436,vehicle,337.9419860839844,1.0783088207244873,7.276241217077524e-09,-6.62340036837175e-09,2.4031281770311383
3047764241,47436,vehicle,53.330047607421875,2.0461490154266357,0.6744292553252357,0.0002383622833326759,0.00035342813427184823
1260711767,47436,vehicle,276.46600341796875,55.6815185546875,-5.995737551976041,8.941864375357852e-05,3.1415777398876887
3957993155,47436,vehicle,335.0694580078125,39.64031219482422,-0.0017419422567404091,6.59695602306972,1.571060379216978
4289594148,47436,vehicle,-2.3869824409484863,248.6969451904297,0.006556133826023783,8.833103607897835,1.5700541037990916
4139896837,47436,vehicle,112.17839813232422,129.49009704589844,3.638913288967631e-08,-4.999596381811832e-11,3.140218728783421
1686932955,47436,vehicle,112.7573013305664,-1.9680248498916626,4.757253319921442e-07,-1.3551154091697352e-09,3.1387441364878446
1726501337,47436,vehicle,335.2413330078125,5.90199613571167,0.0006309515833005993,-0.0027725782975712983,1.7945541894769728
1682591593,47436,vehicle,313.8250427246094,330.4513854980469,-1.794101112902416e-08,2.3440777571152572e-11,-0.0013065464406813864
3380823586,47436,vehicle,367.343505859375,326.3271789550781,-3.8234588834153547,0.003052710229631818,3.1407942378949874
4176583038,47436,vehicle,312.5317077636719,1.9639418125152588,3.9614500271194584,-0.0007595986029226775,-0.00019174761474035048
3855978784,47436,vehicle,338.62921142578125,265.0938720703125,-0.0005043606906051603,-6.060295083993066,-1.5708795505789617
1042098875,47436,vehicle,44.63996505737305,-1.9604506492614746,-5.659366083425925,0.0007324896565193888,3.141463223960815
644930681,47436,vehicle,88.35652923583984,239.6254119873047,0.0005567823644158569,5.5090441422434875,1.570695259831528
2234188147,47436,vehicle,335.1518249511719,28.211549758911133,0.000627464347236445,3.840405174494674,1.5706329418620202
4109707537,47436,vehicle,2.5836424827575684,113.04337310791016,0.0013176474775844157,-7.724718458330061,-1.570625751327077
3675841917,47436,vehicle,164.41647338867188,55.80746078491211,-5.2569262061686866,-0.015941895926451084,-3.13856011205652
2817926641,47436,vehicle,92.79568481445312,28.061750411987305,0.0012070380286257243,-0.0076653714448602995,-1.414612448348055
4029506115,47436,vehicle,-2.4959423542022705,224.68341064453125,-0.002617436281768847,6.782819719738041,1.5711822188368492
3277167701,47436,vehicle,132.22679138183594,59.399417877197266,0.002492080816323862,-6.769548678062482e-07,-0.00027164241493343695
518241310,47436,vehicle,-2.671414852142334,196.19895935058594,-0.031169731963447005,5.8835872891788386,1.5760940199933366
778540568,47436,vehicle,338.9315185546875,42.95614242553711,6.550546975883198e-09,-2.14991989026018e-07,-1.5403369544593333
657465635,47436,vehicle,20.29448699951172,2.0589969158172607,2.1162891318049388e-08,-1.3773497386398252e-10,-0.006508233071935642
835227171,47436,vehicle,157.7899627685547,23.67967414855957,2.115984888599081e-12,1.2825485387922617e-08,-1.570961309624427
715280319,47436,vehicle,92.39873504638672,160.29107666015625,-0.000696429101802795,-3.5482317717878655,-1.5709926017672355
3020211281,47436,vehicle,311.7212829589844,59.5904541015625,-0.000342227540824062,-4.289090150583422e-07,0.0012532854295115659
2101598167,47436,vehicle,125.23958587646484,-2.030273914337158,0.0070468415618505495,-6.26250758772532e-06,3.1407039567340336
14974470,47436,vehicle,338.9898376464844,36.57738494873047,1.2301155912794047e-09,-2.599089037637184e-07,-1.5660634900636623
1398818972,47436,vehicle,290.332275390625,133.63748168945312,3.119407615461723,-0.006117639380805089,-0.0019611516966971886
2694688339,47436,vehicle,2.273282527923584,131.22735595703125,-0.002619565000802756,-9.573040603810613,-1.5710699665969023
3916750283,47436,vehicle,110.89540100097656,326.93609619140625,-6.413453428206766,-0.0062154356426741735,-3.140623529269113
1983197581,47436,vehicle,-2.1480064392089844,164.9716339111328,0.026592580744693322,12.39797505882969,1.5686514168529468
2942851653,47436,vehicle,338.80303955078125,90.35262298583984,-0.0016565652130357915,-5.5637714780868945,-1.5710940682047674
3949181016,47436,vehicle,88.34362030029297,174.86178588867188,2.2603327128931354e-09,-8.476789039693505e-07,1.5734628168363385
3672416715,47436,vehicle,338.85546875,226.30577087402344,3.052176353338418e-10,-2.3501940025742063e-07,-1.5694976362893194
3325384226,47436,vehicle,174.16165161132812,55.840370178222656,-4.702650302865448,-0.0015153938045813131,-3.1412704110978935
1359910869,47436,vehicle,306.39544677734375,59.6048469543457,0.01756704867069719,2.3666903519409247e-05,0.0013472319479675013
2262630317,47436,vehicle,192.54977416992188,330.6256103515625,11.928118490107597,-0.0022681280077554676,-0.0001901496855770123
805172996,47436,vehicle,92.119873046875,167.13107299804688,0.03939924998761034,-3.3673613736222596,-1.5590965274939605
1986857511,47436,vehicle,-2.475370168685913,265.9608154296875,0.0010839660077508531,11.212736077365756,1.5706996540473268
1279946346,47436,vehicle,135.7825927734375,2.686699867248535,6.277437685239762,-0.2709802470876208,-0.043140550659382784
74618890,47436,vehicle,334.70416259765625,291.78424072265625,-2.399383743366e-11,-2.8592607983633614e-08,1.5699571647354127
3085549129,47436,vehicle,391.97674560546875,320.9991455078125,4.533046204433203e-10,-1.6782508345873458e-09,1.8346064012170558
2057201815,47436,vehicle,306.45654296875,198.97398376464844,-1.7745862897438875e-09,2.146554175636842e-12,-0.0012096076370768274
1015694095,47436,vehicle,260.5498962402344,330.62786865234375,13.090342735503475,-0.008324973035585563,-0.0006359628683109221
1250507297,47436,vehicle,154.2294158935547,27.016679763793945,-0.0019108611284197805,4.0744810391937865,1.5712653094628595
4280502996,47436,vehicle,92.2249984741211,292.82574462890625,-0.0019508807373468438,-5.779433874836134,-1.571133882463064
3428459672,47436,vehicle,72.83360290527344,2.0097992420196533,6.566600602463033,-0.0016088882323024953,-0.0002450108202872899
414519966,47436,vehicle,148.38682556152344,327.07427978515625,-9.122185896226316e-06,-2.9832849520903106e-09,-3.1412656174079316
2866945113,47436,vehicle,338.6276550292969,293.3276672363281,-0.0020999970944513024,-6.883766807672806,-1.5711013918977652
1853482628,47436,vehicle,46.39568328857422,2.5198092460632324,3.815539144468056e-09,-9.326146266639244e-12,-0.0024442489884003997
3880166169,47436,vehicle,186.20054626464844,326.41986083984375,-5.5557713508273,1.9234688312764074e-05,3.141589191480376
1073352953,47436,vehicle,335.1936340332031,12.533079147338867,-7.023661497609802e-09,3.7025410698854133e-07,1.589763892710659
213556023,47436,vehicle,134.59519958496094,327.0172119140625,-0.0658991254950279,9.452435776433697e-05,3.1401582750266765
1628590046,47436,vehicle,33.744266510009766,2.3478176593780518,-9.758272675434476e-08,-1.9035497680525355e-10,0.0019507011300875542
4120465129,47436,vehicle,262.6858215332031,55.67696762084961,-5.849819537829493,0.0011964681211692205,3.141388122818075
1015227284,47436,vehicle,117.51483154296875,129.7515106201172,-0.006663688412752944,7.808449342540113e-07,3.1414754745018296
2900396540,47436,vehicle,118.2197036743164,-1.9651185274124146,-0.0013252441720279344,-4.655569848849245e-06,-3.1380796777958695
3587539486,47436,vehicle,396.5880432128906,82.5802001953125,-0.0017568006569069355,-6.797191392841887,-1.5710547865786888
1146849989,47436,vehicle,334.2331848144531,171.28829956054688,0.2904037960509747,3.736579578472643,1.493233091626884
1457681385,47436,vehicle,363.8752136230469,-2.6953561305999756,-0.002484162102456218,1.177598846668922e-07,3.1415452493223897
1726747598,47436,vehicle,92.05882263183594,66.46627807617188,0.19482654182960898,-6.0922105504092,-1.5388276079115308
367118466,47436,vehicle,375.0704345703125,326.35406494140625,-0.3798708787211901,0.0027394132406610983,3.1343813459900765
2065705843,47436,vehicle,311.215087890625,133.19998168945312,0.0,0.0,0.0004934677554206829
3978545900,47436,vehicle,396.85296630859375,127.234619140625,-0.0028858225352102395,-13.230866117472388,-1.571014439688174
714679325,47436,vehicle,392.1418151855469,299.22723388671875,-8.303247268224706e-10,-2.5113300571999647e-06,1.5704656953455634
3262285446,47436,vehicle,88.34327697753906,162.97958374023438,1.8742704080523506e-05,-0.010097213389268198,1.5726525500746817
1401880247,47436,vehicle,92.49676513671875,174.20469665527344,-1.1701941549136088e-11,-1.2429994632019516e-08,-1.5717377542402395
2250339631,47436,vehicle,92.39104461669922,105.87518310546875,-0.0013053979753869756,-4.862783733629144,-1.5710647734327765
2525145270,47436,vehicle,92.50049591064453,150.26181030273438,0.0014380296256038339,-5.5099075348176205,-1.5705353370080688
1825059061,47436,vehicle,331.94537353515625,1.9882510900497437,-0.0034652269248436132,1.236064751842988e-05,-0.0035670377039778065
346279610,47436,vehicle,88.17655181884766,305.6376037597656,-2.94337382254989e-10,-1.040006721214895e-07,1.5679661855044693
893025708,47436,vehicle,395.85589599609375,70.61168670654297,-0.001869703583372676,-5.821407494699284,-1.5711175040223602
1724402154,47436,vehicle,2.3839027881622314,208.80894470214844,-0.0034806853814531844,-15.784723851772156,-1.5710168365331552
2595182244,47436,vehicle,313.6766662597656,198.77235412597656,0.0,-0.0,-0.002473011128173255
874453657,47436,vehicle,388.6775817871094,324.7012939453125,-2.712560048864033e-07,1.6401908839678306e-07,2.597749858965257
1498616609,47436,vehicle,-2.452697992324829,30.015859603881836,0.009732398757060707,7.987872870478918,1.5695779305961854
505512523,47436,vehicle,305.59600830078125,133.2028350830078,-0.44404855250062314,-3.27077204273456e-05,7.365798218236013e-05
3709073522,47436,vehicle,118.92913055419922,195.56100463867188,-0.0174065526927095,-1.832934862453808e-05,-3.140539639694776
27029540,47436,vehicle,27.76862335205078,2.8606343269348145,0.003984074261222826,0.0002457854066339486,0.06161388797228607
1375770528,47436,vehicle,302.2492980957031,195.275390625,-3.260762214643993,1.0420722065652536e-05,3.141589457796485
4266869573,47436,vehicle,-1.5058927536010742,204.4324188232422,-0.013275112110714698,4.175492641675911,1.5739756085042331
368528135,47436,vehicle,2.257739782333374,149.85865783691406,0.10338703610834672,-9.653397074052872,-1.5600868239453065
4012051816,47436,vehicle,338.7908020019531,153.36550903320312,4.278487999377777e-05,0.035928529358119916,-1.5719871592763255
3938307140,47436,vehicle,92.1502914428711,215.1057586669922,0.002011757795830101,-4.791640813035971,-1.5703764794490456
1966079641,47436,vehicle,122.16252899169922,330.6521911621094,12.360469086429147,-0.004252995072141949,-0.0003440803803289469
1759883367,47436,vehicle,65.09627532958984,331.1673889160156,-5.183786042471614e-07,3.561756940704615e-10,-0.0006870955612404434
3487645883,47436,vehicle,92.42250061035156,96.57559204101562,-0.00015195794907301441,-3.5773818460615496,-1.5708388042142833
544848518,47436,vehicle,126.4935531616211,2.0984816551208496,3.830501872590388,0.0025904181569063336,0.0006762606697967405
1325658571,47436,vehicle,92.39430236816406,87.05461120605469,-0.0009783945377928194,-5.1634701755545,-1.5709858107064558
921579549,47436,vehicle,92.27748107910156,22.447509765625,2.3299123540294705e-07,6.899013481019804e-05,-1.574173481373226
4072577581,47436,vehicle,92.38333892822266,232.56398010253906,-0.0013654176413302197,-3.1775988983049537,-1.571226027836781
94066344,47436,vehicle,334.4744567871094,179.66368103027344,-0.009545476103225113,6.417659336386894,1.572283702263706
2853390219,47436,vehicle,375.6715087890625,330.6495361328125,5.549551293306287,-0.0014661112816124523,-0.0002641855476265698
2524564450,47436,vehicle,39.81764221191406,2.0300538539886475,1.4499781416344464e-07,-1.91608962596023e-10,-0.0013214602728229927
1882516347,47436,vehicle,-2.136882781982422,213.69049072265625,0.0005767959624820871,5.244145361651106,1.5706863382418763
815178544,47436,vehicle,307.15032958984375,330.3822937011719,3.5357846870361245e-07,5.598469530778203e-10,0.001583372673319416
2188308515,47436,vehicle,298.796630859375,199.190673828125,-0.0008281432086215628,-9.823825187617903e-07,0.001186246590852626
1160083145,47436,vehicle,355.78900146484375,326.5593566894531,-6.323962687929347,-8.08403105601436e-05,-3.1415798704165607
1832698586,47436,vehicle,127.0496826171875,326.9626770019531,-2.0992173421803604,-0.006507425636730672,-3.1384927340809408
3748346955,47436,vehicle,144.53660583496094,2.13384747505188,4.043809181473045,0.3052024281423725,0.07533117327939011
3198444053,47436,vehicle,118.86602020263672,327.3100280761719,-4.7260908569297015,0.2928465230257889,3.079707980391295
808811405,47436,vehicle,267.6405334472656,195.30758666992188,-5.834933753001321,-0.00023619840184904226,-3.141552173541224
84250811,47436,vehicle,338.65179443359375,48.3581428527832,0.0005842954933781882,0.010606329938235851,-1.625830018089166
3956289865,47436,vehicle,2.433539628982544,169.14654541015625,-0.004246566332017044,-8.57519998306462,-1.5712915415995967
1912328786,47436,vehicle,335.1353759765625,19.546695709228516,-0.00010494772222197375,1.0001827423348753,1.5709012553418458
4030311199,47436,vehicle,338.7917785644531,164.55908203125,-0.0018163550552654142,-5.974855146887808,-1.5711003266333292
3147513812,47436,vehicle,382.0475769042969,326.14154052734375,2.7450447648704533e-07,-3.252584723514448e-08,3.023653233135089
1663586846,47436,vehicle,338.63494873046875,311.1282958984375,-0.002093853872518425,-5.960794081097518,-1.571147597742678
