id,timestamp_ms,agent_type,x,y,vx,vy,psi_rad
-1,29078,vehicle,392.2199401855469,288.8641357421875,-0.0005509061208355965,11.753507601224808,1.570843198430082
2985032057,29078,vehicle,44.67128372192383,-1.9640653133392334,-5.612745275136123,0.0003333324799962406,3.1415332650974843
3028941286,29078,vehicle,396.9005126953125,200.2782440185547,-0.0013461105403762188,-4.9073389114465105,-1.5710706323871748
2920337868,29078,vehicle,392.0352783203125,314.1986999511719,1.3694546578055429e-06,0.003562323951498803,1.5704118994915437
1503980471,29078,vehicle,114.69385528564453,2.031087875366211,1.996910208219634,-0.00015741555367714344,-7.882956013902278e-05
2125414330,29078,vehicle,391.55084228515625,0.3841674029827118,3.033708954222133e-08,2.7888532842364756e-08,-2.3982226343032123
2396446624,29078,vehicle,146.59429931640625,327.00555419921875,-6.097229953342638,-0.00022733067807122138,-3.141555369334532
4076155829,29078,vehicle,112.6908187866211,-1.9198418855667114,-1.4772010501663535e-06,-2.246327926317693e-10,-3.14144058709155
130361148,29078,vehicle,92.38613891601562,226.82598876953125,-2.420486087577761e-11,-4.065654114499277e-08,-1.5713916764565838
3417340120,29078,vehicle,265.688720703125,330.4994201660156,3.459962366916016,0.004062754287931658,0.0011742186734606352
2197730220,29078,vehicle,188.16998291015625,-1.9401477575302124,7.784391994887128e-08,-3.677695616690111e-11,3.141120208812413
118743835,29078,vehicle,334.7121276855469,106.94483947753906,0.0020461080156383123,5.474175070794368,1.5704225521359039
904053063,29078,vehicle,178.70040893554688,55.8249397277832,-2.0483525937069e-08,3.195050518153033e-11,3.140032840139334
1291681130,29078,vehicle,113.09622955322266,195.6188201904297,0.013760064480054969,5.3641615498334934e-05,-3.137694318386135
715062232,29078,vehicle,338.9866638183594,22.499813079833984,-2.3216386791057617e-09,9.810475872405181e-07,-1.5684298418502522
220877689,29078,vehicle,92.9066390991211,91.6496353149414,-5.546094006406671e-06,-0.010690568439012671,-1.571315110575244
2069714320,29078,vehicle,34.90081024169922,331.1800231933594,0.017436520202536398,2.0542740730560596e-05,0.001178143975250925
3190467641,29078,vehicle,118.29537963867188,-2.6936047077178955,-0.010286173438399411,-0.001979789451530582,-2.951446946499771
708315452,29078,vehicle,88.76436614990234,99.76714324951172,3.5590912122210745e-05,0.011901964304544554,1.5678059963649011
1314594676,29078,vehicle,88.64353942871094,172.73634338378906,1.5930339421313184e-07,0.0016478624816350905,1.5706996540473268
2302084468,29078,vehicle,312.6126403808594,330.1163330078125,-0.010422787788498991,0.001198326078570256,-0.11446913846200592
757051778,29078,vehicle,334.6994934082031,245.73941040039062,0.001006054527649254,5.697843939654593,1.5706197592146243
4203008516,29078,vehicle,112.8842544555664,55.693016052246094,4.295241038154622e-05,1.0206966462862307e-07,-3.1392163149491155
2631691725,29078,vehicle,334.72576904296875,258.6424560546875,0.0006614714325619591,6.021292173292141,1.570686471399931
1513387753,29078,vehicle,339.0132751464844,29.565181732177734,-4.474272792905699e-05,0.014217274639990873,-1.56764926933475
156273220,29078,vehicle,92.51573181152344,80.52529907226562,4.898037047774352e-09,3.1644531937870235e-06,-1.5723441560204507
3812119762,29078,vehicle,95.02082824707031,4.01317024230957,3.7283969011485407,-4.300164104651418,-0.8564947773855579
3616050434,29078,vehicle,273.7957458496094,326.4243469238281,-6.108006463818273,-0.00040666512941049947,-3.1415260745625413
2942158310,29078,vehicle,88.58106994628906,25.92915153503418,5.177986810859671e-05,0.14078935028610215,1.5704285442483565
3608800298,29078,vehicle,210.2395477294922,133.21934509277344,6.937052145972315,-0.0012008416900698784,-0.00017310547085515047
1146464971,29078,vehicle,60.19769287109375,2.5480518341064453,1.9774246556334122e-07,-1.6809714444833874e-10,-0.0008500809549347115
3013099654,29078,vehicle,-2.37764835357666,175.94656372070312,-3.763629052837811e-06,-0.005019422606509688,1.5700465137899848
2246582517,29078,vehicle,88.6150894165039,105.10009765625,-2.7185711341584715e-12,-1.9937619369977543e-08,1.5706599729470845
3192940987,29078,vehicle,338.87249755859375,248.6110076904297,-1.4750752427312073e-10,-1.287047986669363e-07,-1.5719424181700121
828836647,29078,vehicle,156.05638122558594,330.7962341308594,15.955774624638329,-0.0250792701168337,-0.0015717976753647665
1702089089,29078,vehicle,396.0267639160156,73.37077331542969,-0.001153080609230991,-8.80029289320735,-1.5709273543205284
2111029583,29078,vehicle,54.97051239013672,330.44464111328125,-0.00012503708546763174,5.767454771478759e-08,-0.00046125950080172403
420096522,29078,vehicle,88.09020233154297,156.71261596679688,0.0009786819277562398,5.893966593550553,1.57063027870093
510102133,29078,vehicle,219.9945068359375,1.86490797996521,9.585528216537757,-0.0017358906558085534,-0.00018109493787074287
4109025732,29078,vehicle,290.41156005859375,1.8710310459136963,8.281691314378591,-0.0019805818336942403,-0.00023915184963447026
2913592560,29078,vehicle,308.83966064453125,1.6756693124771118,0.002186949300603475,7.011648933743199e-06,0.0032061213796975496
3970347779,29078,vehicle,128.5797882080078,58.90803527832031,1.0698027282747886,-0.09791787250166724,-0.09127458661931298
1933996401,29078,vehicle,385.673828125,-2.1186752319335938,5.614972024048887e-08,7.535800614910154e-09,-3.008180799833947
3047764241,29078,vehicle,53.26544952392578,2.046077251434326,-2.099836534832127e-08,-9.482206737556837e-12,0.00045156877384246126
1260711767,29078,vehicle,338.9930114746094,88.67728424072266,-0.0005717500133504711,-4.06222291737473,-1.5709370748585072
3957993155,29078,vehicle,335.0718994140625,33.63330078125,2.8593923967229283e-10,-4.0863308413668935e-07,1.571496072371315
4289594148,29078,vehicle,-2.404228687286377,181.4108123779297,-1.6290187028288784e-10,1.712206987303002e-07,1.5717477410943275
4139896837,29078,vehicle,117.28370666503906,129.4894561767578,-5.555560531174989,-0.0008004285833738332,-3.14144857657482
1686932955,29078,vehicle,175.89035034179688,-1.9625598192214966,-1.980231864675775e-06,1.0204564836641378e-09,3.1410773319188627
1726501337,29078,vehicle,378.8957214355469,-2.4115872383117676,7.511125508251516e-05,2.1093574525472955e-07,-3.1387843502203046
1682591593,29078,vehicle,281.6020202636719,330.4570617675781,1.3022963941704825e-07,-5.5075413394911787e-11,-0.0004229099485952924
3380823586,29078,vehicle,368.77252197265625,326.3265380859375,-5.438997659261772e-08,1.7539858827625687e-10,3.1383678318258164
4176583038,29078,vehicle,300.02923583984375,1.973720669746399,3.3656949938374643,-0.002203200853644632,-0.0006546049309228954
3855978784,29078,vehicle,305.56915283203125,330.5410461425781,2.1440038223245453e-07,4.62538347186429e-11,0.00021573578143584308
1042098875,29078,vehicle,125.58863830566406,-1.9531066417694092,0.00026645083366315484,-3.067608607970423e-07,3.140441369050552
644930681,29078,vehicle,88.63038635253906,165.76617431640625,3.6253285950539145e-10,-1.4068672457313028e-07,1.5733732014656572
2234188147,29078,vehicle,357.2652587890625,-1.9546740055084229,-2.449148174865435,0.00012588378928714535,3.141541254580755
4109707537,29078,vehicle,2.608602523803711,196.40359497070312,-1.2033175693662847e-05,-0.006708300590290506,-1.5725900989471195
3675841917,29078,vehicle,183.96047973632812,55.8341064453125,-0.017411303370164957,-0.0001375475393951851,-3.133692918848291
2817926641,29078,vehicle,92.26688385009766,28.978837966918945,0.0017565429032329904,-2.3322861732536864,-1.5700431848386223
4029506115,29078,vehicle,-2.3120617866516113,170.23904418945312,0.0012246564408860978,5.442019801626032,1.5705712896827848
3277167701,29078,vehicle,88.64457702636719,34.33745574951172,0.002199718512683413,2.1381827006562313,1.569767547665799
518241310,29078,vehicle,-2.7257235050201416,92.5243911743164,-0.0774225601881367,10.033166668003508,1.578512836053401
778540568,29078,vehicle,333.0449523925781,57.61201858520508,5.03562697565697,-1.9953119974815237,-0.3772599712007214
657465635,29078,vehicle,1.7894080877304077,53.45357131958008,-0.0017307357706492954,-5.978658902473067,-1.5710858124053881
835227171,29078,vehicle,135.40280151367188,59.32834243774414,2.774137608393157,0.0021616940637653914,0.0007792308570770835
715280319,29078,vehicle,92.39908599853516,161.5304718017578,1.6482013873656975e-08,2.841547461161203e-05,-1.571376363280316
3020211281,29078,vehicle,217.51437377929688,59.610755920410156,5.6159319072058995,-0.000951209871022918,-0.00016937702907439422
2101598167,29078,vehicle,193.7311248779297,-1.9614672660827637,-0.0,0.0,3.141123138289612
14974470,29078,vehicle,338.97698974609375,39.409942626953125,0.06523542601200526,-5.323450461004948,-1.558542589987224
1398818972,29078,vehicle,187.70217895507812,133.66378784179688,5.620034525251204,-0.0013799627996142518,-0.0002455434687599511
2694688339,29078,vehicle,2.292745590209961,203.62313842773438,5.0270137833719746e-11,1.9300731735432033e-07,-1.5710567839495064
3916750283,29078,vehicle,116.79842376708984,326.9374694824219,1.524093064139783e-06,-7.272801801136562e-09,3.136820801548589
1983197581,29078,vehicle,32.37502670288086,-1.9258161783218384,-5.625083366826598,0.0009467678080834242,3.1414243418089
2942851653,29078,vehicle,334.2251892089844,196.54750061035156,5.110296923812028,-2.9345358983190066,-0.5212627838481358
3949181016,29078,vehicle,88.6303482055664,112.13860321044922,-0.0,0.0,1.5733931751738328
3672416715,29078,vehicle,338.86767578125,255.48391723632812,-1.5288743228898834e-09,1.524179908214077e-06,-1.5697932471703182
3325384226,29078,vehicle,190.0691375732422,55.8415412902832,-0.00670846831523252,2.4869099792517477e-06,3.1412219415660543
1359910869,29078,vehicle,207.29759216308594,59.60447692871094,6.474894566766843,-0.0065319109546696655,-0.0010088054209220153
2262630317,29078,vehicle,60.90885543823242,331.1990051269531,0.010241499639762177,0.001977019639920351,0.1906944347878765
805172996,29078,vehicle,92.1330337524414,167.5260467529297,1.0807906011204632e-05,-0.012163340900235731,-1.5699077630971916
1986857511,29078,vehicle,-2.3421053886413574,188.38706970214844,1.6093825145920906e-07,0.00164662906113559,1.5706985887828906
1279946346,29078,vehicle,127.76803588867188,2.4775538444519043,0.028937239279157083,-0.0013233489598983292,-0.04569985262813813
74618890,29078,vehicle,334.69775390625,233.78414916992188,0.0009675228860570188,5.798861422886908,1.570629479752603
3085549129,29078,vehicle,391.97674560546875,320.9991455078125,-1.171192803340894e-08,4.336058383316909e-08,1.8346064012170558
2057201815,29078,vehicle,257.1330261230469,198.9762725830078,5.96411213609686,-0.001318321505821914,-0.00022104237047657676
1015694095,29078,vehicle,66.94755554199219,330.46124267578125,4.709016028481896e-08,-2.0291129161636153e-11,-0.00043089952939340205
1250507297,29078,vehicle,199.7627716064453,-1.94624924659729,-6.121041486412015e-08,-7.775733592441318e-11,-3.140322325749825
4280502996,29078,vehicle,48.153709411621094,331.2244567871094,1.0221999491442497e-07,-3.087068831917332e-11,-0.00030200243510569496
3428459672,29078,vehicle,66.85588836669922,2.013062000274658,-2.3589159886565163e-07,1.9072682221323003e-10,-0.0008085357069480567
414519966,29078,vehicle,173.0111846923828,327.0443420410156,-5.566955556233594,0.00033654337741505317,3.1415321998330485
2866945113,29078,vehicle,294.2904968261719,330.4563903808594,2.1142437179997574e-07,-9.391793367101718e-11,-0.00044421523731592627
1853482628,29078,vehicle,46.39568328857422,2.5198090076446533,8.962136861889586e-08,-2.1905737582800798e-10,-0.0024442489884003997
3880166169,29078,vehicle,287.68902587890625,326.41986083984375,-5.551518917082952,-2.956917834125931e-06,-3.1415921209575752
1073352953,29078,vehicle,372.0358581542969,-2.3772799968719482,-2.723773304474743e-09,5.6681642924673315e-12,3.1395116595140053
213556023,29078,vehicle,134.5973358154297,327.0172119140625,5.883690529353539e-08,-1.0713054602130666e-10,3.139771850352506
1628590046,29078,vehicle,2.26749587059021,7.631229877471924,1.662046699452613,-5.292557807648618,-1.2665139269706942
4120465129,29078,vehicle,338.9816589355469,79.81597137451172,-3.446573065392446e-05,0.015540847520870555,-1.5685785793971332
1015227284,29078,vehicle,128.604736328125,129.7509307861328,-4.6840109749064816,0.0002669495018502708,3.1415356619424655
2900396540,29078,vehicle,181.6448211669922,-1.9664160013198853,-0.0013252154831813632,-5.318626858524169e-06,-3.137579269827044
3587539486,29078,vehicle,396.6189270019531,187.5964813232422,-0.0014481934592720902,-5.571592142722119,-1.5710562513172883
1146849989,29078,vehicle,334.3800964355469,157.0704345703125,-0.011202264938625932,3.796359939015504,1.5737471092827044
1457681385,29078,vehicle,395.8274841308594,55.05988311767578,-0.0032250219706453287,-11.212732804945126,-1.571083948192625
1726747598,29078,vehicle,92.40438079833984,85.52336120605469,0.00023106279302843175,0.006434585273801081,-1.6066904119669845
367118466,29078,vehicle,375.0947570800781,326.35400390625,-2.432921825745201e-08,1.7828010526180492e-10,3.13426496585044
2065705843,29078,vehicle,311.1286315917969,133.19984436035156,1.3805387831485396,0.0006589882195319901,0.00047734129422852663
3978545900,29078,vehicle,374.61456298828125,330.8590087890625,5.855506766722075,-0.0012350572196153154,-0.00021092234207963035
714679325,29078,vehicle,392.1217041015625,46.37625503540039,-0.0002571224180724732,7.913756366367407,1.5708288173601956
3262285446,29078,vehicle,88.32286071777344,76.5922622680664,-0.014477987023755638,5.775702927153374,1.5733030271709336
1401880247,29078,vehicle,92.49742126464844,174.212158203125,2.897964967242376e-05,0.031228785926664834,-1.5717243052767347
2250339631,29078,vehicle,94.11759185791016,127.09983825683594,-4.647130539592289,-3.453196602660393,-2.502534126827763
2525145270,29078,vehicle,92.52509307861328,154.58193969726562,-2.424883347819606e-08,2.8189721463343966e-05,-1.569936125762801
1825059061,29078,vehicle,313.625732421875,2.012183427810669,3.412264974480363e-06,-2.1337244534757076e-09,-0.0006253102239506051
346279610,29078,vehicle,88.172607421875,252.9596405029297,0.0017529893308319685,5.524433811535173,1.5704790111510136
893025708,29078,vehicle,395.8987121582031,176.06900024414062,-0.001869704349118845,-5.8214098788849515,-1.5711175040223602
1724402154,29078,vehicle,53.19748306274414,326.5416259765625,-5.888666151300002,0.00013957395246851924,3.1415689514560916
2595182244,29078,vehicle,299.1420593261719,198.77171325683594,5.825805512682557,-0.0013280889410241744,-0.00022796657305613747
874453657,29078,vehicle,388.6775817871094,324.7012939453125,8.935967076346885e-07,-5.403269042541109e-07,2.597749858965257
1498616609,29078,vehicle,79.83580017089844,-1.8400195837020874,-5.90914683568031,-0.47285448359740884,-3.061742029361511
505512523,29078,vehicle,301.1541748046875,133.20376586914062,5.549422263751976,-6.207182287261218e-05,-1.11852765783328e-05
3709073522,29078,vehicle,120.22164916992188,195.5625,-2.2083855614526393,-0.003785199697616382,-3.139878643112218
27029540,29078,vehicle,1.4490890502929688,33.2309455871582,-0.0016643455936348884,-6.274609821837483,-1.5710615776394685
1375770528,29078,vehicle,338.8888244628906,241.8497772216797,-3.695866307288099e-05,-0.011760759768792262,-1.57393885688119
4266869573,29078,vehicle,-1.5035977363586426,110.27407836914062,0.0003748586495015647,6.160045135536459,1.5707354735639882
368528135,29078,vehicle,2.79628849029541,208.8389434814453,-0.0012250191539680993,-0.02808913691899368,-1.6143805559306974
4012051816,29078,vehicle,338.9733581542969,228.75657653808594,-7.388052252902175e-10,-2.597770400164651e-07,-1.5736403165229922
3938307140,29078,vehicle,92.14663696289062,219.810791015625,1.4000951736707382e-10,-2.5372657818087245e-08,-1.5652782570162525
1966079641,29078,vehicle,41.148319244384766,331.2388916015625,4.831852251177742e-08,-6.691359981893611e-13,-1.3848436652496706e-05
1759883367,29078,vehicle,25.73621368408203,331.16845703125,4.176424451174197,-0.0035191572865795246,-0.0008426242339196522
3487645883,29078,vehicle,92.42070770263672,116.0844497680664,0.033120434252576804,-5.91701488716134,-1.565198894815768
544848518,29078,vehicle,120.82276153564453,2.0923733711242676,-0.004599056197559991,2.890534310793364e-07,-6.285059766220869e-05
1325658571,29078,vehicle,92.39759826660156,98.9247055053711,-1.5074034404779408e-06,0.014550652276874462,-1.5706927298284925
921579549,29078,vehicle,92.31082916259766,22.44696807861328,1.4236468649259501e-05,0.004194666221415489,-1.5741902592880936
4072577581,29078,vehicle,92.38365936279297,233.42498779296875,9.697735172846112e-12,1.6657993048732053e-08,-1.571378493809188
94066344,29078,vehicle,334.4844970703125,167.4441375732422,-0.0003799645086617431,5.617096411251568,1.5708639710865846
2853390219,29078,vehicle,299.99432373046875,330.5154724121094,-1.2915155277583158e-07,-3.938437514943046e-11,0.00030494696410635324
2524564450,29078,vehicle,22.289045333862305,2.038248062133789,5.386846409032904,-0.018030170093406253,-0.0033470608580115865
1882516347,29078,vehicle,-2.1422486305236816,159.20718383789062,0.0006315304051884737,6.018671002633817,1.5706913982479476
815178544,29078,vehicle,275.2521057128906,330.3910217285156,-2.558258538163963e-06,-3.4042754776700716e-09,0.0013306995432629937
2188308515,29078,vehicle,202.76173400878906,199.20489501953125,5.900401425021807,-0.0014048066449452404,-0.00023808661770772922
1160083145,29078,vehicle,362.5373229980469,326.5619201660156,0.5465073282433035,-0.0005990581305465235,3.1404964964851168
1832698586,29078,vehicle,127.63274383544922,326.9650573730469,0.9395428376908921,0.002837200962827715,-3.1385728952297525
3748346955,29078,vehicle,133.83773803710938,1.9189624786376953,-0.9612058774616349,0.00020683555183520285,-0.0002151833998237571
3198444053,29078,vehicle,121.48594665527344,326.6711120605469,0.481385605988338,0.01642568026294215,-3.1074842179286035
808811405,29078,vehicle,338.91900634765625,221.6101531982422,-4.702810836987271e-07,-0.0016472718472771329,-1.571081817663753
84250811,29078,vehicle,339.06494140625,108.66307067871094,0.0769762217727967,-8.000107470708501,-1.5611747252506039
3956289865,29078,vehicle,28.17011260986328,326.57232666015625,-5.6893286687567235,-0.00014090986830498625,-3.1415678861916554
1912328786,29078,vehicle,365.23541259765625,-1.9527854919433594,-0.08337715417120624,-8.488851821501528e-05,-3.140574527105056
4030311199,29078,vehicle,338.9559631347656,235.7322235107422,-4.730399821001962e-11,6.830358284074156e-08,-1.5701037717534214
3147513812,29078,vehicle,382.0475769042969,326.14154052734375,3.763492979232855e-07,-4.45933703084232e-08,3.023653233135089
1663586846,29078,vehicle,287.7590637207031,330.4103088378906,5.746095699407608e-07,7.019481384307602e-10,0.0012216082466646717
