id,timestamp_ms,agent_type,x,y,vx,vy,psi_rad
-1,45761,vehicle,392.2198791503906,306.496337890625,-1.4925806820623787e-12,6.970827311014818e-09,1.571010444946539
2985032057,45761,vehicle,-2.268460273742676,83.51243591308594,0.01476685549906656,18.37262704597525,1.5699925847779106
3028941286,45761,vehicle,396.8648986816406,104.48699188232422,-0.0014662472965730985,-5.67887048866026,-1.5710545202625799
2920337868,45761,vehicle,392.0353088378906,314.20721435546875,-1.959220059284063e-10,-4.980870654732649e-07,1.570402977901892
1503980471,45761,vehicle,116.47310638427734,2.032811164855957,-7.087341613719847e-08,1.0245211892678876e-10,-0.0014455638396950105
2125414330,45761,vehicle,358.60247802734375,-1.6013845205307007,-0.0,0.0,3.1406006260837387
2396446624,45761,vehicle,141.33572387695312,327.0087585449219,1.3833212660150097e-07,-1.6555937028909226e-10,3.1403958289959117
4076155829,45761,vehicle,31.204198837280273,-1.9578907489776611,-5.616739740615431,0.0003230989073307139,3.1415351293102476
130361148,45761,vehicle,92.38613891601562,226.82598876953125,-1.4452522811284442e-10,-2.427568542292047e-07,-1.5713916764565838
3417340120,45761,vehicle,300.41778564453125,330.5010986328125,-0.00013564657568566657,2.6876935376491525e-07,-0.0019813917209817906
2197730220,45761,vehicle,154.230224609375,35.02546310424805,-0.0007154933196111127,1.4649027030756507,1.5712847505388172
118743835,45761,vehicle,334.71221923828125,108.75579071044922,1.0160370720399917e-09,4.845864089814302e-07,1.5686996200686771
904053063,45761,vehicle,162.62744140625,54.31779479980469,-7.363872765849099,-2.862262853590308,-2.770874238264147
1291681130,45761,vehicle,113.09465789794922,195.61886596679688,-8.504354583644626e-08,-3.315525768122823e-10,-3.1376940520700263
715062232,45761,vehicle,338.9866638183594,22.499813079833984,-1.2128092397309283e-10,5.124930029505388e-08,-1.5684298418502522
220877689,45761,vehicle,92.9058609008789,84.88265228271484,0.0003558144610559543,-4.201448425485058,-1.5707116382722321
2069714320,45761,vehicle,92.46548461914062,321.80316162109375,0.9154339027894496,-8.075797746018836,-1.4579229045237958
3190467641,45761,vehicle,42.47755432128906,-1.9503740072250366,-7.368580817496614,-0.00010008096039086185,-3.1415790714682337
708315452,45761,vehicle,88.21267700195312,169.4534149169922,-0.059538919707467754,0.6422867159464442,1.6632305203318574
1314594676,45761,vehicle,132.30821228027344,199.0146484375,4.7649239340902785,-0.0010481741944315327,-0.00021997710604054508
2302084468,45761,vehicle,396.76800537109375,239.24075317382812,0.013644623598647342,-17.66408584033534,-1.570023876920719
757051778,45761,vehicle,334.7028503417969,297.8030090332031,-9.441133970025075e-12,-4.622015029763357e-08,1.5705920623392875
4203008516,45761,vehicle,112.88423919677734,55.693016052246094,7.522399224823034e-10,1.7875801596694031e-12,-3.1392163149491155
2631691725,45761,vehicle,334.72576904296875,304.8206481933594,-5.344185853918376e-12,1.418167982040225e-07,1.5708340105243213
1513387753,45761,vehicle,339.01324462890625,29.555875778198242,4.038835473821847e-10,-1.2882704608832195e-07,-1.5676612535596552
156273220,45761,vehicle,92.46793365478516,66.46672058105469,-0.06467784824319771,-5.770626017311338,-1.582003973926386
3812119762,45761,vehicle,110.74478149414062,2.0930917263031006,3.740883872290845e-07,-7.434082814960666e-10,-0.0019872504153056396
3616050434,45761,vehicle,176.7094268798828,326.3951721191406,-5.6721701599832794,0.0001586119801395651,3.141564690398347
2942158310,45761,vehicle,124.82579803466797,59.34002685546875,-0.0198929113851339,-1.3671936702647246e-05,0.0006872767030079473
3608800298,45761,vehicle,298.1677551269531,133.19717407226562,-5.211119194563922e-07,9.825658580698142e-11,-0.00018855178892296473
1146464971,45761,vehicle,60.19769287109375,2.5480520725250244,-5.10725783648688e-08,4.34158366453585e-11,-0.0008500809549347115
3013099654,45761,vehicle,-2.3426566123962402,223.72674560546875,0.0007632096402719962,5.697422453306411,1.5706623697920656
2246582517,45761,vehicle,127.98316192626953,133.35665893554688,-0.017861841171525287,-1.6364175352279136e-06,9.161527722339652e-05
3192940987,45761,vehicle,338.8669738769531,219.46205139160156,-0.0,-0.0,-1.5728351097674067
828836647,45761,vehicle,293.29656982421875,330.79315185546875,-0.0002703309923562231,-3.2782687780295726e-07,0.0012126863969385811
1702089089,45761,vehicle,371.1454162597656,-2.4276890754699707,3.894856443163118e-05,5.086740708287918e-08,-3.1402866393912183
2111029583,45761,vehicle,92.01154327392578,279.8059387207031,-0.0022742965467329145,-5.663022538311028,-1.5711979314872806
420096522,45761,vehicle,88.35869598388672,219.0147247314453,0.0005514089812700219,5.050013512071229,1.5706871371902034
510102133,45761,vehicle,294.1710205078125,1.870585560798645,1.210741826729276,0.009061159727453473,0.007483833763461683
4109025732,45761,vehicle,300.9574279785156,1.515043020248413,3.1872587441426954,-0.2490475946944396,-0.07798004484574539
2913592560,45761,vehicle,315.378173828125,1.7414559125900269,3.7081858414682274,0.004053493561008663,0.0010931199567068932
3970347779,45761,vehicle,157.5124053955078,29.853544235229492,-0.001700217605192138,-0.02733351698686062,-1.6329189534367934
1933996401,45761,vehicle,337.9419860839844,1.0783088207244873,6.4955722117738e-08,-5.912774755085406e-08,2.4031281770311383
3047764241,45761,vehicle,53.26544952392578,2.046076774597168,-1.6106430101712054e-08,-7.273161909985494e-12,0.0004515688063517519
1260711767,45761,vehicle,286.0856628417969,55.68157196044922,-5.448223590244937,-8.125318362965954e-05,-3.1415777398876887
3957993155,45761,vehicle,335.0718994140625,33.63330078125,2.445443919906587e-10,-3.49476095767759e-07,1.571496072371315
4289594148,45761,vehicle,-2.389702558517456,235.49717712402344,0.003398313892559194,8.007813686269369,1.5703719520751924
4139896837,45761,vehicle,112.17839813232422,129.49009704589844,-4.7675592662036186e-08,6.550272063269577e-11,3.140218728783421
1686932955,45761,vehicle,112.7573013305664,-1.9680259227752686,1.3883782746927373e-06,-3.954829956004294e-09,3.1387441364878446
1726501337,45761,vehicle,335.2385559082031,5.90154504776001,0.0006306432569923897,-0.0027698869170609632,1.7946585853917039
1682591593,45761,vehicle,313.8250427246094,330.4513854980469,-8.447666070541253e-07,1.1037274316974385e-09,-0.0013065464406813864
3380823586,45761,vehicle,368.77252197265625,326.3265380859375,-1.0361695802164825e-08,3.3414737966524594e-11,3.1383678318258164
4176583038,45761,vehicle,306.70751953125,1.9652259349822998,3.005612555901119,-0.0005795206712080538,-0.0001928128304124462
3855978784,45761,vehicle,338.6292419433594,274.8224792480469,-0.0001479795792922699,-5.911211488778864,-1.5708213605091432
1042098875,45761,vehicle,54.1898193359375,-1.9611594676971436,-5.451143685447286,-0.0007824810610131122,-3.141449109207038
644930681,45761,vehicle,88.3529281616211,230.16815185546875,0.0013105107753237576,5.679035512396097,1.5705655638864413
2234188147,45761,vehicle,335.1517639160156,26.420446395874023,-1.1224090960037652e-10,6.273081871263984e-08,1.5725855715732664
4109707537,45761,vehicle,2.587209701538086,125.72209930419922,-0.006433804096618052,-6.786100198698265,-1.571744412142965
3675841917,45761,vehicle,174.242919921875,55.82485580444336,-4.533347079406761,-0.0006760898837953972,-3.141443516568749
2817926641,45761,vehicle,92.7618408203125,28.05596351623535,0.0010876993640725322,-0.007756589259848406,-1.4314757175284913
4029506115,45761,vehicle,-2.494490146636963,215.05247497558594,-0.0036617494218275405,4.0309679565764975,1.5717047310427226
3277167701,45761,vehicle,132.22288513183594,59.39890670776367,0.0025529988817672394,-1.652168720883168e-06,-0.0006471481448892548
518241310,45761,vehicle,-2.62835955619812,189.3577880859375,-0.004500042637000117,3.277223120077564,1.5721694526529415
778540568,45761,vehicle,338.9315185546875,42.95614242553711,-4.0376564629816653e-10,1.3251775724624057e-08,-1.5403369544593333
657465635,45761,vehicle,20.29448699951172,2.0589969158172607,2.276235309021445e-08,-1.4814479084384404e-10,-0.006508233071935642
835227171,45761,vehicle,157.7899627685547,23.67967414855957,-1.2566779008975273e-11,-7.61702228693955e-08,-1.570961309624427
715280319,45761,vehicle,92.39908599853516,161.5304412841797,1.6390902756024449e-10,2.82583963765269e-07,-1.571376363280316
3020211281,45761,vehicle,311.6824035644531,59.589500427246094,0.19000354883093815,0.0002341468099895132,0.0012323279902008912
2101598167,45761,vehicle,127.96743774414062,-2.03031587600708,-4.611943175621702,0.0007995808377461132,3.141419281802829
14974470,45761,vehicle,338.9898376464844,36.57738494873047,1.247889167398046e-09,-2.636642505926717e-07,-1.5660634900636623
1398818972,45761,vehicle,281.92779541015625,133.63705444335938,5.613743172650821,-0.0012199446027421907,-0.0002173139286958205
2694688339,45761,vehicle,2.2780797481536865,146.34149169921875,-0.004320910679574672,-9.305846164821494,-1.571260648930952
3916750283,45761,vehicle,116.79842376708984,326.9374694824219,6.831795737555044e-07,-3.260056588022791e-09,3.136820801548589
1983197581,45761,vehicle,-2.1629858016967773,139.1234893798828,-0.00033497778756476907,18.362339016719947,1.5708145694483637
2942851653,45761,vehicle,338.80303955078125,100.26835632324219,0.00044209953769197796,-6.114385112038275,-1.570724021971301
3949181016,45761,vehicle,88.34362030029297,174.86178588867188,9.511253876133937e-09,-3.566948005090714e-06,1.5734628168363385
3672416715,45761,vehicle,338.85546875,226.30577087402344,-1.842348769310299e-10,1.4186195445578003e-07,-1.5694976362893194
3325384226,45761,vehicle,182.6011505126953,55.84110641479492,-3.5557841715307186,-0.0006193135499549035,-3.141418482854502
1359910869,45761,vehicle,302.5198059082031,59.6039924621582,4.171711023725937,0.0018744747234494498,0.0004493299240139508
2262630317,45761,vehicle,172.09860229492188,330.6295166015625,11.928118488897828,-0.0022744813079632873,-0.00019068231779502813
805172996,45761,vehicle,92.11148071289062,167.51425170898438,-3.692800607382436e-05,-0.011760971276359748,-1.5739361937201
1986857511,45761,vehicle,-2.476766347885132,251.4832763671875,0.0010839637028929453,11.212712235507958,1.5706996540473268
1279946346,45761,vehicle,130.23484802246094,2.9127817153930664,0.029385752582414885,-3.944255609805234e-05,-0.001342233189399936
74618890,45761,vehicle,334.70416259765625,291.78424072265625,-1.265280027674393e-10,-1.507789486397987e-07,1.5699571647354127
3085549129,45761,vehicle,391.97674560546875,320.9991455078125,-5.0851151331440485e-09,1.882641016944767e-08,1.8346064012170558
2057201815,45761,vehicle,306.45654296875,198.97398376464844,-1.8377365063415157e-09,2.2229411971716325e-12,-0.0012096076370768274
1015694095,45761,vehicle,232.55889892578125,330.6383056640625,20.61745188446036,-0.0055127223980256145,-0.0002673813571893102
1250507297,45761,vehicle,154.228759765625,17.918020248413086,0.0004512979311313984,5.863650304593296,1.5707193614393933
4280502996,45761,vehicle,92.22357940673828,302.417724609375,-0.0016236958901845772,-5.885013833167742,-1.5710722302838287
3428459672,45761,vehicle,66.85588836669922,2.0130608081817627,3.5955590831553974e-07,-2.9071385386671317e-10,-0.0008085357069480567
414519966,45761,vehicle,148.38682556152344,327.0710754394531,-5.7196054177907585e-06,-1.8720412074986864e-09,-3.1412653510918225
2866945113,45761,vehicle,338.6322326660156,304.7996826171875,-0.004885849870376784,-6.8315216712662865,-1.5715115187056374
1853482628,45761,vehicle,46.39568328857422,2.5198092460632324,-5.3601542514352464e-08,1.3101577697901615e-10,-0.0024442489884003997
3880166169,45761,vehicle,195.4601593017578,326.41986083984375,-5.551510334013121,4.435369894652889e-06,3.141591854641466
1073352953,45761,vehicle,335.1936340332031,12.533079147338867,-3.711057271464046e-09,1.9562933044208438e-07,1.589763892710659
213556023,45761,vehicle,134.5973358154297,327.0172119140625,9.152539098191845e-10,-1.6664991236008849e-12,3.139771850352506
1628590046,45761,vehicle,33.744266510009766,2.3478176593780518,9.704113079531789e-08,1.892984836158604e-10,0.0019507011300875542
4120465129,45761,vehicle,272.26470947265625,55.677860260009766,-6.087027385231255,0.0014151971461779892,3.1413601596266294
1015227284,45761,vehicle,117.51436614990234,129.7515106201172,-0.0066636907441254695,7.542254842288668e-07,3.141479469243465
2900396540,45761,vehicle,118.2197036743164,-1.9651508331298828,-0.0013252485491005333,-4.602291384668975e-06,-3.13811989152833
3587539486,45761,vehicle,396.5909729003906,91.54164123535156,-0.001145012213981045,-4.3961633144792165,-1.5710567839495064
1146849989,45761,vehicle,334.0329895019531,168.24700927734375,-0.000507701377446844,-0.00413672198123243,1.4486766755351497
1457681385,45761,vehicle,363.8791198730469,-2.695176601409912,-0.002481006550000943,8.721662546417901e-08,3.141557499863404
1726747598,45761,vehicle,91.75460052490234,76.17330932617188,0.04887527060985269,-8.514103796334265,-1.5650558830652308
367118466,45761,vehicle,375.0947570800781,326.35400390625,8.165699552052906e-08,-5.98367674732155e-10,3.13426496585044
2065705843,45761,vehicle,311.215087890625,133.19998168945312,0.0,0.0,0.0004934677554206829
3978545900,45761,vehicle,396.85955810546875,153.09912109375,-0.0014277654095061364,-16.8855685584118,-1.5708808821595066
714679325,45761,vehicle,392.1418151855469,299.2270202636719,-1.5567126819649765e-07,-0.00047026199506033765,1.5704652958713998
3262285446,45761,vehicle,88.34375,161.16123962402344,-0.007361993513751067,4.171387851636868,1.5725612036492922
1401880247,45761,vehicle,92.49676513671875,174.20469665527344,-1.1703097115922597e-11,-1.24312220940516e-08,-1.5717377542402395
2250339631,45761,vehicle,92.3931655883789,111.54007720947266,-2.39996636920812e-05,-0.0763705111583113,-1.5711105798035259
2525145270,45761,vehicle,92.49474334716797,154.58193969726562,-2.2981612675990385e-08,2.714089287283124e-05,-1.569949574726306
1825059061,45761,vehicle,329.29388427734375,1.9969271421432495,4.212386894800635,-0.013203939906303875,-0.0031345403429489382
346279610,45761,vehicle,88.17655181884766,305.6376037597656,-4.907713336081817e-10,-1.7340831178893012e-07,1.5679661855044693
893025708,45761,vehicle,395.85980224609375,80.23326110839844,-0.001869703583372676,-5.821407494699284,-1.5711175040223602
1724402154,45761,vehicle,2.3965632915496826,236.257568359375,-0.018353895153805307,-17.359617067461812,-1.571853601747658
2595182244,45761,vehicle,313.6766662597656,198.77235412597656,0.0,-0.0,-0.002473011128173255
874453657,45761,vehicle,388.6775817871094,324.7012939453125,-3.2595195817107327e-07,1.9709183235502854e-07,2.597749858965257
1498616609,45761,vehicle,-2.449676752090454,19.58502197265625,-0.018825873726790576,5.675380000680951,1.5741134270906447
505512523,45761,vehicle,305.58233642578125,133.20281982421875,-0.44404855284122524,-2.770031052654808e-05,6.238126509675047e-05
3709073522,45761,vehicle,118.92913055419922,195.5609893798828,-0.01740650868877562,-1.7652499049523978e-05,-3.140578521846691
27029540,45761,vehicle,27.772306442260742,2.7931299209594727,0.003805025656637658,0.0001544017210411499,0.04055611510783981
1375770528,45761,vehicle,315.50933837890625,195.27867126464844,-7.238925048156676,-0.00243293714011311,-3.1412565626602253
4266869573,45761,vehicle,-1.4528484344482422,197.37823486328125,0.0009104803965596982,2.2611082151259465,1.5703936568380765
368528135,45761,vehicle,2.198349952697754,163.1625518798828,0.04857612081425332,-6.410232076312709,-1.563218568229185
4012051816,45761,vehicle,338.7931823730469,159.1607666015625,-0.0010183607798624338,-5.6945342107004375,-1.5709751580620954
3938307140,45761,vehicle,92.14663696289062,219.810791015625,8.853786244002893e-11,-1.604491558774583e-08,-1.5652782570162525
1966079641,45761,vehicle,107.90342712402344,330.6610107421875,5.791705122971415,-0.012216019148783975,-0.002109223583342757
1759883367,45761,vehicle,65.09627532958984,331.1673889160156,-7.813960084572734e-06,5.368938134712405e-09,-0.0006870955612404434
3487645883,45761,vehicle,92.42642211914062,103.70354461669922,-0.002435807840873892,-3.5056732775415504,-1.5714911455232983
544848518,45761,vehicle,122.98884582519531,2.095728635787964,-3.8117659231390184e-07,-1.1204944015545405e-09,0.0029395592403779836
1325658571,45761,vehicle,92.39625549316406,93.97998046875,-0.000822903466236221,-4.049737846691192,-1.5709995259860696
921579549,45761,vehicle,92.2804946899414,22.44744110107422,2.2182252741212734e-07,6.564936115910823e-05,-1.5741752124279347
4072577581,45761,vehicle,92.38365936279297,233.42498779296875,-4.6292139340863924e-11,-7.951693066544452e-08,-1.571378493809188
94066344,45761,vehicle,334.482177734375,173.806396484375,2.63991195787496e-10,2.276165544724468e-06,1.5706803461294236
2853390219,45761,vehicle,366.32159423828125,330.64947509765625,5.552544402380676,-0.0014580298958171939,-0.00026258769973645823
2524564450,45761,vehicle,39.81764221191406,2.0300538539886475,-6.202689333186198e-07,8.196612309600287e-10,-0.0013214602728229927
1882516347,45761,vehicle,-2.137193441390991,205.2957000732422,0.00017185136936865035,4.496800896221848,1.570758110433254
815178544,45761,vehicle,307.15032958984375,330.3822937011719,-7.2149301157326685e-06,-1.1423925226333476e-08,0.001583371633022115
2188308515,45761,vehicle,297.6694641113281,199.19052124023438,3.884915987783373,0.001571283290461023,0.0004044574476571014
1160083145,45761,vehicle,363.5733947753906,326.55816650390625,0.5616295882030249,-0.0006383693312263632,3.140456016436547
1832698586,45761,vehicle,127.3373794555664,326.96343994140625,-0.001325147306782848,-6.316396555035248e-06,-3.136826127870769
3748346955,45761,vehicle,136.93321228027344,1.9180502891540527,-0.9612058772407549,0.00020785949027204984,-0.00021624866425978882
3198444053,45761,vehicle,121.60166931152344,327.36029052734375,-0.01707310003082823,0.004945449020652583,2.8596459195119763
808811405,45761,vehicle,281.5995178222656,195.30758666992188,-5.834933753001321,-0.00023619840184904226,-3.141552173541224
84250811,45761,vehicle,338.70343017578125,48.356590270996094,0.0005811802308444105,0.010489077186569617,-1.626147866365267
3956289865,45761,vehicle,2.439131259918213,185.85702514648438,-0.0039031791654090485,-10.45377181618571,-1.5711697019797257
1912328786,45761,vehicle,335.1353759765625,19.40218734741211,-1.9389388987588743e-11,7.943908050107e-08,1.5710404055088023
4030311199,45761,vehicle,338.7956848144531,174.2652130126953,-0.0019882479090076446,-5.505710719641137,-1.5711574514387114
3147513812,45761,vehicle,382.0475769042969,326.14154052734375,3.532068644914687e-07,-4.185123923615161e-08,3.023653233135089
1663586846,45761,vehicle,338.5877685546875,320.6440124511719,0.3827620278656104,-5.6735685790779256,-1.5034343301824324
