id,timestamp_ms,agent_type,x,y,vx,vy,psi_rad
-1,11993,vehicle,392.18017578125,24.882415771484375,0.008527209804777005,5.688240335446675,1.569297233417291
2985032057,11993,vehicle,92.10367584228516,28.704078674316406,4.255892055866235e-12,-5.282844011754805e-08,-1.5707157661719218
3028941286,11993,vehicle,396.9267883300781,312.9918212890625,0.03432482800386766,-5.592914634158965,-1.5646592052208634
2920337868,11993,vehicle,392.0129699707031,47.19534683227539,-0.0008278149269357143,8.355893094065157,1.5708953963874475
1503980471,11993,vehicle,92.18695831298828,45.61973571777344,0.015315079566036465,-5.747827153597172,-1.5681318341242723
2125414330,11993,vehicle,395.93701171875,46.10844802856445,-0.007025142132372057,-12.315106295512294,-1.5713667759003915
2396446624,11993,vehicle,245.87185668945312,327.0354309082031,-5.942208766926931,1.1077541423418981e-05,3.1415907893770303
4076155829,11993,vehicle,112.6908187866211,-1.9478570222854614,1.6058897708792396e-06,2.647304035538396e-10,-3.1414278039183174
130361148,11993,vehicle,92.41411590576172,293.8591003417969,-0.002183906035866061,-6.888221394519683,-1.5711133761226705
3417340120,11993,vehicle,168.39015197753906,330.4823303222656,5.762667580480508,0.0009326047093636411,0.00016183558884790006
2197730220,11993,vehicle,210.67984008789062,-1.9472200870513916,-5.556211922288408,0.0005386139830360865,3.141495714526114
118743835,11993,vehicle,306.79681396484375,59.33424758911133,-2.9124943191228794e-06,4.38549460690134e-09,-0.001505751020256476
904053063,11993,vehicle,179.10597229003906,55.82514572143555,-2.856590876842998,0.0014096812925283512,3.1410991698398014
1291681130,11993,vehicle,203.5632781982422,195.59335327148438,-5.788879196569012,0.0015139217255661112,3.1413311311707472
715062232,11993,vehicle,313.6129455566406,59.3152961730957,-2.8251759778182614e-06,-1.0550829883244487e-08,0.0037345570384019204
220877689,11993,vehicle,121.40283203125,129.75634765625,-0.006008459123463778,1.2577174899163286e-06,3.141383329128113
2069714320,11993,vehicle,-2.4006476402282715,249.96681213378906,0.003888438010678671,9.299895427324724,1.5703782105037543
3190467641,11993,vehicle,118.22513580322266,-2.1082277297973633,-0.003704960315824015,-8.128871935062929e-05,-3.1196556630585923
708315452,11993,vehicle,88.73417663574219,99.74722290039062,2.607068615590503e-05,0.011998971541440853,1.5686235868195555
1314594676,11993,vehicle,88.64353942871094,172.69650268554688,1.5926672806536102e-07,0.0016474832005183508,1.5706996540473268
2302084468,11993,vehicle,312.6595458984375,330.66363525390625,-0.009304138778180076,0.0007208540593954533,-0.07732224405649582
757051778,11993,vehicle,305.1491394042969,199.056396484375,-0.02720294786500109,2.9470970799301344e-05,-0.0010833737363884902
4203008516,11993,vehicle,153.7655029296875,31.262548446655273,-6.148807442066146e-12,1.2734902313743892e-08,1.5712791579005279
2631691725,11993,vehicle,312.3171081542969,199.05612182617188,0.0,-0.0,-0.0025161545979068643
1513387753,11993,vehicle,289.5797119140625,59.33029556274414,6.128657810159079,-0.00030684611202281214,-5.0067424429828346e-05
156273220,11993,vehicle,92.53530883789062,106.39815521240234,-0.001369121057418921,-5.5910409204706655,-1.5710412044571294
3812119762,11993,vehicle,110.91465759277344,55.83747863769531,7.56460440868783e-09,-7.862893007769007e-12,3.1405532218163352
3616050434,11993,vehicle,335.4158935546875,308.00689697265625,5.1669231661536884e-11,-1.0663075214396342e-07,1.5712808889552365
2942158310,11993,vehicle,88.61064147949219,25.917118072509766,-6.798369054187825e-10,-3.4778531034516634e-06,1.5706008507708848
3608800298,11993,vehicle,145.68064880371094,133.23402404785156,-4.635272854408427e-06,2.2466950772614136e-09,-0.0004846952858851307
1146464971,11993,vehicle,40.1513557434082,2.543611764907837,5.7148661269458865,-0.0006270478976132546,-0.00010972223691126462
3013099654,11993,vehicle,-2.404405355453491,82.69566345214844,0.0007487719606259722,5.821099233153512,1.5706676961142458
2246582517,11993,vehicle,88.6150894165039,105.10009765625,5.599425038207626e-12,4.1065397811289317e-08,1.5706599729470845
3192940987,11993,vehicle,339.0213317871094,315.6232604980469,-0.5166225085899308,-5.8431746527507915,-1.658981713128745
828836647,11993,vehicle,88.64796447753906,300.4862976074219,-0.0011353268360306987,2.5581035478819505,1.5712401425905582
1702089089,11993,vehicle,395.97705078125,195.92984008789062,-0.0005771573274162683,-3.306161591697347,-1.5709708970043512
2111029583,11993,vehicle,54.97494125366211,330.44464111328125,-0.00021011473627646112,8.80762203303631e-08,-0.0004191815230691814
420096522,11993,vehicle,153.10220336914062,129.7396697998047,-5.6254006069645515,0.0021558160845485115,3.1412094247089306
510102133,11993,vehicle,158.37844848632812,25.239648818969727,-0.00021143276015593478,0.0034863014533450896,-1.5102237930654803
4109025732,11993,vehicle,190.23448181152344,1.8983385562896729,8.03864346074428,0.002459424919170724,0.0003059502333251147
2913592560,11993,vehicle,235.4285888671875,1.9376064538955688,2.737195442859408,-0.0005175610220309069,-0.00018908442114098058
3970347779,11993,vehicle,128.59629821777344,59.480979919433594,-0.008172648743636888,0.0004627753597152558,-0.0565644887724146
1933996401,11993,vehicle,395.9362487792969,18.889406204223633,-0.0019863096706331748,-6.342232869955831,-1.5711095145390899
3047764241,11993,vehicle,18.185100555419922,2.0756402015686035,7.496790508009042,-0.11007981915842756,-0.014682537641230254
1260711767,11993,vehicle,306.1383361816406,133.41566467285156,-1.6033889955737428e-06,1.733654344568579e-09,-0.0010812433375535894
3957993155,11993,vehicle,335.07196044921875,32.674720764160156,-0.0006029230879348639,5.216446364845437,1.570911907986206
4289594148,11993,vehicle,-2.4120841026306152,137.21083068847656,0.00021863370761914728,3.4566552569864575,1.5707330767190073
4139896837,11993,vehicle,214.71853637695312,129.4872589111328,-5.790629786827116,-0.0009437884604000326,-3.1414296681310803
1686932955,11993,vehicle,175.89035034179688,-1.9625753164291382,1.1966505840514764e-07,-6.166600330793805e-11,3.1410773319188627
1726501337,11993,vehicle,391.1412048339844,-0.3002566397190094,-4.445602731480445,-3.6631650895862142,-2.452389466662661
1682591593,11993,vehicle,234.9292755126953,330.4571838378906,6.899645225146073,-0.0011943662352110424,-0.00017310545460050517
3380823586,11993,vehicle,392.4383544921875,299.4872131347656,-0.012651949853387596,9.697333665554613,1.5721010094129264
4176583038,11993,vehicle,206.5704803466797,2.0011398792266846,5.556212194558203,-0.0016010447987847628,-0.0002881539974372829
3855978784,11993,vehicle,305.56915283203125,330.5410461425781,-7.25968024343544e-09,-1.5661709265329348e-12,0.00021573552136151786
1042098875,11993,vehicle,157.8470916748047,32.20794677734375,3.4731722515794454e-10,-2.3897929462160245e-08,-1.5562639893585521
644930681,11993,vehicle,88.63038635253906,165.76617431640625,-8.061465317462081e-10,3.128381665377738e-07,1.5733732014656572
2234188147,11993,vehicle,358.01287841796875,-1.9546061754226685,-5.2589682079374813e-05,-3.533583010967211e-08,-3.1409207380467663
4109707537,11993,vehicle,2.6276259422302246,270.63848876953125,-0.002212860258346953,-12.183502949981706,-1.57097795438124
3675841917,11993,vehicle,215.181884765625,55.83754348754883,-7.5493847299008685,-0.004421140069336486,-3.141007024466085
2817926641,11993,vehicle,126.43269348144531,55.7562141418457,-3.56781434921405,-8.076414700180502e-05,-3.1415700167205274
4029506115,11993,vehicle,-2.286588191986084,73.28749084472656,-0.0019518272066061523,3.6058971367739643,1.5713376142864552
3277167701,11993,vehicle,88.64314270019531,33.2200813293457,1.5934502345825285e-07,0.0016482931019085162,1.5706996540473268
518241310,11993,vehicle,29.177892684936523,-2.116694211959839,-0.46579555018813273,0.002476410694446518,3.136276185105668
778540568,11993,vehicle,227.79019165039062,59.325496673583984,5.869388721448765,-0.001985153098406754,-0.0003382214259307726
657465635,11993,vehicle,1.7234234809875488,185.76710510253906,-0.0008334743380247918,-16.602880456984824,-1.5708465273814445
835227171,11993,vehicle,134.6495819091797,59.32780456542969,-3.0764143903494665e-09,-6.380499322017416e-13,0.00020740051309560257
715280319,11993,vehicle,118.0025863647461,195.2687225341797,1.8986169232937268e-07,-2.2212435821618704e-10,3.1404227269229215
3020211281,11993,vehicle,153.76817321777344,37.5069694519043,7.95777434170032e-10,-4.821445399432239e-07,1.5724468208804732
2101598167,11993,vehicle,222.48876953125,-1.9626059532165527,-5.790613574865822,-0.0009407015506530917,-3.141430200763298
14974470,11993,vehicle,258.0179443359375,59.33259582519531,5.942212471178316,-0.001145734916266834,-0.00019281284666709152
1398818972,11993,vehicle,104.56415557861328,133.68833923339844,5.807160926497255,-0.09465974836466211,-0.016299077463205653
2694688339,11993,vehicle,2.3243935108184814,305.8027038574219,-0.015074334878403432,-6.844800085604325,-1.5729986278583377
3916750283,11993,vehicle,119.07990264892578,326.9375305175781,-5.762669679730619,-0.002038070751024817,-3.1412389857970306
1983197581,11993,vehicle,92.12187194824219,21.969289779663086,3.263085492166414e-10,5.913537249031502e-08,-1.5763142634154863
2942851653,11993,vehicle,234.3959503173828,198.76451110839844,5.563551789412146,-0.001123100921589452,-0.00020186761062800625
3949181016,11993,vehicle,88.6303482055664,112.13860321044922,-6.364576520940474e-11,2.4508794066661187e-08,1.5733931751738328
3672416715,11993,vehicle,351.3216857910156,326.31072998046875,-6.0355815829180255,0.00026521647962594755,3.141548711431807
3325384226,11993,vehicle,236.55458068847656,55.84444808959961,-5.511346785745542,0.0005871041747702895,3.14148612714619
1359910869,11993,vehicle,154.22628784179688,17.455177307128906,0.07530326811421993,7.821583179861088,1.5611689994542601
2262630317,11993,vehicle,60.98007583618164,330.6181640625,0.003748684689759604,8.765419428518238e-05,0.023378393181692464
805172996,11993,vehicle,124.17082977294922,195.3961944580078,-0.35451500642785466,0.0009230785452804108,3.138988880992023
1986857511,11993,vehicle,-2.348022937774658,145.86788940429688,0.00025513620485566286,2.737200486690228,1.5707031161567437
1279946346,11993,vehicle,113.14447021484375,1.9611849784851074,8.237446618078195,0.049851962584356646,0.006051796909569134
74618890,11993,vehicle,273.01025390625,198.7554473876953,5.869582796272442,-0.001978966270968626,-0.00033715619400403156
3085549129,11993,vehicle,392.50970458984375,114.43929290771484,0.014921597567923498,19.34391018418541,1.570024942185155
2057201815,11993,vehicle,159.0382080078125,198.97450256347656,5.509594308443707,-0.0012061155453783098,-0.0002189118578591587
1015694095,11993,vehicle,66.94755554199219,330.46124267578125,-1.5862622097587038e-07,6.835196819836006e-11,-0.00043089952939340205
1250507297,11993,vehicle,234.6294403076172,-1.9459882974624634,-5.72767042314565,-0.002878375132063895,-3.141090115092095
4280502996,11993,vehicle,42.08646011352539,331.2277526855469,6.236501196921407,-0.006915908583481693,-0.0011089400178346696
3428459672,11993,vehicle,66.84329986572266,2.0131616592407227,-0.0408591767015814,2.6289603634609056e-05,-0.0006434197193631439
414519966,11993,vehicle,269.4613952636719,327.04534912109375,-5.639883507173867,0.00035296808072113957,3.141530069304176
2866945113,11993,vehicle,286.0757751464844,330.45672607421875,6.354856397625299,-0.001089906015839548,-0.00017150757420110295
1853482628,11993,vehicle,1.7229969501495361,25.02776336669922,0.0003745561902039779,-5.7640762207406135,-1.5707313456642986
3880166169,11993,vehicle,335.50518798828125,282.8506774902344,0.0010705704661716478,5.556218044139231,1.5706036470900293
1073352953,11993,vehicle,372.0358581542969,-2.3772807121276855,4.8459042438053734e-05,-1.0084312580025956e-07,3.1395116595140053
213556023,11993,vehicle,206.9739532470703,327.03466796875,-5.56355810133838,5.9266605834893494e-05,3.1415820009454327
1628590046,11993,vehicle,1.6753218173980713,104.520751953125,0.001364012181169013,-5.4807689876771715,-1.5705474543910287
4120465129,11993,vehicle,313.6098937988281,133.22540283203125,-1.1223806400906898e-07,-4.1843662606413055e-10,0.003728099652981454
1015227284,11993,vehicle,236.55458068847656,129.7544708251953,-5.511347739419853,0.0005871042763618225,3.14148612714619
2900396540,11993,vehicle,181.6448211669922,-1.9667192697525024,-0.0013252383364081876,-4.82248846938143e-06,-3.137953710276309
3587539486,11993,vehicle,396.6479187011719,284.5883483886719,-0.0014967466711114704,-5.691329759242111,-1.571059313952542
1146849989,11993,vehicle,279.2289733886719,133.10276794433594,4.214807415919531,0.0008923180283302489,0.00021171026975712364
1457681385,11993,vehicle,395.86334228515625,187.0514373779297,-0.0007810798289542611,-2.7371953803471945,-1.5710816845056985
1726747598,11993,vehicle,115.29668426513672,129.62576293945312,-0.02886854565102708,0.002104080468868909,3.0688364241893735
367118466,11993,vehicle,392.4775390625,272.7057800292969,0.000950842443749617,11.940978966049164,1.5707166982783032
2065705843,11993,vehicle,214.1824493408203,133.22268676757812,5.974655796884369,-0.0019189230614107642,-0.0003211771624449748
3978545900,11993,vehicle,334.8489685058594,270.4757995605469,0.000346114004232141,5.4378075489520405,1.5707326772448438
714679325,11993,vehicle,334.1195983886719,1.9854878187179565,6.128627587468717,-0.022471571325184077,-0.0036666399287467698
3262285446,11993,vehicle,149.0269775390625,55.76899719238281,-5.584175881085615,-0.028950725086501972,-3.136408277895736
1401880247,11993,vehicle,161.18869018554688,195.26817321777344,-5.790617865898319,-0.0009437865174619672,-3.1414296681310803
2250339631,11993,vehicle,182.2318878173828,129.73695373535156,-5.942207336415456,1.1077538756641233e-05,3.1415907893770303
2525145270,11993,vehicle,92.55438995361328,175.81539916992188,-0.0017422501033645531,-5.6396877458703525,-1.5711052534813459
1825059061,11993,vehicle,305.9091796875,2.012714385986328,6.899646178820375,-0.0011943664002972676,-0.00017310545460050517
346279610,11993,vehicle,110.9823226928711,194.9922637939453,-3.3659343299768076e-07,1.5856581720730587e-09,3.136881787937552
893025708,11993,vehicle,395.93853759765625,274.2140808105469,-0.001863404401942064,-5.821101844084962,-1.5711164387579242
1724402154,11993,vehicle,88.61489868164062,270.6612243652344,0.0019291798731158943,5.65050473659032,1.5704549095431484
2595182244,11993,vehicle,198.546142578125,198.7645263671875,5.563556080946483,-0.001123101787911246,-0.00020186761062800625
874453657,11993,vehicle,392.53375244140625,187.186279296875,0.0010626137873455902,13.278026538291122,1.5707162988041397
1498616609,11993,vehicle,92.1374282836914,57.09217834472656,0.024977455774661515,-5.53567162775908,-1.5662842661180298
505512523,11993,vehicle,190.83157348632812,133.22225952148438,8.240646713244312,0.003151800705891891,0.00038247004900004116
3709073522,11993,vehicle,242.2918701171875,195.56741333007812,-7.5493847299008685,-0.004421140069336486,-3.141007024466085
27029540,11993,vehicle,1.4790204763412476,140.6508026123047,-0.003423531030142393,-11.952710615057706,-1.5710827497701345
1375770528,11993,vehicle,338.90838623046875,286.7388916015625,0.0010955548991824263,-8.03464595954916,-1.5706599729470845
4266869573,11993,vehicle,22.091997146606445,-2.0572316646575928,-2.737188100798415,9.476444700054892e-06,3.141589191480376
368528135,11993,vehicle,3.561912775039673,318.6394958496094,-1.0974269241950618,-4.740898909888654,-1.7982706307781782
4012051816,11993,vehicle,338.9733581542969,228.75657653808594,2.437720202684235e-09,8.571457225317936e-07,-1.5736403165229922
3938307140,11993,vehicle,92.08753967285156,251.21743774414062,-0.0024885574729309255,-5.974663693008204,-1.571212845189385
1966079641,11993,vehicle,5.004648208618164,330.1727600097656,4.84379773256519,3.233640598889491,0.5886372307386962
1759883367,11993,vehicle,-2.416618585586548,229.75384521484375,-0.00090184651080917,9.393553690533913,1.570892333752194
3487645883,11993,vehicle,163.29705810546875,129.77305603027344,-4.420159428673088,0.002765148402611472,3.1409670770497335
544848518,11993,vehicle,92.24642181396484,35.25300216674805,3.8063671935191615e-05,0.035048210813223964,-1.5718823638874309
1325658571,11993,vehicle,128.57786560058594,129.74827575683594,2.4044866520270387e-07,-2.790021579438022e-10,3.1404323143028456
921579549,11993,vehicle,117.53841400146484,55.82320022583008,-2.1247092654176224e-05,-2.021196464783509e-08,-3.140641372448417
4072577581,11993,vehicle,92.43791961669922,311.97613525390625,-0.10780813007437783,-6.774081719152098,-1.586709779572556
94066344,11993,vehicle,292.05108642578125,133.26234436035156,5.764337942360431,0.000924579076970622,0.0001603964025508077
2853390219,11993,vehicle,296.5330810546875,330.5203857421875,5.093426174116504,-0.0007379150286368546,-0.00014487596330031057
2524564450,11993,vehicle,1.6239073276519775,88.2483901977539,-0.0027135214619739357,-5.5647728979801245,-1.5712839515904902
1882516347,11993,vehicle,-2.1592602729797363,40.13948440551758,-0.010293256406463969,12.498144679478349,1.5716199093620036
815178544,11993,vehicle,195.7067108154297,330.42724609375,5.788877370743412,-0.0026208411956039727,-0.00045273735280417984
2188308515,11993,vehicle,104.516357421875,199.3157958984375,5.965233733752438,-0.35341438873302894,-0.05917651716956431
1160083145,11993,vehicle,392.4802551269531,318.52398681640625,-0.0038301213148821383,8.383480150771053,1.5712531920798998
1832698586,11993,vehicle,175.0918731689453,326.9674072265625,-7.5493837762267155,-0.004421139510837064,-3.141007024466085
3748346955,11993,vehicle,127.6310043334961,1.9203847646713257,8.657319875568383,-0.001595463968701538,-0.00018429074743348328
3198444053,11993,vehicle,138.14125061035156,327.09832763671875,-8.028311794186347,-0.0037779677759009174,-3.1411220730251763
808811405,11993,vehicle,338.9374084472656,221.64999389648438,-4.7028979140258946e-07,-0.0016473023480902086,-1.571081817663753
84250811,11993,vehicle,254.77972412109375,133.53399658203125,8.237268205912983,0.05033424261755492,0.006110474358672796
3956289865,11993,vehicle,88.6192398071289,306.89337158203125,2.613924503813012e-11,2.497167325978917e-08,1.5697495713284408
1912328786,11993,vehicle,365.2416687011719,-1.9526509046554565,2.2507675000889488e-08,2.2633942305631896e-11,-3.1405870439621792
4030311199,11993,vehicle,338.9582824707031,247.86392211914062,-0.0013837339778086668,-5.437815490142767,-1.5710507918370538
3147513812,11993,vehicle,392.4720764160156,233.1195831298828,0.00138203935039814,15.421900687280559,1.5707067114242155
1663586846,11993,vehicle,253.4737091064453,330.426513671875,5.5842522712212554,-0.000981536392257664,-0.0001757686319452297
