id,timestamp_ms,agent_type,x,y,vx,vy,psi_rad
-1,24455,vehicle,392.2166442871094,210.4641876220703,0.0043678363287893325,21.176173713359407,1.5705900649684699
2985032057,24455,vehicle,71.69322967529297,-1.9525097608566284,-6.558630949313846,-0.042954700036767636,-3.1350434078370704
3028941286,24455,vehicle,396.90972900390625,226.09149169921875,-0.0019117732500169302,-6.366817187339805,-1.5710965982078031
2920337868,24455,vehicle,392.0276184082031,275.5845947265625,0.0025052214443289237,15.135875494577855,1.5706308113331482
1503980471,24455,vehicle,92.88802337646484,6.362619876861572,1.229369182755318,-5.481283446841238,-1.3501626183875926
2125414330,24455,vehicle,391.55084228515625,0.3841674029827118,-1.4390012852339497e-06,-1.322857110191777e-06,-2.3982226343032123
2396446624,24455,vehicle,173.4116973876953,327.0136413574219,-5.78594159961443,0.00011710759850205216,3.1415724135655085
4076155829,24455,vehicle,112.6908187866211,-1.9245556592941284,6.621330077584319e-06,1.0315696230360768e-09,-3.1414368586660237
130361148,24455,vehicle,92.38613891601562,226.82598876953125,9.753050347846272e-09,1.6382052133718746e-05,-1.5713916764565838
3417340120,24455,vehicle,239.71669006347656,330.494140625,5.871905607217014,0.0015189566126606647,0.00025868204981236673
2197730220,24455,vehicle,188.16998291015625,-1.9401477575302124,8.541136977043006e-08,-4.03521585791831e-11,3.141120208812413
118743835,24455,vehicle,334.7042541503906,80.14585876464844,0.004828499626017566,5.527653492613469,1.5699228099573506
904053063,24455,vehicle,178.70040893554688,55.8249397277832,3.892683747175494e-08,-6.071865391549192e-11,3.140032840139334
1291681130,24455,vehicle,133.08203125,195.61383056640625,-5.523706434995839,0.00011327100440769493,3.1415721472493994
715062232,24455,vehicle,338.9876403808594,27.669862747192383,-0.0005768010277181462,-5.5820903480070045,-1.5708996574451917
220877689,24455,vehicle,92.90733337402344,97.7273941040039,0.0021444994138177156,-5.180095228708485,-1.5703823384034439
2069714320,24455,vehicle,29.28624725341797,331.17840576171875,5.822598651520665,-0.001814262684824208,-0.0003115898475392709
3190467641,24455,vehicle,118.2699203491211,-2.5593740940093994,-0.008094794782520608,-0.0013766955952295213,-2.973132800940177
708315452,24455,vehicle,88.75627899169922,99.76175689697266,3.5590912122210745e-05,0.011901964304544554,1.5678059963649011
1314594676,24455,vehicle,88.64353942871094,172.72555541992188,1.590035327657505e-07,0.0016470292972018555,1.5706997872053812
2302084468,24455,vehicle,312.6210021972656,330.2144775390625,-0.010480166897864908,0.0013535876150780998,-0.12844599042923022
757051778,24455,vehicle,334.69476318359375,219.0930938720703,0.01486123270999339,5.75583875911183,1.5682143921180647
4203008516,24455,vehicle,125.95512390136719,55.69163513183594,-5.977040518606424,0.0017254919248721916,3.141303966927629
2631691725,24455,vehicle,334.72576904296875,232.05555725097656,0.0007642135843080762,5.86824793607862,1.5706660982175917
1513387753,24455,vehicle,337.7135009765625,52.4781379699707,2.7189456546710757,-4.960713874531775,-1.069416370750156
156273220,24455,vehicle,92.51573181152344,80.52529907226562,5.694803488079599e-10,3.679216573919467e-07,-1.5723441560204507
3812119762,24455,vehicle,92.36009216308594,29.618026733398438,-0.001999892288129945,-6.185722981458189,-1.5711196345512322
3616050434,24455,vehicle,300.58709716796875,326.43243408203125,-5.916131496200973,5.1993516976044156e-05,3.141583865158196
2942158310,24455,vehicle,88.58841705322266,25.917118072509766,3.256966269897754e-11,1.6582644626236416e-07,1.5705999186645032
3608800298,24455,vehicle,178.36439514160156,133.2274627685547,6.98462857207424,-0.0012127975545816396,-0.000173638086818521
1146464971,24455,vehicle,60.19769287109375,2.5480520725250244,-5.1382701735265214e-08,4.367946667971565e-11,-0.0008500809549347115
3013099654,24455,vehicle,-2.3927714824676514,154.2834014892578,0.0007526882214368983,5.821413468338326,1.5706670303239731
2246582517,24455,vehicle,88.6150894165039,105.10009765625,2.2487520517194834e-11,1.6492032119850206e-07,1.5706599729470845
3192940987,24455,vehicle,338.8725280761719,248.6171112060547,2.3474034012066065e-05,0.020443804123906378,-1.5719445486988843
828836647,24455,vehicle,106.65110778808594,330.8196105957031,5.595139357422695,0.10401211810507867,0.018587586923667684
1702089089,24455,vehicle,396.041748046875,113.27748107910156,-0.007081897241536693,-9.108431924001346,-1.5715738366751453
2111029583,24455,vehicle,54.97177505493164,330.44464111328125,0.006675386594114107,-2.997308592229838e-06,-0.00044900895978735954
420096522,24455,vehicle,94.90084838867188,130.90679931640625,-8.216412692767095,1.445170111980897,2.967485301532555
510102133,24455,vehicle,189.9047393798828,1.870451807975769,6.376135717834236,-0.0011750628304799183,-0.00018429074743348328
4109025732,24455,vehicle,265.65423583984375,1.8487489223480225,4.697372237884107,-0.0013660767906950766,-0.00029081722354594344
2913592560,24455,vehicle,303.5834655761719,1.924547553062439,4.743340405048985,-0.0009095242197165413,-0.00019174761474035048
3970347779,24455,vehicle,128.55995178222656,58.99583435058594,-0.010481566123825295,0.0013298960395085623,-0.12620516507614551
1933996401,24455,vehicle,385.673828125,-2.1186752319335938,-4.7206413225303884e-08,-6.335527875959557e-09,-3.008180799833947
3047764241,24455,vehicle,53.26544952392578,2.046077251434326,-1.947850215699352e-08,-8.795883933190314e-12,0.00045156877384246126
1260711767,24455,vehicle,338.96514892578125,114.67289733886719,0.10342917766931294,-5.483716787081736,-1.5519374178516094
3957993155,24455,vehicle,335.0718994140625,33.63330078125,2.677809320609989e-10,-3.8268321712854557e-07,1.571496072371315
4289594148,24455,vehicle,-2.404228687286377,181.4108123779297,3.865900957634998e-09,-4.0633189909909415e-06,1.5717477410943275
4139896837,24455,vehicle,143.6339569091797,129.48886108398438,-5.594028891676602,-0.0008059709899641736,-3.14144857657482
1686932955,24455,vehicle,175.89035034179688,-1.96256422996521,1.2839382748609794e-06,-6.616412757406846e-10,3.1410773319188627
1726501337,24455,vehicle,378.8957214355469,-2.4069087505340576,-7.356287727145157e-05,-2.0727310889870543e-07,-3.1387750291564895
1682591593,24455,vehicle,281.6020202636719,330.4570617675781,-2.1673020549648624e-08,9.165736552995913e-12,-0.0004229099485952924
3380823586,24455,vehicle,368.77252197265625,326.3265380859375,2.5559575757028346e-07,-8.242536190632042e-10,3.1383678318258164
4176583038,24455,vehicle,274.9035949707031,1.9810600280761719,5.563235527915106,-0.001606031940004831,-0.0002886866621645894
3855978784,24455,vehicle,305.56915283203125,330.5410461425781,9.59101664640046e-09,2.069123788191353e-12,0.0002157356026347445
1042098875,24455,vehicle,141.54891967773438,-1.9280937910079956,-5.567497105973621,-0.13649338255181276,-3.117081451548922
644930681,24455,vehicle,88.63038635253906,165.76617431640625,1.9949262114648472e-09,-7.741632988496023e-07,1.5733732014656572
2234188147,24455,vehicle,358.0129699707031,-1.9548426866531372,-2.1703397833140128e-07,-1.842075116742183e-10,-3.140743904150385
4109707537,24455,vehicle,2.6084728240966797,196.4033966064453,-1.1701165565393372e-05,-0.00648661439113181,-1.5726002189592618
3675841917,24455,vehicle,183.96047973632812,55.83409118652344,-0.017443077689853665,-0.00013679509067102832,-3.1337504431278367
2817926641,24455,vehicle,92.46038818359375,49.63994216918945,-1.4889790986604037,-5.701390754298173,-1.8262512659291503
4029506115,24455,vehicle,-2.3368237018585205,144.57693481445312,-0.0029622023249668847,6.09472870366793,1.571282353693836
3277167701,24455,vehicle,88.64314270019531,33.25096130371094,1.5834940364915138e-07,0.0016470689948898016,1.5707001866795447
518241310,24455,vehicle,-2.6715102195739746,52.91703414916992,-0.07594596961433467,8.639790535178305,1.5795863562888122
778540568,24455,vehicle,304.7787780761719,59.31802749633789,7.391745951047198,-0.0011732504580456834,-0.0001587244009687226
657465635,24455,vehicle,1.713454246520996,80.17070007324219,-0.0016908383145887382,-5.848908179978482,-1.5710854129312246
835227171,24455,vehicle,134.6495819091797,59.32780456542969,-6.585650771852372e-10,-1.3658673687348822e-13,0.00020740051309560257
715280319,24455,vehicle,92.40377044677734,173.36636352539062,-0.0055792767607615035,-5.7944466433283655,-1.5717591926870147
3020211281,24455,vehicle,191.07058715820312,59.61602783203125,5.765849525260664,-0.0008660435954998057,-0.00015020225297117837
2101598167,24455,vehicle,193.7311248779297,-1.9614672660827637,-1.3593834958149583e-07,6.382513969985501e-11,3.141123138289612
14974470,24455,vehicle,327.4881286621094,58.82817840576172,5.940315747844615,-0.7332404355107741,-0.122813371434199
1398818972,24455,vehicle,161.5923614501953,133.67137145996094,5.824918668056488,-0.0009586845731022047,-0.0001645833391122516
2694688339,24455,vehicle,2.292745590209961,203.62313842773438,1.163205209267258e-09,4.466013554923086e-06,-1.5710567839495064
3916750283,24455,vehicle,116.79842376708984,326.9374694824219,1.1723870544496833e-06,-5.5945000222432805e-09,3.136820801548589
1983197581,24455,vehicle,59.05735778808594,-1.9330722093582153,-5.5388245471321245,0.00035106861251432106,3.1415292703558495
2942851653,24455,vehicle,307.80560302734375,198.7696990966797,5.923542344180778,-0.00135667990755729,-0.0002290318537468145
3949181016,24455,vehicle,88.6303482055664,112.13860321044922,4.0953734738647525e-11,-1.577051745183296e-08,1.5733931751738328
3672416715,24455,vehicle,338.8690185546875,261.9450988769531,-0.0018446402257916584,-6.002171709800089,-1.5711036555846918
3325384226,24455,vehicle,190.06893920898438,55.84153747558594,-0.006464065563020251,2.3326119905008743e-06,3.1412317952620876
1359910869,24455,vehicle,176.18995666503906,59.6113166809082,5.05237258127124,-0.008980064710596427,-0.0017773937115188837
2262630317,24455,vehicle,60.934207916259766,331.06610107421875,0.007995978924047914,0.0013723560078229252,0.16997469196716697
805172996,24455,vehicle,91.92027282714844,184.81378173828125,0.053909913711098455,-5.0412943453381605,-1.5601030692279558
1986857511,24455,vehicle,-2.3421473503112793,188.37628173828125,1.6093605546620293e-07,0.0016466065929785847,1.5706985887828906
1279946346,24455,vehicle,126.86885833740234,2.3100199699401855,0.02891353959587789,-0.0013706341758352332,-0.0473691178382106
74618890,24455,vehicle,334.0706481933594,206.15382385253906,1.3391555901770968,5.597653046647641,1.3359746276801954
3085549129,24455,vehicle,392.5212707519531,313.7191467285156,-0.005047127748218497,7.116650222160272,1.5715055265931848
2057201815,24455,vehicle,230.5970916748047,198.97579956054688,5.923287248348896,-0.0013029875118748741,-0.00021997708978589974
1015694095,24455,vehicle,66.94755554199219,330.46124267578125,-2.3935873281726873e-08,1.0313957171062176e-11,-0.00043089952939340205
1250507297,24455,vehicle,199.7627716064453,-1.94624924659729,2.993524077979951e-07,3.80275902141857e-10,-3.140322325749825
4280502996,24455,vehicle,48.153709411621094,331.2244567871094,8.629494947000003e-08,-2.6061285669573522e-11,-0.00030200243510569496
3428459672,24455,vehicle,66.85588836669922,2.01306414604187,-9.509120407072785e-07,7.688465066180255e-10,-0.0008085357069480567
414519966,24455,vehicle,199.04620361328125,327.0447082519531,-5.709006781911892,0.0002250192700397749,3.14155323880566
2866945113,24455,vehicle,294.2904968261719,330.4563903808594,8.362552846679547e-08,-3.714773641696665e-11,-0.00044421523731592627
1853482628,24455,vehicle,46.395286560058594,2.51983380317688,-0.0024488904935052766,5.985709394809491e-06,-0.0024442487283260744
3880166169,24455,vehicle,313.24652099609375,326.4206237792969,-5.551416250815313,-0.0012744080403820674,-3.1413630891038284
1073352953,24455,vehicle,372.0358581542969,-2.3772799968719482,-3.0313956765424027e-09,6.308325550400746e-12,3.1395116595140053
213556023,24455,vehicle,135.2700653076172,327.01702880859375,-3.020388610810072,0.002390612338784526,3.1408011621138217
1628590046,24455,vehicle,1.6534740924835205,33.594181060791016,-0.0011926940814155024,-5.6297801661722024,-1.5710081812596124
4120465129,24455,vehicle,338.98663330078125,101.6974105834961,-0.0005669742295551608,-5.58047720889924,-1.5708979263904832
1015227284,24455,vehicle,154.92076110839844,129.7509307861328,-6.298869096468192,-0.002543075446500298,-3.1411889183685373
2900396540,24455,vehicle,181.6448211669922,-1.9665029048919678,-0.0013252275327648023,-5.186324599171844e-06,-3.137679138367922
3587539486,24455,vehicle,396.6268615722656,213.0198974609375,-0.0021033540795951733,-7.96165343157371,-1.5710605123750325
1146849989,24455,vehicle,329.8484802246094,133.852783203125,6.919249224580404,1.3083823885409633,0.1868865139032267
1457681385,24455,vehicle,395.8382873535156,95.0169906616211,-0.0032250219706453287,-11.212732804945126,-1.571083948192625
1726747598,24455,vehicle,92.42526245117188,85.53102111816406,0.0019623757005919917,-0.1810127969729938,-1.55995566326162
367118466,24455,vehicle,375.0947570800781,326.35400390625,1.012651620588804e-06,-7.4205276799969306e-09,3.13426496585044
2065705843,24455,vehicle,285.7685241699219,133.2060089111328,5.925720176708632,-0.0006722767860299391,-0.00011345064618273023
3978545900,24455,vehicle,346.5500183105469,330.5846862792969,7.448454815840692,0.9092168536523233,0.12146691879894697
714679325,24455,vehicle,392.09881591796875,19.002262115478516,0.07465582533946362,5.744217697129054,1.5578003669914189
3262285446,24455,vehicle,99.55690002441406,56.23809814453125,-5.991187845355326,0.7679108424488285,3.0141143227426435
1401880247,24455,vehicle,96.18893432617188,194.36907958984375,-5.311881566014832,-1.4801802146662395,-2.8698319780493113
2250339631,24455,vehicle,119.72325897216797,129.7333984375,-4.714308734996945,0.00018706895758441278,3.141552972489551
2525145270,24455,vehicle,92.53726959228516,154.5819549560547,2.2552309133934006e-08,-2.6104334473324935e-05,-1.569932397337275
1825059061,24455,vehicle,313.625732421875,2.012181282043457,3.2171203051280396e-07,-2.0116984806756634e-10,-0.0006253102239506051
346279610,24455,vehicle,88.17100524902344,226.45068359375,-0.0023789738079137324,5.957248689570396,1.571195667800354
893025708,24455,vehicle,395.90948486328125,202.62591552734375,-0.00186970496171578,-5.821411786233486,-1.5711175040223602
1724402154,24455,vehicle,79.9288330078125,326.3939208984375,-5.990078106622565,0.6312551805254729,3.036596728665092
2595182244,24455,vehicle,271.9557800292969,198.7696990966797,5.923532807437865,-0.0013566777233393434,-0.0002290318537468145
874453657,24455,vehicle,388.6805419921875,324.7001647949219,0.019426773614926788,-0.011747232491473527,2.5977296189409724
1498616609,24455,vehicle,92.1737289428711,17.842666625976562,-0.0012955188876874438,-5.743318411624325,-1.5710218965392264
505512523,24455,vehicle,274.9026794433594,133.2101593017578,5.229319351314777,-0.001520776177657479,-0.00029081722354594344
3709073522,24455,vehicle,145.9188690185547,195.57009887695312,-5.986888235305233,0.0027902085668263777,3.1411266003990295
27029540,24455,vehicle,1.456808090209961,61.03007507324219,-0.0008940661866954308,-3.3996571318867206,-1.571059313952542
1375770528,24455,vehicle,338.8888244628906,241.85247802734375,-3.655594776580148e-05,-0.011764210662922105,-1.573903703154801
4266869573,24455,vehicle,-1.5066615343093872,70.31722259521484,0.0003748586495015647,6.160045135536459,1.5707354735639882
368528135,24455,vehicle,2.8118059635162354,208.8450164794922,5.302578370850868e-05,-0.009364860886307032,-1.565134180001279
4012051816,24455,vehicle,338.9733581542969,228.75657653808594,4.5248707956769776e-10,1.5910249434093665e-07,-1.5736403165229922
3938307140,24455,vehicle,92.14663696289062,219.810791015625,1.2462284941907536e-10,-2.258427122732748e-08,-1.5652782570162525
1966079641,24455,vehicle,41.148319244384766,331.2388916015625,5.5235532808983e-10,-7.649257771210034e-15,-1.3848436652496706e-05
1759883367,24455,vehicle,1.0020256042480469,327.03118896484375,3.5152795985809266,4.725384933881034,0.9312017057054335
3487645883,24455,vehicle,108.73271942138672,129.7763671875,-6.419704089466053,0.0021131529553358955,3.141263486879059
544848518,24455,vehicle,102.4115982055664,2.102583408355713,5.508849996943088,-0.23724091653352103,-0.04303882206693096
1325658571,24455,vehicle,92.40387725830078,120.11576843261719,-0.3161309827355648,-5.8511897503577455,-1.624772343662241
921579549,24455,vehicle,92.2924575805664,40.68893051147461,-0.002995549953863166,-5.356237050684792,-1.5713555906238132
4072577581,24455,vehicle,92.38365173339844,233.42868041992188,7.801928958443977e-06,0.013413801382993773,-1.5713779611769698
94066344,24455,vehicle,334.31768798828125,141.02047729492188,1.0487566579271435,5.975278841075841,1.397050099381473
2853390219,24455,vehicle,299.99432373046875,330.5154724121094,1.409067996713803e-07,4.296910211366643e-11,0.00030494696410635324
2524564450,24455,vehicle,1.59054434299469,15.898555755615234,-0.0009085429521622863,-6.054162910953852,-1.5709463959223227
1882516347,24455,vehicle,-2.144007444381714,132.47366333007812,0.00247406245834097,5.393292336437423,1.5703375972971305
815178544,24455,vehicle,266.18792724609375,330.3939514160156,5.523701066209895,-0.0011738983767431844,-0.0002125202549883232
2188308515,24455,vehicle,175.96897888183594,199.2098388671875,6.009190532151228,-0.00246132958000904,-0.00040959417565418683
1160083145,24455,vehicle,362.2609558105469,326.5630187988281,0.5438719464710097,-0.0006173162749028038,3.1404576143332013
1832698586,24455,vehicle,127.70616912841797,326.9648742675781,-0.017405794034408468,-3.9021227420332076e-05,-3.1393508045841645
3748346955,24455,vehicle,132.97994995117188,1.9192156791687012,-0.9612058780090593,0.00020427572136612175,-0.0002125202549883232
3198444053,24455,vehicle,122.09746551513672,326.2091064453125,-0.028976675201533773,-0.010352762997841785,-2.7984478092425005
808811405,24455,vehicle,338.92401123046875,221.6209259033203,-4.7027244246588655e-07,-0.0016472415792946915,-1.571081817663753
84250811,24455,vehicle,318.61029052734375,133.54986572265625,6.566774423691982,0.05482112237702911,0.008348063346854673
3956289865,24455,vehicle,55.04652786254883,326.56378173828125,-5.610277175163018,-9.114053846024907e-05,-3.141576408307144
1912328786,24455,vehicle,365.2416687011719,-1.9526530504226685,-1.0821752240410286e-08,-1.0882461908909263e-11,-3.1405870439621792
4030311199,24455,vehicle,338.9559631347656,235.7322235107422,-1.437404851112005e-11,2.0755095771760114e-08,-1.5701037717534214
3147513812,24455,vehicle,382.0475769042969,326.14154052734375,2.166186953310023e-05,-2.566700070898477e-06,3.023653233135089
1663586846,24455,vehicle,287.7590637207031,330.4103088378906,-3.7135055921558425e-07,-4.536447448880052e-10,0.0012216072063673709
