id,timestamp_ms,agent_type,x,y,vx,vy,psi_rad
-1,13199,vehicle,392.1845703125,31.976354598999023,0.0007607494877193361,5.467111534595205,1.57065717662794
2985032057,13199,vehicle,92.10367584228516,28.704078674316406,3.0785045011058254e-12,-3.8213514006799535e-08,-1.5707157661719218
3028941286,13199,vehicle,396.9354248046875,306.0675354003906,0.0018677387342701994,-5.568272754231099,-1.570460901655601
2920337868,13199,vehicle,392.0110168457031,60.76092529296875,-0.0026110140849692066,13.799002400374999,1.5709855443903467
1503980471,13199,vehicle,92.19300842285156,41.28242492675781,0.0023028455105684087,-1.1983961390901914,-1.56887472291035
2125414330,13199,vehicle,395.9319152832031,32.32828903198242,-0.005143636117645476,-10.141256935322442,-1.5713035258245023
2396446624,13199,vehicle,238.9677276611328,327.0333251953125,-6.107050405100759,-0.0004098542877675469,-3.1415255419303234
4076155829,13199,vehicle,112.6908187866211,-1.9493643045425415,-3.5600650761018095e-06,-5.868755635440398e-10,-3.1414278039183174
130361148,13199,vehicle,92.41060638427734,285.5657043457031,-0.0020778185156245226,-6.89533869908453,-1.5710976634722391
3417340120,13199,vehicle,175.2951202392578,330.4834289550781,5.58823108140096,-0.0002440706972402735,-4.3675841877299506e-05
2197730220,13199,vehicle,204.06607055664062,-1.9465471506118774,-5.55914780865767,0.0005388985851126823,3.141495714526114
118743835,13199,vehicle,306.79681396484375,59.33424758911133,1.5887875656157437e-08,-2.3923203059218688e-11,-0.001505751020256476
904053063,13199,vehicle,178.70095825195312,55.82493591308594,-0.0,0.0,3.140032840139334
1291681130,13199,vehicle,196.7639923095703,195.59524536132812,-5.79925555178916,0.0018533222715273643,3.141273074258984
715062232,13199,vehicle,313.6129455566406,59.3152961730957,-9.085419231330114e-08,-3.3930174077775037e-10,0.0037345570384019204
220877689,13199,vehicle,121.40316009521484,129.7563018798828,-0.006675014587255431,1.4185758234915698e-06,3.141380133334805
2069714320,13199,vehicle,-2.398428201675415,261.92388916015625,0.003910866358732447,9.332731381201407,1.5703772783973726
3190467641,13199,vehicle,118.22652435302734,-2.159177780151367,-0.0038515629968430636,-0.00011730012487055383,-3.1111468633757893
708315452,13199,vehicle,88.73651123046875,99.7486343383789,3.2953118800878424e-05,0.011928138439265549,1.568033696638103
1314594676,13199,vehicle,88.64353942871094,172.69931030273438,1.5923554270763453e-07,0.0016471606136630756,1.5706996540473268
2302084468,13199,vehicle,312.6565246582031,330.6100769042969,-0.009775394570750995,0.0008649802939869958,-0.08825560224046394
757051778,13199,vehicle,305.15423583984375,199.05624389648438,-0.000242063918714621,2.676609206493206e-07,-0.0011057443545637372
4203008516,13199,vehicle,153.7655029296875,31.262548446655273,-9.223807894170336e-12,1.910358937074279e-08,1.5712791579005279
2631691725,13199,vehicle,312.3171081542969,199.05612182617188,6.083806096165748e-08,-1.530782898644995e-10,-0.0025161545979068643
1513387753,13199,vehicle,296.68194580078125,59.33006286621094,4.5612040001083605,-0.008826180621038755,-0.0019350525879772492
156273220,13199,vehicle,92.53086853027344,99.46585083007812,-0.001981272494273484,-5.821245333153585,-1.5711366787822088
3812119762,13199,vehicle,110.91465759277344,55.83747863769531,-5.322948093382161e-08,5.532843369324582e-11,3.1405532218163352
3616050434,13199,vehicle,335.4158935546875,308.00689697265625,-8.229225318243736e-11,1.698280498913801e-07,1.5712808889552365
2942158310,13199,vehicle,88.61216735839844,25.917118072509766,7.630873395948162e-11,3.9010813388264607e-07,1.5706007176128303
3608800298,13199,vehicle,145.68064880371094,133.23402404785156,-6.907573079261165e-08,3.348068370611626e-11,-0.0004846952858851307
1146464971,13199,vehicle,47.035125732421875,2.5447146892547607,5.740102282964927,-0.00030573631802463395,-5.326321773792343e-05
3013099654,13199,vehicle,-2.403282403945923,89.62309265136719,0.0007511356087763705,5.821395825563865,1.5706672966400823
2246582517,13199,vehicle,88.6150894165039,105.10009765625,2.1963900385144092e-11,1.6108016459707598e-07,1.5706599729470845
3192940987,13199,vehicle,338.9040222167969,308.83587646484375,-0.035028578020694257,-5.956369875494619,-1.5766771191140097
828836647,13199,vehicle,88.64759826660156,300.99896240234375,7.813701548798839e-06,-0.007086085969866557,1.571899008644244
1702089089,13199,vehicle,395.9753723144531,191.51077270507812,-0.002158436931961651,-4.064589880999503,-1.5713273611162584
2111029583,13199,vehicle,54.9747314453125,330.44464111328125,0.010690029695490278,-4.498145105091319e-06,-0.00042077945223251964
420096522,13199,vehicle,145.5838623046875,129.73683166503906,-6.652319048222935,0.008278783247973152,3.140348158412399
510102133,13199,vehicle,158.42982482910156,25.24325180053711,-0.0003336857427705251,0.004170792371560152,-1.4909610157428828
4109025732,13199,vehicle,201.42507934570312,1.8989293575286865,8.363703059420668,0.00334349383787753,0.00039976235837350135
2913592560,13199,vehicle,240.24313354492188,1.9366858005523682,3.6661550324717416,-0.0007029764913602688,-0.00019174761474035048
3970347779,13199,vehicle,128.5953826904297,59.44343185424805,-0.008590156045420147,0.0005719484592518013,-0.06648371937446974
1933996401,13199,vehicle,395.9356994628906,11.760787963867188,-0.0013667473221863978,-5.530225108057132,-1.571043468144056
3047764241,13199,vehicle,25.573938369750977,2.052992582321167,5.563107134828956,-0.005982480840765493,-0.0010753843831554151
1260711767,13199,vehicle,306.1383361816406,133.41566467285156,-2.1032305815043306e-09,2.274104939799546e-12,-0.0010812433375535894
3957993155,13199,vehicle,335.0718994140625,33.63260269165039,2.194549199966904e-06,-0.0031368065865001356,1.5714959392132604
4289594148,13199,vehicle,-2.4113070964813232,141.43919372558594,0.0023579766339132924,4.3918903696641145,1.5702594335191367
4139896837,13199,vehicle,207.87762451171875,129.48744201660156,-5.9406064555258515,-0.0012830662482171717,-3.141376671225388
1686932955,13199,vehicle,175.89035034179688,-1.962573766708374,2.716289410223578e-08,-1.3997629215125905e-11,3.1410773319188627
1726501337,13199,vehicle,384.8193664550781,-2.323493242263794,-5.5242905582975945,-0.41954332754851537,-3.065792963695631
1682591593,13199,vehicle,243.23074340820312,330.4571838378906,6.899279967888382,-0.0011943028950414196,-0.00017310543834585983
3380823586,13199,vehicle,392.4403381347656,309.7910461425781,-0.003775730285358624,8.705941335171499,1.571230022578416
4176583038,13199,vehicle,213.1842498779297,1.9991986751556396,5.5591433115939815,-0.0016048503909775911,-0.0002886866296552988
3855978784,13199,vehicle,305.56915283203125,330.5410461425781,2.8649744664971395e-07,6.180767698060017e-11,0.00021573552136151786
1042098875,13199,vehicle,157.8470916748047,32.20794677734375,0.0,-0.0,-1.5562639893585521
644930681,13199,vehicle,88.63038635253906,165.76617431640625,-2.2022871656842283e-10,8.546330623167941e-08,1.5733732014656572
2234188147,13199,vehicle,358.01324462890625,-1.954969882965088,-0.00021036307553942024,-1.468925285085422e-07,-3.1408943727519745
4109707537,13199,vehicle,2.6237971782684326,255.90432739257812,-0.0024694585255526764,-12.042414412024382,-1.5710013901988327
3675841917,13199,vehicle,206.19798278808594,55.83658981323242,-8.349155379446001,0.009814597851082279,3.140417134284632
2817926641,13199,vehicle,123.31710052490234,55.75115203857422,0.9471987422683337,-0.0008957552277345539,3.140646965086706
4029506115,13199,vehicle,-2.2879326343536377,80.57162475585938,-0.0009721345792137203,2.9641114071289207,1.5711242950831399
3277167701,13199,vehicle,88.64314270019531,33.22307205200195,1.5866356357467353e-07,0.0016480541013174357,1.5707000535214903
518241310,13199,vehicle,25.518991470336914,-2.093592882156372,-5.154529571329382,0.016739180400488843,3.1383451949565506
778540568,13199,vehicle,235.01507568359375,59.3247184753418,5.682257542534197,-0.0011167984178084133,-0.00019654132095713842
657465635,13199,vehicle,1.7209036350250244,166.5259552001953,-0.0024887117314216223,-15.28201750517849,-1.570959179095555
835227171,13199,vehicle,134.6495819091797,59.32780456542969,-1.8917220716043074e-09,-3.92344133910567e-13,0.00020740051309560257
715280319,13199,vehicle,118.0025863647461,195.2687225341797,1.0845767344717251e-07,-1.2688758228426977e-10,3.1404227269229215
3020211281,13199,vehicle,153.76817321777344,37.5069694519043,6.803486751147603e-09,-4.122087217845127e-06,1.5724468208804732
2101598167,13199,vehicle,215.64788818359375,-1.9623931646347046,-5.940588812551409,-0.0012830624376457774,-3.141376671225388
14974470,13199,vehicle,264.92205810546875,59.33300018310547,6.107035112224708,-0.0007644089130972406,-0.00012516857936104687
1398818972,13199,vehicle,111.36064147949219,133.6808319091797,5.706497116945966,-0.0025105976048124907,-0.00043995421208109015
2694688339,13199,vehicle,2.3187718391418457,297.11566162109375,-0.0026623748613375854,-7.716748255170688,-1.5711413393141163
3916750283,13199,vehicle,116.80198669433594,326.93719482421875,0.01972778792474702,-9.410727592578386e-05,3.136822399445243
1983197581,13199,vehicle,92.12187194824219,21.969289779663086,1.9920129110219578e-10,3.6100318481264183e-08,-1.5763142634154863
2942851653,13199,vehicle,241.59014892578125,198.76486206054688,6.0231741344577765,-0.001350625530703866,-0.00022423816378467186
3949181016,13199,vehicle,88.6303482055664,112.13860321044922,1.8180462369567448e-10,-7.000956101107092e-08,1.5733931751738328
3672416715,13199,vehicle,344.4841003417969,325.5446472167969,-5.246299534053496,-1.1205600824870314,-2.9311640453216183
3325384226,13199,vehicle,227.1892547607422,55.84358596801758,-7.162833330335841,-0.0022719253574813537,-3.1412754711039645
1359910869,13199,vehicle,154.24298095703125,24.1201171875,-0.0002378867210372866,0.14966050255749255,1.5723858344915105
2262630317,13199,vehicle,60.97857666015625,330.6692810058594,0.0038774789610964153,0.00012640300621678406,0.03258773530864637
805172996,13199,vehicle,124.0013656616211,195.3614044189453,-0.6745365756587439,0.02258234725479741,3.1081268386996395
1986857511,13199,vehicle,-2.3475639820098877,150.68226623535156,0.00035343913697633104,3.6661364861827015,1.5706999203634358
1279946346,13199,vehicle,122.45623016357422,2.0178825855255127,0.7228339438406293,0.007050000007437385,0.009752968206844738
74618890,13199,vehicle,280.2351379394531,198.75477600097656,5.682140718026754,-0.0011137487809124206,-0.00019600865622983193
3085549129,13199,vehicle,392.5190124511719,138.7599334716797,0.014426258935504588,21.168297620241738,1.5701148238719453
2057201815,13199,vehicle,165.92941284179688,198.97462463378906,5.487519129515011,-0.0012158969966095865,-0.0002215749864399473
1015694095,13199,vehicle,66.94755554199219,330.46124267578125,9.523082948522349e-08,-4.103492214863773e-11,-0.00043089952939340205
1250507297,13199,vehicle,226.97911071777344,-1.9456734657287598,-6.6701223976623805,0.0017355047787135926,3.1413324627512926
4280502996,13199,vehicle,47.543701171875,331.22479248046875,2.7997474186602203,-0.0017149214256170036,-0.0006125271157368061
3428459672,13199,vehicle,66.85577392578125,2.0130650997161865,-0.0005183144873825862,4.190758954982172e-07,-0.0008085357719666381
414519966,13199,vehicle,262.6986389160156,327.0452575683594,-5.613478658471605,0.00015398085885340198,3.1415652230305655
2866945113,13199,vehicle,292.04022216796875,330.45635986328125,4.621451190935784,-0.0013144589334871358,-0.000284425571911172
1853482628,13199,vehicle,1.7233768701553345,18.121545791625977,-0.000782922392918519,-5.589018290042376,-1.5709364090682347
3880166169,13199,vehicle,335.5064697265625,289.4644470214844,0.001071134038722585,5.559142963213355,1.5706036470900293
1073352953,13199,vehicle,372.0358581542969,-2.3772807121276855,2.233148673849013e-06,-4.647175868889981e-09,3.1395116595140053
213556023,13199,vehicle,199.77975463867188,327.0329895019531,-6.023170467959935,0.00019730028078924962,3.1415598967083853
1628590046,13199,vehicle,1.6730750799179077,97.4383544921875,-0.0011503960398975346,-5.825574761291624,-1.570993800189726
4120465129,13199,vehicle,313.6098937988281,133.22540283203125,2.2563153353137806e-07,8.411807389774374e-10,0.003728099652981454
1015227284,13199,vehicle,227.1892547607422,129.7536163330078,-7.162831898613322,-0.0022757400587890063,-3.1412749384717467
2900396540,13199,vehicle,181.6448211669922,-1.9666988849639893,-0.0013252351768480296,-4.858829398890511e-06,-3.1379262797170813
3587539486,13199,vehicle,396.6467590332031,279.7867126464844,-0.001562089719154678,-6.151596347840491,-1.5710502592048357
1146849989,13199,vehicle,288.5317077636719,133.10340881347656,10.846065686212935,0.0041362567248217,0.0003813600842893652
1457681385,13199,vehicle,395.8619384765625,182.2368927001953,-0.0010544641595550126,-3.666153279295492,-1.571083948192625
1726747598,13199,vehicle,115.30032348632812,129.68988037109375,-0.028350641839623544,0.0024195600590548685,3.056454855649377
367118466,13199,vehicle,392.4787292480469,286.7674865722656,0.0038401209936917632,10.456424007992705,1.5704290768805746
2065705843,13199,vehicle,221.15782165527344,133.2210693359375,5.563006400907347,-4.148250730912005e-05,-7.4568505442642005e-06
3978545900,13199,vehicle,334.8517761230469,277.3719787597656,0.0005522587531002955,5.537240000841479,1.5706965914120732
714679325,13199,vehicle,341.2913513183594,1.9585211277008057,5.6819287989025575,-0.022885592321487173,-0.0040277640524128645
3262285446,13199,vehicle,142.10179138183594,55.74581527709961,-5.816232627109539,-0.00670853332669618,-3.14043923852168
1401880247,13199,vehicle,154.34776306152344,195.2685089111328,-5.9405811831570565,-0.0012830607898311204,-3.141376671225388
2250339631,13199,vehicle,175.32777404785156,129.73519897460938,-6.107058511332431,-0.0004098548317902072,-3.1415255419303234
2525145270,13199,vehicle,92.55255889892578,169.05276489257812,-0.0017632697000424574,-5.613365850075151,-1.5711104466454715
1825059061,13199,vehicle,313.4206237792969,2.012134075164795,2.468746872088528,-0.0011479374911568517,-0.00046498789381854434
346279610,13199,vehicle,110.9823226928711,194.9922637939453,6.290448599244167e-07,-2.963367745640411e-09,3.136881787937552
893025708,13199,vehicle,395.93572998046875,267.2862243652344,-0.0018689248951037332,-5.821396527694125,-1.5711173708643056
1724402154,13199,vehicle,88.6153335571289,277.6145324707031,0.0013104725796294488,5.87200579325266,1.5705731538955479
2595182244,13199,vehicle,205.74038696289062,198.76486206054688,6.023192254269333,-0.0013506295938572057,-0.00022423816378467186
874453657,13199,vehicle,392.5375671386719,203.1880645751953,0.02120240234796697,14.109633727895499,1.5692936381498195
1498616609,13199,vehicle,92.16644287109375,50.4339599609375,0.024644285958751982,-4.701479694872501,-1.5655545599793481
505512523,13199,vehicle,200.35069274902344,133.2216339111328,5.3565285025186204,-0.0016576273654512503,-0.0003094592536486262
3709073522,13199,vehicle,233.30796813964844,195.56643676757812,-8.349154425772344,0.009814596730019966,3.140417134284632
27029540,13199,vehicle,1.4751516580581665,127.16201782226562,0.00013090601711966747,0.5251535610121338,-1.571045598672928
1375770528,13199,vehicle,338.9053039550781,275.1916198730469,0.003594166331893279,-6.212135228874147,-1.570217755048077
4266869573,13199,vehicle,17.27777862548828,-2.05722975730896,-3.6661550998682544,-1.9527123224085722e-06,-3.1415921209575752
368528135,13199,vehicle,2.5957717895507812,311.4053955078125,-0.2662505052065481,-4.469079510750619,-1.6303021313496815
4012051816,13199,vehicle,338.9733581542969,228.75657653808594,-9.723431916566524e-10,-3.418931371384173e-07,-1.5736403165229922
3938307140,13199,vehicle,92.08527374267578,244.2420654296875,-0.000574830102704081,-5.56301638494355,-1.5708996574451917
1966079641,13199,vehicle,11.696106910705566,331.1724548339844,5.560204746654152,0.21697009523060057,0.03900217309534618
1759883367,13199,vehicle,-2.415894031524658,240.934814453125,0.0011918106224285247,8.681227602211568,1.570659040840703
3487645883,13199,vehicle,157.1864776611328,129.7748565673828,-5.159030437315621,-3.984405445933273e-05,-3.1415849304226318
544848518,13199,vehicle,92.24697875976562,35.24455642700195,-0.0,-0.0,-1.5718886223159927
1325658571,13199,vehicle,128.57786560058594,129.74827575683594,1.0760483920880767e-08,-1.2485817843548418e-11,3.1404323143028456
921579549,13199,vehicle,117.53840637207031,55.8246955871582,2.337213700096165e-05,2.220858234046018e-08,-3.140642437712853
4072577581,13199,vehicle,92.41360473632812,303.76458740234375,-0.006120843971852685,-6.856614718700938,-1.5716890183922911
94066344,13199,vehicle,297.9000549316406,133.26043701171875,3.6208181645168436,-0.006813626103177482,-0.0018817896262499896
2853390219,13199,vehicle,299.98260498046875,330.5159606933594,0.03184398504694056,9.152453587779666e-06,0.00028741545137228754
2524564450,13199,vehicle,1.6208733320236206,81.20225524902344,-0.0022155908838577777,-5.747427990158895,-1.5711818193626856
1882516347,13199,vehicle,-2.15924072265625,55.310791015625,0.006543876703767284,11.813383197316206,1.57024238928816
815178544,13199,vehicle,202.5059356689453,330.4240417480469,5.79925079827418,-0.002965313361326585,-0.0005113269292952137
2188308515,13199,vehicle,111.33154296875,199.22804260253906,5.6519427470300565,-0.02936376624865637,-0.005195293614229277
1160083145,13199,vehicle,387.3768310546875,325.60333251953125,-7.920305189323191,3.4720619358356544,2.7284482178864216
1832698586,13199,vehicle,166.10797119140625,326.9664306640625,-8.349154425772344,0.009814596730019966,3.140417134284632
3748346955,13199,vehicle,130.8914337158203,1.9197862148284912,-0.9612058860141852,0.00016229424524517836,-0.0001688444131110237
3198444053,13199,vehicle,126.94749450683594,327.0958251953125,-9.148801951117896,-0.005674547131202859,-3.1409724033719137
808811405,13199,vehicle,338.9361267089844,221.64718627929688,-4.702800533978884e-07,-0.0016472682384023032,-1.571081817663753
84250811,13199,vehicle,263.7833557128906,133.52720642089844,6.719972418945698,0.038007043096776924,0.005655772892055392
3956289865,13199,vehicle,88.6192398071289,306.89337158203125,2.7458136340617206e-11,2.62316531338384e-08,1.5697495713284408
1912328786,13199,vehicle,365.2416687011719,-1.9526509046554565,1.804518821228288e-08,1.8146421115239066e-11,-3.1405870439621792
4030311199,13199,vehicle,338.9554748535156,240.9677276611328,-0.0016095882106348098,-5.537243132300658,-1.5710870108278787
3147513812,13199,vehicle,392.47412109375,250.96351623535156,0.0029392611697426903,13.900173830169454,1.5705848718043443
1663586846,13199,vehicle,260.3989562988281,330.4223327636719,5.816280664966311,-0.0014343456357766215,-0.00024660873319598276
