id,timestamp_ms,agent_type,x,y,vx,vy,psi_rad
-1,18760,vehicle,392.199951171875,89.52195739746094,0.005773761255624553,18.60154825249657,1.570485935369848
2985032057,18760,vehicle,92.0970687866211,17.41606330871582,-0.003095882092918318,-6.621953240543192,-1.57126384472426
3028941286,18760,vehicle,396.92218017578125,262.3646545410156,-0.0016680025896640797,-6.446982167950123,-1.5710550528947977
2920337868,18760,vehicle,392.0135192871094,167.58895874023438,-0.002601764102917088,22.38134750502639,1.5709125737764786
1503980471,18760,vehicle,92.19313049316406,38.52843475341797,-0.0022025983957910285,-4.555558149013283,-1.5712798236908005
2125414330,18760,vehicle,391.6565856933594,0.47194942831993103,-1.2677985394490314,-1.1781964252790018,-2.392810292019844
2396446624,18760,vehicle,206.55364990234375,327.02362060546875,-6.04574489466391,-0.0001239761027618389,-3.1415721472493994
4076155829,18760,vehicle,112.6908187866211,-1.9353934526443481,1.6281956977698173e-06,2.6103607748226304e-10,-3.1414323312921706
130361148,18760,vehicle,92.39439392089844,247.29185485839844,-0.0020725034732987546,-6.8990408645475245,-1.5710967313658575
3417340120,18760,vehicle,207.18707275390625,330.4891052246094,5.827861778615271,0.00029116445967584774,4.9960769574527106e-05
2197730220,18760,vehicle,188.1701202392578,-1.9402227401733398,0.0002903777895759458,-1.3772880646196556e-07,3.1411183445996502
118743835,18760,vehicle,318.3978271484375,59.3380126953125,7.027496573178896,0.007550531659026867,0.0010744265294156923
904053063,18760,vehicle,178.70040893554688,55.8249397277832,3.277417014246271e-08,-5.112163287581673e-11,3.140032840139334
1291681130,18760,vehicle,165.26683044433594,195.60455322265625,-5.730482023576317,0.0009446680875417697,3.1414278039183174
715062232,18760,vehicle,330.97076416015625,58.31949234008789,8.065651975716182,-1.2196636277952786,-0.15007994651789353
220877689,18760,vehicle,107.20950317382812,129.756591796875,-6.612468088414793,-0.0014281765144981537,-3.141376671225388
2069714320,18760,vehicle,-2.392591953277588,312.451904296875,0.005506184003484124,7.138051293512906,1.570024942185155
3190467641,18760,vehicle,118.24192810058594,-2.3798272609710693,-0.007861723858671519,-0.0008549733792715219,-3.033266978354166
708315452,18760,vehicle,88.7463150024414,99.75511169433594,3.5590912122210745e-05,0.011901964304544554,1.5678059963649011
1314594676,18760,vehicle,88.64353942871094,172.7122802734375,1.5902205412252807e-07,0.0016472211496513323,1.5706997872053812
2302084468,18760,vehicle,312.6395263671875,330.3978576660156,-0.010462661497823935,0.001243492494613037,-0.11829558496098858
757051778,18760,vehicle,316.28521728515625,199.05392456054688,5.534701181226178,-0.0013560617035921895,-0.0002450108202872899
4203008516,18760,vehicle,153.68618774414062,47.183128356933594,-0.142770815497218,5.941110579234196,1.594822700359319
2631691725,18760,vehicle,327.96307373046875,199.58558654785156,5.478227038678528,0.6449828900534678,0.11719617380635503
1513387753,18760,vehicle,307.5482177734375,59.32545852661133,4.749062903942763,-0.0010269785254717013,-0.00021624866425978882
156273220,18760,vehicle,92.51573181152344,80.52535247802734,1.4944253719726528e-07,9.654968092501626e-05,-1.5723441560204507
3812119762,18760,vehicle,94.08824920654297,52.99662399291992,0.010769571100471113,0.010858533453062995,-2.3520812378887177
3616050434,18760,vehicle,332.6903381347656,323.7822570800781,-3.4247598784901347,4.745924249092816,2.1958863073233523
2942158310,18760,vehicle,88.59846496582031,25.917118072509766,-5.952646625984273e-10,-3.0348687103583417e-06,1.5706001849806122
3608800298,18760,vehicle,145.68064880371094,133.23402404785156,2.1834091079465337e-08,-1.0582881846547232e-11,-0.0004846952858851307
1146464971,18760,vehicle,60.19769287109375,2.5480520725250244,-1.1034523473669443e-06,9.380240511251444e-10,-0.0008500809549347115
3013099654,18760,vehicle,-2.3980891704559326,121.568359375,0.0007526877282100056,5.821409653641092,1.5706670303239731
2246582517,18760,vehicle,88.6150894165039,105.10009765625,-2.3171501216058865e-11,-1.6993653970351594e-07,1.5706599729470845
3192940987,18760,vehicle,338.88446044921875,276.4937744140625,-0.001171013073102149,-5.680981038520522,-1.5710024554632687
828836647,18760,vehicle,88.654541015625,311.0304260253906,0.0012420330481907617,6.156772011407804,1.570594592342323
1702089089,18760,vehicle,395.958740234375,160.3793487548828,-0.003905248296069343,-7.669433553155107,-1.5713055231953197
2111029583,18760,vehicle,54.97325897216797,330.44464111328125,0.007030702461700772,-3.059484347216105e-06,-0.0004351605221189475
420096522,18760,vehicle,127.35347747802734,129.7270050048828,-4.799204676614288,0.0011988629987654059,3.141342849079544
510102133,18760,vehicle,158.60458374023438,8.43591022491455,0.46698461510074657,-4.152697613373712,-1.4588134655923182
4109025732,18760,vehicle,233.87646484375,1.8848110437393188,7.716899225672442,0.0016165388513962441,0.00020948035998354203
2913592560,18760,vehicle,269.6974792480469,1.9310402870178223,10.412349509511536,-0.0019965432067607617,-0.00019174761474035048
3970347779,18760,vehicle,128.57826232910156,59.187381744384766,-0.010378781114271905,0.0011581103453667295,-0.11112474076508441
1933996401,18760,vehicle,385.6739501953125,-2.1186814308166504,0.00023011131260645444,3.0883020674198894e-05,-3.008180799833947
3047764241,18760,vehicle,53.258705139160156,2.046079158782959,-0.030854769559147215,-1.4090175812166255e-05,0.00045666115916709956
1260711767,18760,vehicle,316.93316650390625,133.41262817382812,6.402810356401149,-0.0016676579087196487,-0.0002604571708643948
3957993155,18760,vehicle,335.0718994140625,33.63330078125,5.162224898909824e-10,-7.377287160259365e-07,1.571496072371315
4289594148,18760,vehicle,-2.4040374755859375,170.9658966064453,0.0001886870275409553,6.004302975550852,1.5707649014940337
4139896837,18760,vehicle,176.21853637695312,129.48825073242188,-5.716462126203986,0.00032274582190132623,3.1415361945746834
1686932955,18760,vehicle,175.89035034179688,-1.9625695943832397,4.442062767337035e-07,-2.2890914102699388e-10,3.1410773319188627
1726501337,18760,vehicle,378.8957214355469,-2.392967462539673,7.439716906594825e-05,2.1053524890240534e-07,-3.138762778615475
1682591593,18760,vehicle,279.89544677734375,330.45709228515625,4.046365680600594,-0.0006810509545051252,-0.00016831176463836254
3380823586,18760,vehicle,371.0992736816406,326.3230285644531,-3.4691490119581854,0.014230761594085813,3.1374905865627443
4176583038,18760,vehicle,243.67498779296875,1.9902379512786865,5.554586655045186,-0.001606493497176738,-0.0002892192618733146
3855978784,18760,vehicle,305.56915283203125,330.5410461425781,-9.944119962540878e-09,-2.1453012309874896e-12,0.00021573565139868049
1042098875,18760,vehicle,157.86216735839844,19.424699783325195,-0.0010465503027965815,-5.813209439486343,-1.570976356484586
644930681,18760,vehicle,88.63038635253906,165.76617431640625,-5.429000412530209e-10,2.1068111916450691e-07,1.5733732014656572
2234188147,18760,vehicle,358.01300048828125,-1.9551218748092651,6.698134421395078e-06,5.315787984244049e-09,-3.1407990315849497
4109707537,18760,vehicle,2.6082489490509033,196.5291290283203,-1.585259513003792e-05,-0.006649764916726483,-1.573180255444681
3675841917,18760,vehicle,183.96047973632812,55.83456802368164,-0.017649333607518518,-0.000139310439373566,-3.1336995767510163
2817926641,18760,vehicle,110.44493103027344,55.75230407714844,-5.057684420781526,8.755128431908565e-05,3.1415753430427076
4029506115,18760,vehicle,-2.330921173095703,110.81934356689453,-0.016442147357593598,11.375250377442812,1.572241757476537
3277167701,18760,vehicle,88.64314270019531,33.23685073852539,1.584309386983137e-07,0.0016479170805053915,1.5707001866795447
518241310,18760,vehicle,-2.205516815185547,7.270823001861572,-1.4183249598036467,5.567037782845918,1.8202611508472895
778540568,18760,vehicle,270.2477722167969,59.32119369506836,5.693545790087153,-0.0005670898293919376,-9.96022247689635e-05
657465635,18760,vehicle,1.7181546688079834,113.2292251586914,-0.0002545128877475435,-5.705550188109972,-1.5708409347431553
835227171,18760,vehicle,134.6495819091797,59.32780456542969,1.8259172947265035e-10,3.786961892262802e-14,0.00020740051309560257
715280319,18760,vehicle,106.6170654296875,195.27044677734375,-5.625564390190271,0.0014427458494829135,3.1413361911768187
3020211281,18760,vehicle,158.88253784179688,57.53126907348633,4.419850774285183,4.357135844998259,0.7782529021927657
2101598167,18760,vehicle,193.73146057128906,-1.9614598751068115,0.001176174484006484,-5.522319565025625e-07,3.141123138289612
14974470,18760,vehicle,296.298583984375,59.329193115234375,4.733640451763508,-0.0025666725663094185,-0.0005422195329215516
1398818972,18760,vehicle,138.72398376464844,133.67543029785156,-0.07530054602209939,-2.9881242158999454e-05,0.00039682634680699347
2694688339,18760,vehicle,2.299443483352661,222.3529052734375,-0.00628228409276897,-12.026293067385124,-1.5713187058427156
3916750283,18760,vehicle,116.79842376708984,326.9374694824219,-1.2545332722624892e-06,5.9864925946933945e-09,3.136820801548589
1983197581,18760,vehicle,90.64308166503906,3.7713775634765625,-1.9989968477118865,-7.389427477650365,-1.8349938911556625
2942851653,18760,vehicle,274.1482238769531,198.76739501953125,5.51989737254113,-0.000987865271280698,-0.0001789644252533248
3949181016,18760,vehicle,88.6303482055664,112.13860321044922,1.5856000642277357e-10,-6.105849355158658e-08,1.5733931751738328
3672416715,18760,vehicle,338.8822937011719,295.28057861328125,-0.0015564684750648968,-5.7439210690239255,-1.5710673034358122
3325384226,18760,vehicle,190.23390197753906,55.84147262573242,-2.7824144018766517,0.00043793205391485585,3.1414352607693696
1359910869,18760,vehicle,154.24026489257812,36.8868293762207,0.0034441777166227855,5.516172287497299,1.5701719486773276
2262630317,18760,vehicle,60.96276092529297,330.8851013183594,0.007929018023980144,0.0008903823066887517,0.11182567644161485
805172996,18760,vehicle,116.50113677978516,195.2791290283203,-3.2187281894061037,0.02497757069307954,3.1338327348055204
1986857511,18760,vehicle,-2.3443942070007324,183.6651153564453,0.0004541292724389044,4.7433280727431075,1.5707005861537082
1279946346,18760,vehicle,125.80967712402344,2.1567418575286865,0.02907934424381884,-0.00043428597834865217,-0.01493340741591572
74618890,18760,vehicle,305.2795715332031,198.75267028808594,5.436295008614682,-0.0005096160743007393,-9.374327037078918e-05
3085549129,18760,vehicle,392.5242004394531,241.25875854492188,0.002501510943530129,16.58078365529507,1.5706454587191436
2057201815,18760,vehicle,197.93072509765625,198.97520446777344,5.789594989726946,-0.0012612433775476542,-0.00021784656091383635
1015694095,18760,vehicle,66.94755554199219,330.46124267578125,1.6662735776336735e-07,-7.179965448808712e-11,-0.00043089952939340205
1250507297,18760,vehicle,199.7788848876953,-1.9461275339126587,0.0749491825092772,9.4571357725994e-05,-3.1403308478653136
4280502996,18760,vehicle,48.153709411621094,331.2244567871094,7.39986100844862e-08,-2.2347761119364365e-11,-0.00030200243510569496
3428459672,18760,vehicle,66.85588836669922,2.0130629539489746,-3.321719057635961e-08,2.6857290517957582e-11,-0.0008085357069480567
414519966,18760,vehicle,231.24465942382812,327.0450439453125,-5.6894225999065515,0.00029243068389339487,3.141541254580755
2866945113,18760,vehicle,294.2904968261719,330.4563903808594,-3.459172873242822e-08,1.5366173998765006e-11,-0.00044421523731592627
1853482628,18760,vehicle,22.134653091430664,2.5289223194122314,5.508637058507078,-0.016650938082440572,-0.003022687317091285
3880166169,18760,vehicle,335.5168151855469,313.75897216796875,0.0006878120803727259,5.548207240385937,1.5706723566461533
1073352953,18760,vehicle,372.0358581542969,-2.3772799968719482,-9.198556205649297e-09,1.9142168601718373e-11,3.1395116595140053
213556023,18760,vehicle,167.22177124023438,327.0240173339844,-5.519880771147596,-7.350165846233982e-05,-3.141579337784343
1628590046,18760,vehicle,1.663595199584961,65.89635467529297,-0.0018864714760916806,-5.731051611362674,-1.5711254935056305
4120465129,18760,vehicle,331.01190185546875,132.2968292236328,8.08256063231809,-1.1337450191585254,-0.1393612557625426
1015227284,18760,vehicle,186.9225311279297,129.75120544433594,-6.020434837709001,-0.00047458828001592886,-3.141513824021527
2900396540,18760,vehicle,181.6448211669922,-1.9666069746017456,-0.0013252329512262817,-5.018701149573116e-06,-3.1378056385197004
3587539486,18760,vehicle,396.6370544433594,245.8072052001953,-0.002131714550071219,-7.960668278426607,-1.571064107642504
1146849989,18760,vehicle,298.8860778808594,133.20265197753906,6.365709965554317,-0.05328085314844143,-0.00836978267390103
1457681385,18760,vehicle,395.8515625,144.2389678955078,-0.00322501977626824,-11.212725175550911,-1.571083948192625
1726747598,18760,vehicle,94.6818618774414,127.95207977294922,-4.777221911628313,-3.592691328942799,-2.496783296769846
367118466,18760,vehicle,383.429443359375,326.1014099121094,-6.6794712205772395,1.156443988954501,2.9701580500025586
2065705843,18760,vehicle,252.9989013671875,133.21371459960938,5.920688822490008,-0.001832212195058213,-0.00030945928615791685
3978545900,18760,vehicle,334.8408203125,303.6502685546875,-0.0006705431188805815,5.323142963137767,1.5709222943144574
714679325,18760,vehicle,372.8185119628906,1.92905592918396,5.559099096887808,-0.001057060867743499,-0.00019014966932236695
3262285446,18760,vehicle,120.73480224609375,55.7529296875,-4.256280420790529,0.0001099510559534531,3.1415668209272196
1401880247,18760,vehicle,125.89424896240234,195.2704315185547,-3.769089215066982,0.00022785560283428787,3.1415321998330485
2250339631,18760,vehicle,145.36973571777344,129.73362731933594,-4.841047085260893,0.001397545763248618,3.141303966927629
2525145270,18760,vehicle,92.5433349609375,154.58192443847656,-1.3908991177551524e-08,1.6023120553979125e-05,-1.5699282694375853
1825059061,18760,vehicle,313.625732421875,2.0121803283691406,-6.210236656477139e-07,3.8833249805913465e-10,-0.0006253102239506051
346279610,18760,vehicle,95.04463958740234,196.54226684570312,-5.592135196601334,1.3332112614554152,2.9075532580453025
893025708,18760,vehicle,395.9227600097656,235.34095764160156,-0.0018697026644772731,-5.821404633676482,-1.5711175040223602
1724402154,18760,vehicle,88.61355590820312,300.0762023925781,-0.004553823829205966,5.484944360531001,1.5716265672647287
2595182244,18760,vehicle,238.29847717285156,198.7674102783203,5.5198992798897315,-0.0009878656126282481,-0.0001789644252533248
874453657,18760,vehicle,392.5503845214844,285.909423828125,0.0018177755085754892,12.501155721111392,1.5706509181993782
1498616609,18760,vehicle,92.18071746826172,47.11778259277344,0.008664298124576987,-1.8749765241036276,-1.5661753428294456
505512523,18760,vehicle,240.9386444091797,133.21688842773438,4.796513193866381,-0.0018675424185019228,-0.00038935415136958463
3709073522,18760,vehicle,190.11341857910156,195.56942749023438,-5.246643418450136,-0.006807482118317007,-3.1402951615067067
27029540,18760,vehicle,1.4663212299346924,95.23013305664062,-0.0017214251799037724,-6.324698213916647,-1.5710685018583026
1375770528,18760,vehicle,338.8967590332031,241.85755920410156,-1.128493020516209e-05,-0.011978566918782777,-1.5717384200305122
4266869573,18760,vehicle,-1.51042640209198,21.229625701904297,0.0003248311125748195,5.835981359978494,1.5707406667281139
368528135,18760,vehicle,2.6845431327819824,251.3343048095703,0.10001513311812991,-13.339374397884418,-1.5632987293779965
4012051816,18760,vehicle,338.9733581542969,228.75657653808594,2.0868840125502772e-09,7.337854864589477e-07,-1.5736403165229922
3938307140,18760,vehicle,92.1466293334961,219.81109619140625,-1.2577825049750999e-05,0.0022795854525703135,-1.5652787896484703
1966079641,18760,vehicle,41.14320755004883,331.2388610839844,-0.017642760645897405,3.476928012306531e-07,-1.9707392066586363e-05
1759883367,18760,vehicle,-2.4118294715881348,293.47174072265625,9.948450659519041e-05,9.702804564919672,1.5707860736246997
3487645883,18760,vehicle,136.42120361328125,129.7721405029297,-3.666913665394212,-0.0007773403224759531,-3.1413806659670227
544848518,18760,vehicle,92.24586486816406,28.48789405822754,-0.00010751956153655904,-6.025807379717024,-1.5708141699742002
1325658571,18760,vehicle,118.80722045898438,129.7509765625,-4.5603489678817235,0.00042385854432332035,3.1414997092677495
921579549,18760,vehicle,101.6138687133789,55.63822555541992,-4.139966463672575,-0.2942890618776604,-3.070627133706343
4072577581,18760,vehicle,92.39677429199219,265.5331726074219,-0.002075171966805313,-6.898749993065718,-1.571097130840021
94066344,18760,vehicle,306.2807312011719,133.2607421875,5.163581707769679,0.003361313097558089,0.0006509653207788414
2853390219,18760,vehicle,299.99432373046875,330.5154724121094,3.640771070760767e-07,1.110242119449519e-10,0.00030494696410635324
2524564450,18760,vehicle,1.605997085571289,48.925907135009766,-0.0010302549502836985,-5.969971567902306,-1.5709688996335338
1882516347,18760,vehicle,-2.147569417953491,99.0699691772461,0.002445010618670809,5.748815493396321,1.570371019968811
815178544,18760,vehicle,234.0030975341797,330.40911865234375,5.730482691310089,-0.002041948263559655,-0.0003563309213433114
2188308515,18760,vehicle,143.4560546875,199.21484375,5.57876866588698,-0.0008468580153918701,-0.00015180016587987126
1160083145,18760,vehicle,361.9079895019531,326.5643005371094,0.5252398510176782,-0.0005904330255608406,3.140468533293671
1832698586,18760,vehicle,129.1357879638672,326.96575927734375,-3.691514880931703,-0.002435163524587282,-3.1409329885877804
3748346955,18760,vehicle,131.9232635498047,1.919519305229187,-0.9612058799233554,0.00019506025979488492,-0.00020293285880939262
3198444053,18760,vehicle,121.90245819091797,326.9737854003906,0.7896576930163268,0.10749061426592878,-3.0063011407365687
808811405,18760,vehicle,338.93017578125,221.63421630859375,-4.7028028604646487e-07,-0.0016472690533095228,-1.571081817663753
84250811,18760,vehicle,290.96441650390625,133.55653381347656,2.647039916599182,-0.00603860609866592,-0.0022812635296875503
3956289865,18760,vehicle,87.5093994140625,323.5295104980469,-2.894776003459774,5.857323838763622,2.02980505700134
1912328786,18760,vehicle,365.2416687011719,-1.9526519775390625,2.8886943996947347e-08,2.9048998787617432e-11,-3.1405870439621792
4030311199,18760,vehicle,338.9559631347656,235.7322235107422,-9.684482262014072e-10,1.3983698238705308e-06,-1.5701037717534214
3147513812,18760,vehicle,392.4826354980469,313.5483703613281,0.002119821562912277,7.33621614347317,1.570507373816623
1663586846,18760,vehicle,287.7438659667969,330.4089050292969,-0.07252775277010698,-8.576620791689581e-05,0.001182528958411011
