id,timestamp_ms,agent_type,x,y,vx,vy,psi_rad
-1,15209,vehicle,392.189208984375,43.782073974609375,0.0014073890147670229,6.063862160437369,1.5705642323058961
2985032057,15209,vehicle,92.10367584228516,28.704078674316406,1.1765227747899138e-12,-1.4604191586402859e-08,-1.5707157661719218
3028941286,15209,vehicle,396.93115234375,291.26861572265625,-0.0049280630109358485,-11.30740058321471,-1.5712321531072881
2920337868,15209,vehicle,392.0096130371094,92.5933609008789,-0.002651252337472199,18.908420376870897,1.5709365422262893
1503980471,15209,vehicle,92.19307708740234,41.19704055786133,-1.9822560359020277e-07,9.803404432255118e-05,-1.5687743217372538
2125414330,15209,vehicle,395.9256896972656,17.762544631958008,-0.0031096667395956075,-5.898761883276111,-1.5713234995326777
2396446624,15209,vehicle,227.2133026123047,327.0298156738281,-6.074657914510042,-0.00017472016005913997,-3.14156389145002
4076155829,15209,vehicle,112.6908187866211,-1.9416245222091675,2.8208055107873964e-06,4.597502841867394e-10,-3.1414296681310803
130361148,15209,vehicle,92.40474700927734,271.7338562011719,-0.0020723192614378856,-6.898427651989744,-1.5710967313658575
3417340120,15209,vehicle,186.88294982910156,330.4856872558594,5.717391933691002,-0.0006242798140641439,-0.00010918961282057143
2197730220,15209,vehicle,193.04481506347656,-1.9454187154769897,-5.559119198571632,0.0005374153286684969,3.1414959808422234
118743835,15209,vehicle,306.79681396484375,59.33424758911133,-5.9628316410901e-08,8.978546612834788e-11,-0.001505751020256476
904053063,15209,vehicle,178.70040893554688,55.8249397277832,-1.5580094246231774e-07,2.4302060273817704e-10,3.140032840139334
1291681130,15209,vehicle,185.37841796875,195.5985870361328,-5.53777265465735,9.586187429769388e-05,3.1415753430427076
715062232,15209,vehicle,313.6129455566406,59.3152961730957,1.2984486777158524e-07,4.849153191966219e-10,0.0037345570384019204
220877689,15209,vehicle,121.40380859375,129.75619506835938,0.00021010099817894058,-4.582573731995976e-08,3.141374540696516
2069714320,15209,vehicle,-2.3950023651123047,281.8541259765625,0.003581504508302741,9.271506571431182,1.5704100352787806
3190467641,15209,vehicle,118.23037719726562,-2.246189594268799,-0.00409536389761813,-0.00021784878628790442,-3.088448741405044
708315452,15209,vehicle,88.74010467529297,99.7509765625,3.529278499251728e-05,0.011901905587405151,1.5678310300791478
1314594676,15209,vehicle,88.64353942871094,172.70399475097656,1.5906933528027272e-07,0.001647710908907976,1.5706997872053812
2302084468,15209,vehicle,312.6506652832031,330.5273742675781,-0.010233788460669777,0.0010553055087263608,-0.1027565310207022
757051778,15209,vehicle,305.1543884277344,199.05624389648438,-2.454721288821136e-07,2.714295632576537e-10,-0.0011057444846008996
4203008516,15209,vehicle,153.765380859375,31.264188766479492,-1.3705398566879118e-05,0.04374236771331675,1.5711096476971445
2631691725,15209,vehicle,312.3171081542969,199.05612182617188,-3.76752759859753e-08,9.479701895398838e-11,-0.0025161545979068643
1513387753,15209,vehicle,299.79931640625,59.32716751098633,-0.0009305890699737433,1.3774449269655037e-06,-0.0014801849338660405
156273220,15209,vehicle,92.52371978759766,87.97273254394531,-0.0017506630873725846,-5.738653869624605,-1.5711013918977652
3812119762,15209,vehicle,109.47541809082031,55.83768844604492,-3.3473878020517596,0.0012328937924342353,3.1412243384110354
3616050434,15209,vehicle,335.4158935546875,308.00689697265625,-6.966323114491504e-11,1.4376530277090864e-07,1.5712808889552365
2942158310,15209,vehicle,88.60916900634766,25.917118072509766,3.087554615991044e-10,1.5773565262631325e-06,1.5706005844547757
3608800298,15209,vehicle,145.68064880371094,133.23402404785156,-3.643697537565747e-08,1.7660831579510683e-11,-0.0004846952858851307
1146464971,15209,vehicle,57.89445495605469,2.5471839904785156,3.4290178326853447,0.006493538797788114,0.0018936999900469886
3013099654,15209,vehicle,-2.401404857635498,101.16957092285156,0.0007503619181436275,5.821407269755535,1.5706674297981367
2246582517,15209,vehicle,88.6150894165039,105.10009765625,3.7665661342464886e-12,2.7623467700689823e-08,1.5706599729470845
3192940987,15209,vehicle,338.8927307128906,297.0583190917969,-0.0016086333336039545,-5.53395820125658,-1.5710870108278787
828836647,15209,vehicle,88.64752960205078,300.9998474121094,-0.0,0.0,1.571899807592571
1702089089,15209,vehicle,395.9718322753906,183.37738037109375,-0.000661853177462982,-3.874070826261152,-1.5709671685788251
2111029583,15209,vehicle,54.974178314208984,330.44464111328125,0.006775212324754044,-2.886957269174199e-06,-0.0004261057744126781
420096522,15209,vehicle,135.30450439453125,129.73683166503906,-3.8311934721256296,-0.005038286466802865,-3.140277584643512
510102133,15209,vehicle,158.49705505371094,25.249887466430664,-0.0005552970723643012,0.004974188651646189,-1.4596209360348302
4109025732,15209,vehicle,214.58168029785156,1.8970247507095337,7.081849097914448,6.421298665059413e-05,9.067262767254475e-06
2913592560,15209,vehicle,248.8880615234375,1.9350286722183228,3.6661779206549148,-0.0007029808801148517,-0.00019174761474035048
3970347779,15209,vehicle,128.58888244628906,59.32818603515625,-0.009801832536021592,0.0008727710865908165,-0.08880741754070676
1933996401,15209,vehicle,392.6986999511719,1.1435669660568237,-3.828483196246177,-4.2563771080770305,-2.3033184920132577
3047764241,15209,vehicle,37.09061050415039,2.0487592220306396,6.03354522568521,-0.001799649779814929,-0.00029827400957958404
1260711767,15209,vehicle,306.1383361816406,133.41566467285156,-1.339559945976327e-08,1.448390831272299e-11,-0.0010812433375535894
3957993155,15209,vehicle,335.0718994140625,33.63330078125,2.0516433028266825e-09,-2.931984191268338e-06,1.571496072371315
4289594148,15209,vehicle,-2.409285306930542,149.8681182861328,-0.00021555034588187979,3.808836692432873,1.5708529189680607
4139896837,15209,vehicle,196.36502075195312,129.48768615722656,-5.682979045940078,-0.0008324078828523087,-3.1414461797298388
1686932955,15209,vehicle,175.89035034179688,-1.9625725746154785,1.4254421029345308e-06,-7.345612713214008e-10,3.1410773319188627
1726501337,15209,vehicle,378.90362548828125,-2.391282796859741,0.06790784336496015,0.00019231590026048422,-3.138760648086603
1682591593,15209,vehicle,257.0658874511719,330.45721435546875,6.899117366419851,-0.0011942748599853622,-0.00017310545460050517
3380823586,15209,vehicle,390.2406311035156,323.3157043457031,-3.596252719986363,4.386285013441141,2.25754567709363
4176583038,15209,vehicle,224.20550537109375,1.9959588050842285,5.559120901102483,-0.001601882954226067,-0.0002881539974372829
3855978784,15209,vehicle,305.56915283203125,330.5410461425781,-1.4766052570108892e-07,-3.185562099084637e-11,0.00021573552136151786
1042098875,15209,vehicle,157.8470916748047,32.20794677734375,7.313839813697531e-10,-5.032449164759912e-08,-1.5562639893585521
644930681,15209,vehicle,88.63038635253906,165.76617431640625,-6.188430943582543e-10,2.401520460483076e-07,1.5733732014656572
2234188147,15209,vehicle,358.0129699707031,-1.95521879196167,9.03912642195365e-05,6.53091102046867e-08,-3.1408701379860546
4109707537,15209,vehicle,2.617408037185669,231.34535217285156,-0.002504600902123342,-12.119351128221885,-1.5710029880954868
3675841917,15209,vehicle,190.64413452148438,55.83821105957031,-5.194518217614268,-0.006576610478915349,-3.1403265868075696
2817926641,15209,vehicle,122.84151458740234,55.75171661376953,0.9227413186346765,-0.000533257763756047,3.141014747633246
4029506115,15209,vehicle,-2.2930405139923096,91.51637268066406,-0.0036258338135192274,6.245308777188316,1.5713768959125338
3277167701,15209,vehicle,88.64314270019531,33.228050231933594,1.579106621926529e-07,0.0016470679471940225,1.5707004529956536
518241310,15209,vehicle,17.337100982666016,-2.064110040664673,-6.889423928890031,0.01224706643232406,3.1398149935621653
778540568,15209,vehicle,246.76158142089844,59.32477951049805,5.531850275580896,-0.0008308965605765566,-0.00015020228548046904
657465635,15209,vehicle,1.7192778587341309,140.4270782470703,0.0016200584469393021,-10.941036104422784,-1.570648255038288
835227171,15209,vehicle,134.6495819091797,59.32780456542969,-1.221902330793597e-09,-2.534231739929684e-13,0.00020740051309560257
715280319,15209,vehicle,118.0025863647461,195.2687225341797,5.573484878493685e-07,-6.520571561720491e-10,3.1404227269229215
3020211281,15209,vehicle,153.76812744140625,38.77914047241211,-0.00021583624076103495,3.2288896965367866,1.5708631721382575
2101598167,15209,vehicle,204.13531494140625,-1.9620164632797241,-5.682975708080006,-0.0008324073939430565,-3.1414461797298388
14974470,15209,vehicle,276.6764831542969,59.33365249633789,6.0746530674385815,-0.0009933156815080278,-0.00016351809093086522
1398818972,15209,vehicle,122.6087875366211,133.6787109375,5.619112337996907,-0.0013138920215392488,-0.00023382554370895712
2694688339,15209,vehicle,2.313955068588257,272.0906982421875,-0.0036105509442372844,-15.996918270827777,-1.5710220296972808
3916750283,15209,vehicle,116.79842376708984,326.9374694824219,1.0330578950705572e-05,-4.929636842214784e-08,3.136820801548589
1983197581,15209,vehicle,92.12187194824219,21.969289779663086,-0.0,-0.0,-1.5763142634154863
2942851653,15209,vehicle,253.37535095214844,198.76568603515625,6.1196993385628415,-0.0013070790823500624,-0.0002135855031697096
3949181016,15209,vehicle,88.6303482055664,112.13860321044922,2.8199506763431915e-10,-1.085910275055103e-07,1.5733931751738328
3672416715,15209,vehicle,339.0904235839844,316.2203369140625,-0.6453520565221215,-5.5108092984167305,-1.687371942455371
3325384226,15209,vehicle,211.34722900390625,55.84185791015625,-6.806991424199584,-0.0014429979518510167,-3.1413806659670227
1359910869,15209,vehicle,154.24183654785156,25.51425552368164,-3.432632618775892e-05,0.01740503651520631,1.5727685307401549
2262630317,15209,vehicle,60.97446060180664,330.756591796875,0.004141327587110159,0.00023523646410774935,0.05674121447787658
805172996,15209,vehicle,123.97067260742188,195.36219787597656,-0.6069996159309059,0.06021534300255766,3.0427145423212223
1986857511,15209,vehicle,-2.346730947494507,159.32736206054688,0.0003534413665295149,3.666159612784767,1.5706999203634358
1279946346,15209,vehicle,125.3906478881836,2.085310935974121,0.010524812894336846,7.89821960382236e-05,0.007504239195017115
74618890,15209,vehicle,291.98150634765625,198.75489807128906,5.531802115470248,-0.0008279428208037049,-0.00014966963700780786
3085549129,15209,vehicle,392.51953125,177.69732666015625,0.0008516222409242685,18.32542798924484,1.5707498546338747
2057201815,15209,vehicle,177.51551818847656,198.974853515625,5.81482348881897,-0.0012698365763962702,-0.00021837920938649752
1015694095,15209,vehicle,66.94755554199219,330.46124267578125,-2.650551816207877e-07,1.142121600924385e-10,-0.00043089952939340205
1250507297,15209,vehicle,215.4922637939453,-1.9460111856460571,-5.12127007704669,-0.0010256353072253927,-3.1413923838758193
4280502996,15209,vehicle,48.15362548828125,331.2244567871094,-0.0002729468563431925,8.243060890282006e-08,-0.0003020024025964043
3428459672,15209,vehicle,66.85588836669922,2.0130629539489746,2.671335359940302e-06,-2.159870494402066e-09,-0.0008085357069480567
414519966,15209,vehicle,251.3157958984375,327.04510498046875,-5.537308197947724,0.0004483010105707891,3.141511693492655
2866945113,15209,vehicle,294.29022216796875,330.4563903808594,-0.0005399169798955266,2.3983940023544096e-07,-0.00044421530233450756
1853482628,15209,vehicle,3.022887706756592,6.976146697998047,2.861956183572285,-5.214181530534367,-1.06881396371158
3880166169,15209,vehicle,335.5084228515625,300.1258239746094,0.00014750495491658414,3.258068796633484,1.5707510530563653
1073352953,15209,vehicle,372.0358581542969,-2.3772799968719482,2.8907876915407786e-07,-6.01572074422519e-10,3.1395116595140053
213556023,15209,vehicle,187.99456787109375,327.02984619140625,-6.119714735407197,0.0001369014038150572,3.1415702830366365
1628590046,15209,vehicle,1.6701617240905762,86.09344482421875,-0.0008959811879451321,-5.519855903387051,-1.570958646463337
4120465129,15209,vehicle,313.6098937988281,133.22540283203125,-7.71739971172142e-08,-2.8771368482443506e-10,0.003728099652981454
1015227284,15209,vehicle,211.34722900390625,129.75189208984375,-6.806991424199584,-0.0014429979518510167,-3.1413806659670227
2900396540,15209,vehicle,181.6448211669922,-1.9666645526885986,-0.001325234377369348,-4.917766790534264e-06,-3.137881804926877
3587539486,15209,vehicle,396.643310546875,267.7132873535156,-0.0005793099884622331,-2.248343154661075,-1.5710539876303617
1146849989,15209,vehicle,292.9914245605469,133.18017578125,0.5431806625083658,-0.012187725118794172,-0.022433936390609487
1457681385,15209,vehicle,395.8595886230469,173.5919647216797,-0.0010544708112605625,-3.6661764058967083,-1.571083948192625
1726747598,15209,vehicle,115.3060531616211,129.77438354492188,-0.027477273828246763,0.0027649458652254533,3.041303599575698
367118466,15209,vehicle,392.4815673828125,306.5793762207031,0.001500975783849218,9.039403790788189,1.57063027870093
2065705843,15209,vehicle,232.61485290527344,133.21844482421875,5.741570776470208,-0.0014098052329183962,-0.0002455434687599511
3978545900,15209,vehicle,334.8564758300781,288.98870849609375,0.00043911710452162637,5.685712797374181,1.5707190951232843
714679325,15209,vehicle,352.66790771484375,1.9294915199279785,5.817490682403838,-0.004579706947251333,-0.0007872304832460041
3262285446,15209,vehicle,131.32183837890625,55.74951171875,-4.2132980836755785,0.006494541393985901,3.140051215950855
1401880247,15209,vehicle,142.83518981933594,195.2692108154297,-5.6829776154286185,-0.0008324076733197721,-3.1414461797298388
2250339631,15209,vehicle,163.57333374023438,129.73228454589844,-6.07465600716141,-0.000174720105199712,-3.14156389145002
2525145270,15209,vehicle,92.54949951171875,157.6701202392578,-0.002052726182603276,-5.537252522499476,-1.5711670388186356
1825059061,15209,vehicle,313.6257019042969,2.0121781826019287,-3.83880867484859e-05,2.400446625041619e-08,-0.0006253102239506051
346279610,15209,vehicle,110.9823226928711,194.9922637939453,-2.2569802764435766e-07,1.0632409514582324e-09,3.136881787937552
893025708,15209,vehicle,395.9310607910156,255.73974609375,-0.0018697040428203773,-5.821408925210685,-1.5711175040223602
1724402154,15209,vehicle,88.61639404296875,289.1184997558594,0.0020690022747799526,5.565165611947482,1.5704245495067215
2595182244,15209,vehicle,217.52557373046875,198.7657012939453,6.119705060608609,-0.0013070803044961056,-0.0002135855031697096
874453657,15209,vehicle,392.5627136230469,235.43898010253906,-0.014947807164959071,16.14730906030029,1.571722041589808
1498616609,15209,vehicle,92.17973327636719,47.56017303466797,-4.646484548805022e-06,0.0007627620283726711,-1.5647047452755038
505512523,15209,vehicle,216.29928588867188,133.2204132080078,7.158615002636259,0.0012530555112629032,0.00017504161042376993
3709073522,15209,vehicle,217.25225830078125,195.56793212890625,-8.413702121836202,0.00885302639682499,3.140540438643103
27029540,15209,vehicle,1.472033977508545,115.8106918334961,-9.224795581344404e-05,-0.35857679253357294,-1.5710535881561982
1375770528,15209,vehicle,338.9006042480469,260.3382568359375,0.0026445132927165557,-6.810684644358311,-1.570408037907963
4266869573,15209,vehicle,8.647335052490234,-1.9309791326522827,-3.633046892025816,0.4268808540368123,3.024629547990712
368528135,15209,vehicle,2.5673513412475586,291.7046203613281,0.06596968320892058,-9.082854074123851,-1.5635333538700324
4012051816,15209,vehicle,338.9733581542969,228.75657653808594,2.4964995736289526e-10,8.778135934067597e-08,-1.5736403165229922
3938307140,15209,vehicle,92.08155059814453,232.78504943847656,-0.0019610350582840454,-5.7415682304724855,-1.5711378772046993
1966079641,15209,vehicle,23.295900344848633,331.2403564453125,5.990586276528685,0.0033878585338228124,0.0005655303197824075
1759883367,15209,vehicle,-2.414607524871826,260.5025634765625,0.0019509760156114283,9.140100270905757,1.5705828744335268
3487645883,15209,vehicle,145.42922973632812,129.7757110595703,-4.038092554434442,-0.0028595132666580825,-3.140884519055941
544848518,15209,vehicle,92.24698638916016,35.24443435668945,1.9777832867452595e-09,1.8108868857726351e-06,-1.571888489157938
1325658571,15209,vehicle,128.57786560058594,129.74827575683594,2.2055615363362713e-07,-2.5592008489500555e-10,3.1404323143028456
921579549,15209,vehicle,117.47470092773438,55.81837844848633,-0.45357149565532745,-0.0006387558996838345,-3.140184374005359
4072577581,15209,vehicle,92.4071273803711,289.9681701660156,-0.002092391589128106,-6.891926924653626,-1.5710999271591657
94066344,15209,vehicle,298.6882629394531,133.25889587402344,-0.00020685424462144565,6.470729586602677e-07,-0.003128148756332748
2853390219,15209,vehicle,299.9941101074219,330.5155029296875,-0.00022552593553387893,-6.873114765533682e-08,0.00030475938549930055
2524564450,15209,vehicle,1.61501145362854,69.64327239990234,-0.003126448426850746,-5.6022969105165705,-1.5713543922013227
1882516347,15209,vehicle,-2.152475118637085,74.73955535888672,-0.0014041512194376761,9.177542579045813,1.5709493253995217
815178544,15209,vehicle,213.89154052734375,330.4188232421875,5.537772534780209,-0.0011562414054404992,-0.0002087917806982763
2188308515,15209,vehicle,123.03660583496094,199.21835327148438,5.530977120457863,-0.0011931206360538057,-0.00021571606455106362
1160083145,15209,vehicle,371.62725830078125,326.5591735839844,-7.862783526889618,0.023203525279953445,3.1386416047858763
1832698586,15209,vehicle,150.05233764648438,326.9679260253906,-8.413702121836202,0.00885302639682499,3.140540438643103
3748346955,15209,vehicle,131.26438903808594,1.9196959733963013,-0.9612058831083896,0.00017867724473395464,-0.0001858886278328855
3198444053,15209,vehicle,121.97172546386719,326.9930419921875,0.43066031846506353,0.010416847287602945,-3.1174092866791105
808811405,15209,vehicle,338.93389892578125,221.6425018310547,-4.7027945515869176e-07,-0.0016472661429265958,-1.571081817663753
84250811,15209,vehicle,282.74554443359375,133.59213256835938,5.776469957309122,0.04948339494034606,0.008566163236415902
3956289865,15209,vehicle,88.6192398071289,306.89337158203125,5.3648942842795237e-11,5.125258474179801e-08,1.5697495713284408
1912328786,15209,vehicle,365.2416687011719,-1.9526519775390625,1.1275743521911983e-08,1.1339000066331708e-11,-3.1405870439621792
4030311199,15209,vehicle,338.9559631347656,235.73353576660156,-4.4440379424356095e-06,0.006424283468682851,-1.5701045707017485
3147513812,15209,vehicle,392.4772644042969,277.9052734375,0.002826505533431887,11.561380994517378,1.5705518486068273
1663586846,15209,vehicle,271.92681884765625,330.4152526855469,5.728310473783537,-0.0011289006184746488,-0.00019707392066586362
