id,timestamp_ms,agent_type,x,y,vx,vy,psi_rad
-1,50250,vehicle,392.2198791503906,306.496337890625,7.922854489835694e-12,-3.70022546336526e-08,1.571010444946539
2985032057,50250,vehicle,-2.262376308441162,160.2443389892578,0.00074389113276287,14.287794093793908,1.5707442619955856
3028941286,50250,vehicle,396.85467529296875,78.25615692138672,-0.002301683509227125,-6.826757043016844,-1.5711334829889005
2920337868,50250,vehicle,392.0353088378906,314.20721435546875,-1.4376485787398943e-10,-3.65489398892757e-07,1.570402977901892
1503980471,50250,vehicle,129.94973754882812,2.02606201171875,5.114469557145617,-0.0030755449005319653,-0.0006013418391584733
2125414330,50250,vehicle,358.60247802734375,-1.6013845205307007,-9.903870180103114e-08,9.82491485801632e-11,3.1406006260837387
2396446624,50250,vehicle,134.149169921875,327.0113220214844,-3.875123211438875,0.0006284927164894731,3.1414304670794073
4076155829,50250,vehicle,6.013815879821777,-0.9470450282096863,-5.645059769194038,1.9122283376110778,2.8149807132897124
130361148,50250,vehicle,92.38751983642578,209.08517456054688,0.019569376741984456,-6.665597799297107,-1.5678604580091933
3417340120,50250,vehicle,300.4178466796875,330.5010986328125,-9.264085752284234e-07,1.8355806833148787e-09,-0.0019813917209817906
2197730220,50250,vehicle,154.23297119140625,35.14805221557617,1.6122304102390528e-09,-3.460315462725405e-06,1.5712622468276058
118743835,50250,vehicle,326.80609130859375,129.52328491210938,-5.3847465948576145,0.9185643336011785,2.97263265928746
904053063,50250,vehicle,157.90489196777344,36.6877326965332,1.0447742670038931e-05,0.002021396774044851,-1.5759648566804678
1291681130,50250,vehicle,113.09465789794922,195.61886596679688,2.8783997152969145e-08,1.1221790358292415e-10,-3.1376940520700263
715062232,50250,vehicle,338.9866638183594,22.499813079833984,3.456245988582783e-10,-1.4604950453853088e-07,-1.5684298418502522
220877689,50250,vehicle,92.68240356445312,61.752899169921875,-0.11935789056198695,-4.208609219959338,-1.5991491387082073
2069714320,50250,vehicle,91.97225189208984,288.61151123046875,-0.026489579929192167,-6.855954494494611,-1.5746600409043836
3190467641,50250,vehicle,16.722579956054688,-1.950824499130249,-4.436777112126713,-0.00015596924871328952,-3.141557499863404
708315452,50250,vehicle,88.03453826904297,169.22177124023438,-0.002227643953205028,0.006761397034038267,1.889061387606451
1314594676,50250,vehicle,159.08143615722656,199.00852966308594,10.41235808722618,-0.0020242746394647485,-0.00019441077583042972
2302084468,50250,vehicle,396.79986572265625,154.98057556152344,0.013155473927783665,-17.626389362550483,-1.570049975899402
757051778,50250,vehicle,334.7028503417969,297.8030090332031,4.0743207154141174e-11,1.9946302681975635e-07,1.5705920623392875
4203008516,50250,vehicle,112.88423919677734,55.693016052246094,2.266988857340715e-09,5.387143360061705e-12,-3.1392163149491155
2631691725,50250,vehicle,334.72576904296875,304.8206481933594,-5.614647079692697e-12,1.4899393352942043e-07,1.5708340105243213
1513387753,50250,vehicle,339.01324462890625,29.555875778198242,-3.2107260039245954e-11,1.0241277456473405e-08,-1.5676612535596552
156273220,50250,vehicle,92.19428253173828,40.832664489746094,-0.006957855883426851,-5.861198586977438,-1.5719834308507994
3812119762,50250,vehicle,120.99456024169922,2.0902652740478516,4.20972911638901,-0.0008116897962593241,-0.0001928128304124462
3616050434,50250,vehicle,153.66061401367188,326.39404296875,-4.242075475581137,0.0019420112224452345,3.1411348561984087
2942158310,50250,vehicle,124.82677459716797,59.33225631713867,-1.9961381248167165e-05,-1.375555260899517e-08,0.0006891081464060273
3608800298,50250,vehicle,298.1677551269531,133.19717407226562,1.7849165383737903e-08,-3.3654921037687137e-12,-0.00018855178892296473
1146464971,50250,vehicle,77.51185607910156,2.5450897216796875,5.805802687439245,-0.028264362352217343,-0.004868256912218896
3013099654,50250,vehicle,-2.341630697250366,249.5010528564453,0.0007408766069873778,5.72416539166002,1.5706668971659188
2246582517,50250,vehicle,130.99705505371094,133.35890197753906,2.342397910497557,0.001095469024398261,0.00046766987778791016
3192940987,50250,vehicle,338.8669738769531,219.46205139160156,8.544349342483318e-11,4.190900953708251e-08,-1.5728351097674067
828836647,50250,vehicle,293.2968444824219,330.7931823730469,1.2719438897529123e-07,1.5424712974975028e-10,0.0012126875672730446
1702089089,50250,vehicle,371.1454162597656,-2.4276890754699707,-8.884576158283541e-08,-1.1603389208235432e-10,-3.1402866393912183
2111029583,50250,vehicle,92.00399017333984,244.54507446289062,0.0016304220760441457,-8.135721996968721,-1.5705959239228682
420096522,50250,vehicle,88.35567474365234,243.83595275878906,-0.000332101619032861,5.069188583939502,1.5708618405577126
510102133,50250,vehicle,308.08966064453125,1.8779563903808594,4.276592209757889,-0.0006195753508515524,-0.00014487594704566524
4109025732,50250,vehicle,315.6313171386719,1.3385804891586304,3.282239048606729,0.023157155427152524,0.007055175099472812
2913592560,50250,vehicle,326.441162109375,1.75148606300354,0.0017194493691115656,1.612392208168962e-05,0.009377100469682884
3970347779,50250,vehicle,157.44427490234375,29.854721069335938,-0.0003397327942918114,-0.004904455260189063,-1.639956090301219
1933996401,50250,vehicle,337.3746337890625,1.7381789684295654,-1.9501056299653539,2.011431522880949,2.3407153989884772
3047764241,50250,vehicle,65.83987426757812,2.0416319370269775,5.805956595895354,-0.0016853794075516663,-0.00029028452630934634
1260711767,50250,vehicle,260.2516784667969,55.68148422241211,-5.632757663407207,-6.000376415954438e-05,-3.1415820009454327
3957993155,50250,vehicle,329.5458984375,54.26824188232422,-5.004755290338295,3.0518880125678467,2.5940001281504252
4289594148,50250,vehicle,-2.3818371295928955,272.8602294921875,0.0012390851348043268,8.729241283212895,1.5706543803087953
4139896837,50250,vehicle,112.17839813232422,129.49009704589844,6.19166852929654e-08,-8.506892337968136e-11,3.140218728783421
1686932955,50250,vehicle,112.7573013305664,-1.9680259227752686,7.53637363644693e-08,-2.146754725304061e-10,3.1387441364878446
1726501337,50250,vehicle,335.08343505859375,10.946295738220215,0.007929347457165706,5.809028458903788,1.5694313235781765
1682591593,50250,vehicle,313.8250427246094,330.4513854980469,5.8365330267823195e-08,-7.625705791250556e-11,-0.0013065464406813864
3380823586,50250,vehicle,351.5095520019531,326.3236389160156,-5.95924113265903,-0.0017520943203281401,-3.1412986406054486
4176583038,50250,vehicle,320.2249450683594,1.9581272602081299,-0.23493308632173218,0.0001312644733990672,-0.0005587312617172054
3855978784,50250,vehicle,338.6292419433594,248.8503875732422,6.468046391397033e-05,-5.996815204271546,-1.5707855409924818
1042098875,50250,vehicle,28.57002067565918,-1.9588396549224854,-5.849980796612815,-0.0006356412048995838,-3.141483996617318
644930681,50250,vehicle,88.3627700805664,255.51235961914062,0.0018670741850023722,5.674418619073985,1.5704672932422172
2234188147,50250,vehicle,335.1442565917969,44.243343353271484,-0.053074885599920796,6.1834007806053535,1.5793795618301674
4109707537,50250,vehicle,2.5804336071014404,90.86663055419922,-0.0019453585005706063,-5.371100550262761,-1.5711585167031474
3675841917,50250,vehicle,141.42083740234375,55.7495002746582,-6.396108183818002,-0.007782777418900442,-3.140375855287736
2817926641,50250,vehicle,92.865478515625,28.07440185546875,0.001880825453133326,-0.010587915249336357,-1.3949913427007874
4029506115,50250,vehicle,-2.5603795051574707,239.1990203857422,-0.0004236672294314302,3.756418919513524,1.5709091116670615
3277167701,50250,vehicle,132.2333526611328,59.39983367919922,0.0024851788056000235,-5.943352001537572e-07,-0.00023915188214376093
518241310,50250,vehicle,-2.663797616958618,209.44439697265625,-0.003045003689525345,5.682799954006753,1.5713321548062205
778540568,50250,vehicle,338.9315185546875,42.95614242553711,5.353427131291411e-09,-1.757019606606226e-07,-1.5403369544593333
657465635,50250,vehicle,20.29448699951172,2.0589969158172607,-7.346113787824938e-09,4.7810895749625296e-11,-0.006508233071935642
835227171,50250,vehicle,157.7899627685547,23.67967414855957,-6.521353992394446e-12,-3.952747053609659e-08,-1.570961309624427
715280319,50250,vehicle,92.39508819580078,145.64622497558594,-0.001289350450125855,-6.128390653398938,-1.5710067165210129
3020211281,50250,vehicle,311.7214050292969,59.5904541015625,1.2111614334005802e-06,1.5179358669205154e-09,0.0012532888104777936
2101598167,50250,vehicle,125.23815155029297,-2.0302703380584717,1.5632239823880314e-06,-1.3900652278414891e-09,3.1407034241018157
14974470,50250,vehicle,338.9898681640625,36.57738494873047,2.2780923481564857e-10,-4.813340218426517e-08,-1.5660634900636623
1398818972,50250,vehicle,291.3094177246094,133.63966369628906,4.333293958889265e-05,-5.959392823431245e-08,-0.0013752561268425933
2694688339,50250,vehicle,2.2678089141845703,111.74138641357422,-0.0020876899949966985,-6.834474721578118,-1.5711017913719287
3916750283,50250,vehicle,95.17848205566406,323.85211181640625,-5.21819853686939,-3.5301258220108602,-2.5468113104792023
1983197581,50250,vehicle,-2.133289098739624,193.91966247558594,0.0024469273583239593,7.934417824137606,1.5704879327406653
2942851653,50250,vehicle,338.802490234375,79.25489807128906,1.143756233600327e-05,0.006247784252146249,-1.572626983728217
3949181016,50250,vehicle,88.34362030029297,174.86178588867188,2.1913360103676053e-10,-8.218034880003979e-08,1.5734628168363385
3672416715,50250,vehicle,338.85546875,226.30577087402344,3.802177711315178e-11,-2.927699523024077e-08,-1.5694976362893194
3325384226,50250,vehicle,156.99476623535156,55.5695686340332,-8.268492082013788,0.071664744608388,3.1329256621382395
1359910869,50250,vehicle,306.3953552246094,59.605125427246094,0.01743745171541446,2.598515796245338e-05,0.001490191293528228
2262630317,50250,vehicle,226.90774536132812,330.6190490722656,11.928118488897828,-0.0022744813079632873,-0.00019068231779502813
805172996,50250,vehicle,92.17696380615234,154.93605041503906,0.004947162889097322,-6.062753566292634,-1.5699803342368963
1986857511,50250,vehicle,-2.473024606704712,290.2830810546875,0.0010839660077508531,11.212736077365756,1.5706996540473268
1279946346,50250,vehicle,149.66004943847656,2.3274197578430176,5.409361006309515,-0.11705548906491371,-0.021636053328021747
74618890,50250,vehicle,334.70416259765625,291.78424072265625,5.011582935327139e-13,5.972126244643759e-10,1.5699571647354127
3085549129,50250,vehicle,391.9759216308594,321.00048828125,-0.010265054928948468,0.03792780027447948,1.835111336559735
2057201815,50250,vehicle,306.45654296875,198.97398376464844,-8.886795015530287e-09,1.0749540362654501e-11,-0.0012096076370768274
1015694095,50250,vehicle,284.5827941894531,330.61962890625,3.7153700094440847,-0.0017394758779406961,-0.00046818371963593006
1250507297,50250,vehicle,154.227783203125,30.018985748291016,8.472441710218776e-08,-8.679161922523983e-05,1.5717725084924652
4280502996,50250,vehicle,92.22732543945312,276.78143310546875,-0.0018793480720887261,-5.832092459190503,-1.5711185692867962
3428459672,50250,vehicle,87.22547912597656,7.594205379486084,2.5313779812802517,4.944768078904804,1.097649873046631
414519966,50250,vehicle,144.06776428222656,327.0765075683594,-5.199787459978013,-0.0012767737908768206,-3.141347110137288
2866945113,50250,vehicle,338.62109375,273.9736022949219,-0.002078558798893534,-6.897795364012055,-1.5710976634722391
1853482628,50250,vehicle,55.14043426513672,2.522104263305664,4.596516990422489,-0.002294012840425153,-0.0004990762907529772
3880166169,50250,vehicle,170.64385986328125,326.41986083984375,-5.5557708739901415,1.9234686661901658e-05,3.141589191480376
1073352953,50250,vehicle,335.1678771972656,21.766437530517578,-0.006092011303318708,5.602523829439595,1.571883695467976
213556023,50250,vehicle,124.47823333740234,327.0174865722656,-4.491497487997702,0.0005071710512366906,3.1414797355595736
1628590046,50250,vehicle,34.763038635253906,2.3485474586486816,2.9122635715822076,0.0024301365354765093,0.0008344491876183822
4120465129,50250,vehicle,246.4096221923828,55.676570892333984,-5.717307565609302,-0.00015073849941847837,-3.1415662882950013
1015227284,50250,vehicle,117.51570129394531,129.75149536132812,0.00019721727432894115,-2.452783816542964e-08,3.1414682839668866
2900396540,50250,vehicle,118.2197036743164,-1.9650698900222778,-0.001325241778818429,-4.739560606671544e-06,-3.138016294561926
3587539486,50250,vehicle,396.58258056640625,65.0943374633789,-0.002398471595880287,-9.157201452861662,-1.571058248688106
1146849989,50250,vehicle,334.54339599609375,185.6552276611328,-0.1809411741416138,6.543514049021491,1.598441270490464
1457681385,50250,vehicle,363.86865234375,-2.695688009262085,-0.002484444758698269,1.2108152209228634e-07,3.1415439177418447
1726747598,50250,vehicle,92.18472290039062,51.988929748535156,0.03910272902309337,-6.5529996566860715,-1.564829248056465
367118466,50250,vehicle,363.0521545410156,326.36199951171875,-5.438542328349477,0.0006401801757067162,3.1414749418696117
2065705843,50250,vehicle,311.215087890625,133.19998168945312,3.3352015751800326e-08,1.6458145687706206e-11,0.0004934677554206829
3978545900,50250,vehicle,396.84600830078125,96.8237075805664,-0.0024068766456010558,-9.110552469849708,-1.5710605123750325
714679325,50250,vehicle,392.1418151855469,299.22723388671875,1.3628903499019708e-11,4.1220830716130015e-08,1.5704656953455634
3262285446,50250,vehicle,88.3433609008789,162.9807586669922,-9.291012571373434e-09,5.005684688041671e-06,1.5726524169166274
1401880247,50250,vehicle,92.49551391601562,165.47190856933594,-0.0012981546721587424,-5.009751151692716,-1.5710554523689613
2250339631,50250,vehicle,92.39778900146484,93.61660766601562,0.0022780187310662793,-5.657284754825601,-1.5703936568380765
2525145270,50250,vehicle,96.45094299316406,134.96214294433594,4.442381975794568,-3.827479628141364,-0.7111801248746841
1825059061,50250,vehicle,331.94671630859375,1.9882513284683228,-4.0399983642814954e-07,1.441088760966802e-09,-0.0035670377039778065
346279610,50250,vehicle,88.17655181884766,305.6376037597656,-4.3659470979963914e-11,-1.5426563529233636e-08,1.5679661855044693
893025708,50250,vehicle,395.8493347167969,54.447425842285156,-0.001869704349118845,-5.8214098788849515,-1.5711175040223602
1724402154,50250,vehicle,2.357119083404541,171.56201171875,-0.0070837591016337815,-11.000438316732435,-1.5714402791464777
2595182244,50250,vehicle,313.6766662597656,198.77235412597656,4.606770200333645e-08,-1.1392617195300315e-10,-0.002473011128173255
874453657,50250,vehicle,385.40374755859375,325.7415466308594,-4.96952655004024,1.4828355036338239,2.8516175540898234
1498616609,50250,vehicle,-2.418360948562622,65.26527404785156,0.0259338412083178,16.647549456290566,1.5692385107152547
505512523,50250,vehicle,305.6189880371094,133.2028350830078,-0.44404840299707166,-3.8816034567711685e-05,8.741397155548515e-05
3709073522,50250,vehicle,118.92913055419922,195.56103515625,-0.017408661809411117,-1.9490622691752705e-05,-3.140473060667524
27029540,50250,vehicle,28.004005432128906,2.902886390686035,1.0777802974206414,0.04410085083219804,0.04089540599190511
1375770528,50250,vehicle,278.3553466796875,195.2703094482422,-7.885125575968387,-0.004000378351643446,-3.1410853214021333
4266869573,50250,vehicle,-1.5628314018249512,219.38720703125,-0.03385168726615966,9.536736489883749,1.5743459210538087
368528135,50250,vehicle,2.3648269176483154,127.67745208740234,0.040346461677007915,-6.709770970578189,-1.5647833085276612
4012051816,50250,vehicle,338.79058837890625,153.35789489746094,2.722900642432884e-09,2.259267099251617e-06,-1.572001540346212
3938307140,50250,vehicle,92.36482238769531,195.6798553466797,0.09984186326294103,-5.943438740450783,-1.5539992371675488
1966079641,50250,vehicle,166.84280395507812,330.6405334472656,18.86669319457037,-0.0033764669400445603,-0.0001789644252533248
1759883367,50250,vehicle,65.09627532958984,331.1673889160156,5.210717311102358e-07,-3.580261298751343e-10,-0.0006870955612404434
3487645883,50250,vehicle,92.41661834716797,83.63191223144531,-0.002747630764384152,-5.158588631359793,-1.5713289590129125
544848518,50250,vehicle,139.07162475585938,2.097745656967163,5.186631192453643,-0.00032598291288182325,-6.285060578953135e-05
1325658571,50250,vehicle,92.39090728759766,73.56329345703125,-0.0014028663007296916,-5.210359384506477,-1.5710655723811036
921579549,50250,vehicle,92.27294921875,22.447614669799805,2.467291526958128e-07,7.310990462863041e-05,-1.574171084528245
4072577581,50250,vehicle,92.37992095947266,220.78567504882812,-0.0013196270248111023,-5.765113679535953,-1.571025225490589
94066344,50250,vehicle,334.5272216796875,195.94781494140625,0.028674992229499773,5.941175879743329,1.565969879951346
2853390219,50250,vehicle,390.9581298828125,328.68792724609375,5.161495178185405,-2.0414400233115755,-0.3766325637374124
2524564450,50250,vehicle,45.272132873535156,2.032259941101074,5.027352539286957,0.0027414325245836385,0.0005453033642326468
1882516347,50250,vehicle,-2.1350157260894775,228.08395385742188,0.0012386001272579404,5.261158797378517,1.5705609033545336
815178544,50250,vehicle,307.15032958984375,330.3822937011719,-3.192486565119724e-06,-5.05490062662149e-09,0.0015833728033565785
2188308515,50250,vehicle,298.796875,199.190673828125,-2.881328480190541e-09,-3.4180126516226725e-12,0.0011862621953121382
1160083145,50250,vehicle,335.6194152832031,326.3768005371094,-7.412150520184549,0.040383981893408416,3.136144358631709
1832698586,50250,vehicle,114.68606567382812,326.9577331542969,-5.089263259063093,-0.001353997468029362,-3.141326603796894
3748346955,50250,vehicle,160.99777221679688,2.035383462905884,1.3686420150896903,-0.017228961259211712,-0.012587697208368527
3198444053,50250,vehicle,104.19369506835938,327.3793640136719,-11.26655524724318,-0.009904538029390085,-3.140713544113958
808811405,50250,vehicle,244.189453125,195.30758666992188,-5.8349337531263,-0.00023309052814292594,-3.141552706173442
84250811,50250,vehicle,338.60284423828125,48.35820770263672,0.0003966510456963001,0.01061981828652395,-1.6081290515878455
3956289865,50250,vehicle,2.426314353942871,144.52589416503906,-0.004561418441730356,-7.706561645987207,-1.5713882143471667
1912328786,50250,vehicle,335.1399841308594,32.330814361572266,0.0004497287215164279,5.473914604785975,1.5707141682752677
4030311199,50250,vehicle,338.7906494140625,160.21649169921875,-4.715151242057517e-09,0.00015004315347918228,-1.5707649014940337
3147513812,50250,vehicle,373.7621154785156,326.32489013671875,-4.620336428297123,0.03779719072738481,3.133412221669397
1663586846,50250,vehicle,338.62841796875,295.1566467285156,-0.0020341992035217736,-5.749558088940694,-1.5711501277457136
