id,timestamp_ms,agent_type,x,y,vx,vy,psi_rad
-1,39999,vehicle,392.2198791503906,306.496337890625,5.640938279182714e-12,-2.634497892733173e-08,1.571010444946539
2985032057,39999,vehicle,-2.2945687770843506,19.73866081237793,-0.00922815942000612,6.537331743560553,1.572207935330693
3028941286,39999,vehicle,396.8783874511719,138.4506378173828,-0.0017376523271848516,-5.846571187242324,-1.5710935355725495
2920337868,39999,vehicle,392.0353088378906,314.20721435546875,-3.871527354407593e-11,-9.842476294168865e-08,1.570402977901892
1503980471,39999,vehicle,116.46837615966797,2.031364679336548,-0.03188540760979421,4.641510575160841e-05,-0.0014556838518373116
2125414330,39999,vehicle,358.6041259765625,-1.6013991832733154,0.0068270041542011295,-6.772578126589647e-06,3.1406006260837387
2396446624,39999,vehicle,141.33572387695312,327.0087585449219,-2.0520328061789597e-08,2.455924502499922e-11,3.1403958289959117
4076155829,39999,vehicle,63.77958679199219,-1.960886001586914,-5.619624606503287,0.0003038091018323144,3.1415385914196645
130361148,39999,vehicle,92.38613891601562,226.82598876953125,-1.7641619871649634e-10,-2.963236384034796e-07,-1.5713916764565838
3417340120,39999,vehicle,284.9028015136719,330.50006103515625,3.6648666318668806,-0.0014640196100235362,-0.0003994741635118857
2197730220,39999,vehicle,154.61351013183594,4.277285099029541,-1.5059125587175817,5.2704307478675405,1.8491091775653004
118743835,39999,vehicle,334.71221923828125,108.75579071044922,-4.450696449475428e-09,-2.122705036330415e-06,1.5686996200686771
904053063,39999,vehicle,178.70040893554688,55.8249397277832,-0.0,0.0,3.140032840139334
1291681130,39999,vehicle,113.09465789794922,195.61886596679688,-5.684259466051784e-07,-2.2160774867778377e-09,-3.1376940520700263
715062232,39999,vehicle,338.9866638183594,22.499813079833984,7.231283101939192e-10,-3.0557006581847176e-07,-1.5684298418502522
220877689,39999,vehicle,92.9068832397461,91.65272521972656,-4.296646606052806e-06,-0.007864310163739919,-1.5713426742925263
2069714320,39999,vehicle,62.25226593017578,331.1760559082031,4.83504150197578,-0.0004506772659035584,-9.321063002545067e-05
3190467641,39999,vehicle,76.2263412475586,-1.960364818572998,-2.3021724065673634,0.019519297514872413,3.1331142139434167
708315452,39999,vehicle,88.3426513671875,148.3145751953125,-0.015168087723942974,8.909682714030673,1.5724987525217298
1314594676,39999,vehicle,98.3275146484375,198.8522491455078,3.618296698654621,0.18463517365998333,0.050983980349775665
2302084468,39999,vehicle,395.80194091796875,323.54949951171875,3.73355950259771,-5.8246876747598,-1.0007819823478792
757051778,39999,vehicle,334.7028503417969,297.8027648925781,-1.3835155395471472e-07,-0.0006786430462799371,1.570592461813451
4203008516,39999,vehicle,112.88423919677734,55.693016052246094,1.1329497547923625e-09,2.6922773480116472e-12,-3.1392163149491155
2631691725,39999,vehicle,334.72576904296875,304.8206481933594,3.109176402592173e-11,-8.250713102423802e-07,1.5708340105243213
1513387753,39999,vehicle,339.01324462890625,29.555875778198242,-2.997302890944868e-10,9.560520109699508e-08,-1.5676612535596552
156273220,39999,vehicle,92.51573181152344,80.52529907226562,-0.0,-0.0,-1.5723441560204507
3812119762,39999,vehicle,110.5589828491211,2.09283447265625,1.8825770140207903,-0.004464122528937912,-0.0023712783745322287
3616050434,39999,vehicle,210.1956787109375,326.4052429199219,-5.977781772501386,-3.661553039107654e-05,-3.141586528319286
2942158310,39999,vehicle,99.19685363769531,59.29439163208008,5.420710165626549,0.31004621894633305,0.057134355311421116
3608800298,39999,vehicle,285.4113464355469,133.20025634765625,6.936253443744291,-0.0012007034303432422,-0.00017310547085515047
1146464971,39999,vehicle,60.19769287109375,2.5480518341064453,-1.2985058643943524e-07,1.1038353710836791e-10,-0.0008500809549347115
3013099654,39999,vehicle,-2.347254991531372,198.25344848632812,0.0015909903245810918,2.293747826982042,1.5701027064889854
2246582517,39999,vehicle,109.34431457519531,133.3667449951172,5.7953924774584396,-0.020369958203968787,-0.003514839486537928
3192940987,39999,vehicle,338.86773681640625,224.78128051757812,-0.0011079091150897166,-3.873489698275948,-1.5710823502959712
828836647,39999,vehicle,275.75445556640625,330.79693603515625,4.140539017742977,-0.001120335208981882,-0.00027057713424275996
1702089089,39999,vehicle,389.3238220214844,-1.4477163553237915,-5.034067966967013,-3.3186284146749996,-2.5587534574393356
2111029583,39999,vehicle,92.06672668457031,324.8990478515625,2.482520408724643,-5.458467245292139,-1.143956452027738
420096522,39999,vehicle,88.11561584472656,187.6311492919922,0.04780396238728016,5.760115148586612,1.5624973842059917
510102133,39999,vehicle,282.85113525390625,1.853187084197998,8.76957592804494,-0.001592796926580723,-0.00018162758634340405
4109025732,39999,vehicle,297.6686706542969,1.3823269605636597,0.0041787587041981445,-0.0014612137775750508,-0.3363866070280259
2913592560,39999,vehicle,308.86529541015625,1.6724755764007568,0.0016461374168345233,-3.156429003239111e-07,-0.00019174759848570515
3970347779,39999,vehicle,157.5926971435547,29.856590270996094,-0.0003637967783500256,-0.028187035868208254,-1.583702138595475
1933996401,39999,vehicle,341.66448974609375,-1.350188970565796,-6.170333088577758,0.8000940483154138,3.0126442578209196
3047764241,39999,vehicle,53.26545333862305,2.046076774597168,1.1018469208278848e-06,4.975598759215408e-10,0.0004515689363889145
1260711767,39999,vehicle,319.2139892578125,55.68544387817383,-5.60629561588887,-0.011073942772858985,-3.1396173870092814
3957993155,39999,vehicle,335.0718994140625,33.63330078125,2.605404602869165e-10,-3.7233592686142854e-07,1.571496072371315
4289594148,39999,vehicle,-2.3990578651428223,205.842529296875,0.001971938837685062,4.147019871130045,1.5703208193822629
4139896837,39999,vehicle,112.17839813232422,129.49009704589844,-1.1027122576720111e-08,1.5150446784074453e-11,3.140218728783421
1686932955,39999,vehicle,124.36750030517578,-1.9667339324951172,-5.977766990585095,-3.0247537264575887e-05,-3.141587593583722
1726501337,39999,vehicle,335.2745361328125,5.559701919555664,-0.5958273656879822,2.253062492968977,1.8293301464653908
1682591593,39999,vehicle,303.7194519042969,330.4570617675781,4.69602191896824,-0.0010380197573523178,-0.00022104235422193145
3380823586,39999,vehicle,368.77252197265625,326.3265380859375,4.3605358183262024e-08,-1.406199955537907e-10,3.1383678318258164
4176583038,39999,vehicle,302.4993591308594,1.9665971994400024,-1.2423349164650126e-07,6.531053018645755e-11,-0.000525707869144479
3855978784,39999,vehicle,338.6286315917969,308.1058044433594,0.0016819983254352895,-6.038046125741548,-1.5705177601448743
1042098875,39999,vehicle,86.89984893798828,-1.959969162940979,-5.48686824842403,-0.0012084466594573175,-3.1413724101676435
644930681,39999,vehicle,88.48841857910156,197.44973754882812,-0.07421846549326164,6.06361650282838,1.5830356825326828
2234188147,39999,vehicle,335.1517639160156,26.42044448852539,9.57863463221993e-09,-5.353445501891998e-06,1.5725855715732664
4109707537,39999,vehicle,2.6021461486816406,180.1725311279297,-0.0012749780440018186,-7.480408083025806,-1.5709667691046616
3675841917,39999,vehicle,183.96047973632812,55.83415985107422,-0.017409259935040198,-0.0001398914567645626,-3.133557363948806
2817926641,39999,vehicle,92.6027603149414,28.038530349731445,0.00024185926337062666,-0.003968151412213408,-1.5099215242817563
4029506115,39999,vehicle,-2.545443296432495,192.4037322998047,-0.0008773969766441026,1.5793716854561533,1.5713518621982872
3277167701,39999,vehicle,110.77106475830078,59.38607406616211,4.76491128611626,0.006994631129559719,0.0014679446657875216
518241310,39999,vehicle,-2.6731419563293457,170.05967712402344,0.15589232094220995,4.105641091629106,1.53284428389045
778540568,39999,vehicle,338.9315185546875,42.95614242553711,-6.232624832108173e-09,2.0455763685706915e-07,-1.5403369544593333
657465635,39999,vehicle,18.17422866821289,2.0708541870117188,3.739912921888023,-0.055694407838590795,-0.014890798919069052
835227171,39999,vehicle,157.7899627685547,23.679718017578125,2.3103877181407323e-08,0.00014003806964362603,-1.570961309624427
715280319,39999,vehicle,92.39908599853516,161.5304412841797,-4.421310779004349e-10,-7.622469265824585e-07,-1.571376363280316
3020211281,39999,vehicle,280.357421875,59.597557067871094,5.658217386915078,-0.0006991896969922008,-0.00012357066645235398
2101598167,39999,vehicle,160.96005249023438,-1.9804655313491821,-6.21321615941134,-0.01446358008996111,-3.139264784480955
14974470,39999,vehicle,338.9898681640625,36.57738494873047,-2.8928135877461406e-09,6.112173634039499e-07,-1.5660634900636623
1398818972,39999,vehicle,249.34249877929688,133.646240234375,5.620785104934891,-0.0012154872899802942,-0.00021624866425978882
2694688339,39999,vehicle,2.289653778076172,191.62977600097656,-0.0012848725259028261,-5.5840443086592,-1.5710264239130793
3916750283,39999,vehicle,116.79842376708984,326.9374694824219,-1.4565003864252504e-07,6.950257095834493e-10,3.136820801548589
1983197581,39999,vehicle,-2.1219325065612793,35.0681037902832,-0.019247870597127043,10.751926359705724,1.5725865036796478
2942851653,39999,vehicle,338.9264831542969,133.9720458984375,-0.050040533805312974,-5.922788471065555,-1.579244939037064
3949181016,39999,vehicle,88.34367370605469,161.37413024902344,0.001741616088886137,5.825975157771608,1.5704973869625352
3672416715,39999,vehicle,338.8582458496094,233.14886474609375,-0.0009950748364364642,-3.44690260829019,-1.571085013457061
3325384226,39999,vehicle,190.06961059570312,55.8415412902832,-0.006686348412951322,2.638971294968027e-06,3.1411979731162436
1359910869,39999,vehicle,270.205810546875,59.60572052001953,4.6021795356172905,0.0029497876720651307,0.000640954409815963
2262630317,39999,vehicle,105.69249725341797,330.6467590332031,6.7641759972046325,-0.025497260684423966,-0.0037694376867495032
805172996,39999,vehicle,92.11652374267578,167.51760864257812,-3.692800314960022e-05,-0.011760970345041763,-1.5739361937201
1986857511,39999,vehicle,-2.480333089828491,214.51559448242188,0.00034833790055753436,3.603268844933239,1.5706996540473268
1279946346,39999,vehicle,129.79486083984375,2.851928949356079,0.028806963348372117,-0.0014146574025395494,-0.049068755568277576
74618890,39999,vehicle,334.70404052734375,291.7768249511719,-2.5765276171353827e-05,-0.03388684753571032,1.570035994303679
3085549129,39999,vehicle,391.97674560546875,320.9991455078125,1.0256656497949821e-09,-3.797279258024306e-09,1.8346064012170558
2057201815,39999,vehicle,306.45648193359375,198.9739532470703,-4.4511107440785796e-05,5.384100175428958e-08,-0.0012096076370768274
1015694095,39999,vehicle,123.78659057617188,330.64959716796875,12.74262039377401,0.001376672154461061,0.00010803681711946358
1250507297,39999,vehicle,171.35964965820312,-1.9413377046585083,-5.533657401255147,0.0012865419631893891,3.1413601596266294
4280502996,39999,vehicle,82.93659210205078,330.544677734375,6.150391931155676,-0.8553175454779498,-0.13818091780028427
3428459672,39999,vehicle,66.85588836669922,2.0130598545074463,-6.376268023287506e-07,5.155441082745167e-10,-0.0008085356419294754
414519966,39999,vehicle,148.38682556152344,327.0599060058594,-1.0098724837690016e-05,-3.361816505080906e-09,-3.141259758453533
2866945113,39999,vehicle,323.65435791015625,330.4406433105469,3.806901020608497,-0.039346467476954576,-0.010335195558379508
1853482628,39999,vehicle,46.39568328857422,2.5198092460632324,4.8935134538227126e-08,-1.1960989128963627e-10,-0.0024442489884003997
3880166169,39999,vehicle,227.3146209716797,326.41986083984375,-5.555769920315825,1.9234683360176828e-05,3.141589191480376
1073352953,39999,vehicle,335.1930847167969,12.530670166015625,0.000338164307736272,-0.017828921608346104,1.5897612295495689
213556023,39999,vehicle,134.5973358154297,327.0172119140625,-8.135998377468029e-09,1.4814068555410275e-11,3.139771850352506
1628590046,39999,vehicle,33.744266510009766,2.3478176593780518,1.5373384225856846e-07,2.998891602094872e-10,0.0019507011300875542
4120465129,39999,vehicle,305.3983459472656,55.67880630493164,-5.839751174645027,0.0008973618376669269,3.1414389891948957
1015227284,39999,vehicle,117.51283264160156,129.75152587890625,-0.0,0.0,3.141492785048915
2900396540,39999,vehicle,135.34495544433594,-1.9607948064804077,-7.7748640903742405,0.004888620079969145,3.1409638812564253
3587539486,39999,vehicle,396.6006164550781,125.57234954833984,-0.0020055274321379825,-7.4011079931975505,-1.5710673034358122
1146849989,39999,vehicle,333.99249267578125,168.27182006835938,0.0015579070252107025,0.013804531186733358,1.45841705406406
1457681385,39999,vehicle,371.99322509765625,-2.725743293762207,-5.836016650736186,0.00022225421036111705,3.141554570386205
1726747598,39999,vehicle,92.0069808959961,85.54380798339844,0.0011294452646013837,0.010314414043020836,-1.6798634260780017
367118466,39999,vehicle,375.0947570800781,326.35400390625,8.94644426487256e-08,-6.555792333244462e-10,3.13426496585044
2065705843,39999,vehicle,311.215087890625,133.19998168945312,7.496074847429847e-09,3.6990715296808095e-12,0.0004934677554206829
3978545900,39999,vehicle,396.8957214355469,268.7602233886719,-0.0066701495623001745,-15.877010851697117,-1.5712164404568565
714679325,39999,vehicle,392.1315612792969,255.71849060058594,0.008584097821745454,17.788486316869804,1.5703137620053742
3262285446,39999,vehicle,88.32923889160156,129.03855895996094,0.0032375845525873057,5.63995459137126,1.57022228242193
1401880247,39999,vehicle,92.49676513671875,174.20469665527344,-8.46013957092887e-11,-8.986499292550755e-08,-1.5717377542402395
2250339631,39999,vehicle,92.39317321777344,111.54768371582031,4.0095021152537e-11,1.4176482353903196e-07,-1.571079154502663
2525145270,39999,vehicle,92.50537109375,154.58193969726562,-2.3260121853730172e-08,2.7332264942529004e-05,-1.5699453136685617
1825059061,39999,vehicle,313.625732421875,2.0121877193450928,-2.253050993822826e-06,1.408856005146436e-09,-0.0006253102239506051
346279610,39999,vehicle,88.17655181884766,305.6374206542969,-1.4200043044903795e-06,-0.0005017419158619445,1.5679661855044693
893025708,39999,vehicle,395.87322998046875,113.33309936523438,-0.0018697048085665462,-5.821411309396352,-1.5711175040223602
1724402154,39999,vehicle,2.3695061206817627,306.4462585449219,-0.022458808114347296,-6.624072625701596,-1.5741867971786765
2595182244,39999,vehicle,313.6766662597656,198.77235412597656,-5.6077566529172764e-09,1.386807287814315e-11,-0.002473011128173255
874453657,39999,vehicle,388.6775817871094,324.7012939453125,-6.825202871338781e-07,4.126963211556929e-07,2.597749858965257
1498616609,39999,vehicle,15.72299861907959,-1.956220030784607,-6.094218701340506,0.0006005057883790141,3.14149411662946
505512523,39999,vehicle,305.5353088378906,133.2028045654297,-0.4440477192325671,2.6016551120692524e-06,-5.858953890216658e-06
3709073522,39999,vehicle,118.92913055419922,195.56092834472656,-0.017409614480628357,-1.4841314576931435e-05,-3.1407401757248588
27029540,39999,vehicle,27.777427673339844,2.5599217414855957,0.0034417148848104734,3.43948683079371e-05,0.009993193659548294
1375770528,39999,vehicle,338.9295654296875,215.9163818359375,0.0033010321938610524,-7.925297049651257,-1.5703798084004081
4266869573,39999,vehicle,-1.5079749822616577,177.4362030029297,0.0009431035937304543,2.4991486677231385,1.5704189568684324
368528135,39999,vehicle,2.204709529876709,200.64459228515625,-0.18475425898636857,-9.200602620347395,-1.5908742977271675
4012051816,39999,vehicle,338.8733825683594,195.57815551757812,-0.043813745630680814,-6.324709770808289,-1.5777236082643562
3938307140,39999,vehicle,92.14663696289062,219.810791015625,-1.7664814154541163e-10,3.2012344117163675e-08,-1.5652782570162525
1966079641,39999,vehicle,71.91847229003906,331.23651123046875,5.299626211405319,-0.0012137832365866064,-0.0002290318537468145
1759883367,39999,vehicle,51.96658706665039,331.1674499511719,5.133176295249748,-0.0005686916946146129,-0.00011078748509265098
3487645883,39999,vehicle,92.42707824707031,105.2142333984375,1.9982254519921893e-11,-1.9197150794298467e-08,-1.5697554302828391
544848518,39999,vehicle,122.55561065673828,2.0955002307891846,-0.000697218038465669,-2.08007828614734e-06,0.0029833882660328277
1325658571,39999,vehicle,92.39752960205078,98.92157745361328,-9.754715097436378e-12,9.538628326170533e-08,-1.5706940614090374
921579549,39999,vehicle,92.29109191894531,22.44724464416504,2.3060641548093373e-07,6.813889462294674e-05,-1.5741806719081692
4072577581,39999,vehicle,92.38365936279297,233.42498779296875,-4.517745623370508e-11,-7.760221726900295e-08,-1.571378493809188
94066344,39999,vehicle,334.482177734375,173.806396484375,1.6234495856211038e-11,1.399758806109017e-07,1.5706803461294236
2853390219,39999,vehicle,334.1578063964844,330.5648498535156,5.555143040445136,0.03211371633708801,0.005780833792518482
2524564450,39999,vehicle,39.81764221191406,2.0300538539886475,-1.565597128321368e-07,2.0688756125856035e-10,-0.0013214602728229927
1882516347,39999,vehicle,-2.138852596282959,184.17306518554688,0.00042761193978255543,3.4199266166382642,1.5706712913817173
815178544,39999,vehicle,294.4446105957031,330.38433837890625,4.788749461632451,-0.00399175635287907,-0.0008335694862133829
2188308515,39999,vehicle,265.4627990722656,199.1946258544922,5.963838813779208,-0.0016930919720651342,-0.0002838929722024468
1160083145,39999,vehicle,363.2120361328125,326.5594787597656,0.5613793250894666,-0.0006232839226730128,3.140482381731339
1832698586,39999,vehicle,127.3373794555664,326.96343994140625,-0.0013252048559186942,-6.134558372317141e-06,-3.1369635469830173
3748346955,39999,vehicle,135.8640899658203,1.918365240097046,-0.9612058772407549,0.00020785949027204984,-0.00021624866425978882
3198444053,39999,vehicle,121.6025619506836,327.3708190917969,-0.006981330825777014,0.0020530762198970125,2.855575011469681
808811405,39999,vehicle,328.8292541503906,195.37657165527344,-3.619673821176862,-0.17933836780330256,-3.0920876847185284
84250811,39999,vehicle,338.82470703125,48.83095932006836,-0.058306475025404814,-3.9972532932764873,-1.5853819274530425
3956289865,39999,vehicle,2.4648988246917725,270.1734924316406,-0.0021560781570357716,-14.153734042932593,-1.5709486596092492
1912328786,39999,vehicle,335.1353759765625,19.402149200439453,4.391649846455953e-08,-0.00017992760159097276,1.5710404055088023
4030311199,39999,vehicle,338.9371032714844,207.37168884277344,-0.024777826295598767,-5.455364701763054,-1.5753382148759723
3147513812,39999,vehicle,382.0475769042969,326.14154052734375,3.7989960057534976e-07,-4.5014043235791724e-08,3.023653233135089
1663586846,39999,vehicle,313.7027282714844,330.39990234375,4.998557587239484,-0.0021379013979635894,-0.000427703638557435
