id,timestamp_ms,agent_type,x,y,vx,vy,psi_rad
-1,35309,vehicle,392.2198791503906,306.496337890625,6.593219882388965e-11,-3.079243740457449e-07,1.571010444946539
2985032057,35309,vehicle,8.953587532043457,-1.8272167444229126,-5.7411378796208234,0.46076286223522145,3.0615079375016934
3028941286,35309,vehicle,396.886474609375,164.36070251464844,-0.0024302747383478135,-6.894995261093382,-1.5711487961651687
2920337868,35309,vehicle,392.0353088378906,314.20721435546875,-5.088986791501163e-10,-1.293758955355566e-06,1.570402977901892
1503980471,35309,vehicle,115.03208923339844,2.032191753387451,0.5183930138454648,-0.00016373489130791754,-0.000315850872774107
2125414330,35309,vehicle,377.18023681640625,-1.5905301570892334,-4.441316919157378,-0.013391636978029428,-3.1385774226036056
2396446624,35309,vehicle,141.33572387695312,327.0087585449219,1.0060219224608213e-07,-1.2040323536660526e-10,3.1403958289959117
4076155829,35309,vehicle,90.27099609375,-1.938023328781128,-5.841675331883372,-0.012240519213928467,-3.139497278444119
130361148,35309,vehicle,92.38613891601562,226.82598876953125,-6.155706040456791e-11,-1.0339646949211058e-07,-1.5713916764565838
3417340120,35309,vehicle,268.4902648925781,330.4994201660156,1.942596332512307e-08,-2.6074183317176378e-11,-0.0013422329293256109
2197730220,35309,vehicle,176.36415100097656,-1.9393672943115234,-4.366359233854808,-3.488495405732139e-06,-3.141591854641466
118743835,35309,vehicle,334.71221923828125,108.75579071044922,4.814910026289133e-10,2.2964122308288149e-07,1.5686996200686771
904053063,35309,vehicle,178.70040893554688,55.8249397277832,-3.0837037602069896e-08,4.8100065033479346e-11,3.140032840139334
1291681130,35309,vehicle,113.09465789794922,195.61886596679688,-2.1002673638535534e-07,-8.188147020816688e-10,-3.1376940520700263
715062232,35309,vehicle,338.9866638183594,22.499813079833984,1.671338669895948e-10,-7.06252348532871e-08,-1.5684298418502522
220877689,35309,vehicle,92.90676879882812,91.65150451660156,1.0638880306229451e-07,0.00019894578210630148,-1.5713310895417845
2069714320,35309,vehicle,41.88193130493164,331.17791748046875,4.707252537655007,-0.00557609121243441,-0.0011845739228300825
3190467641,35309,vehicle,100.68399047851562,-2.6634578704833984,-5.9698370561300305,0.15132065244285642,3.116250545288817
708315452,35309,vehicle,88.71942901611328,114.12332916259766,-0.0019349878250880508,6.154812031801312,1.5711107129615804
1314594676,35309,vehicle,88.66840362548828,186.35791015625,0.11770408174736656,2.72794133615165,1.5276754876887697
2302084468,35309,vehicle,352.4261779785156,330.66796875,5.0939595542479355,0.03530221239328791,0.006930099634847511
757051778,35309,vehicle,334.7030029296875,281.7143249511719,0.0006747125048614639,5.562025029266759,1.5706750198072434
4203008516,35309,vehicle,112.88423919677734,55.693016052246094,-1.4981650030483325e-08,-3.560154088236726e-11,-3.1392163149491155
2631691725,35309,vehicle,334.72576904296875,294.5121765136719,0.0005705292267858932,5.853280993312938,1.5706988550989998
1513387753,35309,vehicle,339.01324462890625,29.555875778198242,0.0,-0.0,-1.5676612535596552
156273220,35309,vehicle,92.51573181152344,80.52529907226562,-1.0502112801026882e-09,-6.785053700200623e-07,-1.5723441560204507
3812119762,35309,vehicle,109.01225280761719,2.0952491760253906,7.185937430288185e-06,-4.054090167751254e-08,-0.005641639933075208
3616050434,35309,vehicle,237.4769287109375,326.4134521484375,-5.6722922302957315,0.00015861539361508296,3.141564690398347
2942158310,35309,vehicle,88.62887573242188,44.99430465698242,0.09019936349591338,3.9105127811511573,1.547734550177301
3608800298,35309,vehicle,253.1293182373047,133.2084503173828,6.936257259080068,-0.0011970095038533414,-0.0001725728223824893
1146464971,35309,vehicle,60.19769287109375,2.5480518341064453,1.7556983971244757e-06,-1.4924861295138139e-09,-0.0008500809549347115
3013099654,35309,vehicle,-2.3709254264831543,183.60682678222656,0.009592928290087446,2.924233199064524,1.567515844964137
2246582517,35309,vehicle,88.85059356689453,123.34193420410156,0.2768888418613843,5.001225907565958,1.515488596224458
3192940987,35309,vehicle,338.87103271484375,240.5449981689453,-0.0018301029508209301,-3.0192965683101547,-1.5714024622589986
828836647,35309,vehicle,254.3923797607422,330.79254150390625,8.237367475506158,0.009005720834078206,0.0010932761313391776
1702089089,35309,vehicle,396.013671875,23.891613006591797,0.0015098854338582049,-5.927363680220491,-1.5705415954366304
2111029583,35309,vehicle,70.5649185180664,330.4441223144531,5.326755963836332,0.000625137660887603,0.00011735804348119417
420096522,35309,vehicle,88.08975219726562,170.30238342285156,-0.0011836679397170427,2.637743207471834,1.571245069438575
510102133,35309,vehicle,254.91525268554688,1.85850989818573,8.787360046403947,-0.0015960270131090337,-0.00018162758634340405
4109025732,35309,vehicle,297.8104248046875,1.9684340953826904,0.22104626078972936,-0.03595766096834938,-0.16125781617944454
2913592560,35309,vehicle,308.8543395996094,1.6725183725357056,0.0016461336915442933,-3.1564218600844706e-07,-0.00019174759848570515
3970347779,35309,vehicle,158.2506103515625,49.73236083984375,0.1520153744058422,-5.255368333753342,-1.5418786584143802
1933996401,35309,vehicle,367.6014099121094,-2.27264666557312,-5.157231329042718,0.00013734537811230197,3.1415660219788926
3047764241,35309,vehicle,53.26545333862305,2.0460774898529053,-1.9415972626265408e-08,-8.767646916551583e-12,0.0004515687413331706
1260711767,35309,vehicle,338.7317199707031,67.5936050415039,-0.5309032736943282,-6.5847548258329045,-1.6512484259553728
3957993155,35309,vehicle,335.0718994140625,33.63330078125,2.6473626379104e-10,-3.783321102753822e-07,1.571496072371315
4289594148,35309,vehicle,-2.402003765106201,190.8333740234375,0.0006320462627535991,3.0544316114707106,1.5705893991781974
4139896837,35309,vehicle,112.17839813232422,129.49009704589844,-1.4211423946999907e-07,1.9525440180513953e-10,3.140218728783421
1686932955,35309,vehicle,151.64842224121094,-1.9638242721557617,-5.672113616290192,0.0017794576771286879,3.141278933213382
1726501337,35309,vehicle,356.3773498535156,-2.408982276916504,-5.31522523343034,0.005408742389207071,3.140575059737274
1682591593,35309,vehicle,285.7128601074219,330.4570617675781,1.973735496074271,-0.0005435093123838717,-0.0002753708892234839
3380823586,35309,vehicle,368.77252197265625,326.3265380859375,3.819666039560057e-08,-1.231778487502656e-10,3.1383678318258164
4176583038,35309,vehicle,302.4993591308594,1.9665971994400024,-3.7117528806252444e-08,1.9512978774236425e-11,-0.000525707869144479
3855978784,35309,vehicle,329.9942626953125,330.1392517089844,5.5300956303386535,-0.4457450708214802,-0.08042962041640028
1042098875,35309,vehicle,111.53007507324219,-1.9540479183197021,-5.165114401478577,0.00011554646629794845,3.1415702830366365
644930681,35309,vehicle,88.63379669189453,177.60791015625,0.0005884512056199071,3.292990631931718,1.5706176286857523
2234188147,35309,vehicle,335.1534729003906,17.612991333007812,-0.007813061880900564,5.560035938087911,1.5722015437440768
4109707537,35309,vehicle,2.608283042907715,195.8509063720703,2.516759956564474e-07,0.00019780780709027128,-1.572068652005682
3675841917,35309,vehicle,183.96047973632812,55.83414077758789,-0.017409246354733163,-0.0001390289288299297,-3.133606898745082
2817926641,35309,vehicle,92.41362762451172,28.031368255615234,6.271186607219371e-05,-0.003510990115615311,-1.552936635892607
4029506115,35309,vehicle,-2.5982279777526855,178.41148376464844,-0.08476577029998149,4.092730191915389,1.5915046679571891
3277167701,35309,vehicle,89.26170349121094,54.561580657958984,0.6475059415287251,3.5966021453945385,1.3926717293913282
518241310,35309,vehicle,-2.6916515827178955,145.23500061035156,0.051074706579652296,4.645250878692037,1.5598017325506135
778540568,35309,vehicle,338.9315185546875,42.95614242553711,-6.966871505050423e-08,2.2865595310955382e-06,-1.5403369544593333
657465635,35309,vehicle,1.772652506828308,17.46426773071289,-0.003141820394534897,-5.962766773290494,-1.5713232332165687
835227171,35309,vehicle,157.79783630371094,39.69265365600586,-0.01072464942296723,-5.194829360784044,-1.572860809271926
715280319,35309,vehicle,92.39908599853516,161.5304412841797,2.3091395391881802e-10,3.981024191184759e-07,-1.571376363280316
3020211281,35309,vehicle,253.3831024169922,59.60306167602539,5.958904001283243,-0.0017773866293119007,-0.00029827407459816533
2101598167,35309,vehicle,184.08941650390625,-1.9619184732437134,-3.9533815280950266,-0.0002853221298982576,-3.141520481924252
14974470,35309,vehicle,338.9898376464844,36.57738494873047,-1.5560225075084203e-09,3.287691880545608e-07,-1.5660634900636623
1398818972,35309,vehicle,222.88824462890625,133.6537322998047,5.652101367791215,-0.001297521584165358,-0.0002295644534555397
2694688339,35309,vehicle,2.292447090148926,202.7211456298828,2.4097675249483564e-07,0.0011346110585357596,-1.5710087138918305
3916750283,35309,vehicle,116.79842376708984,326.9374694824219,-2.0180545900437078e-06,9.629931007884755e-09,3.136820801548589
1983197581,35309,vehicle,-1.1882168054580688,5.089448928833008,-3.044507430961296,4.756004233055916,2.1402086636775017
2942851653,35309,vehicle,339.00457763671875,161.5827178955078,-0.0018736691085313646,-6.057260223518226,-1.5711056529555092
3949181016,35309,vehicle,88.44938659667969,134.82403564453125,-0.06749752385093366,5.596233072818933,1.5828569844235385
3672416715,35309,vehicle,338.8645324707031,249.02882385253906,-0.0006312114829780178,-3.407848776534059,-1.5709815496487116
3325384226,35309,vehicle,190.0694122314453,55.8415412902832,-0.006464063643933417,2.4841019354855807e-06,3.141208359444495
1359910869,35309,vehicle,243.14895629882812,59.6055793762207,4.73774277453921,0.0010940021994150463,0.00023091210984480591
2262630317,35309,vehicle,80.3936538696289,331.22216796875,9.483068632994534,-0.45063442762115763,-0.04748417471968042
805172996,35309,vehicle,92.12064361572266,167.52035522460938,-3.64619795014855e-05,-0.011765228895005416,-1.5738954473554219
1986857511,35309,vehicle,-2.4633448123931885,199.00448608398438,-0.003958232882070096,2.1596767392152985,1.5726291142570892
1279946346,35309,vehicle,128.89842224121094,2.683825969696045,0.028747543317164795,-0.001445155275915282,-0.050228283423330466
74618890,35309,vehicle,334.7012939453125,269.74371337890625,0.0010173385936866153,5.697302727467831,1.5706177618438069
3085549129,35309,vehicle,391.97674560546875,320.9991455078125,-2.3912785999753984e-09,8.853131261302389e-09,1.8346064012170558
2057201815,35309,vehicle,292.9511413574219,198.9768524169922,5.652182444922343,-0.0012313086186362375,-0.00021784657716848168
1015694095,35309,vehicle,91.10919952392578,330.561279296875,5.58460137519733,0.043851781919844256,0.007852105769881658
1250507297,35309,vehicle,192.2003631591797,-1.9451916217803955,-3.2291955905220595,-0.0001659774534901681,-3.141541254580755
4280502996,35309,vehicle,60.33391571044922,331.22454833984375,4.322102963849003,-0.0007182524885076658,-0.00016618125202094445
3428459672,35309,vehicle,66.85588836669922,2.013062000274658,-2.766509174524658e-07,2.236821938628461e-10,-0.0008085357069480567
414519966,35309,vehicle,148.38661193847656,327.05499267578125,-0.0004822226200845296,-1.6232750207814098e-07,-3.141256030028007
2866945113,35309,vehicle,301.63671875,330.4564514160156,3.3613490494120852,-0.000615884700718552,-0.00018322545048816093
1853482628,35309,vehicle,46.39568328857422,2.5198090076446533,-2.155976187685106e-07,5.269753110224157e-10,-0.0024442489884003997
3880166169,35309,vehicle,253.2421112060547,326.41986083984375,-5.551512718198912,4.4353717994941385e-06,3.141591854641466
1073352953,35309,vehicle,345.4718933105469,-1.886107087135315,-5.064854542745708,0.6027383071157723,3.02314563463132
213556023,35309,vehicle,134.5973358154297,327.0172119140625,-2.12969044641454e-09,3.8777515445874105e-12,3.139771850352506
1628590046,35309,vehicle,33.59129333496094,2.348069667816162,1.5490344603528667,0.002859083781021111,0.001845717837492977
4120465129,35309,vehicle,332.6731262207031,56.29073715209961,-5.20972071245716,-2.0359804500154635,-2.7690387876408646
1015227284,35309,vehicle,117.51152038574219,129.7515106201172,0.00019794500180913237,-1.750169301515877e-08,3.1415042366416026
2900396540,35309,vehicle,163.72421264648438,-1.8714404106140137,-4.966697969213229,0.011396503816973666,3.139298073994581
3587539486,35309,vehicle,396.6080017089844,150.99620056152344,-0.0013166696668713582,-5.185118508059382,-1.5710502592048357
1146849989,35309,vehicle,334.3585205078125,168.2117156982422,0.06869150088767136,0.5952272566640551,1.4559007663080985
1457681385,35309,vehicle,395.8129577636719,11.064183235168457,-0.0013642859291751032,-4.743339342375305,-1.571083948192625
1726747598,35309,vehicle,92.18892669677734,85.53053283691406,0.0008500812245699519,0.009657933442296015,-1.6585890300260127
367118466,35309,vehicle,375.0947570800781,326.35400390625,1.0818895791159783e-07,-7.927890900784192e-10,3.13426496585044
2065705843,35309,vehicle,311.215087890625,133.19998168945312,-1.075230471881166e-13,-5.3059161058731765e-17,0.0004934677554206829
3978545900,35309,vehicle,396.8860778808594,312.04388427734375,0.06183777174369425,-5.430953848988453,-1.5594106473445353
714679325,35309,vehicle,392.12066650390625,154.1261749267578,0.005382566321527799,21.51271180526792,1.5705461228104836
3262285446,35309,vehicle,88.31578063964844,103.40396881103516,6.357304638724482e-05,3.7592556471217575,1.5707794157219745
1401880247,35309,vehicle,92.49676513671875,174.20469665527344,-1.7870694862304685e-10,-1.8982545783208534e-07,-1.5717377542402395
2250339631,35309,vehicle,92.39317321777344,111.54768371582031,1.11636084541987e-09,3.94714090945974e-06,-1.571079154502663
2525145270,35309,vehicle,92.5175552368164,154.5819549560547,2.2262653238101657e-08,-2.602578527389522e-05,-1.5699409194527632
1825059061,35309,vehicle,313.625732421875,2.012185573577881,1.2569977443888157e-07,-7.860136434963304e-11,-0.0006253102239506051
346279610,35309,vehicle,88.17497253417969,288.7100830078125,0.0014262729023147307,5.6226389983311975,1.5705426607010666
893025708,35309,vehicle,395.8841857910156,140.27490234375,-0.001869703430223442,-5.82140701786215,-1.5711175040223602
1724402154,35309,vehicle,17.17915916442871,326.53076171875,-5.671940270403703,0.000799069879792604,3.141451772368128
2595182244,35309,vehicle,313.6766662597656,198.77235412597656,-1.7524972818227504e-07,4.333954115220448e-10,-0.002473011128173255
874453657,35309,vehicle,388.6775817871094,324.7012939453125,-7.95993560904081e-08,4.8130967011724506e-08,2.597749858965257
1498616609,35309,vehicle,43.30324935913086,-1.9613412618637085,-5.908941869555144,0.0020425931177162236,3.1412469752803007
505512523,35309,vehicle,305.49700927734375,133.20278930664062,-0.44404613635603735,5.4634564002292236e-05,-0.00012303803423433814
3709073522,35309,vehicle,118.92913818359375,195.5609130859375,-0.017408542315286074,-1.1418901285585465e-05,-3.1409367170133065
27029540,35309,vehicle,15.269878387451172,2.578395128250122,3.3957808341087996,-0.11797482556189223,-0.03472762269522787
1375770528,35309,vehicle,338.91790771484375,232.44088745117188,0.006693209891175623,-2.6145665804372684,-1.568236363197058
4266869573,35309,vehicle,-1.4995783567428589,162.4046173095703,0.0004623312625539393,4.743236042378783,1.5706988550989998
368528135,35309,vehicle,2.6244118213653564,208.0858917236328,-0.002014545572839855,-0.028239404898238996,-1.6420137817174685
4012051816,35309,vehicle,338.9681091308594,216.64810180664062,-0.0012082823280466458,-2.6532296767322996,-1.5712517273413003
3938307140,35309,vehicle,92.14663696289062,219.810791015625,1.028202750089089e-10,-1.863318796909297e-08,-1.5652782570162525
1966079641,35309,vehicle,50.57160186767578,331.23876953125,4.931731098296181,-0.0011137626611534663,-0.00022583604418407408
1759883367,35309,vehicle,32.686431884765625,331.1674499511719,2.9359583479860025,-0.0004691358060597523,-0.0001597896654047543
3487645883,35309,vehicle,92.42707824707031,105.2142333984375,-8.26027167963395e-10,7.93572521447524e-07,-1.5697554302828391
544848518,35309,vehicle,121.71944427490234,2.0930240154266357,-0.006760537220722336,-1.2258518183780671e-05,0.0018132441770251485
1325658571,35309,vehicle,92.39752960205078,98.92157745361328,-2.243661074722121e-11,2.1939594204340347e-07,-1.5706940614090374
921579549,35309,vehicle,92.29554748535156,22.447093963623047,-2.5042630855246596e-07,-7.389345903347739e-05,-1.574185332440077
4072577581,35309,vehicle,92.38365936279297,233.42498779296875,-2.566061137886068e-11,-4.407774375734223e-08,-1.571378493809188
94066344,35309,vehicle,334.482177734375,173.806396484375,-3.199547031697474e-10,-2.758689997426112e-06,1.5706803461294236
2853390219,35309,vehicle,309.7594909667969,330.5135803222656,4.348579362434401,-0.0006207397837679106,-0.00014274541817360184
2524564450,35309,vehicle,39.8176383972168,2.030052900314331,-1.1064499065383958e-05,1.4621304464446014e-08,-0.0013214602728229927
1882516347,35309,vehicle,-2.140434741973877,169.88218688964844,0.0011242962328302727,2.7306988308971416,1.5703846020903705
815178544,35309,vehicle,276.27520751953125,330.3909606933594,2.917159033711282,0.0005225051208091242,0.0001791143743564497
2188308515,35309,vehicle,238.28543090820312,199.19976806640625,5.655909964963553,-0.0007531298799005721,-0.00013315803824931658
1160083145,35309,vehicle,362.9337158203125,326.5605773925781,0.5205587287811174,-0.0005982024141313137,3.140443499579424
1832698586,35309,vehicle,127.3373794555664,326.9634094238281,-0.0013252129946181243,-6.0354218718102845e-06,-3.137038381809649
3748346955,35309,vehicle,134.99388122558594,1.9186216592788696,-0.9612058772407549,0.00020785949027204984,-0.00021624866425978882
3198444053,35309,vehicle,121.47893524169922,326.85845947265625,-0.02536772821107583,0.007093112984616845,2.868944080141879
808811405,35309,vehicle,338.8907775878906,207.9324188232422,-0.21223942751049002,-2.7520302399268255,-1.6477650112495492
84250811,35309,vehicle,339.1681823730469,79.75798034667969,-0.003339025521295677,-9.195326198877902,-1.5711594488095288
3956289865,35309,vehicle,2.486323595046997,310.3924560546875,-0.04487866540766925,-6.353374287215667,-1.5778599621121683
1912328786,35309,vehicle,335.73297119140625,4.342555046081543,-2.5203186612471975,4.986309886951674,2.038792559890085
4030311199,35309,vehicle,338.9557800292969,225.19235229492188,-0.00116203916830355,-4.0123060451047285,-1.5710859455634427
3147513812,35309,vehicle,382.0475769042969,326.14154052734375,2.427059982519764e-07,-2.875806734820071e-08,3.023653233135089
1663586846,35309,vehicle,293.720703125,330.4093322753906,2.7545080130532256,-0.00017312249750046967,-6.285060578953135e-05
