id,timestamp_ms,agent_type,x,y,vx,vy,psi_rad
-1,26532,vehicle,392.2189636230469,250.1302032470703,0.004949171585077946,19.031052899555775,1.5705362691144504
2985032057,26532,vehicle,59.30078887939453,-1.9632214307785034,-6.100525377467298,0.00014459546817400094,3.1415689514560916
3028941286,26532,vehicle,396.9054870605469,214.733154296875,-0.0025680107655902803,-7.0230999066299855,-1.5711619788125644
2920337868,26532,vehicle,392.0323486328125,301.60321044921875,0.004227132133225894,8.422716987354557,1.5702944540874713
1503980471,26532,vehicle,102.94390106201172,2.0457096099853516,5.717543238930665,-0.08829772227641612,-0.015442070143823552
2125414330,26532,vehicle,391.55084228515625,0.3841674029827118,-8.156169582717624e-08,-7.497871638574515e-08,-2.3982226343032123
2396446624,26532,vehicle,161.38848876953125,327.010009765625,-5.599611756694876,0.0001670218833292793,3.1415628261855844
4076155829,26532,vehicle,112.6908187866211,-1.924498438835144,-9.509379197606157e-07,-1.466318013609528e-10,-3.1414384565626774
130361148,26532,vehicle,92.38613891601562,226.82598876953125,1.8187510313930352e-10,3.0549287814468146e-07,-1.5713916764565838
3417340120,26532,vehicle,251.65118408203125,330.4962158203125,5.59831706396443,-0.0009601538796621005,-0.00017150759045574826
2197730220,26532,vehicle,188.16998291015625,-1.9401477575302124,-5.566966266186566e-09,2.630084333993372e-12,3.141120208812413
118743835,26532,vehicle,334.70794677734375,92.2212905883789,-0.0002153398925818469,6.056835647569694,1.570831879995449
904053063,26532,vehicle,178.70040893554688,55.8249397277832,3.380758934561452e-08,-5.273357535615122e-11,3.140032840139334
1291681130,26532,vehicle,121.31352233886719,195.6173858642578,-5.780352914153288,0.001339278978171923,3.1413609585749565
715062232,26532,vehicle,338.9866638183594,22.500410079956055,-8.415074896280687e-06,0.00355673237803813,-1.5684303744824701
220877689,26532,vehicle,92.90663146972656,91.5431137084961,0.0002134863213271233,0.5483088077738235,-1.571185680946266
2069714320,26532,vehicle,34.90099334716797,331.1796875,0.01807647288428532,1.5389167746002908e-05,0.0008513366587953731
3190467641,26532,vehicle,118.28147888183594,-2.622236967086792,-0.010488203832848066,-0.0019122172456246032,-2.9612527056334423
708315452,26532,vehicle,88.7599105834961,99.76417541503906,3.5590951111623924e-05,0.011901977343002303,1.5678059963649011
1314594676,26532,vehicle,88.64353942871094,172.73040771484375,1.5930814348089097e-07,0.001647911608900672,1.5706996540473268
2302084468,26532,vehicle,312.61480712890625,330.15069580078125,-0.010467860538188056,0.0013690412075046674,-0.13004707455420744
757051778,26532,vehicle,334.6985168457031,231.06982421875,0.001470304810921732,5.817598157097508,1.570543592807448
4203008516,26532,vehicle,113.99854278564453,55.69347381591797,-4.584764221649943,-0.0015408977271223847,-3.1412565626602253
2631691725,26532,vehicle,334.72576904296875,243.95684814453125,0.0007042545620252285,6.079151589608543,1.5706804792874782
1513387753,26532,vehicle,338.97515869140625,40.847049713134766,0.11520108405353294,-5.757807902076757,-1.5507911933184393
156273220,26532,vehicle,92.51573181152344,80.52529907226562,-2.978109701267444e-09,-1.924054200428343e-06,-1.5723441560204507
3812119762,26532,vehicle,92.35611724853516,17.504711151123047,-0.0008815273200268037,-5.868934088306789,-1.570946529080377
3616050434,26532,vehicle,288.5078125,326.4288024902344,-5.714921949226577,0.00015371955349429754,3.1415657556627834
2942158310,26532,vehicle,88.58863067626953,25.917118072509766,0.0,0.0,1.5705984539259037
3608800298,26532,vehicle,192.70700073242188,133.2238006591797,6.943924322352148,-0.0012057298593345109,-0.00017363810307316634
1146464971,26532,vehicle,60.19769287109375,2.5480518341064453,2.774450954604416e-07,-2.3585084850253315e-10,-0.0008500809549347115
3013099654,26532,vehicle,-2.3908321857452393,166.2147674560547,0.0007526879131700904,5.821411084152555,1.5706670303239731
2246582517,26532,vehicle,88.6150894165039,105.10009765625,-2.0181872804548327e-11,-1.480110242820412e-07,1.5706599729470845
3192940987,26532,vehicle,338.87249755859375,248.6110076904297,1.5947399040104388e-08,1.3914590410436049e-05,-1.5719424181700121
828836647,26532,vehicle,122.7429428100586,330.8310852050781,10.82519474583671,-0.021598893351402706,-0.0019952402886873654
1702089089,26532,vehicle,396.0343933105469,95.07743835449219,-0.005902412045905482,-8.971130336743686,-1.5714542607422006
2111029583,26532,vehicle,54.97117614746094,330.44464111328125,-0.00020164953554098486,9.172390995404922e-08,-0.0004548679141855339
420096522,26532,vehicle,88.27131652832031,140.3949432373047,-0.8697076002722688,8.001104860070177,1.6790696709151036
510102133,26532,vehicle,204.69464111328125,1.867740273475647,8.826014377396826,-0.0015795426071917409,-0.0001789644252533248
4109025732,26532,vehicle,278.25042724609375,1.847715973854065,1.360144622370729,0.001795343952072206,0.0013199647154159126
2913592560,26532,vehicle,308.49237060546875,1.793117642402649,0.25466966129910906,0.002392767863800877,0.009395298390365991
3970347779,26532,vehicle,128.55331420898438,58.93110656738281,-0.010470505781995994,0.0013537402291494895,-0.12857754226470172
1933996401,26532,vehicle,385.673828125,-2.1186752319335938,-0.0,-0.0,-3.008180799833947
3047764241,26532,vehicle,53.26544952392578,2.046077251434326,2.9608701802451245e-08,1.3370366076803196e-11,0.00045156877384246126
1260711767,26532,vehicle,338.996826171875,102.65216827392578,0.00025016244152020696,-5.591333383685955,-1.5707515856885832
3957993155,26532,vehicle,335.0718994140625,33.63330078125,-1.4216239522763218e-09,2.0316294495538373e-06,1.571496072371315
4289594148,26532,vehicle,-2.404228687286377,181.4108123779297,-1.3136578011777622e-09,1.380741707996177e-06,1.5717477410943275
4139896837,26532,vehicle,131.84852600097656,129.4891815185547,-5.942070006590708,-9.336566886106792e-05,-3.1415769409393617
1686932955,26532,vehicle,175.89035034179688,-1.9625622034072876,1.1397695139782408e-06,-5.873479824102578e-10,3.1410773319188627
1726501337,26532,vehicle,378.8957214355469,-2.40693998336792,7.544367659359655e-05,2.122711286616858e-07,-3.1387790238981244
1682591593,26532,vehicle,281.6020202636719,330.4570617675781,8.392505139730638e-08,-3.549274128828448e-11,-0.0004229099485952924
3380823586,26532,vehicle,368.77252197265625,326.3265380859375,2.738985895738087e-08,-8.832771946554678e-11,3.1383678318258164
4176583038,26532,vehicle,286.2921142578125,1.9777134656906128,5.5610354022131325,-0.0016024348061747995,-0.0002881540299465736
3855978784,26532,vehicle,305.56915283203125,330.5410461425781,2.1747829697274166e-07,4.6917840465534934e-11,0.0002157357326719071
1042098875,26532,vehicle,129.7448272705078,-1.9542244672775269,-5.860185367120463,-0.0017323346096508334,-3.1412970427087945
644930681,26532,vehicle,88.63038635253906,165.76617431640625,2.8298210316121426e-10,-1.098157702473721e-07,1.5733732014656572
2234188147,26532,vehicle,358.0129699707031,-1.9548426866531372,1.9575860986702656e-08,1.6615005028082147e-11,-3.140743904150385
4109707537,26532,vehicle,2.608518123626709,196.40354919433594,-1.2927477547651342e-07,-7.187118914518586e-05,-1.5725950257951362
3675841917,26532,vehicle,183.96047973632812,55.83409118652344,-0.017441002368736382,-0.00013706681181427905,-3.133733931529078
2817926641,26532,vehicle,92.26046752929688,40.07051467895508,0.02323881769546566,-4.361010146734546,-1.5654676077697571
4029506115,26532,vehicle,-2.337939977645874,156.17556762695312,-0.0018127963154094039,4.190171803299059,1.57122895731398
3277167701,26532,vehicle,88.64314270019531,33.256107330322266,1.5791144347519523e-07,0.001647076096266513,1.5707004529956536
518241310,26532,vehicle,-2.7470767498016357,69.51882934570312,-0.01638812633134895,3.6415038896071823,1.575296669562967
778540568,26532,vehicle,318.4019775390625,59.3146858215332,6.004311766536893,-0.001806920454191074,-0.0003009371381603726
657465635,26532,vehicle,1.787355899810791,68.20610046386719,0.02849162957258892,-5.609003660185994,-1.565716746489734
835227171,26532,vehicle,134.6495819091797,59.32780456542969,-3.5898294675285344e-10,-7.445324841664802e-14,0.00020740051309560257
715280319,26532,vehicle,92.39952087402344,162.58535766601562,-0.0011011128069188928,-3.996721354438274,-1.5710718308096654
3020211281,26532,vehicle,202.98597717285156,59.61359786987305,5.701655812536864,-0.0007713689888211123,-0.00013528859150334797
2101598167,26532,vehicle,193.7311248779297,-1.9614672660827637,-2.3163535734324255e-07,1.0875635232716359e-10,3.141123138289612
14974470,26532,vehicle,337.4460144042969,53.03110122680664,2.8807627016752027,-4.813273256622238,-1.0314776436511597
1398818972,26532,vehicle,173.25978088378906,133.66766357421875,5.5665696550436214,-0.0012927113059139235,-0.00023222763080026423
2694688339,26532,vehicle,2.292745590209961,203.62313842773438,5.5564296888207625e-11,2.1333372744163042e-07,-1.5710567839495064
3916750283,26532,vehicle,116.79842376708984,326.9374694824219,1.1806878043986186e-06,-5.634110273480449e-09,3.136820801548589
1983197581,26532,vehicle,47.03916931152344,-1.930050015449524,-6.048739289760665,-0.0013176971713044416,-3.1413748070126246
2942851653,26532,vehicle,320.01177978515625,198.7705841064453,5.990084971495183,-0.0013559676296945977,-0.00022636867640208992
3949181016,26532,vehicle,88.6303482055664,112.13860321044922,4.5365330624116426e-10,-1.746934053466566e-07,1.5733931751738328
3672416715,26532,vehicle,338.86761474609375,255.4862060546875,-1.338171581470131e-05,0.013351261428893047,-1.5697940461186453
3325384226,26532,vehicle,190.069091796875,55.84152603149414,-7.215384783285527e-05,2.6421632687557943e-08,3.1412264689399074
1359910869,26532,vehicle,190.8821563720703,59.60519027709961,6.704196006027913,-0.007123889032914021,-0.0010626011449044535
2262630317,26532,vehicle,60.92271041870117,331.1280822753906,0.010503831924631798,0.0019252529211712557,0.1812783627007106
805172996,26532,vehicle,92.1241226196289,171.38555908203125,0.0019944412034087855,-4.083423604272882,-1.5703079030509761
1986857511,26532,vehicle,-2.3421285152435303,188.38113403320312,1.609388886385269e-07,0.0016466355803935813,1.5706985887828906
1279946346,26532,vehicle,127.31973266601562,2.397149085998535,0.029046333652024223,-0.0012943563233032017,-0.044532318645058196
74618890,26532,vehicle,334.6925964355469,219.12872314453125,0.015186110138907536,5.566723613609277,1.5680683177322738
3085549129,26532,vehicle,391.97576904296875,320.9981689453125,0.00157583906490315,-0.005834552259827615,1.8345896233021883
2057201815,26532,vehicle,242.4705352783203,198.9760284423828,5.985078688407493,-0.0012145692423957304,-0.00020293287506403796
1015694095,26532,vehicle,66.94755554199219,330.46124267578125,0.0,-0.0,-0.00043089952939340205
1250507297,26532,vehicle,199.7627716064453,-1.94624924659729,-5.1669183652564115e-08,-6.563683776905203e-11,-3.140322325749825
4280502996,26532,vehicle,48.153709411621094,331.2244567871094,-1.3201080515125849e-08,3.98675858279908e-12,-0.00030200243510569496
3428459672,26532,vehicle,66.85588836669922,2.0130629539489746,-2.9620035756849833e-07,2.394886176918791e-10,-0.0008085357069480567
414519966,26532,vehicle,187.3981475830078,327.044677734375,-5.811475268370492,-0.0003157286544501208,-3.1415383251035554
2866945113,26532,vehicle,294.2904968261719,330.4563903808594,1.1799936573808713e-07,-5.241711970224729e-11,-0.00044421523731592627
1853482628,26532,vehicle,46.39568328857422,2.5198090076446533,-2.6279968719724458e-06,6.423491487911958e-09,-0.0024442489884003997
3880166169,26532,vehicle,301.7644348144531,326.41998291015625,-5.5557756423617235,1.9234703170525817e-05,3.141589191480376
1073352953,26532,vehicle,372.0358581542969,-2.3772799968719482,-1.5758389333825218e-09,3.279316218498991e-12,3.1395116595140053
213556023,26532,vehicle,134.59738159179688,327.0172119140625,0.00010989702395757614,-2.0010107812358594e-07,3.139771850352506
1628590046,26532,vehicle,1.6498661041259766,21.851409912109375,-0.0029299336102181456,-5.838000992830989,-1.571298199502322
4120465129,26532,vehicle,338.98382568359375,89.94303131103516,-0.003290351567445061,-6.074266973056995,-1.5713380137606188
1015227284,26532,vehicle,142.2393798828125,129.75082397460938,-5.239245389022855,0.0005190499076634616,3.141493583997242
2900396540,26532,vehicle,181.6448211669922,-1.9664640426635742,-0.0013252101892720176,-5.244843152581442e-06,-3.1376349298938266
3587539486,26532,vehicle,396.6230773925781,201.163818359375,-0.0020526169077985405,-7.619817457298964,-1.5710657055391581
1146849989,26532,vehicle,334.89263916015625,142.71185302734375,0.29860124521534026,6.7122130230293875,1.5263393797698768
1457681385,26532,vehicle,395.83343505859375,77.06536865234375,-0.0032250219706453287,-11.212732804945126,-1.571083948192625
1726747598,26532,vehicle,92.40943145751953,85.52703094482422,2.056343984969983e-05,0.003947631914964887,-1.576005336729037
367118466,26532,vehicle,375.0947570800781,326.35400390625,-2.3274744304792005e-07,1.7055311110659916e-09,3.13426496585044
2065705843,26532,vehicle,297.71148681640625,133.20321655273438,5.733866209283296,-0.0002504314107609968,-4.367583781363817e-05
3978545900,26532,vehicle,359.9023742675781,330.8568420410156,6.198723126842774,0.007045564205686529,0.001136614916891014
714679325,26532,vehicle,392.12139892578125,30.745677947998047,0.0018908766780297577,5.753744768337267,1.5704676927163808
3262285446,26532,vehicle,89.50847625732422,61.846561431884766,-2.8115197523763387,4.887017891491415,2.092858857918383
1401880247,26532,vehicle,92.53484344482422,183.7377166748047,-0.17390631881694282,-6.411933923592437,-1.597911967223811
2250339631,26532,vehicle,108.23198699951172,129.73367309570312,-6.044392515868463,0.0009191496109816568,3.14144058709155
2525145270,26532,vehicle,92.52962493896484,154.58193969726562,-2.2675533996157678e-08,2.629560299298497e-05,-1.5699339952339288
1825059061,26532,vehicle,313.625732421875,2.012181282043457,-2.753031738578821e-06,1.7214991173699593e-09,-0.0006253102239506051
346279610,26532,vehicle,88.17161560058594,238.36599731445312,0.0017339816113756924,5.522468294670953,1.5704823401023762
893025708,26532,vehicle,395.9046325683594,190.69454956054688,-0.0018697032770742083,-5.821406541025016,-1.5711175040223602
1724402154,26532,vehicle,67.93550872802734,326.5445556640625,-5.618478123258764,0.007453030999841413,3.1402661330508246
2595182244,26532,vehicle,284.1619567871094,198.77056884765625,5.9900773421008475,-0.0013559659026386708,-0.00022636867640208992
874453657,26532,vehicle,388.6777648925781,324.7004089355469,0.0042236464820285145,-0.0025538647371490955,2.5977546526552193
1498616609,26532,vehicle,91.15583801269531,5.779271125793457,-0.8541707075738492,-5.659567421754359,-1.7205908823124745
505512523,26532,vehicle,286.8323974609375,133.20704650878906,6.35222382225894,0.0008039874345447148,0.00012656786863118855
3709073522,26532,vehicle,134.3212432861328,195.56393432617188,-5.304116689427107,-0.0023335686294447735,-3.141152699377712
27029540,26532,vehicle,1.453099012374878,47.67230224609375,-0.0024354239168054093,-8.623160018327413,-1.5710787550284995
1375770528,26532,vehicle,338.8888244628906,241.85125732421875,-3.6860718994820336e-05,-0.011761488374007884,-1.5739303347657019
4266869573,26532,vehicle,-1.5052850246429443,88.26896667480469,0.0003748586495015647,6.160045135536459,1.5707354735639882
368528135,26532,vehicle,2.818190574645996,208.84149169921875,-0.00046832873001997454,-0.028138616632043048,-1.5874384204468017
4012051816,26532,vehicle,338.9733581542969,228.75657653808594,-1.1319412975004897e-09,-3.9801066596620845e-07,-1.5736403165229922
3938307140,26532,vehicle,92.14663696289062,219.810791015625,2.3521196329462435e-10,-4.262533556021307e-08,-1.5652782570162525
1966079641,26532,vehicle,41.148319244384766,331.2388916015625,-4.690304677529178e-08,6.495338721182404e-13,-1.3848436652496706e-05
1759883367,26532,vehicle,12.035676002502441,331.135498046875,5.73782077845072,0.3355658026744201,0.05841660495845622
3487645883,26532,vehicle,96.66699981689453,129.0500946044922,-5.4907699474092215,-1.5039755008611284,-2.8742403086017196
544848518,26532,vehicle,114.34612274169922,2.0924363136291504,5.895164069393882,-0.002226227905993084,-0.0003776362750825266
1325658571,26532,vehicle,92.39886474609375,108.40055084228516,-0.0037023330785493913,-5.851019641631006,-1.5714290938698994
921579549,26532,vehicle,92.30011749267578,29.086992263793945,0.002448057243156294,-5.943936797509924,-1.5703844689323159
4072577581,26532,vehicle,92.38365936279297,233.42498779296875,5.848243627558327e-09,1.004564467463872e-05,-1.571378493809188
94066344,26532,vehicle,334.486328125,152.8917999267578,0.006849101917371157,5.522423788490596,1.5695560926752468
2853390219,26532,vehicle,299.99432373046875,330.5154724121094,-1.3835966040151483e-07,-4.2192359702087765e-11,0.00030494696410635324
2524564450,26532,vehicle,4.982799530029297,5.217543601989746,4.827743421811506,-4.393685212098503,-0.7383622777518231
1882516347,26532,vehicle,-2.1431190967559814,144.61692810058594,0.0013128712149998985,5.653380241539436,1.5705640991478418
815178544,26532,vehicle,275.2132873535156,330.39031982421875,0.7704851141756281,0.0009494575891800152,0.0012322848178629073
2188308515,26532,vehicle,188.02023315429688,199.20773315429688,5.804288649987611,-0.0015766912133278283,-0.0002716424474427276
1160083145,26532,vehicle,362.3818359375,326.5625,0.5619456297984239,-0.0006227154322509945,3.1404845122602114
1832698586,26532,vehicle,127.70616912841797,326.96490478515625,-0.0174026915786121,-4.03397795547173e-05,-3.139274638176988
3748346955,26532,vehicle,133.36532592773438,1.9191018342971802,-0.9612058776814241,0.00020581161339812122,-0.00021411813538772543
3198444053,26532,vehicle,122.14742279052734,325.9835205078125,0.45417471746939925,0.14050226415129327,-2.8415734420385896
808811405,26532,vehicle,338.9217529296875,221.6160888671875,-4.702874316813138e-07,-0.0016472940826026956,-1.571081817663753
84250811,26532,vehicle,334.38116455078125,131.38812255859375,5.60829361811309,-2.731884998885119,-0.45328672886732657
3956289865,26532,vehicle,43.10041809082031,326.56756591796875,-6.166243057934472,-0.00047622925987914896,-3.141515421918181
1912328786,26532,vehicle,365.2416687011719,-1.9526541233062744,-4.6891117926903185e-08,-4.7154175531775946e-11,-3.1405870439621792
4030311199,26532,vehicle,338.9559631347656,235.7322235107422,-4.3426418259966406e-11,6.270463532336324e-08,-1.5701037717534214
3147513812,26532,vehicle,382.0475769042969,326.14154052734375,3.123727814752087e-07,-3.701283673295322e-08,3.023653233135089
1663586846,26532,vehicle,287.7590637207031,330.4103088378906,9.942457210673702e-08,1.214579376250103e-10,0.0012216082466646717
