id,timestamp_ms,agent_type,x,y,vx,vy,psi_rad
-1,46766,vehicle,392.2198791503906,306.496337890625,-2.3293094480533223e-11,1.0878617224134994e-07,1.571010444946539
2985032057,46766,vehicle,-2.2619237899780273,102.36653137207031,0.0009172740843560062,18.821342445909654,1.5707475909469482
3028941286,46766,vehicle,396.8627624511719,98.76846313476562,-0.001627242488298224,-5.726515061923303,-1.571080486083208
2920337868,46766,vehicle,392.0353088378906,314.20721435546875,-7.961033801815138e-11,-2.0239114772684414e-07,1.570402977901892
1503980471,46766,vehicle,116.62715911865234,2.0327951908111572,1.056893436071234,-0.0010369273084555523,-0.0009811083505294475
2125414330,46766,vehicle,358.60247802734375,-1.6013845205307007,-7.891572398215e-09,7.828659453160037e-12,3.1406006260837387
2396446624,46766,vehicle,141.33572387695312,327.0087585449219,2.1825057673174603e-07,-2.6120778257844714e-10,3.1403958289959117
4076155829,46766,vehicle,25.56556510925293,-1.9573124647140503,-5.648481845334714,7.671836705504187e-05,3.1415790714682337
130361148,46766,vehicle,92.38595581054688,226.3470001220703,-0.001289936728815413,-2.3842626896937027,-1.5713373479703463
3417340120,46766,vehicle,300.4178466796875,330.5010986328125,-4.4013390839632595e-06,8.720788234553775e-09,-0.0019813917209817906
2197730220,46766,vehicle,154.2321319580078,35.15016174316406,-6.914279812390504e-06,0.015398978566047473,1.571245335754684
118743835,46766,vehicle,334.7115173339844,110.81603240966797,-0.0006832868793142402,4.283303206303117,1.5709558501441923
904053063,46766,vehicle,158.4011993408203,48.66032791137695,-1.6573746883117255,-5.830809843265304,-1.847736451181419
1291681130,46766,vehicle,113.09465789794922,195.61886596679688,2.8664431482759787e-08,1.1175176231769e-10,-3.1376940520700263
715062232,46766,vehicle,338.9866638183594,22.499813079833984,2.762144585158473e-10,-1.167190788672994e-07,-1.5684298418502522
220877689,46766,vehicle,92.90506744384766,80.22640228271484,-8.995053250997195e-05,-5.236566065969386,-1.5708135041839275
2069714320,46766,vehicle,92.16337585449219,313.80755615234375,-0.4600823320860348,-8.090658315202333,-1.6276010202140687
3190467641,46766,vehicle,36.577392578125,-1.950464129447937,-4.863972184640529,-0.0001528517893418424,-3.1415612282889303
708315452,46766,vehicle,88.27323150634766,169.42340087890625,-0.0670820338149895,0.576382985536611,1.6866595468637748
1314594676,46766,vehicle,138.28404235839844,199.01327514648438,4.764923929580689,-0.001068477810451486,-0.00022423816378467186
2302084468,46766,vehicle,396.7751770019531,220.37620544433594,0.0149954575339608,-17.66216213711738,-1.5699473110393793
757051778,46766,vehicle,334.7028503417969,297.8030090332031,4.88778061328107e-11,2.392868857543715e-07,1.5705920623392875
4203008516,46766,vehicle,112.88423919677734,55.693016052246094,1.525075312098536e-09,3.62410221583673e-12,-3.1392163149491155
2631691725,46766,vehicle,334.72576904296875,304.8206481933594,-2.9043907299478732e-12,7.707280497227673e-08,1.5708340105243213
1513387753,46766,vehicle,339.01324462890625,29.555875778198242,-3.6307033143224585e-10,1.1580882317165523e-07,-1.5676612535596552
156273220,46766,vehicle,92.39402770996094,60.7884635925293,-0.07752577865481845,-5.8906122086003405,-1.5839564704795777
3812119762,46766,vehicle,110.74478149414062,2.0930917263031006,-1.7505767396947927e-07,3.478838932486147e-10,-0.0019872504153056396
3616050434,46766,vehicle,170.88743591308594,326.3934020996094,-6.074257848134475,-0.0001747086532941242,-3.14156389145002
2942158310,46766,vehicle,124.82691192626953,59.33853530883789,0.0001170290062136686,8.107884591216028e-08,0.000692809719258061
3608800298,46766,vehicle,298.1677551269531,133.19717407226562,-1.4809229490362325e-07,2.7923067460690312e-11,-0.00018855178892296473
1146464971,46766,vehicle,60.25812530517578,2.54817271232605,0.6683210353787183,-0.0003605969297866977,-0.000539556404340763
3013099654,46766,vehicle,-2.3424665927886963,229.48834228515625,0.0007474609497661482,5.722055386360981,1.5706656987434282
2246582517,46766,vehicle,127.9856185913086,133.3568572998047,-0.00013198358588564738,-1.242607580620323e-08,9.414864497055412e-05
3192940987,46766,vehicle,338.8669738769531,219.46205139160156,-2.4389500907478122e-11,-1.1962757901927147e-08,-1.5728351097674067
828836647,46766,vehicle,293.29681396484375,330.7931823730469,-2.272162203560531e-05,-2.7554242058048873e-08,0.0012126875672730446
1702089089,46766,vehicle,371.1454162597656,-2.4276890754699707,3.4197469001705147e-07,4.4662405464709577e-10,-3.1402866393912183
2111029583,46766,vehicle,92.00973510742188,271.7798767089844,-5.692536355076134e-05,-7.008233070142343,-1.5708044494362214
420096522,46766,vehicle,88.35846710205078,224.68118286132812,0.0034110735186827414,6.906639210459399,1.5703024435707413
510102133,46766,vehicle,296.4015808105469,1.8767658472061157,2.211997839013193,0.005774708906652524,0.002610624515942271
4109025732,46766,vehicle,303.8137512207031,1.4004168510437012,3.8778326476846017,-0.13201929196260573,-0.03403146406390275
2913592560,46766,vehicle,318.3104553222656,1.7450940608978271,4.043236423962751,-0.009548893856349806,-0.0023616912546822683
3970347779,46766,vehicle,157.453857421875,29.856201171875,-0.0019343728262316113,-0.026163628234335996,-1.6445957163943004
1933996401,46766,vehicle,337.9419860839844,1.0783088207244873,-4.503593132422533e-10,4.0995205522150953e-10,2.4031281770311383
3047764241,46766,vehicle,53.26544952392578,2.046076774597168,4.717523312843581e-08,2.1302865161160296e-11,0.0004515688063517519
1260711767,46766,vehicle,280.26824951171875,55.68156051635742,-5.562308311007936,-7.110395071612621e-05,-3.1415798704165607
3957993155,46766,vehicle,335.0707092285156,35.68350601196289,-0.0035691668458727914,4.551533730134222,1.5715804945778704
4289594148,46766,vehicle,-2.388378143310547,243.3394012451172,-0.0009957171010943145,7.2953252112846165,1.5709328138007632
4139896837,46766,vehicle,112.17839813232422,129.49009704589844,-4.358158073306611e-08,5.987785254660289e-11,3.140218728783421
1686932955,46766,vehicle,112.7573013305664,-1.9680248498916626,4.527245600947101e-07,-1.289597139855614e-09,3.1387441364878446
1726501337,46766,vehicle,335.2394104003906,5.901668548583984,-0.0006024784182530648,0.0026469411863419027,1.794596533738305
1682591593,46766,vehicle,313.8250427246094,330.4513854980469,4.143982594997939e-08,-5.4143087905970114e-11,-0.0013065464406813864
3380823586,46766,vehicle,368.7519836425781,326.3266906738281,-0.2567982833755505,0.0009459681142863183,3.1379089691699957
4176583038,46766,vehicle,309.9480285644531,1.9644591808319092,4.056556151897003,-0.0007691922994645763,-0.00018961706961364175
3855978784,46766,vehicle,338.6291809082031,268.9288330078125,-0.002498480602122256,-5.627855223141545,-1.5712402757486128
1042098875,46766,vehicle,48.35628128051758,-1.9610329866409302,-5.748341512413515,-0.0007424748373743948,-3.1414634902769243
644930681,46766,vehicle,88.35518646240234,235.85589599609375,0.0020965814629231036,5.801421740297827,1.5704349358349727
2234188147,46766,vehicle,335.1516418457031,26.55685806274414,-0.0015039760253294657,1.0249237708369934,1.5722637285555303
4109707537,46766,vehicle,2.5844480991363525,118.40985107421875,-0.0003707360479155612,-6.692741383774738,-1.5708517205455703
3675841917,46766,vehicle,168.4032440185547,55.819583892822266,-4.901112165608967,-0.009624889900852883,-3.139628838601969
2817926641,46766,vehicle,92.78244018554688,28.059415817260742,0.0011665759095862965,-0.007728833424992338,-1.4209889881040862
4029506115,46766,vehicle,-2.496211528778076,220.4077911376953,-0.0022639683761413293,6.273842403098547,1.5711571851226023
3277167701,46766,vehicle,132.22523498535156,59.39929962158203,0.002479240163522443,-8.174038019524579e-07,-0.00032969931044251905
518241310,46766,vehicle,-2.637679100036621,193.14859008789062,-0.01991218169797628,4.028359314713838,1.5757392869361382
778540568,46766,vehicle,338.9315185546875,42.95614242553711,4.1273806834708494e-09,-1.3546254776492512e-07,-1.5403369544593333
657465635,46766,vehicle,20.29448699951172,2.0589969158172607,3.361173607573511e-08,-2.187561009665083e-10,-0.006508233071935642
835227171,46766,vehicle,157.7899627685547,23.67967414855957,-2.790477507140082e-12,-1.691374484098827e-08,-1.570961309624427
715280319,46766,vehicle,92.39910125732422,161.52769470214844,-3.011234613031492e-05,-0.05653496402244228,-1.5713289590129125
3020211281,46766,vehicle,311.7201232910156,59.59041213989258,-0.009690453141796234,-1.2142239890327544e-05,0.0012530098807640132
2101598167,46766,vehicle,125.25366973876953,-2.0300891399383545,0.030437312640356266,-2.6522664220651704e-05,3.140721267281119
14974470,46766,vehicle,338.9898681640625,36.57738494873047,2.436942364790287e-09,-5.148971552415211e-07,-1.5660634900636623
1398818972,46766,vehicle,287.6256408691406,133.6358184814453,5.795468752074578,-0.0007994951236224225,-0.00013795176072074986
2694688339,46766,vehicle,2.2750144004821777,137.32704162597656,-0.0026740502139511704,-9.990933060422243,-1.5710639744844495
3916750283,46766,vehicle,114.76323699951172,326.938720703125,-4.477403433311331,0.0013629185694118333,3.141288254277197
1983197581,46766,vehicle,-2.1554372310638428,155.67315673828125,0.02521036641024988,14.60626810710159,1.5690703320924162
2942851653,46766,vehicle,338.80303955078125,94.17418670654297,-0.0019025264692764223,-5.858028102921097,-1.5711210992898317
3949181016,46766,vehicle,88.34362030029297,174.86178588867188,-6.663100862049105e-10,2.498822409445018e-07,1.5734628168363385
3672416715,46766,vehicle,338.85546875,226.30577087402344,-7.967653263405705e-11,6.135140551025248e-08,-1.5694976362893194
3325384226,46766,vehicle,177.93003845214844,55.84071731567383,-5.222911448517078,-0.002008525335544027,-3.1412080931283857
1359910869,46766,vehicle,305.83880615234375,59.60436248779297,0.09508739980674803,0.00013694885682263716,0.0014402408984810797
2262630317,46766,vehicle,184.3693084716797,330.6271667480469,11.928118488897828,-0.0022744813079632873,-0.00019068231779502813
805172996,46766,vehicle,92.11060333251953,167.513671875,-3.69280148464968e-05,-0.011760974070313698,-1.5739361937201
1986857511,46766,vehicle,-2.475928783416748,260.1697998046875,0.0010839660077508531,11.212736077365756,1.5706996540473268
1279946346,46766,vehicle,132.65977478027344,2.881207227706909,6.770910198335273,-0.37347879125330413,-0.05510347859839713
74618890,46766,vehicle,334.70416259765625,291.78424072265625,1.0138971050711419e-10,1.2082253429112292e-07,1.5699571647354127
3085549129,46766,vehicle,391.97674560546875,320.9991455078125,-2.481142268844387e-09,9.18582978339327e-09,1.8346064012170558
2057201815,46766,vehicle,306.45654296875,198.97398376464844,4.23207896648546e-08,-5.1191575352727964e-11,-0.0012096076370768274
1015694095,46766,vehicle,250.7398223876953,330.6316223144531,16.13012776291001,-0.009845773008690153,-0.0006103963918089988
1250507297,46766,vehicle,154.2289581298828,23.587467193603516,0.00015927717622587264,5.537737367246777,1.5707675646551238
4280502996,46766,vehicle,92.2245101928711,296.7408447265625,-0.00047557978794067783,-5.797960261867268,-1.570878352156471
3428459672,46766,vehicle,68.89468383789062,2.0110652446746826,4.535248941917804,-0.003951954539797803,-0.0008713862436553454
414519966,46766,vehicle,148.38682556152344,327.07269287109375,-7.342848737201e-06,-2.4033328197278873e-09,-3.1412653510918225
2866945113,46766,vehicle,338.62921142578125,297.92584228515625,-0.0022535847952155925,-6.871349442001778,-1.5711242950831399
1853482628,46766,vehicle,46.39568328857422,2.5198092460632324,1.3813835000622856e-08,-3.376451946661661e-11,-0.0024442489884003997
3880166169,46766,vehicle,189.90419006347656,326.41986083984375,-5.551512718198912,4.4353717994941385e-06,3.141591854641466
1073352953,46766,vehicle,335.1936340332031,12.533079147338867,2.0294461427112152e-11,-1.0698277095309774e-09,1.589763892710659
213556023,46766,vehicle,134.5973358154297,327.0172119140625,-1.8965791251201195e-08,3.453301227062578e-11,3.139771850352506
1628590046,46766,vehicle,33.744266510009766,2.3478176593780518,-1.124002928248352e-07,-2.1925965634714737e-10,0.0019507011300875542
4120465129,46766,vehicle,266.4440612792969,55.67732238769531,-5.6328196484726485,-0.00021451581755167713,-3.141554570386205
1015227284,46766,vehicle,117.51472473144531,129.75149536132812,0.00018957778102165356,-2.1962113491570788e-08,3.1414768060823746
2900396540,46766,vehicle,118.2197036743164,-1.9651312828063965,-0.0013252527408133862,-4.635482342966754e-06,-3.138094857814083
3587539486,46766,vehicle,396.58880615234375,85.41238403320312,-0.001434887438659245,-5.568899923480253,-1.5710539876303617
1146849989,46766,vehicle,334.01556396484375,168.75140380859375,0.08135101764535198,0.7492255365729181,1.462639895446544
1457681385,46766,vehicle,363.8768005371094,-2.6952834129333496,-0.002483730667519222,1.1244777290099271e-07,3.1415473798512616
1726747598,46766,vehicle,91.8309555053711,70.51792907714844,0.4799613627754204,-6.68845293158236,-1.4991594240006372
367118466,46766,vehicle,375.0947570800781,326.35400390625,-2.990738674596602e-08,2.1915591371470308e-10,3.13426496585044
2065705843,46766,vehicle,311.215087890625,133.19998168945312,-1.8580397178987676e-09,-9.16882763497489e-13,0.0004934677554206829
3978545900,46766,vehicle,396.85546875,136.82037353515625,-0.0036696465814062716,-15.150399717322353,-1.5710385412960393
714679325,46766,vehicle,392.1418151855469,299.22723388671875,-3.669714306796031e-09,-1.109910802639992e-05,1.5704656953455634
3262285446,46766,vehicle,88.34302520751953,162.96116638183594,0.0001483975675101059,-0.08009526542373951,1.5726490879652648
1401880247,46766,vehicle,92.49676513671875,174.20469665527344,-4.655701322080461e-11,-4.945362459618391e-08,-1.5717377542402395
2250339631,46766,vehicle,92.39180755615234,108.86174774169922,-0.0013688599188853817,-5.137412842536482,-1.571062776061959
2525145270,46766,vehicle,92.4976577758789,153.20330810546875,0.002759637413313771,-3.1859369246987264,-1.5699301336503484
1825059061,46766,vehicle,331.9397277832031,1.9882746934890747,0.2549072828127797,-0.0009050588314641844,-0.0035505263652936404
346279610,46766,vehicle,88.17655181884766,305.6376037597656,-4.767961893287175e-10,-1.684703579791761e-07,1.5679661855044693
893025708,46766,vehicle,395.8574523925781,74.46031951904297,-0.001869704195969611,-5.821409402047818,-1.5711175040223602
1724402154,46766,vehicle,2.389516592025757,219.45230102539062,0.010236521387723388,-17.376799429335417,-1.570207235561771
2595182244,46766,vehicle,313.6766662597656,198.77235412597656,5.333042841937235e-08,-1.3188701181562532e-10,-0.002473011128173255
874453657,46766,vehicle,388.6775817871094,324.7012939453125,-2.862139696684894e-06,1.7306365037378472e-06,2.597749858965257
1498616609,46766,vehicle,-2.4542253017425537,25.461977005004883,-8.4485214390169e-06,6.344731807703115,1.5707976583754417
505512523,46766,vehicle,305.5905456542969,133.20281982421875,-0.4440486420406104,-3.0848992679195646e-05,6.947210217286235e-05
3709073522,46766,vehicle,118.92913055419922,195.5609893798828,-0.017406544079015256,-1.7652534939901694e-05,-3.140578521846691
27029540,46766,vehicle,27.770273208618164,2.8338429927825928,0.003929353845178151,0.00020660123361970902,0.05253056121856874
1375770528,46766,vehicle,305.9039001464844,195.27601623535156,-6.715478181875823,-0.0030993667738970386,-3.1411311277728826
4266869573,46766,vehicle,-1.4949837923049927,201.3583526611328,-0.03225377163565654,8.733391330694523,1.574489465436564
368528135,46766,vehicle,2.239975929260254,154.66342163085938,0.03720551637718217,-5.267103398599989,-1.5637326914776248
4012051816,46766,vehicle,338.7908935546875,153.778564453125,-0.0020225752384433254,-3.0488317456528393,-1.5714597202224354
3938307140,46766,vehicle,92.149169921875,218.12615966796875,0.008611571527760525,-3.6113290631155595,-1.5684117323548397
1966079641,46766,vehicle,114.86625671386719,330.65533447265625,9.376434641687878,-0.005463646379245515,-0.0005826997115279186
1759883367,46766,vehicle,65.09627532958984,331.1673889160156,-8.248049752457201e-07,5.667199265632553e-10,-0.0006870955612404434
3487645883,46766,vehicle,92.42369842529297,99.44315338134766,-0.0018314046787254424,-4.267333114547319,-1.5712254952045628
544848518,46766,vehicle,124.05937957763672,2.0971314907073975,2.842663402473412,0.0057651596654669495,0.0020280810440652178
1325658571,46766,vehicle,92.39508819580078,90.09275817871094,-0.0010727934665956092,-3.582277375756159,-1.571095799259476
921579549,46766,vehicle,92.27902221679688,22.447484970092773,2.4296167847484323e-07,7.192542835372069e-05,-1.574174280321553
4072577581,46766,vehicle,92.38365936279297,233.42498779296875,-2.502329386045445e-10,-4.2983010749869266e-07,-1.571378493809188
94066344,46766,vehicle,334.47967529296875,175.79403686523438,-0.00971527556288913,4.477194735684834,1.5729662704510932
2853390219,46766,vehicle,371.9324035644531,330.6495361328125,5.571202554233911,-0.0014955706305578903,-0.0002684466378799872
2524564450,46766,vehicle,39.81764221191406,2.0300540924072266,-7.760830174657349e-08,1.0255634729595152e-10,-0.0013214602728229927
1882516347,46766,vehicle,-2.137040376663208,210.215576171875,0.00052358219722067,4.970967742048865,1.570690998773784
815178544,46766,vehicle,307.15032958984375,330.3822937011719,-1.1720530979668133e-06,-1.8557987026935171e-09,0.0015833729333937412
2188308515,46766,vehicle,298.79437255859375,199.1906280517578,-0.014163947954694637,-1.6792186617296744e-05,0.0011855577840023258
1160083145,46766,vehicle,359.6799621582031,326.55877685546875,-6.319429339750748,-0.0008549466483369242,-3.141457365006417
1832698586,46766,vehicle,127.3373794555664,326.9634704589844,-0.0013252006464565269,-6.336414899995664e-06,-3.136811214168665
3748346955,46766,vehicle,140.8642578125,1.9172747135162354,6.401032335312966,-0.001200107319738041,-0.00018748652448693305
3198444053,46766,vehicle,121.53844451904297,327.22418212890625,-0.9686410011238996,0.17498061086935707,2.9628745707373008
808811405,46766,vehicle,273.22412109375,195.30758666992188,-5.8349337531263,-0.00023309052814292594,-3.141552706173442
84250811,46766,vehicle,338.67120361328125,48.35757827758789,0.0005941203593305953,0.01060651076618088,-1.6267525370907694
3956289865,46766,vehicle,2.435732841491699,175.48025512695312,-0.0031385546377770603,-10.319677829310573,-1.5711004597913836
1912328786,46766,vehicle,335.1353759765625,19.40218734741211,-9.69399817894745e-12,3.9716687421535906e-08,1.5710404055088023
4030311199,46766,vehicle,338.7933044433594,168.41957092285156,-0.0015631987610771213,-5.5062959359463415,-1.571080219767099
3147513812,46766,vehicle,382.0475769042969,326.14154052734375,7.403795347705006e-08,-8.772706351515225e-09,3.023653233135089
1663586846,46766,vehicle,338.6361389160156,314.9635925292969,0.0018732580237033009,-5.5560537995051344,-1.5704591706008926
