id,timestamp_ms,agent_type,x,y,vx,vy,psi_rad
-1,24187,vehicle,392.21612548828125,204.79568481445312,0.0008993453544038321,21.040401439519545,1.5707535830594008
2985032057,24187,vehicle,73.43869018554688,-1.9434455633163452,-6.551790481822511,-0.07938222450854932,-3.1294771348426957
3028941286,24187,vehicle,396.91033935546875,227.65847778320312,-0.0012568453188147792,-5.396653982672806,-1.571029220232224
2920337868,24187,vehicle,392.0270080566406,271.5328063964844,0.0035044662368735554,15.490343651128988,1.5705700912602945
1503980471,24187,vehicle,92.5670394897461,7.868152141571045,0.4807904917399938,-5.942475041618422,-1.4900647288780164
2125414330,24187,vehicle,391.55084228515625,0.3841674029827118,1.0457006402299718e-06,9.613004110940843e-07,-2.3982226343032123
2396446624,24187,vehicle,174.97311401367188,327.01409912109375,-5.940660953511406,1.1074655969895094e-05,3.1415907893770303
4076155829,24187,vehicle,112.6908187866211,-1.9291722774505615,-2.3872264300074435e-06,-3.731892764326645e-10,-3.1414363260338054
130361148,24187,vehicle,92.38613891601562,226.8260040283203,2.5778118216749463e-08,4.329911786308057e-05,-1.5713916764565838
3417340120,24187,vehicle,238.202392578125,330.4938659667969,5.510649077302702,-0.001182865072615712,-0.00021465076760574127
2197730220,24187,vehicle,188.16998291015625,-1.9401477575302124,8.075094890840149e-08,-3.8150366918707743e-11,3.141120208812413
118743835,24187,vehicle,334.70306396484375,78.63980865478516,0.006913712054736015,5.710632430630296,1.5695856537633466
904053063,24187,vehicle,178.70040893554688,55.8249397277832,-3.687509808021811e-08,5.751832062024542e-11,3.140032840139334
1291681130,24187,vehicle,134.57044982910156,195.6134796142578,-5.656486002937421,0.000596539686022991,3.1414871924106262
715062232,24187,vehicle,338.9876403808594,29.163570404052734,-5.684249152691272e-05,-5.691731452658056,-1.5708063136489845
220877689,24187,vehicle,92.9061050415039,99.828125,0.010941639735439641,-7.194033885067777,-1.5692753954963523
2069714320,24187,vehicle,27.26270866394043,331.17822265625,5.4743295202710085,0.0031477680277876225,0.0005750051525424612
3190467641,24187,vehicle,118.26842498779297,-2.5508570671081543,-0.008178372251386245,-0.00137570230205976,-2.9749405546881227
708315452,24187,vehicle,88.75580596923828,99.76144409179688,3.559092326204308e-05,0.011901968029818197,1.5678059963649011
1314594676,24187,vehicle,88.64353942871094,172.72494506835938,1.5930545372971932e-07,0.0016478837856388853,1.5706996540473268
2302084468,24187,vehicle,312.6219787597656,330.2226867675781,-0.010484690417205888,0.001351395763497749,-0.12818554991937728
757051778,24187,vehicle,334.6918640136719,217.6100311279297,0.025722922887964916,5.552586578415247,1.5661637580787038
4203008516,24187,vehicle,127.53378295898438,55.69132614135742,-5.708178691289966,0.0018683012112377967,3.1412653510918225
2631691725,24187,vehicle,334.72576904296875,230.46400451660156,0.0010375145648059613,6.0729555197425,1.570625485010968
1513387753,24187,vehicle,337.0854187011719,53.876800537109375,3.8880388853607695,-4.383867663065339,-0.8452678223361654
156273220,24187,vehicle,92.51573181152344,80.52529907226562,5.047989628872946e-10,3.26133239652594e-07,-1.5723441560204507
3812119762,24187,vehicle,92.36064147949219,31.300975799560547,-0.002718419585783035,-6.415770908465666,-1.5712200357243282
3616050434,24187,vehicle,302.1819152832031,326.4328918457031,-6.061585425277278,-0.00011300084915487819,-3.1415740114621626
2942158310,24187,vehicle,88.5923843383789,25.917118072509766,9.623214636617713e-10,4.88634977574302e-06,1.5705993860322853
3608800298,24187,vehicle,176.50498962402344,133.22796630859375,6.9975899608035,-0.0012075938613991697,-0.0001725728223824893
1146464971,24187,vehicle,60.19769287109375,2.5480520725250244,0.0,-0.0,-0.0008500809549347115
3013099654,24187,vehicle,-2.393021583557129,152.74386596679688,0.0007526877898633672,5.821410130478246,1.5706670303239731
2246582517,24187,vehicle,88.6150894165039,105.10009765625,-4.441139373603884e-11,-3.25706932172455e-07,1.5706599729470845
3192940987,24187,vehicle,338.8725280761719,248.62876892089844,-0.0007715086891769312,-0.6984003693248955,-1.5719010060150616
828836647,24187,vehicle,105.16902160644531,330.7982482910156,5.584094175215318,0.18040315885667998,0.03229537847760452
1702089089,24187,vehicle,396.0438232421875,115.77330017089844,-0.010442423474113388,-9.195735724380471,-1.5719318986837063
2111029583,24187,vehicle,54.97185516357422,330.44464111328125,0.007030704748644167,-3.153104857292013e-06,-0.00044847632756934373
420096522,24187,vehicle,96.61841583251953,130.6245880126953,-6.5357826476138765,0.9887849630317703,2.9914433650150167
510102133,24187,vehicle,188.24124145507812,1.8707690238952637,3.9456960457512222,-0.0007418664518781535,-0.0001880191567049489
4109025732,24187,vehicle,264.0065002441406,1.8496233224868774,6.042419307094287,-0.0027002270386320003,-0.0004468784309152962
2913592560,24187,vehicle,301.96722412109375,1.9248571395874023,10.41234569481434,-0.0019965424753016644,-0.00019174761474035048
3970347779,24187,vehicle,128.56085205078125,59.00431442260742,-0.010479311504130187,0.0013255439015505096,-0.12582328442058496
1933996401,24187,vehicle,385.673828125,-2.1186752319335938,-1.6924269622082668e-08,-2.2713901490292692e-09,-3.008180799833947
3047764241,24187,vehicle,53.26544952392578,2.046077251434326,0.0,0.0,0.00045156877384246126
1260711767,24187,vehicle,338.94293212890625,116.13028717041016,0.17255825883170697,-5.562676642354054,-1.5397855469556325
3957993155,24187,vehicle,335.0718994140625,33.63330078125,3.9971613281599073e-10,-5.712305744359718e-07,1.571496072371315
4289594148,24187,vehicle,-2.404228687286377,181.4108123779297,1.085350996094792e-09,-1.1407760733272485e-06,1.5717477410943275
4139896837,24187,vehicle,145.1354522705078,129.48878479003906,-5.7439407595655405,-0.0009009956359776649,-3.1414357934015875
1686932955,24187,vehicle,175.89035034179688,-1.96256422996521,5.278870257217361e-07,-2.720316482373758e-10,3.1410773319188627
1726501337,24187,vehicle,378.8957214355469,-2.406913995742798,-7.337718074297759e-05,-2.0684759284069386e-07,-3.138773697575944
1682591593,24187,vehicle,281.6020202636719,330.4570617675781,1.0634856488091932e-08,-4.497586878832646e-12,-0.0004229099485952924
3380823586,24187,vehicle,368.77252197265625,326.3265380859375,-4.2663094597346886e-07,1.3758135290109152e-09,3.1383678318258164
4176583038,24187,vehicle,273.43212890625,1.9814928770065308,5.564281698215982,-0.0016418983659956586,-0.00029507821627148894
3855978784,24187,vehicle,305.56915283203125,330.5410461425781,3.032775027146669e-08,6.542775582875198e-12,0.0002157356026347445
1042098875,24187,vehicle,143.0460205078125,-1.9011491537094116,-5.664614111385577,-0.2527154856930116,-3.0970092064129946
644930681,24187,vehicle,88.63038635253906,165.76617431640625,3.780883394365579e-09,-1.4672327950408083e-06,1.5733732014656572
2234188147,24187,vehicle,358.0129699707031,-1.9548426866531372,-9.38370038967663e-08,-7.964412357770579e-11,-3.140743904150385
4109707537,24187,vehicle,2.6084578037261963,196.40345764160156,3.5817583985428973e-07,0.00019849840891035417,-1.5726007515914797
3675841917,24187,vehicle,183.96047973632812,55.83408737182617,-0.017443080426423008,-0.00013668361632152395,-3.133756834714453
2817926641,24187,vehicle,92.760498046875,50.90573501586914,-1.8127069979539334,-3.811414773392277,-2.0147336957603637
4029506115,24187,vehicle,-2.336449384689331,142.90432739257812,-0.001439460657149148,3.1926063630386743,1.571247199967447
3277167701,24187,vehicle,88.64314270019531,33.25029754638672,1.5769037215509174e-07,0.0016470578190820825,1.5707005861537082
518241310,24187,vehicle,-2.6667373180389404,50.73848342895508,-0.0874168940139585,11.111460147505346,1.578663437813045
778540568,24187,vehicle,302.8258972167969,59.31833267211914,7.219461837015595,-0.0010805343579559895,-0.0001496696532624532
657465635,24187,vehicle,1.7136900424957275,81.75298309326172,-0.002337003358778424,-5.979760190147533,-1.5711871456848656
835227171,24187,vehicle,134.6495819091797,59.32780456542969,-2.477261897848507e-09,-5.137853960527882e-13,0.00020740051309560257
715280319,24187,vehicle,92.40499877929688,174.91848754882812,-0.008324585119392677,-5.840482978059333,-1.572221650610307
3020211281,24187,vehicle,189.52206420898438,59.61629104614258,5.867889762832751,-0.0011782859520290006,-0.00020080232993732923
2101598167,24187,vehicle,193.7311248779297,-1.9614672660827637,-1.5226023917645929e-07,7.148851715567457e-11,3.141123138289612
14974470,24187,vehicle,325.91961669921875,59.03253936767578,5.7091192744675086,-0.5657108251207583,-0.09876657475316708
1398818972,24187,vehicle,160.03656005859375,133.67178344726562,5.883496726930415,-0.0006361492044838936,-0.00010812434025721707
2694688339,24187,vehicle,2.292745590209961,203.62313842773438,-0.0,-0.0,-1.5710567839495064
3916750283,24187,vehicle,116.79842376708984,326.9374694824219,1.7520282585398011e-06,-8.360483079517359e-09,3.136820801548589
1983197581,24187,vehicle,60.55569076538086,-1.9335945844650269,-5.713397500357639,-0.0001704158166997233,-3.1415628261855844
2942851653,24187,vehicle,306.20269775390625,198.76954650878906,6.056172699082441,-0.001341896504078462,-0.00022157500269459263
3949181016,24187,vehicle,88.6303482055664,112.13860321044922,7.183215294377076e-10,-2.766121890547466e-07,1.5733931751738328
3672416715,24187,vehicle,338.86962890625,263.5661926269531,-0.0026135912315132224,-6.120279230919708,-1.5712233646756908
3325384226,24187,vehicle,190.06900024414062,55.84152603149414,0.0001987265584206705,-7.181798483658667e-08,3.1412312626298693
1359910869,24187,vehicle,174.4304656982422,59.61649703979492,7.948172245613218,-0.04288951643161896,-0.005396095960421251
2262630317,24187,vehicle,60.93571090698242,331.0576477050781,0.008041940973625197,0.001365968318592262,0.16824976252912263
805172996,24187,vehicle,91.91588592529297,185.9716033935547,-0.09691840397019108,-3.8547271440970516,-1.5959337711661
1986857511,24187,vehicle,-2.342149496078491,188.3756561279297,1.6270823139642094e-07,0.0016467898305218725,1.5706975235184546
1279946346,24187,vehicle,126.86872863769531,2.3145387172698975,0.029003022858859983,-0.0013048096911674504,-0.044958432741849276
74618890,24187,vehicle,333.7567138671875,204.67201232910156,2.022320285235916,5.372466507157634,1.2107786258872433
3085549129,24187,vehicle,392.5217590332031,311.70849609375,-0.001735714564171435,8.475289167052953,1.5710011238827237
2057201815,24187,vehicle,229.00489807128906,198.97579956054688,5.985088225796531,-0.0012113833268978715,-0.00020240024284602211
1015694095,24187,vehicle,66.94755554199219,330.46124267578125,2.345786991147548e-07,-1.0107985731024516e-10,-0.00043089952939340205
1250507297,24187,vehicle,199.7627716064453,-1.94624924659729,-3.2348156698410405e-08,-4.1092786129901836e-11,-3.140322325749825
4280502996,24187,vehicle,48.153709411621094,331.2244567871094,4.979261575805268e-08,-1.503749166638128e-11,-0.00030200243510569496
3428459672,24187,vehicle,66.85588836669922,2.01306414604187,-7.754364924625033e-08,6.269682292491421e-11,-0.0008085357069480567
414519966,24187,vehicle,200.57611083984375,327.0448303222656,-5.798027992130104,-3.7058598114747376e-05,-3.141586262003177
2866945113,24187,vehicle,294.2904968261719,330.4563903808594,0.0,-0.0,-0.00044421523731592627
1853482628,24187,vehicle,46.39436340332031,2.5199053287506104,-0.008021671577151432,1.9606999597888768e-05,-0.0024442487283260744
3880166169,24187,vehicle,314.7279968261719,326.4205322265625,-5.55942001466031,-0.0010230691182412243,-3.1414086291584686
1073352953,24187,vehicle,372.0358581542969,-2.3772799968719482,-7.762597743018304e-09,1.6153943234365027e-11,3.1395116595140053
213556023,24187,vehicle,136.07139587402344,327.0167236328125,-3.338139008105612,0.002878583335107303,3.1407303220288254
1628590046,24187,vehicle,1.653880000114441,35.10988998413086,-0.0018962147934904635,-5.753668949468232,-1.571125892979794
4120465129,24187,vehicle,338.98663330078125,103.19065856933594,-4.242884288624403e-05,-5.68991422637379,-1.5708037836459487
1015227284,24187,vehicle,156.5087890625,129.75086975097656,-6.534903289373255,-0.0030543145018346604,-3.141125268818484
2900396540,24187,vehicle,181.6448211669922,-1.9665080308914185,-0.0013252272138851969,-5.178558786671602e-06,-3.13768499732232
3587539486,24187,vehicle,396.62750244140625,215.17161560058594,-0.001788521495944099,-6.800793889424178,-1.571059313952542
1146849989,24187,vehicle,327.3778381347656,133.49559020996094,6.620316718436584,0.7253117986273362,0.10912325869259216
1457681385,24187,vehicle,395.8388977050781,97.33332061767578,-0.0032250219706453287,-11.212732804945126,-1.571083948192625
1726747598,24187,vehicle,92.41950988769531,85.70319366455078,0.001285132624805719,1.3789368839792215,-1.5717283000183697
367118466,24187,vehicle,375.0947570800781,326.35400390625,-3.634064544831162e-06,2.6629766839394747e-08,3.13426496585044
2065705843,24187,vehicle,284.18408203125,133.20639038085938,6.018410458010227,-0.0016444720962522689,-0.0002732402628235485
3978545900,24187,vehicle,344.5767822265625,330.3468933105469,7.241368914914047,1.5622652639962178,0.21248498474863647
714679325,24187,vehicle,392.0838317871094,17.459562301635742,0.12694082725920294,5.828148453367541,1.5490191259291006
3262285446,24187,vehicle,101.06324005126953,56.042205810546875,-5.133600186732398,0.5505794693869809,3.0347508917135584
1401880247,24187,vehicle,97.67816162109375,194.800537109375,-6.090694061593742,-0.536626156086603,-3.0537136639393583
2250339631,24187,vehicle,121.11581420898438,129.73342895507812,-5.93451352757747,-0.000700142255572374,-3.1414746755535026
2525145270,24187,vehicle,92.53739166259766,154.5819549560547,2.047429126298979e-08,-2.3680775728494844e-05,-1.5699317315470023
1825059061,24187,vehicle,313.625732421875,2.012181282043457,-1.8264580443261264e-06,1.1421030375929562e-09,-0.0006253102239506051
346279610,24187,vehicle,88.17131042480469,224.886474609375,-0.0006447960994589977,5.598076783239175,1.5709115085120424
893025708,24187,vehicle,395.91009521484375,204.1654510498047,-0.0018697040428203773,-5.821408925210685,-1.5711175040223602
1724402154,24187,vehicle,81.53959655761719,326.2563781738281,-6.0318948192229325,1.1382739959928485,2.9550768350655487
2595182244,24187,vehicle,270.3529052734375,198.76954650878906,6.056152195085142,-0.001341891960905131,-0.00022157500269459263
874453657,24187,vehicle,388.6863708496094,324.69732666015625,0.047254307385973054,-0.028583128045190673,2.5975935314092693
1498616609,24187,vehicle,92.17387390136719,19.396400451660156,-0.0020094149031396366,-5.862645281705806,-1.5711390756271897
505512523,24187,vehicle,273.1468200683594,133.2103729248047,5.565883619181135,-0.00043875611315813363,-7.882955201170013e-05
3709073522,24187,vehicle,148.0805206298828,195.56948852539062,-6.713345720579347,0.004076348913436237,3.1409854528612553
27029540,24187,vehicle,1.4569246768951416,61.44747543334961,-0.002428436219098722,-8.772123954327514,-1.5710731623902103
1375770528,24187,vehicle,338.8888244628906,241.85263061523438,-3.645454454708917e-05,-0.011765357441177201,-1.5738947815651494
4266869573,24187,vehicle,-1.5068391561508179,68.0008544921875,0.0003748586495015647,6.160045135536459,1.5707354735639882
368528135,24187,vehicle,2.8177874088287354,209.157958984375,0.029009959818547582,-3.2918624556385105,-1.5619839267478244
4012051816,24187,vehicle,338.9733581542969,228.75657653808594,1.5710193323136336e-09,5.52398301997341e-07,-1.5736403165229922
3938307140,24187,vehicle,92.14663696289062,219.810791015625,2.429586888238897e-10,-4.402920452398763e-08,-1.5652782570162525
1966079641,24187,vehicle,41.148319244384766,331.2388916015625,-9.783482911757128e-10,1.3548594335291373e-14,-1.3848436652496706e-05
1759883367,24187,vehicle,0.023089179769158363,325.8966064453125,2.42683926469717,4.892424824236755,1.1103215929873915
3487645883,24187,vehicle,110.44090270996094,129.77566528320312,-6.475143246626029,0.0029298151879925015,3.141140182520589
544848518,24187,vehicle,100.93932342529297,2.1395645141601562,5.569323053914374,-0.5637803294504979,-0.10088592667103055
1325658571,24187,vehicle,92.455810546875,121.69281005859375,-0.8047820905988772,-5.942340729443255,-1.7054091330443142
921579549,24187,vehicle,92.2916488647461,42.06006622314453,-0.0045850602323820105,-4.761887250303411,-1.5717591926870147
4072577581,24187,vehicle,92.3836441040039,233.43453979492188,1.0617174534268296e-05,0.01817911925817974,-1.571380358021951
94066344,24187,vehicle,334.09619140625,139.41754150390625,1.8937736777199907,5.7305824772261,1.251626856477151
2853390219,24187,vehicle,299.99432373046875,330.5154724121094,-1.6487029285717142e-07,-5.0276696836574255e-11,0.00030494696410635324
2524564450,24187,vehicle,1.5909518003463745,17.511430740356445,-0.0019245208052961365,-5.887130422738849,-1.571123229818704
1882516347,24187,vehicle,-2.1442291736602783,130.9488525390625,-0.0006435951326874674,6.376408067647922,1.5708972606002105
815178544,24187,vehicle,264.6994934082031,330.3945617675781,5.656485307728822,-0.0016811571336219323,-0.000297208777652843
2188308515,24187,vehicle,174.42544555664062,199.21011352539062,5.547130994463797,-0.0008627373867030638,-0.00015552857515133687
1160083145,24187,vehicle,362.2406921386719,326.5630187988281,0.5457862204362105,-0.0006084423115990396,3.140477854357486
1832698586,24187,vehicle,127.70616912841797,326.9648742675781,-0.017405792171768,-3.90212232445664e-05,-3.1393508045841645
3748346955,24187,vehicle,132.9302215576172,1.919230341911316,-0.9612058780090593,0.00020427572136612175,-0.0002125202549883232
3198444053,24187,vehicle,122.08928680419922,326.24029541015625,-0.02894328974132709,-0.010320978193258615,-2.7990563415515837
808811405,24187,vehicle,338.9242858886719,221.62155151367188,-4.702857366702566e-07,-0.0016472881454215244,-1.571081817663753
84250811,24187,vehicle,316.22589111328125,133.5444793701172,5.6798837339569905,0.013261569299878581,0.002334826877260419
3956289865,24187,vehicle,56.56193161010742,326.56317138671875,-5.769232748725955,-0.00011830585057340176,-3.1415721472493994
1912328786,24187,vehicle,365.2416687011719,-1.9526530504226685,2.132847841277921e-07,2.1448130464060912e-10,-3.1405870439621792
4030311199,24187,vehicle,338.9559631347656,235.7322235107422,3.935279952977581e-12,-5.682262185879663e-09,-1.5701037717534214
3147513812,24187,vehicle,382.047607421875,326.14154052734375,4.4333971026328935e-05,-5.253101834198134e-06,3.023653233135089
1663586846,24187,vehicle,287.7590637207031,330.4103088378906,7.2253161054008e-08,8.826503552869008e-11,0.0012216073364045336
