id,timestamp_ms,agent_type,x,y,vx,vy,psi_rad
-1,27336,vehicle,392.2193298339844,263.9973449707031,0.0025993971491537005,17.123807709810013,1.570644526612762
2985032057,27336,vehicle,54.638553619384766,-1.9637104272842407,-5.634879112128553,3.601581791688438e-05,3.141586262003177
3028941286,27336,vehicle,396.9035949707031,209.660400390625,-0.001861977995388685,-6.287417612935003,-1.5710924703081135
2920337868,27336,vehicle,392.0341796875,308.0570373535156,0.0027391592482917263,5.9539030449890555,1.5703362657165854
1503980471,27336,vehicle,107.63998413085938,2.037477493286133,5.817200761022554,-0.007736779879626982,-0.0013299825183484089
2125414330,27336,vehicle,391.55084228515625,0.3841674029827118,-2.2476043856020406e-08,-2.0661965162237463e-08,-2.3982226343032123
2396446624,27336,vehicle,156.72219848632812,327.00860595703125,-6.097237582737164,-0.0002273309625275145,-3.141555369334532
4076155829,27336,vehicle,112.6908187866211,-1.9229427576065063,-5.418073605748451e-06,-8.325650086905699e-10,-3.1414389891948957
130361148,27336,vehicle,92.38613891601562,226.82598876953125,4.922397440164483e-11,8.268077023253084e-08,-1.5713916764565838
3417340120,27336,vehicle,256.27581787109375,330.4972839355469,5.891046969881047,0.0006043935794703237,0.00010259527388591749
2197730220,27336,vehicle,188.16998291015625,-1.9401477575302124,-4.8295753113608976e-09,2.2817078025789083e-12,3.141120208812413
118743835,27336,vehicle,334.7093811035156,96.90523529052734,0.0016505186447379372,5.563368075630332,1.5704996506494617
904053063,27336,vehicle,178.70040893554688,55.8249397277832,2.5099493703002572e-08,-3.9150559629008954e-11,3.140032840139334
1291681130,27336,vehicle,116.81459045410156,195.61846923828125,-5.659271582456604,0.0012343601182660362,3.141374540696516
715062232,27336,vehicle,338.9866638183594,22.499862670898438,-4.26887430508451e-07,0.0001803884848631702,-1.5684298418502522
220877689,27336,vehicle,92.90660095214844,91.62818145751953,0.0003585368564762391,0.636239546843072,-1.5713598516815575
2069714320,27336,vehicle,34.900936126708984,331.17999267578125,0.017408186571887172,1.972387116103535e-05,0.001133022250162659
3190467641,27336,vehicle,118.2859115600586,-2.645329475402832,-0.010444420000886774,-0.0019420890566961824,-2.9577471866905714
708315452,27336,vehicle,88.76131439208984,99.7651138305664,3.559090376733649e-05,0.011901961510589322,1.5678059963649011
1314594676,27336,vehicle,88.64353942871094,172.73228454589844,1.5899340670843463e-07,0.0016469244069973784,1.5706997872053812
2302084468,27336,vehicle,312.61810302734375,330.18011474609375,-0.010310347774175709,0.0011034154476551356,-0.10661440282054781
757051778,27336,vehicle,334.6985168457031,235.57107543945312,8.380081578064923e-05,5.881620883344657,1.5707820788830646
4203008516,27336,vehicle,112.88993072509766,55.693119049072266,0.03524502076556013,8.385751245826313e-05,-3.1392133854719164
2631691725,27336,vehicle,334.72576904296875,248.5681915283203,0.00043340486503910163,5.442834836870284,1.5707166982783032
1513387753,27336,vehicle,339.00091552734375,36.22144317626953,0.02251051107328421,-5.663132751648025,-1.566821425709899
156273220,27336,vehicle,92.51573181152344,80.52529907226562,1.650322245380384e-09,1.0662164147053056e-06,-1.5723441560204507
3812119762,27336,vehicle,92.37635803222656,13.005671501159668,0.0823944729211934,-5.702360487302615,-1.5563481452489987
3616050434,27336,vehicle,283.9283447265625,326.4273986816406,-6.11024139989689,-0.00040193216211509096,-3.1415268735108683
2942158310,27336,vehicle,88.5832290649414,25.917118072509766,-4.834564343969909e-10,-2.446560708885536e-06,1.5705987202420126
3608800298,27336,vehicle,198.2455596923828,133.22239685058594,6.9400133046804084,-0.0012013541700399818,-0.00017310545460050517
1146464971,27336,vehicle,60.19769287109375,2.5480518341064453,-1.3127388829002512e-07,1.1159345919612279e-10,-0.0008500809549347115
3013099654,27336,vehicle,-2.3900814056396484,170.83335876464844,0.0007526880364768136,5.821412037826863,1.5706670303239731
2246582517,27336,vehicle,88.6150894165039,105.10009765625,2.3014823741482824e-12,1.6878748908177696e-08,1.5706599729470845
3192940987,27336,vehicle,338.87249755859375,248.6110076904297,-4.127244437996414e-09,-3.6011462266698573e-06,-1.5719424181700121
828836647,27336,vehicle,131.8440704345703,330.8222961425781,11.670132372058355,-0.005333233454359923,-0.0004569985080761786
1702089089,27336,vehicle,396.0329895019531,88.29838562011719,0.00041491551204499546,-8.030831326256726,-1.5707446614697491
2111029583,27336,vehicle,54.97096633911133,330.44464111328125,-0.00017624074440835763,8.054175140491467e-08,-0.0004569984430575973
420096522,27336,vehicle,88.10391235351562,146.0018310546875,-0.041643897565223374,7.769293282007862,1.5761563379628445
510102133,27336,vehicle,208.93666076660156,1.8669551610946655,8.123195505423334,-0.001522989710884667,-0.00018748652448693305
4109025732,27336,vehicle,281.431396484375,1.8777827024459839,6.565329010552448,0.04973980528561937,0.007575987979705482
2913592560,27336,vehicle,308.8349609375,1.686596393585205,-0.021422030567489883,-0.0007231412022998536,0.033744079853958775
3970347779,27336,vehicle,128.55072021484375,58.90641784667969,-0.010471595288542952,0.0013610777183707663,-0.12925343590460703
1933996401,27336,vehicle,385.673828125,-2.1186752319335938,-3.2984651294415396e-08,-4.426838716959712e-09,-3.008180799833947
3047764241,27336,vehicle,53.26544952392578,2.046077251434326,-2.9610387564919958e-08,-1.3371127314545925e-11,0.00045156877384246126
1260711767,27336,vehicle,338.9959716796875,98.03604125976562,-0.0013556101198772652,-5.946529710747985,-1.5710242933842073
3957993155,27336,vehicle,335.0718994140625,33.63330078125,2.4710063175703535e-10,-3.5312919402990887e-07,1.571496072371315
4289594148,27336,vehicle,-2.404228687286377,181.4108123779297,2.400838176123461e-11,-2.523440580150417e-08,1.5717477410943275
4139896837,27336,vehicle,127.17984008789062,129.4892120361328,-5.680856166267915,-0.0008366356470984558,-3.1414453807815117
1686932955,27336,vehicle,175.89035034179688,-1.9625612497329712,9.887323637065232e-07,-5.095152588699949e-10,3.1410773319188627
1726501337,27336,vehicle,378.8957214355469,-2.4084956645965576,7.518333681000118e-05,2.114585362149877e-07,-3.1387800891625606
1682591593,27336,vehicle,281.6020202636719,330.4570617675781,-1.7283298578820877e-08,7.309279349287984e-12,-0.0004229099485952924
3380823586,27336,vehicle,368.77252197265625,326.3265380859375,4.967086049706566e-08,-1.6018022723022659e-10,3.1383678318258164
4176583038,27336,vehicle,290.70001220703125,1.976418375968933,5.557442910358633,-0.0016043596885308017,-0.0002886866621645894
3855978784,27336,vehicle,305.56915283203125,330.5410461425781,-7.515805402995676e-08,-1.6214279325562876e-11,0.00021573574892655241
1042098875,27336,vehicle,126.20128631591797,-1.9530539512634277,-3.2648891369237547,0.0023119811335054682,3.140884519055941
644930681,27336,vehicle,88.63038635253906,165.76617431640625,8.971598667172189e-11,-3.4815735941595266e-08,1.5733732014656572
2234188147,27336,vehicle,358.0129699707031,-1.9548426866531372,-1.3663906680605684e-07,-1.1597235920081427e-10,-3.140743904150385
4109707537,27336,vehicle,2.6085543632507324,196.4035186767578,-1.1996724419487159e-05,-0.006674601625377536,-1.572593694214591
3675841917,27336,vehicle,183.96047973632812,55.8340950012207,-0.01744130103725506,-0.00013745935473391158,-3.1337115609759216
2817926641,27336,vehicle,92.26573181152344,36.34033966064453,0.0039350343522768574,-5.812667468392933,-1.5701193512457985
4029506115,27336,vehicle,-2.338743209838867,161.2399139404297,-0.0009009505499281029,4.298617268560611,1.5710059175726858
3277167701,27336,vehicle,88.64314270019531,33.25809860229492,1.5900158847283637e-07,0.0016470091573512733,1.5706997872053812
518241310,27336,vehicle,-2.6839494705200195,76.95167541503906,0.009876967513105177,1.887669591959585,1.565564014201218
778540568,27336,vehicle,323.28851318359375,59.295955657958984,5.8830118366894,-0.07445235253199936,-0.012654806787243922
657465635,27336,vehicle,1.7923493385314941,63.57831573486328,0.003910654171352735,-6.008287587644412,-1.5701454502244812
835227171,27336,vehicle,134.6495819091797,59.32780456542969,5.286423962569644e-10,1.0964070579984727e-13,0.00020740051309560257
715280319,27336,vehicle,92.39911651611328,161.53501892089844,9.791941028515836e-06,0.01693212516591275,-1.5713746322256072
3020211281,27336,vehicle,207.51950073242188,59.61276626586914,5.907030720336498,-0.0020010307046658504,-0.00033875405814878844
2101598167,27336,vehicle,193.7311248779297,-1.9614672660827637,-1.8352552297838842e-07,8.616804734386051e-11,3.141123138289612
14974470,27336,vehicle,338.4945983886719,48.60504913330078,1.0577566405284404,-5.76572650854045,-1.3893579580469426
1398818972,27336,vehicle,177.79617309570312,133.66650390625,5.6205013874789715,-0.0012124322761984446,-0.00021571603204177298
2694688339,27336,vehicle,2.292745590209961,203.62313842773438,-1.8797030638927737e-11,-7.216937558131927e-08,-1.5710567839495064
3916750283,27336,vehicle,116.79842376708984,326.9374694824219,6.833265123203062e-07,-3.2607577624352273e-09,3.136820801548589
1983197581,27336,vehicle,42.37925338745117,-1.9287039041519165,-5.581979725070468,0.0005440850319879257,3.1414951818938963
2942851653,27336,vehicle,324.6629333496094,198.67222595214844,5.595610677853835,-0.3047160790407248,-0.054402534599488274
3949181016,27336,vehicle,88.6303482055664,112.13860321044922,-7.517135650944572e-10,2.894708375867459e-07,1.5733931751738328
3672416715,27336,vehicle,338.8676452636719,255.48411560058594,-5.271296831968398e-07,0.0005255111294126574,-1.5697932471703182
3325384226,27336,vehicle,190.06906127929688,55.8415412902832,-0.006686345223849184,2.4537791392974313e-06,3.1412256699915804
1359910869,27336,vehicle,196.06871032714844,59.604949951171875,6.66436646730929,-0.0077843989245361235,-0.0011680623240715913
2262630317,27336,vehicle,60.91831588745117,331.15106201171875,0.010443031837250335,0.0019499761164778514,0.18459925800101215
805172996,27336,vehicle,92.12667846679688,168.08987426757812,0.0036028948020304244,-3.998414800548274,-1.5698952462400684
1986857511,27336,vehicle,-2.342121124267578,188.3830108642578,1.609370339915839e-07,0.0016466166046962142,1.5706985887828906
1279946346,27336,vehicle,127.52435302734375,2.4463160037994385,0.32879737567140765,-0.011841675021098954,-0.03599955467363352
74618890,27336,vehicle,334.69586181640625,223.58583068847656,0.0027386767921958807,6.299268604036333,1.5703615657469412
3085549129,27336,vehicle,391.9765930175781,320.9990234375,4.5456718098538e-05,-0.00016829251599479754,1.8346064012170558
2057201815,27336,vehicle,247.08804321289062,198.97607421875,5.4800027544767715,-0.001173367900564295,-0.0002141181191330801
1015694095,27336,vehicle,66.94755554199219,330.46124267578125,2.143767034043515e-06,-9.237482632705768e-10,-0.00043089952939340205
1250507297,27336,vehicle,199.7627716064453,-1.94624924659729,-4.370109634137678e-08,-5.551474918157169e-11,-3.140322325749825
4280502996,27336,vehicle,48.153709411621094,331.2244567871094,-1.2863534361725097e-07,3.884818819412338e-11,-0.00030200243510569496
3428459672,27336,vehicle,66.85588836669922,2.0130629539489746,2.3893081936892893e-06,-1.931841410468927e-09,-0.0008085357069480567
414519966,27336,vehicle,182.76144409179688,327.04449462890625,-5.708721155898644,0.00023869093182602566,3.141550841960679
2866945113,27336,vehicle,294.2904968261719,330.4563903808594,2.8029632736020887e-08,-1.2451190776695893e-11,-0.00044421523731592627
1853482628,27336,vehicle,46.39568328857422,2.5198092460632324,6.9511136593607e-08,-1.6990286365485501e-10,-0.0024442489884003997
3880166169,27336,vehicle,297.3196716308594,326.41986083984375,-5.5557646751017655,2.0714254832402577e-05,3.141588925164267
1073352953,27336,vehicle,372.0358581542969,-2.3772799968719482,-1.9242596928194974e-09,4.00437880140578e-12,3.1395116595140053
213556023,27336,vehicle,134.5973358154297,327.0172119140625,4.190476704341102e-06,-7.630041981065124e-09,3.139771850352506
1628590046,27336,vehicle,1.6484371423721313,17.274354934692383,-0.0009418769671761559,-5.556461731236795,-1.5709658369982802
4120465129,27336,vehicle,338.9820556640625,85.1064224243164,-0.002103548838249958,-5.932175263332398,-1.5711509266940407
1015227284,27336,vehicle,137.4740753173828,129.7510528564453,-5.716838359475146,6.394441820744507e-05,3.141581468313215
2900396540,27336,vehicle,181.6448211669922,-1.9664487838745117,-0.0013252196400541922,-5.268879992991285e-06,-3.137616820398414
3587539486,27336,vehicle,396.6213684082031,196.15426635742188,-0.002087709280653368,-8.003282274700666,-1.57105718342367
1146849989,27336,vehicle,334.590576171875,147.05966186523438,-0.509195043002856,5.718052491524292,1.6596124828329302
1457681385,27336,vehicle,395.83154296875,70.11626434326172,-0.0032250219706453287,-11.212732804945126,-1.571083948192625
1726747598,27336,vehicle,92.41435241699219,85.52566528320312,6.957814987164673e-05,0.004323752529677496,-1.5868870129431007
367118466,27336,vehicle,375.0947570800781,326.35400390625,8.70162978535746e-08,-6.376396716354072e-10,3.13426496585044
2065705843,27336,vehicle,302.20208740234375,133.20230102539062,5.90263529461901,-0.0018171933690558602,-0.00030786135699457863
3978545900,27336,vehicle,364.4976806640625,330.85888671875,5.638807256302403,0.0006754150180195894,0.00011977976619693568
714679325,27336,vehicle,392.1217346191406,35.36790084838867,0.0008674148928055832,5.659578733729279,1.5706430618741625
3262285446,27336,vehicle,88.58653259277344,66.59636688232422,-0.6229222585571949,6.0724357326766905,1.673020699973152
1401880247,27336,vehicle,92.5036392211914,179.05056762695312,-0.025811945965480452,-5.6232031639786895,-1.5753865512497571
2250339631,27336,vehicle,103.75973510742188,129.7174530029297,-5.850842054995454,-0.06258175019198,-3.130896866019817
2525145270,27336,vehicle,92.52812194824219,154.58193969726562,-2.3700121726447073e-08,2.7517756078232037e-05,-1.569935060498365
1825059061,27336,vehicle,313.625732421875,2.0121824741363525,0.0,-0.0,-0.0006253102239506051
346279610,27336,vehicle,88.17167663574219,243.01007080078125,4.677441691385899e-05,5.854498386196205,1.5707883373116263
893025708,27336,vehicle,395.90277099609375,186.07595825195312,-0.001869704195969611,-5.821409402047818,-1.5711175040223602
1724402154,27336,vehicle,63.30211639404297,326.54449462890625,-6.024513227518524,0.00045405225362041594,3.141517286130944
2595182244,27336,vehicle,288.8199157714844,198.77102661132812,5.617334242151025,-0.0011788374568182426,-0.00020985709389824398
874453657,27336,vehicle,388.6775207519531,324.701171875,7.192784377247853e-05,-4.3492217542523034e-05,2.597750391597475
1498616609,27336,vehicle,88.92139434814453,1.7900762557983398,-3.688123482215826,-5.020079007349841,-2.204416678610985
505512523,27336,vehicle,291.5373229980469,133.2060546875,6.01634740813224,4.421041457350383e-05,7.348381264178537e-06
3709073522,27336,vehicle,129.08489990234375,195.5642852783203,-4.7844001409473025,-0.004618841691748402,-3.1406272576946392
27029540,27336,vehicle,1.451790690422058,42.97401809692383,-0.00034189349732335477,-1.3153568061908323,-1.5710562513172883
1375770528,27336,vehicle,338.8888244628906,241.85079956054688,-3.690285858535308e-05,-0.011761441675508206,-1.5739339300331734
4266869573,27336,vehicle,-1.5047521591186523,95.21794891357422,0.0003748586495015647,6.160045135536459,1.5707354735639882
368528135,27336,vehicle,2.815898895263672,208.84042358398438,-0.0007388752462817259,-0.028270021067116652,-1.596926730778536
4012051816,27336,vehicle,338.9733581542969,228.75657653808594,1.507106327701153e-10,5.2992535434017344e-08,-1.5736403165229922
3938307140,27336,vehicle,92.14663696289062,219.810791015625,8.853474540045217e-11,-1.6044350714870943e-08,-1.5652782570162525
1966079641,27336,vehicle,41.148319244384766,331.2388916015625,4.8700762529156594e-08,-6.744294248564241e-13,-1.3848436652496706e-05
1759883367,27336,vehicle,16.543109893798828,331.19537353515625,5.756663574647787,0.02325095250150722,0.004038941266687116
3487645883,27336,vehicle,93.11319732666016,125.902587890625,-3.1692606221397694,-4.996443238515944,-2.1360577276444497
544848518,27336,vehicle,118.497802734375,2.0931410789489746,4.263394331602902,0.0004539837111365137,0.0001064841002520974
1325658571,27336,vehicle,92.39625549316406,103.56201934814453,-0.0017847657005903243,-5.914987771659903,-1.5710980629464026
921579549,27336,vehicle,92.29792022705078,24.31715965270996,-0.006830850124150808,-5.51362711246223,-1.5720352293340014
4072577581,27336,vehicle,92.38365936279297,233.42498779296875,1.125124011973404e-09,1.9326479468003403e-06,-1.571378493809188
94066344,27336,vehicle,334.486328125,157.56881713867188,0.0009750536002732682,5.761233724099176,1.570627082907622
2853390219,27336,vehicle,299.99432373046875,330.5154724121094,-1.1079394308658564e-07,-3.378627763291822e-11,0.00030494696410635324
2524564450,27336,vehicle,10.087903022766113,2.4641497135162354,7.24761100061287,-1.8883465834525228,-0.2548807782479894
1882516347,27336,vehicle,-2.1428027153015137,149.03118896484375,-0.0015041209188219838,6.189455326424984,1.5710393402443663
815178544,27336,vehicle,275.2506103515625,330.3908996582031,-0.012195417110460143,-1.6223927441854598e-05,0.0013303290673867421
2188308515,27336,vehicle,192.6262664794922,199.2069549560547,5.680090246374437,-0.0014340390956410864,-0.00025246765508486643
1160083145,27336,vehicle,362.4418029785156,326.5623474121094,0.5320686764362975,-0.0006111457251673372,3.140444032211642
1832698586,27336,vehicle,127.70616912841797,326.96490478515625,-0.01740374686464367,-4.069911482035562e-05,-3.1392541318365947
3748346955,27336,vehicle,133.51451110839844,1.9190577268600464,-0.9612058775716658,0.00020632358261669128,-0.00021465076760574127
3198444053,27336,vehicle,121.9183349609375,326.1962585449219,0.3363108967525521,0.06665769819695018,-2.9459259472439276
808811405,27336,vehicle,338.9208984375,221.6142120361328,-4.70282014293033e-07,-0.001647275106906011,-1.571081817663753
84250811,27336,vehicle,338.4699401855469,125.08988952636719,2.0751998682681094,-8.102818180015545,-1.3200768875529674
3956289865,27336,vehicle,38.36255645751953,326.569091796875,-5.686334131404126,-0.00014083570140612067,-3.1415678861916554
1912328786,27336,vehicle,365.2416687011719,-1.9526541233062744,9.752876238030052e-09,9.807589547868305e-12,-3.1405870439621792
4030311199,27336,vehicle,338.9559631347656,235.7322235107422,8.79241064219949e-11,-1.269561076006648e-07,-1.5701037717534214
3147513812,27336,vehicle,382.0475769042969,326.14154052734375,2.727734538065745e-07,-3.232073954442081e-08,3.023653233135089
1663586846,27336,vehicle,287.7590637207031,330.4103088378906,3.7557971779145473e-06,4.5881145992688315e-09,0.0012216081166275092
