id,timestamp_ms,agent_type,x,y,vx,vy,psi_rad
-1,28810,vehicle,392.21990966796875,285.4792175292969,0.00017604407414361072,13.089787482031527,1.5707828778313917
2985032057,28810,vehicle,46.17631912231445,-1.9639631509780884,-5.748902301270068,0.000474617841580493,3.1415100955960007
3028941286,28810,vehicle,396.90087890625,201.49569702148438,-0.0009019747099224148,-4.112759491242295,-1.5710156381106646
2920337868,28810,vehicle,392.0352783203125,313.958984375,0.0005768718194896189,2.0473693988626493,1.5705145643515661
1503980471,28810,vehicle,114.03517150878906,2.0314996242523193,2.3514244417618446,-0.00025549866185160786,-0.00010865697247523292
2125414330,28810,vehicle,391.55084228515625,0.3841674029827118,-0.0,-0.0,-2.3982226343032123
2396446624,28810,vehicle,148.22091674804688,327.00604248046875,-6.069317306413878,-0.0006465427901973566,-3.14148612714619
4076155829,28810,vehicle,112.6908187866211,-1.9167845249176025,6.408225016033904e-06,9.744763456554224e-10,-3.14144058709155
130361148,28810,vehicle,92.38613891601562,226.82598876953125,-9.195205829773493e-11,-1.544504907809569e-07,-1.5713916764565838
3417340120,28810,vehicle,264.6905517578125,330.498779296875,5.3456621162489055,0.0055313840364614114,0.0010347421782444465
2197730220,28810,vehicle,188.16998291015625,-1.9401477575302124,2.1583482101995812e-07,-1.019700415543763e-10,3.141120208812413
118743835,28810,vehicle,334.7115478515625,105.46546936035156,0.0016435356341640954,5.562299485579469,1.5705008490719523
904053063,28810,vehicle,178.70040893554688,55.8249397277832,3.277441527940833e-08,-5.112201524403182e-11,3.140032840139334
1291681130,28810,vehicle,113.10037994384766,195.618896484375,0.039722684849198074,0.00015481080936108002,-3.137695383650571
715062232,28810,vehicle,338.9866638183594,22.499813079833984,-8.199074446381005e-10,3.464657216309689e-07,-1.5684298418502522
220877689,28810,vehicle,92.9066390991211,91.64967346191406,9.945424167793764e-08,0.00019190354547784778,-1.571314577943026
2069714320,28810,vehicle,34.90082931518555,331.1800231933594,0.017435477265871826,2.0419009506778298e-05,0.0011711179373184019
3190467641,28810,vehicle,118.29396057128906,-2.686292886734009,-0.010252908814180775,-0.0019643158050124455,-2.952300223313032
708315452,28810,vehicle,88.7638931274414,99.76683044433594,3.559091490716883e-05,0.011901965235862965,1.5678059963649011
1314594676,28810,vehicle,88.64353942871094,172.7357177734375,1.590027685350097e-07,0.0016470213809600084,1.5706997872053812
2302084468,28810,vehicle,312.6134948730469,330.125732421875,-0.010411060562189397,0.001185927649163899,-0.11342147585630397
757051778,28810,vehicle,334.6993408203125,244.2610321044922,-6.383299464535288e-05,5.574158668152572,1.570807778387584
4203008516,28810,vehicle,112.88427734375,55.693016052246094,0.00012158623443532946,2.8893061092569284e-07,-3.1392163149491155
2631691725,28810,vehicle,334.72576904296875,257.02880859375,0.0006593090821052046,5.9798636073002225,1.5706860719257674
1513387753,28810,vehicle,339.01300048828125,29.724071502685547,0.005791583108616415,-1.7254001452165888,-1.5674396785569606
156273220,28810,vehicle,92.51573181152344,80.52529907226562,-4.3260269867401316e-10,-2.7948971763737726e-07,-1.5723441560204507
3812119762,28810,vehicle,93.99474334716797,5.09371280670166,2.902892133425676,-4.784083905966194,-1.025405569786752
3616050434,28810,vehicle,275.3894958496094,326.4248046875,-5.660070880299772,-0.00042357042383816634,-3.141517818763162
2942158310,28810,vehicle,88.58014678955078,25.917118072509766,-5.811634731468185e-10,-2.9370548297993214e-06,1.5705984539259037
3608800298,28810,vehicle,208.39454650878906,133.21981811523438,6.937262907993082,-0.0012008781741290862,-0.00017310547085515047
1146464971,28810,vehicle,60.19769287109375,2.5480518341064453,-5.2259660368305937e-08,4.4424952691501236e-11,-0.0008500809549347115
3013099654,28810,vehicle,-2.379101276397705,175.84027099609375,0.002395183428144073,2.3571636428638167,1.5697801976809769
2246582517,28810,vehicle,88.6150894165039,105.10009765625,-1.1246927436954268e-11,-8.24833882410671e-08,1.5706599729470845
3192940987,28810,vehicle,338.87249755859375,248.6110076904297,7.698781799426364e-11,6.717421137386706e-08,-1.5719424181700121
828836647,28810,vehicle,151.8750457763672,330.8009338378906,15.362007933875343,-0.024309634658232916,-0.0015824503197250834
1702089089,28810,vehicle,396.0272216796875,75.72518157958984,0.00020713052341716508,-8.838203427748645,-1.570772890977304
2111029583,28810,vehicle,54.97065353393555,330.44464111328125,0.00660848966833874,-3.0376691758837504e-06,-0.00045966160414767654
420096522,28810,vehicle,88.09176635742188,155.77870178222656,-0.0033995273423588295,1.3016855432597565,1.5734079557178828
510102133,28810,vehicle,217.7498016357422,1.865328073501587,8.079929213006201,-0.001497663340926097,-0.00018535599561486966
4109025732,28810,vehicle,289.0477600097656,1.871659517288208,7.735112035950812,-0.0015449887256618095,-0.00019973708175594285
2913592560,28810,vehicle,308.8390197753906,1.6773343086242676,0.0024204396550854927,1.2554474426108905e-05,0.005186810509889804
3970347779,28810,vehicle,128.54736328125,58.874393463134766,-0.013088573689608096,0.0015887442114156563,-0.1207931140760217
1933996401,28810,vehicle,385.673828125,-2.1186752319335938,7.500835302136068e-08,1.0066799805961887e-08,-3.008180799833947
3047764241,28810,vehicle,53.26544952392578,2.046077251434326,-1.4960120504769219e-09,-6.755523732056866e-13,0.00045156877384246126
1260711767,28810,vehicle,338.9930114746094,89.91427612304688,-0.00045499188011410895,-4.752337910806062,-1.570892067436085
3957993155,28810,vehicle,335.0718994140625,33.63330078125,-1.2859935280666858e-09,1.8378012830836812e-06,1.571496072371315
4289594148,28810,vehicle,-2.404228687286377,181.4108123779297,5.893049797911758e-11,-6.193987228622372e-08,1.5717477410943275
4139896837,28810,vehicle,118.77494049072266,129.48936462402344,-5.705388480023661,-0.0008675984539629946,-3.14144058709155
1686932955,28810,vehicle,175.89035034179688,-1.9625598192214966,3.352864562667732e-07,-1.72780392178075e-10,3.1410773319188627
1726501337,28810,vehicle,378.8957214355469,-2.4115982055664062,7.191428445784339e-05,2.0203426660925924e-07,-3.138783284955869
1682591593,28810,vehicle,281.6020202636719,330.4570617675781,1.2058169206171298e-07,-5.0995200231564314e-11,-0.0004229099485952924
3380823586,28810,vehicle,368.77252197265625,326.3265380859375,8.688651161283841e-08,-2.801944849376701e-10,3.1383678318258164
4176583038,28810,vehicle,298.78125,1.974043846130371,5.554584747696633,-0.001606492945534782,-0.0002892192618733146
3855978784,28810,vehicle,305.56915283203125,330.5410461425781,1.3582686303801838e-07,2.930271489208774e-11,0.00021573578143584308
1042098875,28810,vehicle,125.58880615234375,-1.953107237815857,0.0009181143568554392,-1.057011331310551e-06,3.140441369050552
644930681,28810,vehicle,88.63038635253906,165.76617431640625,-4.5541351693271084e-10,1.7673056205444479e-07,1.5733732014656572
2234188147,28810,vehicle,357.7820739746094,-1.954822301864624,-1.3329223613126668,-0.0005093944548137373,-3.141210489973367
4109707537,28810,vehicle,2.6085848808288574,196.403564453125,-1.9176630149462508e-05,-0.010689867223675653,-1.572590232105174
3675841917,28810,vehicle,183.96047973632812,55.8341064453125,-0.017411320133448222,-0.0001375476718234311,-3.133692918848291
2817926641,28810,vehicle,92.26492309570312,29.095983505249023,-0.0007179490138413271,-3.2324372924766624,-1.5710184344298093
4029506115,28810,vehicle,-2.3124358654022217,169.1364288330078,0.001062817669766287,5.051661379591083,1.5705859370687802
3277167701,28810,vehicle,88.60498046875,33.6765251159668,-0.010240783826587729,1.3052290675267169,1.5786421325243245
518241310,28810,vehicle,-2.7085955142974854,89.31724548339844,-0.10120072742227747,10.555881818795985,1.5803831740869638
778540568,28810,vehicle,331.6980895996094,58.187538146972656,5.614698159557499,-0.923557409867612,-0.16302935093656526
657465635,28810,vehicle,1.790037989616394,55.06123733520508,-0.002727932483191081,-6.0007098673044785,-1.5712509283929732
835227171,28810,vehicle,134.8262481689453,59.32810974121094,1.3868468816143051,0.0014264848796440176,0.0010285810174803863
715280319,28810,vehicle,92.39908599853516,161.53048706054688,2.9659280343585367e-08,5.11334679161291e-05,-1.571376363280316
3020211281,28810,vehicle,216.03250122070312,59.61098098754883,5.557866062059565,-0.0006187023949222752,-0.00011132013356531216
2101598167,28810,vehicle,193.7311248779297,-1.9614672660827637,-6.095250853895748e-10,2.861813744636724e-13,3.141123138289612
14974470,28810,vehicle,338.9656677246094,40.710914611816406,0.08100925506060658,-4.245471141695511,-1.5517173075875144
1398818972,28810,vehicle,186.19357299804688,133.66433715820312,5.7126191623952165,-0.0012749018025123213,-0.00022317289934864015
2694688339,28810,vehicle,2.292745590209961,203.62313842773438,-4.708949100192617e-12,-1.807955324078263e-08,-1.5710567839495064
3916750283,28810,vehicle,116.79842376708984,326.9374694824219,-1.2606091961277338e-06,6.015486224459476e-09,3.136820801548589
1983197581,28810,vehicle,33.85478210449219,-1.926413893699646,-5.582027885332627,0.0005470628941716399,3.1414946492616784
2942851653,28810,vehicle,332.9626159667969,197.37464904785156,5.14925059458553,-1.558667732295129,-0.29393016003484645
3949181016,28810,vehicle,88.6303482055664,112.13860321044922,-4.227345544720569e-11,1.6278717219172404e-08,1.5733931751738328
3672416715,28810,vehicle,338.86767578125,255.48391723632812,-1.8653609296049692e-09,1.8596333314678888e-06,-1.5697932471703182
3325384226,28810,vehicle,190.06912231445312,55.84154510498047,-0.01068967135024484,3.9570962167445416e-06,3.141222474198272
1359910869,28810,vehicle,205.59420776367188,59.60347366333008,5.14504317042823,0.0026442933634700278,0.000513949648827724
2262630317,28810,vehicle,60.91031265258789,331.19183349609375,0.010233485546715276,0.001966593853013401,0.18985785266569855
805172996,28810,vehicle,92.1343994140625,167.52633666992188,2.124211942012017e-05,-0.012256103785962053,-1.569063141557473
1986857511,28810,vehicle,-2.3421077728271484,188.38644409179688,1.6093778495292278e-07,0.001646624288107418,1.5706985887828906
1279946346,28810,vehicle,127.76805114746094,2.4860267639160156,0.01840367725005996,-0.0007965785137489623,-0.043256660321721034
74618890,28810,vehicle,334.6976013183594,232.29090881347656,1.8421251446186252e-05,5.533649921386575,1.570792997843534
3085549129,28810,vehicle,391.97674560546875,320.9991455078125,3.233046533170892e-07,-1.1969573655012427e-06,1.8346064012170558
2057201815,28810,vehicle,255.53794860839844,198.9762725830078,5.92412225940211,-0.0009371473863275102,-0.00015819176875070675
1015694095,28810,vehicle,66.94755554199219,330.46124267578125,2.184818210465336e-06,-9.414371969665793e-10,-0.00043089952939340205
1250507297,28810,vehicle,199.7627716064453,-1.94624924659729,-2.847114556145696e-08,-3.61677082975101e-11,-3.140322325749825
4280502996,28810,vehicle,48.153709411621094,331.2244567871094,2.363649719186337e-07,-7.138279926328387e-11,-0.00030200243510569496
3428459672,28810,vehicle,66.85588836669922,2.013062000274658,3.9834740253151824e-09,-3.220781689007989e-12,-0.0008085357069480567
414519966,28810,vehicle,174.49362182617188,327.04437255859375,-5.594208236839749,0.0002026165768935089,3.141556434598968
2866945113,28810,vehicle,294.2904968261719,330.4563903808594,1.9638241094170384e-08,-8.723606501915827e-12,-0.00044421523731592627
1853482628,28810,vehicle,46.39568328857422,2.5198090076446533,-8.147833871271092e-08,1.9915374358017631e-10,-0.0024442489884003997
3880166169,28810,vehicle,289.17047119140625,326.41986083984375,-5.559396266935481,-4.441670347569421e-06,-3.141591854641466
1073352953,28810,vehicle,372.0358581542969,-2.3772799968719482,-1.0767029713390002e-08,2.2406157390965748e-11,3.1395116595140053
213556023,28810,vehicle,134.5973358154297,327.0172119140625,-2.7577977705425595e-08,5.021412657593126e-11,3.139771850352506
1628590046,28810,vehicle,1.7557697296142578,8.969183921813965,0.3455057417673131,-5.3929865112551285,-1.5068180095054324
4120465129,28810,vehicle,338.98150634765625,79.82134246826172,-7.794974939588258e-05,0.03528156461252342,-1.5685869683545668
1015227284,28810,vehicle,130.10671997070312,129.75091552734375,-4.93714141641488,0.00014200275153768756,3.14156389145002
2900396540,28810,vehicle,181.6448211669922,-1.966421127319336,-0.0013252163278065028,-5.311218673558032e-06,-3.137584862465333
3587539486,28810,vehicle,396.61956787109375,189.70811462402344,-0.001976877701075538,-7.382446024377505,-1.571064107642504
1146849989,28810,vehicle,334.384521484375,155.49563598632812,-0.018438589368754546,3.698360255941591,1.5757818975135793
1457681385,28810,vehicle,395.828125,57.37624740600586,-0.0032250219706453287,-11.212732804945126,-1.571083948192625
1726747598,28810,vehicle,92.40723419189453,85.52362823486328,0.00020474715770159635,0.006179394976742078,-1.6039180612722121
367118466,28810,vehicle,375.0947570800781,326.35400390625,8.414638621411672e-08,-6.16609478895124e-10,3.13426496585044
2065705843,28810,vehicle,310.4727783203125,133.2000732421875,3.8242397134133896,0.0003650322289921886,9.545223501634375e-05
3978545900,28810,vehicle,373.0289306640625,330.8590087890625,6.040420399890845,-0.0012644076688119287,-0.0002093244454255828
714679325,28810,vehicle,392.1217041015625,44.43796157836914,0.00023659622796338525,6.995305057339236,1.5707625046490525
3262285446,28810,vehicle,88.32669830322266,75.08424377441406,-0.02916207309419107,5.507113970092786,1.5760916231483557
1401880247,28810,vehicle,92.49729919433594,174.21739196777344,-7.903997491355074e-05,-0.08489415840427683,-1.5717273679119883
2250339631,28810,vehicle,95.33274841308594,128.07106018066406,-5.083327872310399,-2.7282676977846654,-2.64901091625932
2525145270,28810,vehicle,92.52508544921875,154.58193969726562,-1.9973909315873315e-08,2.3220042343680094e-05,-1.569936125762801
1825059061,28810,vehicle,313.625732421875,2.0121824741363525,9.250900244670756e-07,-5.784683257701678e-10,-0.0006253102239506051
346279610,28810,vehicle,88.17229461669922,251.462646484375,0.0009694524272276902,5.7191390169550544,1.5706268165915132
893025708,28810,vehicle,395.8993225097656,177.60853576660156,-0.001869704349118845,-5.8214098788849515,-1.5711175040223602
1724402154,28810,vehicle,54.78298568725586,326.5421142578125,-6.027742822624399,-0.0006950884144116955,-3.141477338714593
2595182244,28810,vehicle,297.56494140625,198.7715606689453,5.956758821199961,-0.0013579420153393975,-0.00022796658931078278
874453657,28810,vehicle,388.6775817871094,324.7012939453125,9.788071501466847e-07,-5.918507004132301e-07,2.597749858965257
1498616609,28810,vehicle,81.36772918701172,-1.7441651821136475,-5.471525491773409,-0.7570086136329394,-3.0041112233721967
505512523,28810,vehicle,299.8052978515625,133.20411682128906,3.894642144786675,-0.0012736889421569573,-0.00032703618186173043
3709073522,28810,vehicle,120.467529296875,195.56236267089844,-4.056229061028038,-0.0034697289664708357,-3.1407372462476597
27029540,28810,vehicle,1.4493266344070435,34.09221649169922,-0.0003597256049807946,-1.3839617500098058,-1.5710562513172883
1375770528,28810,vehicle,338.8888244628906,241.8499298095703,-3.6958648439359026e-05,-0.011760755112202382,-1.57393885688119
4266869573,28810,vehicle,-1.5037752389907837,107.95774841308594,0.0003748586495015647,6.160045135536459,1.5707354735639882
368528135,28810,vehicle,2.8004021644592285,208.83908081054688,-0.0011606017448820435,-0.028160723899006198,-1.6119865072687707
4012051816,28810,vehicle,338.9733581542969,228.75657653808594,1.0537196603865468e-09,3.705065489687685e-07,-1.5736403165229922
3938307140,28810,vehicle,92.14663696289062,219.810791015625,2.573684491228995e-10,-4.664055498203454e-08,-1.5652782570162525
1966079641,28810,vehicle,41.148319244384766,331.2388916015625,7.497091280397859e-10,-1.038229936812122e-14,-1.3848436652496706e-05
1759883367,28810,vehicle,24.734256744384766,331.16912841796875,3.7022684829020216,-0.004093764623923031,-0.0011057444846008996
3487645883,28810,vehicle,92.41093444824219,117.64360809326172,0.06681692037149968,-5.608983235269543,-1.5588844067131358
544848518,28810,vehicle,120.82102966308594,2.0930135250091553,-0.01304641829547462,7.435368181740751e-07,-5.699164326403437e-05
1325658571,28810,vehicle,92.39766693115234,98.93043518066406,-4.8830648799376605e-06,0.02983823751190295,-1.5706326755459112
921579549,28810,vehicle,92.31080627441406,22.448177337646484,7.118932756406424e-05,0.020983621791410792,-1.5741889277075485
4072577581,28810,vehicle,92.38365936279297,233.42498779296875,-1.4125432137009368e-11,-2.4263536398425044e-08,-1.571378493809188
94066344,28810,vehicle,334.48468017578125,165.9645538330078,0.0004627693922473425,5.59635923379622,1.5707136356430496
2853390219,28810,vehicle,299.99432373046875,330.5154724121094,-9.271464586856905e-08,-2.8273050662211094e-11,0.00030494696410635324
2524564450,28810,vehicle,20.831363677978516,2.0407423973083496,5.574930095264888,-0.02945659114869714,-0.005283710562419908
1882516347,28810,vehicle,-2.1424319744110107,157.64508056640625,0.00022467303848256343,6.02594947396103,1.5707590425396354
815178544,28810,vehicle,275.2521057128906,330.3910217285156,-1.988944917491546e-05,-2.646689655499953e-08,0.0013306995432629937
2188308515,28810,vehicle,201.18087768554688,199.20510864257812,6.026729224771602,-0.002080099426705374,-0.0003451456447649786
1160083145,28810,vehicle,362.5181579589844,326.5619812011719,0.5466567005772669,-0.0005963101929664024,3.140501822807297
1832698586,28810,vehicle,127.70616912841797,326.96490478515625,-0.017403730100883166,-4.069907561786555e-05,-3.1392541318365947
3748346955,28810,vehicle,133.7880096435547,1.91897714138031,-0.9612058774616349,0.00020683555183520285,-0.0002151833998237571
3198444053,28810,vehicle,121.5291976928711,326.6205749511719,0.4528370926974904,0.023244990498396272,-3.090305763633156
808811405,28810,vehicle,338.9192810058594,221.61077880859375,-4.7028866139521803e-07,-0.0016472983899694278,-1.571081817663753
84250811,28810,vehicle,339.054443359375,111.25863647460938,0.054237974741683105,-5.854406412329774,-1.5615321214688924
3956289865,28810,vehicle,29.707176208496094,326.5717468261719,-5.855134006474514,-0.00021206704495412693,-3.141556434598968
1912328786,28810,vehicle,365.2416687011719,-1.9526541233062744,2.8191864798924048e-08,2.8350020218516777e-11,-3.1405870439621792
4030311199,28810,vehicle,338.9559631347656,235.7322235107422,4.229851865054399e-11,-6.107602913100324e-08,-1.5701037717534214
3147513812,28810,vehicle,382.0475769042969,326.14154052734375,1.1623416091369355e-07,-1.3772506043494033e-08,3.023653233135089
1663586846,28810,vehicle,287.7590637207031,330.4103088378906,3.556724454490069e-07,4.344926086068937e-10,0.0012216082466646717
