id,timestamp_ms,agent_type,x,y,vx,vy,psi_rad
-1,44019,vehicle,392.2198791503906,306.496337890625,-7.915413317736355e-12,3.696750198924322e-08,1.571010444946539
2985032057,44019,vehicle,-2.2817604541778564,55.84500503540039,0.012562593661805423,14.432224528145973,1.5699258725926042
3028941286,44019,vehicle,396.8690185546875,115.01206970214844,-0.0024577849372245182,-6.978317781596819,-1.5711485298490595
2920337868,44019,vehicle,392.0353088378906,314.20721435546875,-1.2129189908938324e-10,-3.0835702093202686e-07,1.570402977901892
1503980471,44019,vehicle,116.47310638427734,2.032811164855957,-2.996363544093504e-07,4.331437806992332e-10,-0.0014455638396950105
2125414330,44019,vehicle,358.60247802734375,-1.6013845205307007,-1.7765783366726069e-06,1.7624151547817327e-09,3.1406006260837387
2396446624,44019,vehicle,141.33572387695312,327.0087585449219,6.274439581693744e-08,-7.5094071896593e-11,3.1403958289959117
4076155829,44019,vehicle,41.10179138183594,-1.9587132930755615,-5.613633153669598,0.00015548009768398492,3.1415649567144563
130361148,44019,vehicle,92.38613891601562,226.82598876953125,1.1415129668302491e-10,1.9173821796232828e-07,-1.5713916764565838
3417340120,44019,vehicle,300.4060974121094,330.5013732910156,0.05234526992746122,-0.00010184859411109436,-0.0019457052323375663
2197730220,44019,vehicle,154.22921752929688,26.34715461730957,-2.5932611308535376e-05,5.564302921234736,1.5708009873268043
118743835,44019,vehicle,334.71221923828125,108.75579071044922,7.2550681457465675e-09,3.460215691346853e-06,1.5686996200686771
904053063,44019,vehicle,174.4824981689453,55.82430648803711,-5.421510242225987,-0.002219175306893677,-3.141183325730248
1291681130,44019,vehicle,113.09465789794922,195.61886596679688,-6.455322290744104e-09,-2.516685679788218e-11,-3.1376940520700263
715062232,44019,vehicle,338.9866638183594,22.499813079833984,3.811679071723107e-10,-1.6106892904151097e-07,-1.5684298418502522
220877689,44019,vehicle,92.90670776367188,90.70664978027344,-0.00039141978322283983,-2.3937399067338543,-1.5709598448858275
2069714320,44019,vehicle,83.81324005126953,330.39471435546875,7.975323857271366,-1.1907273870629937,-0.1482066956518886
3190467641,44019,vehicle,52.12678909301758,-1.9501971006393433,-8.69660758571371,-0.0002640293231727052,-3.1415622935533665
708315452,44019,vehicle,88.32711791992188,169.343017578125,-0.018799788505186883,0.7581849816849903,1.5955870275921717
1314594676,44019,vehicle,122.03129577636719,199.0170135498047,10.412349620054425,-0.0012977528097261,-0.000124635922761063
2302084468,44019,vehicle,396.7560729980469,271.9386291503906,0.013117957613016798,-17.629593737101256,-1.5700522395863286
757051778,44019,vehicle,334.7028503417969,297.8030090332031,2.7023668114644902e-11,1.3229745556178544e-07,1.5705920623392875
4203008516,44019,vehicle,112.88423919677734,55.693016052246094,3.741790470740962e-10,8.891778018194633e-13,-3.1392163149491155
2631691725,44019,vehicle,334.72576904296875,304.8206481933594,3.2447169732999635e-12,-8.61039239296403e-08,1.5708340105243213
1513387753,44019,vehicle,339.01324462890625,29.555875778198242,-4.162080165124626e-11,1.3275819149632737e-08,-1.5676612535596552
156273220,44019,vehicle,92.51220703125,76.92322540283203,-0.007433614531488061,-5.3258405306019005,-1.572192089522207
3812119762,44019,vehicle,110.74478149414062,2.0930917263031006,-1.519463081535617e-07,3.019557614733913e-10,-0.0019872504153056396
3616050434,44019,vehicle,186.8373260498047,326.3982238769531,-5.672173497843385,0.0001586120734767863,3.141564690398347
2942158310,44019,vehicle,122.04703521728516,59.3330078125,5.1311603939728005,-0.004804652255569699,-0.0009363673092346975
3608800298,44019,vehicle,298.1676940917969,133.19717407226562,-9.860319375804524e-05,1.859180879692109e-08,-0.00018855178892296473
1146464971,44019,vehicle,60.19769287109375,2.5480518341064453,2.0083136424986943e-07,-1.7072295902598336e-10,-0.0008500809549347115
3013099654,44019,vehicle,-2.3431193828582764,214.39309692382812,0.00042046491726941467,4.576286773439167,1.570704447737289
2246582517,44019,vehicle,126.97211456298828,133.35659790039062,1.1975589295573426,-0.0006723028968014457,-0.0005613943577887034
3192940987,44019,vehicle,338.8669738769531,219.46205139160156,1.9899680870580338e-08,9.760554981564743e-06,-1.5728351097674067
828836647,44019,vehicle,292.3128356933594,330.7921142578125,3.488720518773878,0.0009765187089154254,0.00027990739818729133
1702089089,44019,vehicle,371.1502380371094,-2.4276814460754395,0.022381944260032254,2.9123861331042696e-05,-3.1402914330811806
2111029583,44019,vehicle,92.01444244384766,293.5797119140625,0.0008410616924543632,-8.245778040907513,-1.5706943277251466
420096522,44019,vehicle,88.3448715209961,209.5365447998047,0.04066538509734927,5.463960481517202,1.5633539899706157
510102133,44019,vehicle,293.6005554199219,1.8464173078536987,0.00018508782455045166,4.898601302186199e-07,0.0026466299857463567
4109025732,44019,vehicle,299.3235168457031,1.2645199298858643,0.8178101334604312,-0.2491641869028791,-0.2957378804932786
2913592560,44019,vehicle,310.30413818359375,1.7241930961608887,3.694459094916527,0.016706846815538544,0.004522105267454742
3970347779,44019,vehicle,157.55197143554688,29.853187561035156,-0.0014553158583728314,-0.027837450954548173,-1.6230278399901847
1933996401,44019,vehicle,337.9419860839844,1.0783077478408813,-0.0,0.0,2.4031281770311383
3047764241,44019,vehicle,53.26544952392578,2.046076774597168,-1.1245471850688697e-08,-5.078104645643924e-12,0.0004515688063517519
1260711767,44019,vehicle,296.0611572265625,55.68160629272461,-5.924596309540848,3.7867570478342566e-05,3.141586262003177
3957993155,44019,vehicle,335.0718994140625,33.63330078125,1.7320797611466702e-10,-2.475298932665825e-07,1.571496072371315
4289594148,44019,vehicle,-2.3944602012634277,222.8979034423828,0.005951344082572262,6.441888444313349,1.569872476212748
4139896837,44019,vehicle,112.17839813232422,129.49009704589844,-1.5047486820639948e-08,2.0674128425076058e-11,3.140218728783421
1686932955,44019,vehicle,112.75736236572266,-1.9680269956588745,0.00012729626192757752,-3.626065598512538e-07,3.1387441364878446
1726501337,44019,vehicle,335.2357482910156,5.901086807250977,0.0006317277526025009,-0.0027732614588383006,1.79476697604807
1682591593,44019,vehicle,313.8249816894531,330.4513854980469,-9.63431208082969e-05,1.2587685825922694e-07,-0.0013065467007557117
3380823586,44019,vehicle,368.77252197265625,326.3265380859375,-7.699972811541685e-10,2.4831125981644242e-12,3.1383678318258164
4176583038,44019,vehicle,302.6977233886719,1.966530442237854,0.6169009008315282,-0.0003134665223446908,-0.0005081310384592467
3855978784,44019,vehicle,338.6291809082031,284.8655700683594,-0.0025929413135297604,-5.506973132999545,-1.5712671736756225
1042098875,44019,vehicle,64.01781463623047,-1.9626013040542603,-5.845072267154449,-0.00016344687486507937,-3.141564690398347
644930681,44019,vehicle,88.34910583496094,220.30245971679688,0.0017587247923024861,5.810734005848087,1.570493658537009
2234188147,44019,vehicle,335.1517639160156,26.420446395874023,-3.1523077327265176e-10,1.7618072199537534e-07,1.5725855715732664
4109707537,44019,vehicle,2.592390775680542,142.4379119873047,-0.0021449808470896106,-11.539063254310525,-1.570982215438984
3675841917,44019,vehicle,181.75631713867188,55.82770538330078,-2.5095291575655305,-0.004745134743944537,-3.139701809215837
2817926641,44019,vehicle,92.72566986083984,28.05047035217285,0.0009050422518566535,-0.007597179493242848,-1.4522264029521161
4029506115,44019,vehicle,-2.5172653198242188,207.01258850097656,0.003239454250695258,1.4518020966460938,1.5685649972755737
3277167701,44019,vehicle,132.21873474121094,59.394954681396484,0.0031957441432251274,-1.620296457510056e-05,-0.005070126083292854
518241310,44019,vehicle,-2.6344192028045654,182.2831573486328,-0.004571712334266772,4.461144012165376,1.571821111182359
778540568,44019,vehicle,338.9315185546875,42.95614242553711,0.0,-0.0,-1.5403369544593333
657465635,44019,vehicle,20.294485092163086,2.058997392654419,-1.4750279677250104e-06,9.599960576861289e-09,-0.006508232551786992
835227171,44019,vehicle,157.7899627685547,23.67967414855957,1.0156537791422454e-11,6.156118020389775e-08,-1.570961309624427
715280319,44019,vehicle,92.39908599853516,161.5304412841797,-2.7358065379605084e-10,-4.716610592468243e-07,-1.571376363280316
3020211281,44019,vehicle,303.4195556640625,59.59282684326172,5.58181616051973,-0.0006332606983663007,-0.00011345065431005288
2101598167,44019,vehicle,137.78431701660156,-2.025973081588745,-5.6061325072524495,2.8367064522645654e-05,3.141587593583722
14974470,44019,vehicle,338.9898376464844,36.57738494873047,-1.5318448158874943e-09,3.2366072721618024e-07,-1.5660634900636623
1398818972,44019,vehicle,272.11566162109375,133.6400909423828,5.818340218053717,-0.0009854931897021345,-0.00016937702907439422
2694688339,44019,vehicle,2.2821760177612305,162.6614532470703,-0.002899732546857193,-8.128637750305668,-1.5711530572229127
3916750283,44019,vehicle,116.79842376708984,326.9374694824219,6.618412804290936e-08,-3.158232636592967e-10,3.136820801548589
1983197581,44019,vehicle,-2.178006172180176,103.67170715332031,-0.03049266430340954,22.922510846509137,1.5721265757593912
2942851653,44019,vehicle,338.80303955078125,110.38345336914062,-0.0026535447511517657,-6.120325943773528,-1.5712298894203616
3949181016,44019,vehicle,88.34362030029297,174.861572265625,9.071039930348187e-07,-0.0003401857231972602,1.5734628168363385
3672416715,44019,vehicle,338.85546875,226.30580139160156,-6.363744951934216e-08,4.9001215816343706e-05,-1.5694976362893194
3325384226,44019,vehicle,188.3717498779297,55.84171676635742,-3.6639086147731597,-0.0008781821142597374,-3.141352969091686
1359910869,44019,vehicle,293.48974609375,59.60636901855469,5.4833148279778525,-0.00264897546206225,-0.0004830974217403738
2262630317,44019,vehicle,150.8300018310547,330.6335754394531,11.928109907038905,-0.0022681263756876347,-0.0001901496855770123
805172996,44019,vehicle,92.11300659179688,167.51527404785156,-3.6927985604255356e-05,-0.011760964757133861,-1.5739361937201
1986857511,44019,vehicle,-2.4782185554504395,236.42965698242188,0.001082906602862133,11.20177740584714,1.5706996540473268
1279946346,44019,vehicle,130.23362731933594,2.9263131618499756,-1.4639856743260581e-06,-1.550103457662369e-08,0.010587846322043962
74618890,44019,vehicle,334.70416259765625,291.78424072265625,-2.9115418531396556e-10,-3.4695815150426174e-07,1.5699571647354127
3085549129,44019,vehicle,391.97674560546875,320.9991455078125,-3.4283338002959803e-10,1.2692577578326598e-09,1.8346064012170558
2057201815,44019,vehicle,306.45654296875,198.97398376464844,-1.0150973962583585e-08,1.2278701617439738e-11,-0.0012096076370768274
1015694095,44019,vehicle,194.28237915039062,330.645263671875,22.15273666379008,-3.5397780979933515e-05,-1.5978965270581263e-06
1250507297,44019,vehicle,154.27577209472656,7.897446155548096,-0.4116367099794583,5.8057948078705115,1.6415788875114585
4280502996,44019,vehicle,92.21924591064453,312.4382019042969,0.012285549920200617,-5.905195807835414,-1.5687158653513267
3428459672,44019,vehicle,66.85588836669922,2.013062000274658,-3.495518961916412e-07,2.8262525108921253e-10,-0.0008085357069480567
414519966,44019,vehicle,148.38682556152344,327.0671081542969,-0.0,-0.0,-3.1412629542468413
2866945113,44019,vehicle,338.73333740234375,317.00189208984375,-0.22321653059119895,-7.292701499560911,-1.601394982455471
1853482628,44019,vehicle,46.39568328857422,2.5198092460632324,-8.236747370909449e-08,2.0132701522360406e-10,-0.0024442489884003997
3880166169,44019,vehicle,205.09078979492188,326.41986083984375,-5.555769443478667,1.923468170931441e-05,3.141589191480376
1073352953,44019,vehicle,335.1936340332031,12.533079147338867,8.205046742576621e-12,-4.325311314484307e-10,1.589763892710659
213556023,44019,vehicle,134.5973358154297,327.0172119140625,1.1799933454370873e-08,-2.1485380777168943e-11,3.139771850352506
1628590046,44019,vehicle,33.744266510009766,2.3478176593780518,1.1747168247641017e-07,2.2915243441970695e-10,0.0019507011300875542
4120465129,44019,vehicle,282.3016052246094,55.67789840698242,-5.811058925153072,0.0009208092759942065,3.1414341955049334
1015227284,44019,vehicle,117.51387786865234,129.75152587890625,-0.006663950586468621,7.240846982996613e-07,3.141483996617318
2900396540,44019,vehicle,118.2197036743164,-1.9635601043701172,-0.001241746273273025,-2.727593538710853e-06,-3.139396078322696
3587539486,44019,vehicle,396.59393310546875,102.29744720458984,-0.0014866682998196214,-5.719615266231363,-1.5710562513172883
1146849989,44019,vehicle,334.01324462890625,168.255126953125,-0.0007172996495767521,-0.006234207091028904,1.4562413846115196
1457681385,44019,vehicle,363.8832092285156,-2.695115089416504,-0.002450290582177877,-3.093095803371157e-07,-3.1414664197541233
1726747598,44019,vehicle,91.85348510742188,84.19943237304688,-0.03604247342701185,-0.4736547982617144,-1.6467443547617764
367118466,44019,vehicle,375.0947570800781,326.35400390625,1.0566041736436914e-07,-7.742604028781802e-10,3.13426496585044
2065705843,44019,vehicle,311.215087890625,133.19998168945312,4.04929374023217e-08,1.9981960552252504e-11,0.0004934677554206829
3978545900,44019,vehicle,396.8682861328125,187.16213989257812,-0.007012737169478005,-22.40100369357499,-1.5711093813810355
714679325,44019,vehicle,392.1418151855469,298.07611083984375,0.0012303661052884749,3.643490583580356,1.5704586379686745
3262285446,44019,vehicle,88.34258270263672,151.96441650390625,0.0011577127441055896,5.605593084948159,1.570589798652361
1401880247,44019,vehicle,92.49676513671875,174.20469665527344,-9.247587931647993e-11,-9.822939882826467e-08,-1.5717377542402395
2250339631,44019,vehicle,92.39317321777344,111.54768371582031,2.5891865347695614e-11,9.154642188984583e-08,-1.571079154502663
2525145270,44019,vehicle,92.49776458740234,154.58193969726562,-2.2698246556538066e-08,2.675155284324195e-05,-1.5699478436715975
1825059061,44019,vehicle,318.142578125,2.0110275745391846,6.052777587082731,-0.0014765481238286921,-0.00024394553959661289
346279610,44019,vehicle,88.17655181884766,305.6376037597656,-9.958556885677994e-10,-3.5187396229995645e-07,1.5679661855044693
893025708,44019,vehicle,395.8638610839844,90.2401351928711,-0.001869703583372676,-5.821407494699284,-1.5711175040223602
1724402154,44019,vehicle,2.3832805156707764,267.4165954589844,0.007087998245496762,-15.57798033632911,-1.5703413257226566
2595182244,44019,vehicle,313.6766662597656,198.77235412597656,-1.890210381297002e-08,4.674520836993293e-11,-0.002473011128173255
874453657,44019,vehicle,388.6775817871094,324.7012939453125,-1.4677806288760443e-07,8.875159862931868e-08,2.597749858965257
1498616609,44019,vehicle,-2.205665111541748,8.916953086853027,-0.9647462949580314,6.434021855901871,1.7196320111619914
505512523,44019,vehicle,305.568115234375,133.20281982421875,-0.4440474207189325,-2.1030925795785306e-05,4.736189154304767e-05
3709073522,44019,vehicle,118.92913055419922,195.5609893798828,-0.017406543251725536,-1.6600242150398088e-05,-3.140638975603436
27029540,44019,vehicle,27.77473258972168,2.7225027084350586,0.003641326796947499,9.22082771142972e-05,0.02531730345213545
1375770528,44019,vehicle,331.9676513671875,195.23793029785156,-6.366713706807953,-3.2245017636758977,-2.672788417419875
4266869573,44019,vehicle,-1.451283574104309,190.49102783203125,-0.003568832451318952,5.122605511130583,1.5714930097360613
368528135,44019,vehicle,2.132786750793457,176.41026306152344,0.045263454612333276,-5.70903001164663,-1.5628680962297308
4012051816,44019,vehicle,338.79718017578125,171.20880126953125,-0.0018954912858964305,-7.2664101035738256,-1.57105718342367
3938307140,44019,vehicle,92.14663696289062,219.810791015625,1.4317998770714669e-11,-2.5947213466687616e-09,-1.5652782570162525
1966079641,44019,vehicle,97.99108123779297,330.7619323730469,6.910279023567131,-0.16545784914842845,-0.023939155038722272
1759883367,44019,vehicle,65.09571838378906,331.1673889160156,-0.002537973091688957,1.743830320268121e-06,-0.0006870955612404434
3487645883,44019,vehicle,92.42707824707031,105.2142333984375,-4.709552865091549e-12,4.5245143101718556e-09,-1.5697554302828391
544848518,44019,vehicle,122.98884582519531,2.095728635787964,-2.016850129648941e-06,-5.9286675116324255e-09,0.0029395592403779836
1325658571,44019,vehicle,92.39752960205078,98.91934967041016,5.72901064403478e-06,-0.05565865308363973,-1.570693395618765
921579549,44019,vehicle,92.2843246459961,22.44738006591797,-0.0,-0.0,-1.5741768103245888
4072577581,44019,vehicle,92.38365936279297,233.42498779296875,1.2791949987751428e-10,2.1972987525205206e-07,-1.571378493809188
94066344,44019,vehicle,334.482177734375,173.806396484375,-6.436752703163587e-11,-5.549849751294998e-07,1.5706803461294236
2853390219,44019,vehicle,356.5970764160156,330.6502685546875,5.54956223807809,-0.0015488790580252044,-0.0002790993147495948
2524564450,44019,vehicle,39.81764221191406,2.0300536155700684,4.960268306122475e-09,-6.5548013245407446e-12,-0.0013214602728229927
1882516347,44019,vehicle,-2.137765407562256,198.17539978027344,0.0007623762976189877,3.754326981385749,1.570593260761778
815178544,44019,vehicle,307.1492919921875,330.3822326660156,-0.008674751340775376,-1.3733388087786695e-05,0.001583143547838912
2188308515,44019,vehicle,288.5753173828125,199.19100952148438,5.8068636780391305,-0.0011134522730325365,-0.00019174761474035048
1160083145,44019,vehicle,363.443359375,326.55853271484375,0.5401502295944361,-0.0005631757236411755,3.140550026023027
1832698586,44019,vehicle,127.3373794555664,326.96343994140625,-0.001325148684070525,-6.246878594759097e-06,-3.136878592144244
3748346955,44019,vehicle,136.6099853515625,1.9181455373764038,-0.9612058772407549,0.00020785949027204984,-0.00021624866425978882
3198444053,44019,vehicle,121.6008529663086,327.3586730957031,-0.01761377268092699,0.005194805654764348,2.854794971586397
808811405,44019,vehicle,296.11688232421875,195.30758666992188,-5.8349337531263,-0.00023309052814292594,-3.141552706173442
84250811,44019,vehicle,338.77777099609375,48.3546142578125,0.0003912001588409896,0.008533705194850307,-1.6166060264956221
3956289865,44019,vehicle,2.446631669998169,206.55868530273438,-0.005608669985104212,-13.080867518596554,-1.5712250957303993
1912328786,44019,vehicle,335.1353759765625,19.40218734741211,-5.408644650573671e-12,2.2159427410199978e-08,1.5710404055088023
4030311199,44019,vehicle,338.8031311035156,184.19163513183594,-0.01633266943476164,-5.859733707977816,-1.5735835911917735
3147513812,44019,vehicle,382.0475769042969,326.14154052734375,2.20719814361819e-07,-2.6152939491465003e-08,3.023653233135089
1663586846,44019,vehicle,334.67388916015625,329.1258239746094,5.067876708879303,-2.3944841296482644,-0.44139245222778745
