id,timestamp_ms,agent_type,x,y,vx,vy,psi_rad
-1,15946,vehicle,392.1904602050781,49.45640182495117,0.003932966184426493,9.690312541105252,1.5703904610447685
2985032057,15946,vehicle,92.10367584228516,28.704078674316406,8.512029678905956e-12,-1.0565992846342263e-07,-1.5707157661719218
3028941286,15946,vehicle,396.9287414550781,283.9701843261719,-0.0017096798512880448,-8.812269998641153,-1.570990338080309
2920337868,15946,vehicle,392.0099792480469,106.78551483154297,0.0021906557249813234,19.469283934372477,1.5706838082388408
1503980471,15946,vehicle,92.19307708740234,41.196990966796875,-3.8281262580048776e-09,1.893230200602202e-06,-1.5687743217372538
2125414330,15946,vehicle,395.9239807128906,13.6142578125,-0.0019387771990012832,-5.974546117922524,-1.5711208329737227
2396446624,15946,vehicle,222.90708923339844,327.0285339355469,-5.672453878092299,0.0001586199138033664,3.141564690398347
4076155829,15946,vehicle,112.6908187866211,-1.9400954246520996,2.8978594932648873e-06,4.676784828675433e-10,-3.1414312660277344
130361148,15946,vehicle,92.40259552001953,266.66107177734375,-0.0020724105079039613,-6.898731397245814,-1.5710967313658575
3417340120,15946,vehicle,191.03790283203125,330.4862060546875,5.924734359563456,0.0016611552140014434,0.00028037631219563245
2197730220,15946,vehicle,189.4817657470703,-1.9434527158737183,-3.287856576133107,-0.00013309259396339335,-3.141552173541224
118743835,15946,vehicle,306.79681396484375,59.33424758911133,0.0,-0.0,-0.001505751020256476
904053063,15946,vehicle,178.70040893554688,55.8249397277832,9.155141587492278e-07,-1.4280324570461691e-09,3.140032840139334
1291681130,15946,vehicle,181.19607543945312,195.599853515625,-5.786584179405064,0.0015133215271119597,3.1413311311707472
715062232,15946,vehicle,314.1911315917969,59.315956115722656,2.155139190128154,0.005176417014348831,0.0024018899028316032
220877689,15946,vehicle,120.96952819824219,129.75625610351562,-1.991308207358618,-0.00014000380798607638,-3.141522346137015
2069714320,15946,vehicle,-2.3937087059020996,289.16229248046875,0.0037249302523842806,9.337032528774852,1.5703973852636026
3190467641,15946,vehicle,118.23239135742188,-2.2779784202575684,-0.004176010890316595,-0.0002675297902484206,-3.077616599987256
708315452,15946,vehicle,88.74139404296875,99.7518310546875,3.547405573968583e-05,0.011902638002623233,1.5678159832189889
1314594676,15946,vehicle,88.64353942871094,172.70571899414062,1.5900254376126239e-07,0.0016470190526535827,1.5706997872053812
2302084468,15946,vehicle,312.6484375,330.4989318847656,-0.01031885944351915,0.0011073895320245278,-0.10690788317267454
757051778,15946,vehicle,305.1543884277344,199.05624389648438,2.748075897055731e-06,-3.0386710048656477e-09,-0.0011057444846008996
4203008516,15946,vehicle,153.76571655273438,32.315853118896484,0.00044190395414026344,2.834024156450092,1.5706403987130724
2631691725,15946,vehicle,312.88238525390625,199.05531311035156,2.428340063183284,-0.005332746883312995,-0.0021960426348793397
1513387753,15946,vehicle,299.79962158203125,59.32716751098633,-2.6616806226601587e-05,3.9397817414742706e-08,-0.0014801846737917154
156273220,15946,vehicle,92.52125549316406,83.84500122070312,-0.0028184134321410717,-5.728260777438169,-1.5712883458062887
3812119762,15946,vehicle,106.24935150146484,55.83856964111328,-4.725061250403017,0.001253326516718086,3.141327402745221
3616050434,15946,vehicle,335.4162902832031,308.6305236816406,0.00039045337525218504,2.5256287749791597,1.5706417302936175
2942158310,15946,vehicle,88.60765075683594,25.917118072509766,3.3858232173475825e-10,1.7262118158129245e-06,1.5706001849806122
3608800298,15946,vehicle,145.68064880371094,133.23402404785156,9.627774778924058e-08,-4.666537414344052e-11,-0.0004846952858851307
1146464971,15946,vehicle,60.159950256347656,2.548434019088745,0.8943046282211958,-0.0006597246123101752,-0.0007376954919147864
3013099654,15946,vehicle,-2.400716543197632,105.40328216552734,0.0007503617337549951,5.821405839244073,1.5706674297981367
2246582517,15946,vehicle,88.6150894165039,105.10009765625,5.857511804622907e-12,4.295816995492094e-08,1.5706599729470845
3192940987,15946,vehicle,338.8910217285156,292.72900390625,-0.0004586444992043015,-6.2060570547382525,-1.5708702295151462
828836647,15946,vehicle,88.64752960205078,300.9998474121094,1.729839804764869e-09,-1.5676204844578503e-06,1.571899807592571
1702089089,15946,vehicle,395.9700012207031,179.93521118164062,-0.00633581155980922,-5.720947095106586,-1.571903802334206
2111029583,15946,vehicle,54.973968505859375,330.44464111328125,0.00446518097108372,-1.912152709441823e-06,-0.00042823630328474153
420096522,15946,vehicle,134.2631378173828,129.736572265625,0.5280836365596645,0.0013688247319123656,-3.139000598900819
510102133,15946,vehicle,158.57789611816406,23.665695190429688,0.25725169738440706,-5.627440085496493,-1.5251143256684403
4109025732,15946,vehicle,217.3842010498047,1.8934533596038818,5.952265975595449,-0.00808127460020355,-0.0013576795237223956
2913592560,15946,vehicle,252.9650115966797,1.934246301651001,10.41334514441459,-0.0020022804314414056,-0.000192280230703721
3970347779,15946,vehicle,128.58680725097656,59.29693603515625,-0.010005606428336427,0.000949872900833499,-0.09465040129471902
1933996401,15946,vehicle,389.1867370605469,-1.4755398035049438,-4.611146284011718,-2.7769176099195847,-2.5995434979594254
3047764241,15946,vehicle,41.37844467163086,2.047757148742676,5.700241561276614,-0.00022467372126944892,-3.941477194218873e-05
1260711767,15946,vehicle,306.1383361816406,133.41566467285156,3.8850912203563405e-08,-4.200730634805107e-11,-0.0010812433375535894
3957993155,15946,vehicle,335.0718994140625,33.63330078125,2.501586050747933e-10,-3.574993150020261e-07,1.571496072371315
4289594148,15946,vehicle,-2.408679246902466,153.01197814941406,0.0033619421951957195,5.301922209092347,1.5701622281393488
4139896837,15946,vehicle,192.23922729492188,129.48785400390625,-5.926583766301493,-8.680896006492427e-05,-3.141578006203798
1686932955,15946,vehicle,175.89035034179688,-1.962571620941162,9.52487924628386e-07,-4.908377123089963e-10,3.1410773319188627
1726501337,15946,vehicle,378.8953552246094,-2.391425609588623,0.0013743414952605483,3.89654522981926e-06,-3.138757452293295
1682591593,15946,vehicle,262.1387939453125,330.45721435546875,6.8991002002824136,-0.0011942718884333076,-0.00017310545460050517
3380823586,15946,vehicle,386.74554443359375,325.3450622558594,-5.530583799855199,2.8059079018321134,2.6720872071048567
4176583038,15946,vehicle,228.2462615966797,1.9947717189788818,5.557440526172941,-0.001604359000248173,-0.0002886866621645894
3855978784,15946,vehicle,305.56915283203125,330.5410461425781,-1.4907225329192282e-08,-3.216020016833403e-12,0.00021573565139868049
1042098875,15946,vehicle,157.8470458984375,32.194488525390625,0.0029287726895953214,-0.2011556810573981,-1.5562376240637603
644930681,15946,vehicle,88.63038635253906,165.76617431640625,4.5604824361085364e-10,-1.7697687798141736e-07,1.5733732014656572
2234188147,15946,vehicle,358.0129699707031,-1.9551516771316528,-7.450362489826588e-05,-5.47427510881598e-08,-3.14085788744504
4109707537,15946,vehicle,2.615039825439453,222.3411865234375,-0.002505922182765707,-12.071299292811018,-1.5710039202018682
3675841917,15946,vehicle,187.09605407714844,55.8370361328125,-0.9506712737653827,-0.002644209073587354,-3.1388112481473143
2817926641,15946,vehicle,122.52629852294922,55.75190353393555,-0.7625178524851921,0.00034176815828729603,3.141144443578333
4029506115,15946,vehicle,-2.2929375171661377,95.40705871582031,-0.001360822090392321,6.300616594223633,1.571012309159302
3277167701,15946,vehicle,88.64314270019531,33.22987747192383,1.5769603415928145e-07,0.0016471169580652995,1.5707005861537082
518241310,15946,vehicle,14.026839256286621,-2.0758209228515625,-4.818504059091066,-0.0192423648457628,-3.1375992435352194
778540568,15946,vehicle,250.9618682861328,59.32460403442383,5.743629417905738,-0.0006577369092430191,-0.00011451590249143926
657465635,15946,vehicle,1.7189500331878662,132.98904418945312,-0.0022276093816923676,-10.053522816868389,-1.5710179017975912
835227171,15946,vehicle,134.6495819091797,59.32780456542969,0.0,0.0,0.00020740051309560257
715280319,15946,vehicle,118.0025863647461,195.2687225341797,4.412067760372673e-07,-5.161798083938673e-10,3.1404227269229215
3020211281,15946,vehicle,153.76988220214844,42.22886657714844,0.005602338878317903,5.994135622739141,1.5698616904103333
2101598167,15946,vehicle,200.009521484375,-1.9618148803710938,-5.926583766301493,-8.680896006492427e-05,-3.141578006203798
14974470,15946,vehicle,280.9826965332031,59.33386993408203,5.672448021019484,-0.0012478087199564076,-0.00021997710604054508
1398818972,15946,vehicle,126.76971435546875,133.67800903320312,5.620249136068827,-0.0012333325428583923,-0.0002194444575678839
2694688339,15946,vehicle,2.310598850250244,261.0212707519531,-0.005964199367035267,-14.429888446385863,-1.571209649396077
3916750283,15946,vehicle,116.79842376708984,326.9374694824219,1.4545993651904547e-06,-6.941185634920638e-09,3.136820801548589
1983197581,15946,vehicle,92.1214599609375,21.30105209350586,-0.008540754180560925,-2.414534960755575,-1.5743335373547398
2942851653,15946,vehicle,257.7478942871094,198.76611328125,5.763076636645738,-0.0012953713448582334,-0.0002247707960026877
3949181016,15946,vehicle,88.6303482055664,112.13860321044922,-7.498735914146021e-09,2.8876229812839737e-06,1.5733931751738328
3672416715,15946,vehicle,338.92889404296875,311.8038024902344,-0.15108276030401563,-6.086738261889099,-1.5956128602547455
3325384226,15946,vehicle,205.42794799804688,55.84116744995117,-8.695882086824767,-0.0053797283244454855,-3.140974001268568
1359910869,15946,vehicle,154.24110412597656,26.07516098022461,-0.001551653473017032,2.1768573952977297,1.5715091218606563
2262630317,15946,vehicle,60.97231674194336,330.7882080078125,0.004185362482865685,0.00028475028492235205,0.0679301154520054
805172996,15946,vehicle,124.00715637207031,195.29725646972656,-0.5670398013598478,0.06548362647502229,3.0266186630088923
1986857511,15946,vehicle,-2.3462448120117188,164.38522338867188,0.0010707251260867773,11.106366105919344,1.5706999203634358
1279946346,15946,vehicle,125.39205169677734,2.0790295600891113,-0.0023916495729008535,-3.21844721359104e-06,0.0013457010204521935
74618890,15946,vehicle,296.0657653808594,198.75466918945312,4.485689500086506,-0.0011205454920083346,-0.00024980451024943256
3085549129,15946,vehicle,392.52288818359375,191.57232666015625,0.011520701747272067,19.587727019711807,1.5702081676681525
2057201815,15946,vehicle,181.6873016357422,198.9749755859375,6.0358842592970765,-0.0012088048303502432,-0.00020026971397395872
1015694095,15946,vehicle,66.94755554199219,330.46124267578125,7.094534363042121e-07,-3.0570317075043526e-10,-0.00043089952939340205
1250507297,15946,vehicle,211.14747619628906,-1.9452587366104126,-6.562279826271852,0.0032977985229834077,3.141090115092095
4280502996,15946,vehicle,48.15370178222656,331.2244567871094,-1.533658108293152e-05,4.6316844754715075e-09,-0.0003020024025964043
3428459672,15946,vehicle,66.85588836669922,2.0130629539489746,-8.566035389945454e-08,6.92594698898477e-11,-0.0008085357069480567
414519966,15946,vehicle,247.16262817382812,327.0451354980469,-5.648442744766265,7.070075080933286e-05,3.14158013673267
2866945113,15946,vehicle,294.2904968261719,330.4563903808594,-3.3193672060489595e-05,1.4745135881609442e-08,-0.00044421523731592627
1853482628,15946,vehicle,6.2122111320495605,4.099822998046875,4.2263867366442485,-3.490000402751724,-0.6902548026625772
3880166169,15946,vehicle,335.51031494140625,301.6842041015625,0.0023700459691325575,1.2889219190181582,1.5689575472202515
1073352953,15946,vehicle,372.0358581542969,-2.3772799968719482,1.3003293286161144e-07,-2.705981535541635e-10,3.1395116595140053
213556023,15946,vehicle,183.6220245361328,327.0285339355469,-5.763076779134634,0.0001887804226664021,3.1415598967083853
1628590046,15946,vehicle,1.6685932874679565,81.86415100097656,-0.002100954337563679,-5.766775702189596,-1.5711606472320194
4120465129,15946,vehicle,314.2067565917969,133.22592163085938,2.1721334017954987,0.004793487218982573,0.002206807111199494
1015227284,15946,vehicle,205.4852294921875,129.751220703125,-6.772164000690774,-0.002158833103500975,-3.141273873207311
2900396540,15946,vehicle,181.6448211669922,-1.9666532278060913,-0.001325234655753103,-4.93682637924045e-06,-3.1378674238569904
3587539486,15946,vehicle,396.6418762207031,262.5992736816406,-0.002157289003568408,-7.8303357967316956,-1.5710718308096654
1146849989,15946,vehicle,292.9612731933594,133.234130859375,0.6080127788307504,-0.02792260086154315,-0.045892120375274244
1457681385,15946,vehicle,395.8581237792969,168.53404235839844,-0.0031944293367611246,-11.10636855916157,-1.571083948192625
1726747598,15946,vehicle,113.70645904541016,129.7881317138672,-4.624435977328312,0.22742594083209608,3.092453070420087
367118466,15946,vehicle,392.48248291015625,312.7586975097656,0.003197523858314562,6.956255654728434,1.5703366651907489
2065705843,15946,vehicle,236.9656982421875,133.21731567382812,5.9065956776412065,-0.000588310024244462,-9.960221664164085e-05
3978545900,15946,vehicle,334.8556213378906,292.92022705078125,-0.023474480690547316,4.00500570631527,1.5766575448799975
714679325,15946,vehicle,356.88494873046875,1.9287970066070557,5.621340900857274,-0.0019192226533362576,-0.0003414172192388677
3262285446,15946,vehicle,129.81153869628906,55.74955368041992,0.05403781270225923,6.533577600090146e-06,-3.1414717460763035
1401880247,15946,vehicle,138.70928955078125,195.26947021484375,-5.92658233579002,-8.680893911167054e-05,-3.141578006203798
2250339631,15946,vehicle,159.26715087890625,129.731201171875,-5.672446725534929,0.0001586197137950353,3.141564690398347
2525145270,15946,vehicle,92.54458618164062,154.751953125,0.0020363544411678737,-1.5476928665864627,-1.569480592058343
1825059061,15946,vehicle,313.625732421875,2.0121800899505615,-5.789509719286355e-06,3.6202400909846647e-09,-0.0006253102239506051
346279610,15946,vehicle,110.38187408447266,194.99234008789062,-2.4723250590809616,0.0051060542817317565,3.139527372164437
893025708,15946,vehicle,395.9293212890625,251.5060272216797,-0.0018697032770742083,-5.821406541025016,-1.5711175040223602
1724402154,15946,vehicle,88.61666870117188,292.5843811035156,0.0019031516986257133,3.7661199529429554,1.570290991978054
2595182244,15946,vehicle,221.8981170654297,198.76612854003906,5.7630814050172,-0.0012953724166489004,-0.0002247707960026877
874453657,15946,vehicle,392.55902099609375,247.07473754882812,-0.014610653209215306,15.318177884697642,1.5717501379393084
1498616609,15946,vehicle,92.17973327636719,47.55995559692383,-6.468663387978488e-07,0.00010618889947548497,-1.5647047452755038
505512523,15946,vehicle,221.93800354003906,133.2198028564453,6.8127136224065925,9.340301597832213e-05,1.371010454120267e-05
3709073522,15946,vehicle,211.63478088378906,195.56727600097656,-7.972560780388138,0.009233893849064036,3.1404344448317176
27029540,15946,vehicle,1.4708995819091797,111.72021484375,-0.0022881848575412706,-8.1363522173096,-1.571077556606009
1375770528,15946,vehicle,338.8982849121094,253.58456420898438,0.0030920007813929045,-6.811537040829798,-1.5703423909870926
4266869573,15946,vehicle,3.997633218765259,-0.0031432914547622204,-5.3158958368014675,2.4363050326348517,2.711853262185811
368528135,15946,vehicle,2.593418598175049,283.15435791015625,0.07093514405435726,-11.75539358624851,-1.564762136396995
4012051816,15946,vehicle,338.9733581542969,228.75657653808594,-2.1338678051479738e-09,-7.503058224717076e-07,-1.5736403165229922
3938307140,15946,vehicle,92.07999420166016,228.43421936035156,-0.001153819336725932,-5.906636602240114,-1.570991669660854
1966079641,15946,vehicle,27.756935119628906,331.24053955078125,6.1531991928235215,-0.00019336614846995973,-3.142530289476568e-05
1759883367,15946,vehicle,-2.4135518074035645,266.44158935546875,0.0012167335617193477,8.001325514787599,1.570644260296653
3487645883,15946,vehicle,142.36996459960938,129.7750701904297,-3.382309513709093,-0.0016447942973644694,-3.141106360374745
544848518,15946,vehicle,92.24698638916016,35.24443435668945,-1.6621048924566836e-10,-1.521847197668235e-07,-1.571888489157938
1325658571,15946,vehicle,128.57786560058594,129.74827575683594,-0.0,0.0,3.1404323143028456
921579549,15946,vehicle,115.93495178222656,55.81536102294922,-3.4307145975327966,-0.0025710244208403403,-3.140843240059045
4072577581,15946,vehicle,92.40497589111328,284.89898681640625,-0.0020778215330834997,-6.895348712664397,-1.5710976634722391
94066344,15946,vehicle,298.6883544921875,133.25888061523438,-4.032037676942621e-06,1.2612854784892547e-08,-0.003128148756332748
2853390219,15946,vehicle,299.9942626953125,330.5154724121094,-1.557088508370003e-05,-4.747320862239497e-09,0.00030488444874043257
2524564450,15946,vehicle,1.613564372062683,65.25077819824219,-0.0015915199617946398,-5.884840750062476,-1.5710667708035941
1882516347,15946,vehicle,-2.15140700340271,80.79681396484375,0.00608579856009424,7.156836783206087,1.5699459794588342
815178544,15946,vehicle,218.07388305664062,330.4166259765625,5.786583304616255,-0.00262596701689221,-0.0004538026497495022
2188308515,15946,vehicle,127.24445343017578,199.21759033203125,5.7898117388850165,-0.0020106633711426064,-0.00034727610861846073
1160083145,15946,vehicle,365.811279296875,326.5645751953125,-5.6163932938467624,0.003710921577542657,3.1409319233233446
1832698586,15946,vehicle,144.43490600585938,326.96728515625,-7.972558396203946,0.00923389108767979,3.1404344448317176
3748346955,15946,vehicle,131.401123046875,1.9196598529815674,-0.9612058822408224,0.00018328496772529316,-0.00019068231779502813
3198444053,15946,vehicle,121.8663330078125,326.86688232421875,0.5187172509774327,0.032310596495342826,-3.079383607370523
808811405,15946,vehicle,338.9330749511719,221.64077758789062,-4.702843740143087e-07,-0.001647283372393524,-1.571081817663753
84250811,15946,vehicle,286.0696716308594,133.59555053710938,4.984242773005431,-0.006281184435286411,-0.001260207697788333
3956289865,15946,vehicle,88.61934661865234,307.6112060546875,0.0014892239432322207,2.520595110603748,1.5702055045070624
1912328786,15946,vehicle,365.2416687011719,-1.9526519775390625,2.6287074770432033e-09,2.6434544381606594e-12,-3.1405870439621792
4030311199,15946,vehicle,338.9559631347656,235.7323760986328,-8.25903455709164e-08,0.00011925453923583306,-1.5701037717534214
3147513812,15946,vehicle,392.4787902832031,285.9087219238281,0.0002447801827259715,11.417813298462573,1.5707748883481214
1663586846,15946,vehicle,276.0466003417969,330.41265869140625,5.716457397344106,-0.002259218813780473,-0.0003952130732584683
