id,timestamp_ms,agent_type,x,y,vx,vy,psi_rad
-1,37855,vehicle,392.2198791503906,306.496337890625,-8.85554934886229e-12,4.135823677537645e-08,1.571010444946539
2985032057,37855,vehicle,-1.9100342988967896,6.24440860748291,-2.1174964231954885,5.024047171429307,1.9696751406450952
3028941286,37855,vehicle,396.88104248046875,148.9584197998047,-0.0017527363846817307,-5.942585209811738,-1.571091271885623
2920337868,37855,vehicle,392.0353088378906,314.20721435546875,-9.855096974034754e-12,-2.505433888598076e-08,1.570402977901892
1503980471,37855,vehicle,115.45913696289062,2.033006191253662,-0.0018583380038648932,1.8717326530628805e-06,-0.001007207524267968
2125414330,37855,vehicle,364.3860168457031,-1.6002496480941772,-5.591341040386344,-0.0032282915226737436,-3.141015280265464
2396446624,37855,vehicle,141.33572387695312,327.0087585449219,7.998589479841989e-08,-9.572913176549323e-11,3.1403958289959117
4076155829,37855,vehicle,75.94575500488281,-1.9616804122924805,-5.702283776850073,-0.002525448641532558,-3.141149769900513
130361148,37855,vehicle,92.38613891601562,226.82598876953125,-4.7666917407879166e-11,-8.006540499424176e-08,-1.5713916764565838
3417340120,37855,vehicle,276.62066650390625,330.5006103515625,3.912776454519396,-0.0003501238955983913,-8.94822126266624e-05
2197730220,37855,vehicle,163.3732452392578,-1.5422484874725342,-5.525092101365959,0.5826818235428494,3.036520029625698
118743835,37855,vehicle,334.71221923828125,108.75579071044922,-6.326591426422576e-10,-3.017390117731993e-07,1.5686996200686771
904053063,37855,vehicle,178.70040893554688,55.8249397277832,3.892680549737073e-08,-6.071860404137691e-11,3.140032840139334
1291681130,37855,vehicle,113.09465789794922,195.61886596679688,-1.1219646012612634e-07,-4.3741150604860665e-10,-3.1376940520700263
715062232,37855,vehicle,338.9866638183594,22.499813079833984,6.044768621450293e-10,-2.5543189493143575e-07,-1.5684298418502522
220877689,37855,vehicle,92.90682220458984,91.65221405029297,1.0372184178330613e-07,0.00019190384880897135,-1.5713368153381282
2069714320,37855,vehicle,52.53947067260742,331.1749572753906,4.613066155089991,0.0006176697184591075,0.00013389569843614172
3190467641,37855,vehicle,87.04768371582031,-2.244147539138794,-4.3713357775655215,0.13720252896832955,3.1102160885748065
708315452,37855,vehicle,88.6568832397461,128.7989501953125,-0.13540793177700938,6.570757065500687,1.591401070990785
1314594676,37855,vehicle,90.04513549804688,195.53497314453125,1.6764452323167052,3.2578538544077493,1.0955483060514224
2302084468,37855,vehicle,377.9388122558594,330.74853515625,5.72297172914073,0.04471850959245878,0.007813702674873526
757051778,37855,vehicle,334.70318603515625,295.83563232421875,-0.0053752097550973975,4.532066972308095,1.5719823655863634
4203008516,37855,vehicle,112.88423919677734,55.693016052246094,-1.738449982641323e-08,-4.1311536448271326e-11,-3.1392163149491155
2631691725,37855,vehicle,334.7257995605469,304.81805419921875,4.542419580957085e-07,-0.012096805489475436,1.5708338773662667
1513387753,37855,vehicle,339.01324462890625,29.555875778198242,-1.7788284866859704e-10,5.673942920498915e-08,-1.5676612535596552
156273220,37855,vehicle,92.51573181152344,80.52529907226562,1.1380042689585897e-10,7.352253991393613e-08,-1.5723441560204507
3812119762,37855,vehicle,109.17518615722656,2.095409870147705,0.0009180318029050944,-4.4311110724096905e-06,-0.004826713679808262
3616050434,37855,vehicle,222.7451171875,326.40899658203125,-6.116877070071055,-0.0003306916491408312,-3.1415385914196645
2942158310,37855,vehicle,90.02462005615234,55.72174835205078,1.9431703629136554,3.687012487296811,1.0857583927262366
3608800298,37855,vehicle,270.6538391113281,133.20399475097656,6.936256305405766,-0.0011970093392750737,-0.0001725728223824893
1146464971,37855,vehicle,60.19769287109375,2.5480518341064453,3.4947216128209355e-07,-2.9707970014610654e-10,-0.0008500809549347115
3013099654,37855,vehicle,-2.3576016426086426,191.27352905273438,0.0008346166759707516,2.5656424595385943,1.5704710216677433
2246582517,37855,vehicle,96.68499755859375,133.31785583496094,6.280560209699001,1.5151693892842162,0.2367241948184266
3192940987,37855,vehicle,338.8697509765625,232.4202423095703,-0.001599935894589111,-3.286464301717028,-1.5712831526421631
828836647,37855,vehicle,266.9921875,330.7977600097656,4.741670604428414,-0.0001969942088105873,-4.1545317068897446e-05
1702089089,37855,vehicle,395.8824462890625,8.859057426452637,-0.4569977417647757,-5.935462959829719,-1.647639176888043
2111029583,37855,vehicle,82.49432373046875,330.24383544921875,4.513780031114143,-0.2710459644356965,-0.05997653492221332
420096522,37855,vehicle,88.09080505371094,177.98887634277344,-0.001631653956257157,3.8999084397238124,1.571214709402148
510102133,37855,vehicle,269.62335205078125,1.8556121587753296,5.140886703221506,-0.0009090830360610207,-0.00017683389638126142
4109025732,37855,vehicle,297.7417907714844,1.658437728881836,0.007230453987015086,-0.002260416023698732,-0.302998156967539
2913592560,37855,vehicle,308.86029052734375,1.6724951267242432,0.0016461336915442933,-3.1564218600844706e-07,-0.00019174759848570515
3970347779,37855,vehicle,157.6469268798828,36.13189697265625,-0.03602058052220891,-1.7146690534887594,-1.5918005451542971
1933996401,37855,vehicle,353.9053039550781,-2.272655487060547,-6.314100259913204,-0.00026568436502838976,-3.14155057564457
3047764241,37855,vehicle,53.26544952392578,2.0460774898529053,-2.3046784351501603e-09,-1.0407207359542786e-12,0.0004515687088238799
1260711767,37855,vehicle,331.38800048828125,56.15505599975586,-5.5656514000911415,-1.7585870028215225,-2.8355483063883944
3957993155,37855,vehicle,335.0718994140625,33.63330078125,2.671914130372933e-10,-3.818407410238662e-07,1.571496072371315
4289594148,37855,vehicle,-2.4004838466644287,198.552734375,0.00039480464641587,3.0981530891634237,1.5706688945367362
4139896837,37855,vehicle,112.17839813232422,129.49009704589844,1.3196932414498341e-08,-1.8131604221121658e-11,3.140218728783421
1686932955,37855,vehicle,136.9168701171875,-1.9636154174804688,-6.116826532882979,-0.00013032075535585145,-3.1415713483010728
1726501337,37855,vehicle,342.4662780761719,-1.4688003063201904,-5.955121283754622,0.8146712036067923,3.005634817831831
1682591593,37855,vehicle,294.58062744140625,330.4570617675781,3.0370966488415427,-0.000739268589251761,-0.00024341292363324238
3380823586,37855,vehicle,368.77252197265625,326.3265380859375,-4.412140492535686e-08,1.4228416008774421e-10,3.1383678318258164
4176583038,37855,vehicle,302.4993591308594,1.9665971994400024,2.517693483288421e-09,-1.3235713981897625e-12,-0.000525707869144479
3855978784,37855,vehicle,338.5728759765625,320.4045104980469,0.5175351972623511,-5.635424377405606,-1.4792171411259059
1042098875,37855,vehicle,98.28733825683594,-1.9558374881744385,-5.522325964156846,-0.0005603307443974235,-3.141491187152261
644930681,37855,vehicle,88.61136627197266,186.36866760253906,-0.030003030000551458,3.9648523017178285,1.5783634327162477
2234188147,37855,vehicle,335.1518249511719,26.41777992248535,2.6846172903090737e-05,-0.015024302756674737,1.5725831747282852
4109707537,37855,vehicle,2.606903314590454,192.5564422607422,-0.0009971788766962655,-3.2630439665134214,-1.571101924529983
3675841917,37855,vehicle,183.96047973632812,55.834144592285156,-0.017443110035599483,-0.00013976392947639691,-3.133580267134181
2817926641,37855,vehicle,92.51607513427734,28.03413200378418,0.00013345628402123451,-0.0037860860819326396,-1.5355617734667668
4029506115,37855,vehicle,-2.5309619903564453,185.83175659179688,0.005069064475746184,2.8538861555995223,1.5690201315058683
3277167701,37855,vehicle,98.30315399169922,59.237064361572266,3.6185922376331856,0.17899090448211966,0.04942395467866689
518241310,37855,vehicle,-2.7338244915008545,162.02621459960938,-0.0220113853274745,1.9032057866280994,1.5823612369866202
778540568,37855,vehicle,338.9315185546875,42.95614242553711,1.1069230101121957e-08,-3.6329726436409786e-07,-1.5403369544593333
657465635,37855,vehicle,5.2213006019592285,4.858761310577393,4.07508544140796,-3.642882887685901,-0.7294570665407616
835227171,37855,vehicle,157.79026794433594,25.052968978881836,-0.0015105840753116856,-5.371351029654791,-1.571077556606009
715280319,37855,vehicle,92.39908599853516,161.5304412841797,9.656094956764986e-10,1.6647390494544664e-06,-1.571376363280316
3020211281,37855,vehicle,268.0453186035156,59.60005187988281,5.752165251725261,-0.0008701158574805309,-0.00015126753366185542
2101598167,37855,vehicle,172.5653533935547,-1.9625920057296753,-4.969254013372784,-0.00018659832757369867,-3.141555103018423
14974470,37855,vehicle,338.9898681640625,36.57738494873047,-8.344411573862334e-10,1.763075665482913e-07,-1.5660634900636623
1398818972,37855,vehicle,237.30859375,133.649658203125,5.5724008631154796,-0.001430595332384812,-0.0002567287128289932
2694688339,37855,vehicle,2.2921600341796875,201.44009399414062,-0.0005134536442092367,-3.1710290493120907,-1.5709582469891734
3916750283,37855,vehicle,116.79842376708984,326.9374694824219,1.410978790628286e-06,-6.733033127238038e-09,3.136820801548589
1983197581,37855,vehicle,-2.1110081672668457,19.827173233032227,-0.012690644033773332,5.92177032578233,1.5729393725240834
2942851653,37855,vehicle,339.00457763671875,146.5795135498047,-0.0019163461883797421,-5.890918896827988,-1.5711216319220498
3949181016,37855,vehicle,88.34368133544922,149.2758331298828,-0.004592589620449834,5.691378647826251,1.5716032646051905
3672416715,37855,vehicle,338.8616027832031,240.74114990234375,-0.0003305334684561103,-2.930654268698669,-1.5709091116670615
3325384226,37855,vehicle,190.0695037841797,55.841552734375,-0.010689665684468302,4.162065921317572e-06,3.141203299438424
1359910869,37855,vehicle,257.7030944824219,59.6060676574707,5.274440701588759,-0.0008203263393868104,-0.00015552859140598218
2262630317,37855,vehicle,93.03367614746094,330.88299560546875,4.361767700750942,-0.10496232506810563,-0.024059527839399252
805172996,37855,vehicle,92.11839294433594,167.51885986328125,-3.688995855707258e-05,-0.01176132343742766,-1.5739328647687374
1986857511,37855,vehicle,-2.4810948371887207,206.98348999023438,0.0003608350491832747,2.7371971369370187,1.5706645003209376
1279946346,37855,vehicle,129.3466339111328,2.764021873474121,0.028690152794833522,-0.0014736934700094212,-0.051320724586048576
74618890,37855,vehicle,334.7024841308594,284.5633850097656,-4.989372176492861e-05,5.764545917295064,1.5708049820684393
3085549129,37855,vehicle,391.97674560546875,320.9991455078125,-7.192026170119861e-10,2.662673923458692e-09,1.8346064012170558
2057201815,37855,vehicle,306.1198425292969,198.9741973876953,2.4710765104591483,-0.0034167917378990593,-0.0013827129778948152
1015694095,37855,vehicle,105.59929656982422,330.6480712890625,5.673771528269479,0.00795388822369369,0.001401868752317646
1250507297,37855,vehicle,181.820556640625,-1.9434205293655396,-3.492408696679837,-0.0006240868370991516,-3.141413955480649
4280502996,37855,vehicle,72.47023010253906,331.22454833984375,4.189592280092229,-0.0008256593873182328,-0.00019707392066586362
3428459672,37855,vehicle,66.85588836669922,2.0130608081817627,-3.1380123434460915e-07,2.537195581400218e-10,-0.0008085357069480567
414519966,37855,vehicle,148.38682556152344,327.0597229003906,6.8625905246841494e-06,2.2936611852491116e-09,-3.141258426872988
2866945113,37855,vehicle,312.64544677734375,330.4564514160156,5.067811426546301,-0.0007962874181568189,-0.00015712648806002973
1853482628,37855,vehicle,46.39568328857422,2.5198092460632324,-3.0740474389538197e-06,7.51375230623351e-09,-0.0024442489884003997
3880166169,37855,vehicle,239.1668701171875,326.41986083984375,-5.559390068052425,-4.441665394982173e-06,-3.141591854641466
1073352953,37855,vehicle,335.42315673828125,6.532043933868408,-1.071357353200597,5.811434703400047,1.753102752900162
213556023,37855,vehicle,134.5973358154297,327.0172119140625,-0.0,0.0,3.139771850352506
1628590046,37855,vehicle,33.7442626953125,2.3478176593780518,-1.4548828916788825e-05,-2.838045111564069e-08,0.0019507010000503915
4120465129,37855,vehicle,317.8384094238281,55.681053161621094,-6.009835116807333,-0.005992333530728908,-3.1405955660776677
1015227284,37855,vehicle,117.5122299194336,129.75152587890625,0.00019833394529168865,-1.8698111761750592e-08,3.1414983776872045
2900396540,37855,vehicle,147.70960998535156,-1.9348269701004028,-5.936927158505193,-0.026532604670139227,-3.137123602964531
3587539486,37855,vehicle,396.6040954589844,137.86866760253906,-0.0010214590896124706,-4.073832860680415,-1.5710470634115274
1146849989,37855,vehicle,334.0290832519531,168.27490234375,0.0012813013448509704,0.013017213875197603,1.4726810780205788
1457681385,37855,vehicle,389.6878356933594,-2.456028461456299,-4.5510527614263205,-3.863538760692496,-2.4377183785335235
1726747598,37855,vehicle,92.08650970458984,85.53754425048828,0.00103249372865837,0.010142366445479046,-1.6722469185184297
367118466,37855,vehicle,375.0947570800781,326.35400390625,-7.006495122499383e-08,5.134232735048563e-10,3.13426496585044
2065705843,37855,vehicle,311.215087890625,133.19998168945312,5.6199202887776616e-09,2.7732496756513417e-12,0.0004934677554206829
3978545900,37855,vehicle,396.90533447265625,296.2684631347656,-0.003053237052310977,-9.04870553957204,-1.5711337493050097
714679325,37855,vehicle,392.1251220703125,210.24069213867188,-0.001124032843127864,22.57043644967209,1.5708461279072812
3262285446,37855,vehicle,88.3192367553711,116.25213623046875,0.0016286703662654757,5.167345267167898,1.5704811416798856
1401880247,37855,vehicle,92.49676513671875,174.20469665527344,-4.842122172335145e-11,-5.143381750539675e-08,-1.5717377542402395
2250339631,37855,vehicle,92.39317321777344,111.54768371582031,1.0103231411861736e-11,3.5722211314657366e-08,-1.571079154502663
2525145270,37855,vehicle,92.51300811767578,154.5819549560547,2.0483678326299637e-08,-2.400589473039062e-05,-1.5699430499816351
1825059061,37855,vehicle,313.625732421875,2.0121867656707764,3.217129115856241e-07,-2.011703990114806e-10,-0.0006253102239506051
346279610,37855,vehicle,88.17598724365234,303.30780029296875,0.0014262791921004676,5.6226637938626265,1.5705426607010666
893025708,37855,vehicle,395.87823486328125,125.64935302734375,-0.001869703583372676,-5.821407494699284,-1.5711175040223602
1724402154,37855,vehicle,4.474844455718994,322.62066650390625,-3.6224815809235613,-4.957793280327103,-2.201807180216871
2595182244,37855,vehicle,313.6766662597656,198.77235412597656,-2.5032765917887483e-09,6.190643488607221e-12,-0.002473011128173255
874453657,37855,vehicle,388.6775817871094,324.7012939453125,-2.772278478715683e-08,1.6763005451303797e-08,2.597749858965257
1498616609,37855,vehicle,28.28985023498535,-1.9585323333740234,-6.120686948760684,0.0008508795975253345,3.141453636580891
505512523,37855,vehicle,305.5177917480469,133.2028045654297,-0.4440480465209555,2.1995827734467135e-05,-4.95347922118125e-05
3709073522,37855,vehicle,118.92913818359375,195.56092834472656,-0.01740856495313717,-1.3611831017138608e-05,-3.140810749493746
27029540,37855,vehicle,27.716543197631836,2.5257983207702637,1.3808923920161786,0.00329780945916058,0.002388168121359565
1375770528,37855,vehicle,338.9246826171875,223.88255310058594,0.003854848800877261,-3.15009882621203,-1.5695726042740052
4266869573,37855,vehicle,-1.5113046169281006,170.5821075439453,-0.00042130013176324056,2.229675968421888,1.5709852780742377
368528135,37855,vehicle,2.5372371673583984,207.99122619628906,-0.18595035541851335,-2.2455780759655526,-1.6534151738182612
4012051816,37855,vehicle,338.9554748535156,207.9781036376953,-0.016123863649744868,-3.6021820649547247,-1.5752724347970473
3938307140,37855,vehicle,92.14663696289062,219.810791015625,3.9330668151422753e-10,-7.127541066700901e-08,-1.5652782570162525
1966079641,37855,vehicle,62.17744827270508,331.2375183105469,4.614271087831317,-0.0008380788546292909,-0.0001816275700887587
1759883367,37855,vehicle,42.59257888793945,331.1674499511719,5.031470279571238,-0.0004395073609072481,-8.735167562727635e-05
3487645883,37855,vehicle,92.42707824707031,105.2142333984375,1.2194683419506167e-10,-1.1715553730916357e-07,-1.5697554302828391
544848518,37855,vehicle,122.09138488769531,2.0941667556762695,-0.0028579276344443127,-9.320455071772714e-06,0.003261251935154092
1325658571,37855,vehicle,92.39752960205078,98.92157745361328,-1.1130137144609406e-11,1.0883581978692078e-07,-1.5706940614090374
921579549,37855,vehicle,92.29100036621094,22.44718360900879,-2.3518601793889524e-07,-6.94346909399736e-05,-1.574183468227314
4072577581,37855,vehicle,92.38365936279297,233.42498779296875,1.730285728143054e-11,2.972146291685981e-08,-1.571378493809188
94066344,37855,vehicle,334.482177734375,173.806396484375,0.0,0.0,1.5706803461294236
2853390219,37855,vehicle,322.189453125,330.5105895996094,5.5720060295682545,-0.0014779795211071931,-0.00026525087708118277
2524564450,37855,vehicle,39.81764221191406,2.0300536155700684,5.099438548730674e-07,-6.738709378356888e-10,-0.0013214602728229927
1882516347,37855,vehicle,-2.1395535469055176,177.3363494873047,0.0004493835829219515,3.2606892276087347,1.570658508208485
815178544,37855,vehicle,285.8010559082031,330.3874206542969,3.5024425908265617,-0.00022945817926743183,-6.551375875228792e-05
2188308515,37855,vehicle,253.0568084716797,199.1970672607422,5.839608714317838,-0.0022456825424776623,-0.00038456042889815136
1160083145,37855,vehicle,363.0871276855469,326.55999755859375,0.5436328111449928,-0.0006184926304229763,3.1404549511721114
1832698586,37855,vehicle,127.3373794555664,326.96343994140625,-0.0013252122481110223,-6.071417610811792e-06,-3.13701121756653
3748346955,37855,vehicle,135.46627807617188,1.9184824228286743,-0.9612058772407549,0.00020785949027204984,-0.00021624866425978882
3198444053,37855,vehicle,121.56504821777344,327.20477294921875,-0.029699318130105706,0.010327329711118348,2.8069419615393083
808811405,37855,vehicle,337.03070068359375,198.84844970703125,-1.8533936026317603,-3.160316859464253,-2.1011990795041844
84250811,37855,vehicle,338.9888916015625,61.85031509399414,-0.017390928480273182,-7.512852090645482,-1.5731111464143934
3956289865,37855,vehicle,2.469571113586426,294.74566650390625,-0.0019308265448168074,-7.91931224173209,-1.5710401391926934
1912328786,37855,vehicle,335.1353759765625,18.03816795349121,0.002323568779675906,3.3243860230729516,1.5700973801668052
4030311199,37855,vehicle,338.9538269042969,216.50350952148438,-0.0011622680878978532,-3.8032613408851446,-1.571101924529983
3147513812,37855,vehicle,382.0475769042969,326.14154052734375,2.450270210647224e-07,-2.9033083750128946e-08,3.023653233135089
1663586846,37855,vehicle,303.2553405761719,330.4061584472656,5.039313357793887,-0.003741636995124057,-0.0007424893119140916
