id,timestamp_ms,agent_type,x,y,vx,vy,psi_rad
-1,4757,vehicle,369.0686340332031,2.0155856609344482,5.876384253828242,-0.00022848644150469358,-3.8882147851495544e-05
2985032057,4757,vehicle,92.10425567626953,31.573843002319336,-0.00142252056653643,-4.520925774887928,-1.5711109792776894
3028941286,4757,vehicle,370.40447998046875,330.5352783203125,5.58364628642658,-0.0003509355066983709,-6.285059766220869e-05
2920337868,4757,vehicle,389.78265380859375,4.8490400314331055,3.895832624585563,4.039722125639729,0.8035284314664898
1503980471,4757,vehicle,92.10321044921875,87.74462890625,-0.006625276101788609,-5.683682394980003,-1.5719619924040242
2125414330,4757,vehicle,395.9599609375,153.61618041992188,-0.0009120571669552052,-7.863872475185673,-1.5709123074603695
2396446624,4757,vehicle,288.1644287109375,327.04681396484375,-6.680458951638361,0.0009731752742946091,3.141446978678166
4076155829,4757,vehicle,112.69330596923828,-1.9602938890457153,0.03451329426496655,5.4597191107295585e-06,-3.1414344618210426
130361148,4757,vehicle,113.11541748046875,326.97119140625,-7.24123048634027,0.00014656268091466158,3.1415724135655085
3417340120,4757,vehicle,126.97953033447266,330.4783630371094,6.275140592155197,-0.004482081453883047,-0.0007142598043592517
2197730220,4757,vehicle,242.40261840820312,-1.949552059173584,-2.1068135191910886,0.0007950481005511324,3.141215283663329
118743835,4757,vehicle,283.37042236328125,59.339813232421875,8.113744950499326,0.0034627121453973102,0.0004267711095551288
904053063,4757,vehicle,222.66737365722656,55.83360290527344,-7.640115724682312,-0.0004496655826870351,-3.1415337977297026
1291681130,4757,vehicle,244.84535217285156,195.5839080810547,-6.3932561239938295,-0.0009006897391251032,-3.141451772368128
715062232,4757,vehicle,310.39312744140625,59.31610870361328,7.562940134907485,-0.004628477236128438,-0.0006119943534816277
220877689,4757,vehicle,121.66474151611328,129.7564697265625,-1.2162017788210446,9.101424943651557e-05,3.141517818763162
2069714320,4757,vehicle,-2.4178836345672607,196.12989807128906,0.004642284019214379,4.915813638244026,1.5698519698723545
3190467641,4757,vehicle,119.70320129394531,-1.960015058517456,-2.783157586553861,-5.262517865051926e-05,-3.1415737451460535
708315452,4757,vehicle,88.76405334472656,78.35221862792969,-0.015595061705910393,5.648802687764003,1.5735570927389273
1314594676,4757,vehicle,88.65262603759766,172.67953491210938,-0.0001474777875331886,-0.007086503253473782,1.5499882502497804
2302084468,4757,vehicle,312.65557861328125,330.8030700683594,0.007949490418874779,-2.8707693753666976e-05,-0.003611246438147447
757051778,4757,vehicle,266.5976257324219,199.06008911132812,6.669864996908417,-0.0013393245581641657,-0.00020080234619197456
4203008516,4757,vehicle,153.7657012939453,28.079591751098633,0.0008972435970828057,5.518578933255451,1.5706337408103472
2631691725,4757,vehicle,311.3905334472656,199.05673217773438,5.226451958632821,-0.006244014106717533,-0.0011946940650095462
1513387753,4757,vehicle,247.3953399658203,59.330448150634766,6.568027625365015,-0.0021374872960120937,-0.0003254382201891016
156273220,4757,vehicle,92.09857940673828,148.42210388183594,-0.0009363929518632345,-6.602996759775374,-1.5709381401229434
3812119762,4757,vehicle,110.96257781982422,55.837371826171875,-1.0061111782729395,0.0009447694614571989,3.140653622989431
3616050434,4757,vehicle,335.4156494140625,307.9957580566406,1.8236330021192868e-05,-0.036097127063009146,1.5713015284536846
2942158310,4757,vehicle,88.62006378173828,21.68638801574707,0.00014342866942593767,2.747783180308172,1.570744128837531
3608800298,4757,vehicle,117.06455993652344,133.23681640625,7.241217452145747,-0.0015273344494605209,-0.00021092232582498502
1146464971,4757,vehicle,1.7493585348129272,9.640458106994629,0.08967444044574459,-6.255027300302879,-1.5564609301211636
3013099654,4757,vehicle,-2.409475803375244,50.397274017333984,0.000934197862478679,2.106818707294159,1.5703529104733984
2246582517,4757,vehicle,88.61573028564453,103.03498840332031,-0.0008781735424161648,3.4330927202483936,1.5710521234175987
3192940987,4757,vehicle,371.48138427734375,327.0487060546875,-5.6298706793538145,0.0015458043752486852,3.141318081681406
828836647,4757,vehicle,88.6346664428711,260.9345397949219,-0.000287742500960958,6.393223279199774,1.5708413342173189
1702089089,4757,vehicle,395.9895935058594,238.1781768798828,-0.00408324314325445,-8.38060470290209,-1.5712835521163266
2111029583,4757,vehicle,31.909711837768555,330.45281982421875,5.263278484342722,4.3041395490112454e-06,8.17767777596094e-07
420096522,4757,vehicle,183.16696166992188,129.7511749267578,-4.905295619518765,0.004035344611704617,3.1407700031290675
510102133,4757,vehicle,158.08502197265625,25.231760025024414,-2.4919824297969124e-06,0.0003394361614174096,-1.5634549237759297
4109025732,4757,vehicle,132.13796997070312,1.8757392168045044,5.481180220169061,0.01462869614910671,0.0026688889670175102
2913592560,4757,vehicle,213.43630981445312,1.9976457357406616,1.949230008155601,-0.06715284119094757,-0.03443733813640923
3970347779,4757,vehicle,118.5227279663086,59.58348846435547,5.664298517896057,-0.02670657463631734,-0.0047148603938762836
1933996401,4757,vehicle,395.9596252441406,94.767578125,-0.001774876491855436,-7.799353874433735,-1.5710238939100438
3047764241,4757,vehicle,1.770243525505066,38.560176849365234,0.01148888872271739,-7.386355524970401,-1.5692409075602358
1260711767,4757,vehicle,282.8044128417969,133.4268341064453,5.5835642709891555,-0.0003420083705887621,-6.125269694449982e-05
3957993155,4757,vehicle,319.41534423828125,2.0204262733459473,6.5680462208737005,-0.002140991914621876,-0.0003259708849164081
4289594148,4757,vehicle,-2.4069652557373047,92.61603546142578,0.004040093870993002,9.306928711425062,1.5703622315372137
4139896837,4757,vehicle,260.67596435546875,129.4866485595703,-7.53384198041686,-0.001266027989125647,-3.1414246081250092
1686932955,4757,vehicle,175.9037322998047,-1.962702751159668,0.033759772511073365,-1.6417149607825957e-05,3.141106360374745
1726501337,4757,vehicle,395.96307373046875,58.06863021850586,0.001377971759150679,-7.4502462066434845,-1.5706113702571907
1682591593,4757,vehicle,184.7443389892578,330.4573059082031,7.241230326748732,-0.0015273371650017667,-0.00021092232582498502
3380823586,4757,vehicle,392.4358825683594,229.68795776367188,-0.009849422934929956,11.482131548266702,1.5716541309820111
4176583038,4757,vehicle,174.84759521484375,2.0094656944274902,2.106796268474068,-0.0009942228887702788,-0.00047191217767133164
3855978784,4757,vehicle,301.6545715332031,330.5384216308594,1.7179921849462347,0.0006442818931335039,0.00037502025246389045
1042098875,4757,vehicle,157.84689331054688,32.220054626464844,0.006600137990112613,-0.4531031580594214,-1.5562308330029808
644930681,4757,vehicle,88.63467407226562,157.34457397460938,-0.0002851872333834233,6.393193238573273,1.5708409347431553
2234188147,4757,vehicle,358.01708984375,-1.9548553228378296,0.02053712792523767,1.3553095869634011e-05,-3.1409327222716716
4109707537,4757,vehicle,12.453845977783203,326.9764709472656,-7.107457667438606,-0.0025212502930359103,-3.1412379205325944
3675841917,4757,vehicle,264.136962890625,55.841102600097656,-4.905295619518765,0.004035344611704617,3.1407700031290675
2817926641,4757,vehicle,170.40228271484375,55.83999252319336,-7.644302367920088,-6.107402588214048e-05,-3.141584664106523
4029506115,4757,vehicle,-2.276240587234497,23.528573989868164,-0.015129434079942645,5.481201749149894,1.5735565601067092
3277167701,4757,vehicle,88.63386535644531,30.416643142700195,0.06696862980346333,1.9492764236527111,1.5364541987480522
518241310,4757,vehicle,65.64724731445312,-2.2148115634918213,-5.6644011077645375,0.02566012220763074,3.1370626165755686
778540568,4757,vehicle,182.53765869140625,59.33027648925781,6.669856891389333,-0.001335770241327957,-0.00020026969771931339
657465635,4757,vehicle,1.776643991470337,298.09100341796875,0.016781652137353577,-7.427384014717504,-1.5685369009260735
835227171,4757,vehicle,134.6422119140625,59.32772445678711,-0.02604927627254568,-5.310549693883192e-06,0.00020386553410350674
715280319,4757,vehicle,129.7945556640625,195.26739501953125,-6.5685014094880385,0.0009096348292556818,3.1414541692131093
3020211281,4757,vehicle,153.76817321777344,37.470298767089844,-0.0005150097475443193,0.31689095370834475,1.5724215208501175
2101598167,4757,vehicle,268.44598388671875,-1.9633235931396484,-7.5338386425568,-0.0012660274282133965,-3.1414246081250092
14974470,4757,vehicle,215.7255401611328,59.330936431884766,6.68051633409453,-0.0022701686225530472,-0.0003398193225848201
1398818972,4757,vehicle,92.11222076416016,166.7037811279297,-0.0017695882368178996,-6.13261721829185,-1.5710848802990067
2694688339,4757,vehicle,34.525421142578125,326.97119140625,-7.241231916851745,0.00014656270986824856,3.1415724135655085
3916750283,4757,vehicle,160.49050903320312,326.949462890625,-6.275146100223384,0.0032871965941524976,3.1410688098033748
1983197581,4757,vehicle,92.12174224853516,22.159931182861328,-0.007095703609072515,-1.142740750466509,-1.5770056200344709
2942851653,4757,vehicle,190.37252807617188,198.76431274414062,7.640107088191967,-0.001009203067566742,-0.0001320927900679302
3949181016,4757,vehicle,88.63079833984375,112.08524322509766,-0.002130342640352219,0.9198811420027925,1.5731122116788294
3672416715,4757,vehicle,392.4806823730469,317.88873291015625,-0.003374636619546423,4.789848092528982,1.571500866061277
3325384226,4757,vehicle,289.673828125,55.84662628173828,-7.107458621112863,-0.002521250631335709,-3.1412379205325944
1359910869,4757,vehicle,118.18013763427734,2.0174825191497803,4.900664566178597,-0.005071720812541355,-0.0010349043345862106
2262630317,4757,vehicle,59.50511169433594,330.4598083496094,3.2847344494219755,-0.0005003727935594027,-0.0001523327980978871
805172996,4757,vehicle,173.1553497314453,195.4145050048828,-1.671108070725134,-0.004908393352524567,-3.138655453223545
1986857511,4757,vehicle,-2.4059603214263916,123.87669372558594,0.06696728287796641,1.9492750385713107,1.536454864538325
1279946346,4757,vehicle,54.89277648925781,2.2734792232513428,5.6642985321200365,-0.02670355764843046,-0.004714327761658268
74618890,4757,vehicle,227.75762939453125,198.7600860595703,6.669864996908417,-0.0013393245581641657,-0.00020080234619197456
3085549129,4757,vehicle,392.47705078125,30.146808624267578,0.003242651231937569,7.42209554409789,1.5703594352180692
2057201815,4757,vehicle,117.52684020996094,198.9685821533203,5.79291128274113,0.016371876766917513,0.002826183999494917
1015694095,4757,vehicle,66.945068359375,330.4612731933594,-0.010567395898149066,4.5534851706323235e-06,-0.0004308994318655301
1250507297,4757,vehicle,303.5539245605469,-1.948100209236145,-9.306929055151924,0.0031502818240776655,3.141254165815244
4280502996,4757,vehicle,-1.3718743324279785,319.7490234375,0.39145516179776757,7.317311618982034,1.5173501458264234
3428459672,4757,vehicle,27.315792083740234,2.0209262371063232,6.682281270257166,-0.0017297700838519161,-0.00025885920919176597
414519966,4757,vehicle,310.6852111816406,327.0450439453125,-6.1332268714347995,-2.6134033857032975e-05,-3.141588392532049
2866945113,4757,vehicle,243.82431030273438,330.4573059082031,7.241228419400142,-0.0015273367626993598,-0.00021092232582498502
1853482628,4757,vehicle,1.7226356267929077,66.5184326171875,-0.0023785711731248984,-6.311931161940254,-1.5711731640891429
3880166169,4757,vehicle,335.5000305175781,251.127685546875,0.000926335198082352,2.1068015446265664,1.5703566388989245
1073352953,4757,vehicle,396.3796081542969,8.854687690734863,-0.3479879336891444,-7.927503259009323,-1.6146644489028998
213556023,4757,vehicle,250.9974365234375,327.0436706542969,-7.6401085721249515,-0.00044966516171711927,-3.1415337977297026
1628590046,4757,vehicle,1.6962727308273315,174.71334838867188,-0.00660745038445983,-9.138324256144685,-1.5715193750308531
4120465129,4757,vehicle,310.39312744140625,133.22607421875,7.562945380115243,-0.004628480446166369,-0.0006119943534816277
1015227284,4757,vehicle,289.673828125,129.75662231445312,-7.107458621112863,-0.002521250631335709,-3.1412379205325944
2900396540,4757,vehicle,201.4278106689453,-1.9588512182235718,-4.90529562381469,0.004030119174729722,3.1407710683935037
3587539486,4757,vehicle,396.4197692871094,320.80413818359375,1.4147524841772223,-8.225361665404517,-1.4004641387409
1146849989,4757,vehicle,222.01776123046875,133.095703125,5.481184033216749,0.014629319301650822,0.0026690007989773473
1457681385,4757,vehicle,395.9264221191406,209.04373168945312,-0.06733854698816273,-1.9492197845833097,-1.6053290040177361
1726747598,4757,vehicle,115.29959106445312,129.51800537109375,-0.012714997972795076,6.343098917417667e-05,3.1366040202358567
367118466,4757,vehicle,392.4692077636719,174.79229736328125,0.0002918319047908623,7.799360746645916,1.570758909381581
2065705843,4757,vehicle,167.41729736328125,133.2322235107422,7.422465233616275,-0.003937630713436271,-0.0005305016891437842
3978545900,4757,vehicle,334.83251953125,229.08460998535156,-0.00014052106525124975,5.583572862764233,1.5708214936671978
714679325,4757,vehicle,291.93536376953125,2.0204248428344727,6.5681306187617405,-0.0021480162225823688,-0.0003270361493524398
3262285446,4757,vehicle,191.0221405029297,55.848392486572266,-6.602924754211451,-0.0009583635563257081,-3.1414475113103837
1401880247,4757,vehicle,207.1459503173828,195.2667999267578,-7.53384484143977,-0.001266028469907576,-3.1414246081250092
2250339631,4757,vehicle,224.52442932128906,129.7468719482422,-6.680464197105981,0.0009713969231575686,3.141447244994275
2525145270,4757,vehicle,92.11222076416016,217.03378295898438,-0.0017695882368178996,-6.13261721829185,-1.5710848802990067
1825059061,4757,vehicle,255.72425842285156,2.016937017440796,7.241218406632522,-0.0015234777443908784,-0.00021038969360696918
346279610,4757,vehicle,111.0006332397461,194.99151611328125,0.003941006061971362,-1.8468076809961593e-05,3.1369065553356896
893025708,4757,vehicle,395.9499206542969,306.5123596191406,-0.0011375770411207874,-2.1067959575277064,-1.57133628270591
1724402154,4757,vehicle,88.60951232910156,223.98036193847656,-0.004229799316539939,8.11372932807666,1.5713176405782796
2595182244,4757,vehicle,154.5225830078125,198.76431274414062,7.640106611354813,-0.0010092030045799915,-0.0001320927900679302
874453657,4757,vehicle,392.4910888671875,82.15148162841797,0.007795567696840943,9.148883359385437,1.5699442484041257
1498616609,4757,vehicle,92.09502410888672,102.04439544677734,-0.007119667344408048,-7.944692282558931,-1.5716924805017083
505512523,4757,vehicle,138.65115356445312,133.23171997070312,4.69046115480767,-0.00019236838619484062,-4.101268078722027e-05
3709073522,4757,vehicle,291.2469482421875,195.571044921875,-4.9052960963557615,0.004035345003974881,3.1407700031290675
27029540,4757,vehicle,1.5040565729141235,227.88145446777344,-0.002793659110998971,-9.735509471608447,-1.5710832824023526
1375770528,4757,vehicle,360.9260559082031,327.1944580078125,-1.6710537089090618,-0.004909123745243333,-3.1386549205913266
4266869573,4757,vehicle,44.08346939086914,-2.0014259815216064,-1.9492537083259502,-0.06677892803761183,-3.1073473314485733
368528135,4757,vehicle,58.39761734008789,326.71527099609375,-5.664392435911794,0.025679694072694083,3.1370591544661512
4012051816,4757,vehicle,338.9795227050781,239.182373046875,-0.001967236915745068,-6.669840999406826,-1.571091271885623
3938307140,4757,vehicle,92.10130310058594,297.9827575683594,-0.004638403397603711,-7.422504406266183,-1.5714212375446837
1966079641,4757,vehicle,-1.97695791721344,265.67291259765625,0.0015539356556852292,10.855682261827885,1.5706531818863048
1759883367,4757,vehicle,-2.4228997230529785,167.3197784423828,-0.00012904468036779127,11.964309691686887,1.5708071125973113
3487645883,4757,vehicle,204.74220275878906,129.7584228515625,-6.602842740247914,-0.0009442841052417458,-3.141449641839256
544848518,4757,vehicle,92.11070251464844,76.59603118896484,-0.000877787228042073,-7.533794351939229,-1.5709128400925876
1325658571,4757,vehicle,144.0144805908203,129.7468719482422,-6.680447983604191,0.000978511009381535,3.1414461797298388
921579549,4757,vehicle,130.94407653808594,55.8349494934082,-6.132654666897155,-6.53289891427864e-06,-3.1415915883253573
4072577581,4757,vehicle,131.29541015625,326.97119140625,-7.241231916928781,0.00014270579645212335,3.1415729461977264
94066344,4757,vehicle,250.54551696777344,133.25856018066406,6.318514480120561,-0.0047351811320899126,-0.0007494135307482976
2853390219,4757,vehicle,264.29693603515625,330.5298767089844,2.1068155412716387,-0.0010739050723233363,-0.0005097290001318755
2524564450,4757,vehicle,1.6335664987564087,138.68551635742188,0.004874823349428486,-8.456756140446597,-1.570219885576949
1882516347,4757,vehicle,10.168142318725586,-1.9664382934570312,-7.6401147710079975,-0.000449665526557713,-3.1415337977297026
815178544,4757,vehicle,154.42465209960938,330.44451904296875,6.393296234084425,-0.0003132853252010974,-4.900215999379665e-05
2188308515,4757,vehicle,92.09502410888672,238.4144287109375,-0.007119645978441565,-7.944668440710594,-1.5716924805017083
1160083145,4757,vehicle,392.4767150878906,259.1935729980469,-0.00214125090325439,7.2013079320854,1.5710936687306039
1832698586,4757,vehicle,224.0469512939453,326.9710388183594,-4.9052960963557615,0.004035345003974881,3.1407700031290675
3748346955,4757,vehicle,82.80596160888672,1.9994573593139648,7.640897971311798,-0.026522917749774663,-0.003471164164809279
3198444053,4757,vehicle,194.33580017089844,327.1144714355469,-1.671078387740076,-0.004908306167399264,-3.138655453223545
808811405,4757,vehicle,338.9462890625,222.89369201660156,-0.06733854287236495,-1.949219665445092,-1.6053290040177361
84250811,4757,vehicle,198.27261352539062,133.493408203125,5.664297073188794,-0.02670958193252133,-0.004715392505945649
3956289865,4757,vehicle,88.61885833740234,305.4782409667969,0.0011638129752942472,5.65335500181991,1.5705904644426334
1912328786,4757,vehicle,368.51861572265625,-1.9525699615478516,-5.702861303545649,-0.00025059603253514034,-3.141548711431807
4030311199,4757,vehicle,338.97515869140625,289.25543212890625,-0.0008231143670368707,-5.583996235262971,-1.5709437327612326
3147513812,4757,vehicle,392.46673583984375,122.87979888916016,-0.00012904464950936302,11.964306830663938,1.5708071125973113
1663586846,4757,vehicle,211.47796630859375,330.44964599609375,6.6030526090300095,-0.00030597882099747014,-4.633899484005608e-05
