id,timestamp_ms,agent_type,x,y,vx,vy,psi_rad
-1,50049,vehicle,392.2198791503906,306.496337890625,5.640943604086076e-12,-2.634500379632691e-08,1.571010444946539
2985032057,50049,vehicle,-2.2625479698181152,157.29843139648438,0.00036641672491209774,14.874285693423813,1.5707716925548134
3028941286,50049,vehicle,396.8551025390625,79.55940246582031,-0.0017675620855593253,-6.036455372472143,-1.5710891413567507
2920337868,50049,vehicle,392.0353088378906,314.20721435546875,-3.959999173060371e-11,-1.0067395737602635e-07,1.570402977901892
1503980471,50049,vehicle,128.91192626953125,2.0266199111938477,5.018513181864036,-0.0031274362455680532,-0.000623179760097123
2125414330,50049,vehicle,358.60247802734375,-1.6013845205307007,-9.175625340964069e-08,9.102475709459507e-11,3.1406006260837387
2396446624,50049,vehicle,134.90087890625,327.0113525390625,-3.882747572488893,0.0007765627179051602,3.141392650191928
4076155829,50049,vehicle,7.122190475463867,-1.355430006980896,-5.606833019212925,1.482287291939823,2.883134201378148
130361148,50049,vehicle,92.38251495361328,210.4158935546875,0.002924955994418463,-6.592450446704949,-1.5703526441572895
3417340120,50049,vehicle,300.4178466796875,330.5010986328125,0.0,-0.0,-0.0019813917209817906
2197730220,50049,vehicle,154.23297119140625,35.14805221557617,8.435620974676612e-10,-1.8105296557479097e-06,1.5712622468276058
118743835,50049,vehicle,327.84869384765625,129.42642211914062,-4.93728396705782,1.470180993489647,2.8521818779248114
904053063,50049,vehicle,157.9049072265625,36.6883544921875,2.4027850591810994e-05,0.004648833839753962,-1.5759648566804678
1291681130,50049,vehicle,113.09465789794922,195.61886596679688,-9.246097120695253e-09,-3.6047030914242004e-11,-3.1376940520700263
715062232,50049,vehicle,338.9866638183594,22.499813079833984,2.28216930015142e-10,-9.643691353601621e-08,-1.5684298418502522
220877689,50049,vehicle,92.71520233154297,62.90196990966797,-0.17083572743241932,-6.245999515190739,-1.5981407327614487
2069714320,50049,vehicle,91.9744644165039,290.0782165527344,-0.013985203297542262,-5.773563136275699,-1.5732186049643782
3190467641,50049,vehicle,17.921728134155273,-1.9507993459701538,-5.214907166634456,-0.00016804646809871307,-3.141560429340603
708315452,50049,vehicle,88.06118774414062,169.2286834716797,-0.002328633761509757,0.007175138780239051,1.8846139085860187
1314594676,50049,vehicle,157.8862762451172,199.00880432128906,10.41235808722618,-0.0020242746394647485,-0.00019441077583042972
2302084468,50049,vehicle,396.7987060546875,158.7529296875,0.01528824956970248,-17.704360083028604,-1.5699327968114385
757051778,50049,vehicle,334.7028503417969,297.8030090332031,-5.488916927678163e-11,-2.687162010135483e-07,1.5705920623392875
4203008516,50049,vehicle,112.88423919677734,55.693016052246094,1.1326432230807556e-09,2.6915489234896275e-12,-3.1392163149491155
2631691725,50049,vehicle,334.72576904296875,304.8206481933594,1.1064469683629517e-13,-2.9361397736707117e-09,1.5708340105243213
1513387753,50049,vehicle,339.01324462890625,29.555875778198242,7.247288991744867e-10,-2.3116733499208823e-07,-1.5676612535596552
156273220,50049,vehicle,92.19566345214844,41.994544982910156,-0.008685217741679255,-5.609290074774773,-1.5723446886526686
3812119762,50049,vehicle,120.19518280029297,2.090409517288208,3.673179695599124,-0.0011151786084602237,-0.0003036003317597425
3616050434,50049,vehicle,154.4306640625,326.3938293457031,-3.302248627755848,0.00230413842838985,3.1408949053841924
2942158310,50049,vehicle,124.82676696777344,59.33687973022461,1.9183519711796137e-05,1.3228902639375577e-08,0.0006895971511559903
3608800298,50049,vehicle,298.1677551269531,133.19717407226562,8.970427796543676e-08,-1.6913902284865752e-11,-0.00018855178892296473
1146464971,50049,vehicle,76.39460754394531,2.5536410808563232,5.383514629531915,-0.0016459062621639036,-0.0003057307956132246
3013099654,50049,vehicle,-2.3416783809661865,248.34640502929688,0.0007408769155716593,5.724167775845792,1.5706668971659188
2246582517,50049,vehicle,130.48251342773438,133.3587188720703,2.5465394594389683,0.001284661574582618,0.0005044734181681723
3192940987,50049,vehicle,338.8669738769531,219.46205139160156,-1.4433967659052495e-10,-7.079688154526702e-08,-1.5728351097674067
828836647,50049,vehicle,293.2968444824219,330.7931823730469,-4.568331684464775e-09,-5.5399617526400406e-12,0.0012126875672730446
1702089089,50049,vehicle,371.1454162597656,-2.4276890754699707,-1.9296874738971723e-07,-2.5202006726015124e-10,-3.1402866393912183
2111029583,50049,vehicle,92.0042724609375,246.2078094482422,-0.0008625279824716326,-6.643564168252547,-1.5709261558980379
420096522,50049,vehicle,88.35530090332031,242.86317443847656,0.007941215156542503,7.590364116733331,1.569750103960659
510102133,50049,vehicle,307.337890625,1.8780714273452759,2.7210879044485567,-0.0003913215559075908,-0.00014381069886427886
4109025732,50049,vehicle,314.9800720214844,1.3358020782470703,2.1695562322961277,0.017398968962064117,0.008019426147446992
2913592560,50049,vehicle,326.440673828125,1.7516316175460815,0.0017391377498333631,1.6587507098921016e-05,0.009537487265738304
3970347779,50049,vehicle,157.46636962890625,29.85422134399414,0.0006403539150596034,0.008569952733053587,-1.6453785525967293
1933996401,50049,vehicle,337.6842956542969,1.3750615119934082,-1.3242013751312098,1.2849575283053905,2.3712341598163493
3047764241,50049,vehicle,64.68309783935547,2.041794776916504,5.679496002127517,-0.0018029492620472048,-0.0003174488019374452
1260711767,50049,vehicle,261.3957824707031,55.68147659301758,-5.833671569822357,-4.660802141996226e-06,-3.141591854641466
3957993155,50049,vehicle,330.5848388671875,53.79880142211914,-4.093397403246276,3.630972423882079,2.41598884825124
4289594148,50049,vehicle,-2.3825697898864746,271.04833984375,0.006391086571420162,9.396287651922403,1.5701161554524903
4139896837,50049,vehicle,112.17839813232422,129.49009704589844,-1.252468146126262e-08,1.7207981379198872e-11,3.140218728783421
1686932955,50049,vehicle,112.7573013305664,-1.9680259227752686,2.8842973121454355e-09,-8.215992442419848e-12,3.1387441364878446
1726501337,50049,vehicle,335.066162109375,9.833061218261719,-0.11477080068946499,5.269136415105812,1.5925745929251285
1682591593,50049,vehicle,313.8250427246094,330.4513854980469,-8.556620458538059e-08,1.1179628365810712e-10,-0.0013065464406813864
3380823586,50049,vehicle,352.6983947753906,326.3238525390625,-5.871314383891761,-0.0012899911419779132,-3.141372942799862
4176583038,50049,vehicle,320.2151184082031,1.958616018295288,0.06516508438886984,-3.724278196391701e-05,-0.0005715143049124232
3855978784,50049,vehicle,338.62921142578125,250.02696228027344,-0.0014199258407012107,-5.627156555318404,-1.5710486613081815
1042098875,50049,vehicle,29.7021541595459,-1.958768367767334,-5.500615327003003,0.0017227253622652974,3.1412794658456
644930681,50049,vehicle,88.36235809326172,254.39425659179688,0.0006778662430362121,5.521354633681565,1.570673555068644
2234188147,50049,vehicle,335.1589050292969,42.99627685546875,0.0015584309679966034,6.231958194423165,1.5705462559685381
4109707537,50049,vehicle,2.580562114715576,92.44677734375,0.0017152135311572661,-7.89763002843545,-1.5705791460080005
3675841917,50049,vehicle,142.7439422607422,55.75251007080078,-6.977235041660198,-0.019402853233904498,-3.1388117807795326
2817926641,50049,vehicle,92.8602523803711,28.073427200317383,0.001387863224838055,-0.007863156804108042,-1.396093625075971
4029506115,50049,vehicle,-2.560343027114868,237.54701232910156,-0.00034349102939013027,6.353630056633033,1.5708503889650252
3277167701,50049,vehicle,132.23289489746094,59.399803161621094,0.0024851853248578594,-5.943367592465685e-07,-0.00023915188214376093
518241310,50049,vehicle,-2.6641273498535156,208.38430786132812,-0.003453066709778736,4.147142880050773,1.5716289641097099
778540568,50049,vehicle,338.9315185546875,42.95614242553711,-2.3780277125587764e-09,7.804797214099381e-08,-1.5403369544593333
657465635,50049,vehicle,20.29448699951172,2.0589969158172607,4.109792684452192e-08,-2.674786632281321e-10,-0.006508233071935642
835227171,50049,vehicle,157.7899627685547,23.67967414855957,5.151821438382345e-12,3.122640947729306e-08,-1.570961309624427
715280319,50049,vehicle,92.39542388916016,146.8220672607422,-0.0015529516707237646,-5.465074318541748,-1.571080486083208
3020211281,50049,vehicle,311.7214050292969,59.5904541015625,-4.722273772333017e-06,-5.918375977607227e-09,0.0012532888104777936
2101598167,50049,vehicle,125.23815155029297,-2.0302703380584717,5.4291414379881585e-06,-4.82775393354179e-09,3.1407034241018157
14974470,50049,vehicle,338.9898681640625,36.57738494873047,-8.708155756937769e-11,1.8399305176153352e-08,-1.5660634900636623
1398818972,50049,vehicle,291.3094482421875,133.63661193847656,0.00020039152830337385,-2.7569663811324957e-07,-0.0013757890191349344
2694688339,50049,vehicle,2.268089771270752,113.10245513916016,-0.0021115495087880545,-6.814553887336446,-1.5711061855877273
3916750283,50049,vehicle,96.18608093261719,324.59051513671875,-5.326415733062778,-2.986865414766923,-2.630522453023663
1983197581,50049,vehicle,-2.1333839893341064,192.23446655273438,0.0008440797001869976,8.636145550486503,1.5706985887828906
2942851653,50049,vehicle,338.8025207519531,79.2568130493164,2.490602512425719e-05,0.01360099344939992,-1.572627516360435
3949181016,50049,vehicle,88.34362030029297,174.86178588867188,-5.846780951701874e-10,2.192682891601295e-07,1.5734628168363385
3672416715,50049,vehicle,338.85546875,226.30577087402344,1.1466593088223494e-10,-8.829345092207944e-08,-1.5694976362893194
3325384226,50049,vehicle,158.3290557861328,55.55630874633789,-5.607336894283812,0.03665266978086613,3.1350561910103028
1359910869,50049,vehicle,306.3953552246094,59.60513687133789,0.017437453945022528,2.5737729281998656e-05,0.0014760016383451495
2262630317,50049,vehicle,224.45361328125,330.6195373535156,11.928118488897828,-0.0022744813079632873,-0.00019068231779502813
805172996,50049,vehicle,92.17607116699219,156.01226806640625,0.011158033152631065,-8.261397456005412,-1.569445704648063
1986857511,50049,vehicle,-2.4731922149658203,288.5457763671875,0.0010839660077508531,11.212736077365756,1.5706996540473268
1279946346,50049,vehicle,148.4589080810547,2.354060649871826,4.504453010483776,-0.09233240102144745,-0.0204951571976264
74618890,50049,vehicle,334.70416259765625,291.78424072265625,4.206312087189832e-10,5.012513438017937e-07,1.5699571647354127
3085549129,50049,vehicle,391.97674560546875,320.9991455078125,1.2398842028255929e-09,-4.590371693429271e-09,1.8346064012170558
2057201815,50049,vehicle,306.45654296875,198.97398376464844,-4.116373117409934e-09,4.979198788316333e-12,-0.0012096076370768274
1015694095,50049,vehicle,283.86102294921875,330.62005615234375,3.528277572131911,-0.0019525657475936297,-0.0005534047444813031
1250507297,50049,vehicle,154.227783203125,30.018966674804688,3.2944019846807114e-07,-0.0003374782529154744,1.5717725084924652
4280502996,50049,vehicle,92.22713470458984,277.9529724121094,-0.0017388107197490866,-5.903366309624806,-1.5710908724114594
3428459672,50049,vehicle,86.8012466430664,6.560669422149658,3.305996734466523,4.497263706541052,0.9368912164792514
414519966,50049,vehicle,145.09068298339844,327.0765380859375,-4.851614276056497,-0.0013902598652265979,-3.141306097456501
2866945113,50049,vehicle,338.6215515136719,275.3569030761719,-0.0020784850866813827,-6.897550746561003,-1.5710976634722391
1853482628,50049,vehicle,54.15624237060547,2.5222132205963135,5.601971817877285,0.0043844274216978335,0.0007826577264231215
3880166169,50049,vehicle,171.7550506591797,326.41986083984375,-5.5557708739901415,1.9234686661901658e-05,3.141589191480376
1073352953,50049,vehicle,335.1684265136719,20.709144592285156,-0.00519414510900043,4.86194094724806,1.5718646538661818
213556023,50049,vehicle,125.42218780517578,327.0174865722656,-4.744562148538888,6.949543317348452e-05,3.141578006203798
1628590046,50049,vehicle,34.253055572509766,2.348463535308838,2.077611787454199,0.003385504854561996,0.001629516100394242
4120465129,50049,vehicle,247.5550994873047,55.67672348022461,-5.806860446928078,-4.639381440210167e-06,-3.141591854641466
1015227284,50049,vehicle,117.51564025878906,129.75149536132812,-0.0,0.0,3.1414688165991045
2900396540,50049,vehicle,118.2197036743164,-1.9650732278823853,-0.0013252435464812982,-4.73356697887018e-06,-3.138020821935779
3587539486,50049,vehicle,396.58294677734375,66.23441314697266,-0.0008895082309999744,-3.541937001114417,-1.571047462885691
1146849989,50049,vehicle,334.55029296875,184.67581176757812,0.03858045572178386,7.767195253080827,1.56582926504579
1457681385,50049,vehicle,363.869140625,-2.695664644241333,-0.002484445922851486,1.2108157882828054e-07,3.1415439177418447
1726747598,50049,vehicle,92.18081665039062,53.07514953613281,0.03297558496463165,-3.5073811618878077,-1.561394835514699
367118466,50049,vehicle,364.2326965332031,326.36199951171875,-6.346252439623616,0.0001504197238564297,3.1415689514560916
2065705843,50049,vehicle,311.215087890625,133.19998168945312,9.742449215778649e-09,4.807584937042639e-12,0.0004934677554206829
3978545900,50049,vehicle,396.8464660644531,98.62398529052734,-0.0018858076006658035,-8.80732230024341,-1.571010444946539
714679325,50049,vehicle,392.1418151855469,299.22723388671875,1.2858177137775386e-11,3.8889756843048724e-08,1.5704656953455634
3262285446,50049,vehicle,88.3433609008789,162.9807586669922,2.090427945110572e-09,-1.1262521792872329e-06,1.5726524169166274
1401880247,50049,vehicle,92.4957504272461,166.44552612304688,-0.0013782450857076389,-4.771989146518287,-1.5710851466151157
2250339631,50049,vehicle,92.3975601196289,94.7136001586914,0.003044352617956472,-5.030296358131669,-1.5701911234371762
2525145270,50049,vehicle,95.51738739013672,135.69851684570312,3.906309990939795,-4.672094455613832,-0.8744310341691871
1825059061,50049,vehicle,331.94671630859375,1.9882513284683228,-2.374518672012519e-07,8.470033555450791e-10,-0.0035670377039778065
346279610,50049,vehicle,88.17655181884766,305.6376037597656,3.527419337358865e-10,1.2463723742091647e-07,1.5679661855044693
893025708,50049,vehicle,395.84979248046875,55.60201644897461,-0.001869704349118845,-5.8214098788849515,-1.5711175040223602
1724402154,50049,vehicle,2.3586511611938477,173.7520294189453,-0.015565932437867117,-10.925054905159172,-1.572221117978089
2595182244,50049,vehicle,313.6766662597656,198.77235412597656,-5.095182904790935e-09,1.2600469710887104e-11,-0.002473011128173255
874453657,50049,vehicle,386.3411560058594,325.5035400390625,-4.1772439887895345,1.4883251952173966,2.7993221250283735
1498616609,50049,vehicle,-2.4219982624053955,61.99577331542969,0.025504287377493762,15.98646036854154,1.5692009601438845
505512523,50049,vehicle,305.6173400878906,133.2028350830078,-0.4440484030282923,-3.8457217234475465e-05,8.66059124997566e-05
3709073522,50049,vehicle,118.92913055419922,195.56103515625,-0.017408659946767133,-1.9490620606348817e-05,-3.140473060667524
27029540,50049,vehicle,27.760377883911133,2.915159225463867,-0.5178002170129451,-0.047176697434228365,0.09085899200882772
1375770528,50049,vehicle,280.4136047363281,195.270751953125,-7.839784977036972,-0.004106823022731926,-3.1410688098033748
4266869573,50049,vehicle,-1.5597460269927979,218.4172821044922,-0.02436393292120873,5.929770485147434,1.5749050517246708
368528135,50049,vehicle,2.3609750270843506,129.176025390625,0.048738236840126486,-6.5640461652560855,-1.5633714336757556
4012051816,50049,vehicle,338.79058837890625,153.35789489746094,3.997125056012579e-09,3.31652686473891e-06,-1.572001540346212
3938307140,50049,vehicle,92.34439849853516,196.90521240234375,0.1058363962640768,-6.304033262951707,-1.5540092240216365
1966079641,50049,vehicle,163.0638427734375,330.6414794921875,18.952670605693175,-0.004108584878047686,-0.00021678131273245
1759883367,50049,vehicle,65.09627532958984,331.1673889160156,2.208189234249126e-07,-1.517237259994243e-10,-0.0006870955612404434
3487645883,50049,vehicle,92.41727447509766,84.7004165649414,-0.004377394234429319,-5.508321930103767,-1.5715910140641762
544848518,50049,vehicle,138.07528686523438,2.0978541374206543,4.6629671613604815,-0.0006382971652012416,-0.00013688648003007284
1325658571,50049,vehicle,92.3912353515625,74.57146453857422,-0.0014026494617244182,-4.980481427089687,-1.5710779560801724
921579549,50049,vehicle,92.27293395996094,22.447607040405273,2.2867285632335126e-07,6.776220085272126e-05,-1.5741709513701905
4072577581,50049,vehicle,92.38014221191406,221.85125732421875,-0.0012033805918156193,-4.716719473870624,-1.5710514576273262
94066344,50049,vehicle,334.5215148925781,194.7633819580078,0.027868382934631394,5.853183206276385,1.5660351273980528
2853390219,50049,vehicle,389.9256286621094,329.11962890625,5.056399970130457,-2.1571754957853773,-0.4032443673775973
2524564450,50049,vehicle,44.31939697265625,2.031998634338379,4.381346345982371,0.0017676871147007402,0.00040345749438598633
1882516347,50049,vehicle,-2.1351497173309326,227.035400390625,0.0006141543395427657,5.432533229444718,1.5706832756066227
815178544,50049,vehicle,307.15032958984375,330.3822937011719,-1.327846275543778e-06,-2.10247743675361e-09,0.0015833728033565785
2188308515,50049,vehicle,298.796875,199.190673828125,-1.3130286723023111e-08,-1.557597005939369e-11,0.0011862621953121382
1160083145,50049,vehicle,337.1978454589844,326.3675842285156,-6.988321545926816,0.033410768479817624,3.136811746800883
1832698586,50049,vehicle,115.49778747558594,326.95843505859375,-3.1386873485177147,-0.0027625940351751342,-3.140712478849522
3748346955,50049,vehicle,160.776123046875,2.038177251815796,8.785438245199732,-0.11070191206311514,-0.012599946709085591
3198444053,50049,vehicle,105.22716522216797,327.3797607421875,-4.661386914332319,-0.0030625402246186022,-3.1409356517488707
808811405,50049,vehicle,245.86453247070312,195.30758666992188,-5.834933753001321,-0.00023619840184904226,-3.141552173541224
84250811,50049,vehicle,338.60870361328125,48.3581428527832,0.0003993519312965575,0.010622050743967671,-1.6083751276725686
3956289865,50049,vehicle,2.4267776012420654,146.20513916015625,-0.0025135770335893543,-9.368060728460526,-1.5710646402747221
1912328786,50049,vehicle,335.1399841308594,31.257720947265625,0.0005021280417868675,5.417984939195266,1.5707036487889618
4030311199,50049,vehicle,338.7906494140625,160.216552734375,-5.424690733244263e-09,0.00017262175961721527,-1.5707649014940337
3147513812,50049,vehicle,374.75238037109375,326.3193359375,-5.593693134874471,0.061900660326374306,3.130526952944405
1663586846,50049,vehicle,338.62890625,296.28607177734375,-0.0013132617343352658,-5.528266750753011,-1.5710338807641318
