id,timestamp_ms,agent_type,x,y,vx,vy,psi_rad
-1,9849,vehicle,392.0022277832031,12.534181594848633,0.5867660826094052,5.933696681360773,1.4722296722158104
2985032057,9849,vehicle,92.10367584228516,28.704078674316406,-2.7314756187365046e-13,3.390584024753737e-09,-1.5707157661719218
3028941286,9849,vehicle,396.43182373046875,322.9388732910156,0.6340942114262994,-1.0393301685313079,-1.0229842237236517
2920337868,9849,vehicle,392.01300048828125,33.67958450317383,0.0010317410487243424,5.566266917930101,1.5706109707830271
1503980471,9849,vehicle,92.13839721679688,57.916507720947266,0.023950422822816397,-5.866967429867226,-1.5667141003179685
2125414330,9849,vehicle,395.9496765136719,77.42062377929688,-0.005624140593124222,-16.81392384881078,-1.5711308198278104
2396446624,9849,vehicle,258.4164733886719,327.0391845703125,-6.1166081368756675,-0.00027040591254679067,-3.141548445115698
4076155829,9849,vehicle,112.6908187866211,-1.9555975198745728,-3.827920355728297e-06,-6.391869138572749e-10,-3.141425673389445
130361148,9849,vehicle,92.42790985107422,308.5486755371094,-0.04067781118400645,-6.826250947602319,-1.5767552828920033
3417340120,9849,vehicle,156.18154907226562,330.48065185546875,5.942818977835531,0.001293013560466023,0.00021757579103200933
2197730220,9849,vehicle,222.44186401367188,-1.948468565940857,-5.596017836966977,7.898641390825436e-05,3.141578538836016
118743835,9849,vehicle,306.7966003417969,59.3342399597168,-0.0008520184437633595,1.2829286105629104e-06,-0.001505751020256476
904053063,9849,vehicle,191.27468872070312,55.82808303833008,-5.537422180062673,3.5392913494237945e-05,3.141586262003177
1291681130,9849,vehicle,215.71795654296875,195.5897979736328,-5.588189115382257,0.000328897677114465,3.1415337977297026
715062232,9849,vehicle,313.6129455566406,59.3152961730957,9.335558372767603e-08,3.4864337311913065e-10,0.0037345570384019204
220877689,9849,vehicle,121.40230560302734,129.7564239501953,0.00020163580062472738,-4.124072648289462e-08,3.141388122818075
2069714320,9849,vehicle,-2.4065463542938232,229.50924682617188,0.005523275561561092,8.239787157919631,1.5701260091485236
3190467641,9849,vehicle,118.22354888916016,-2.0192999839782715,-0.003573467122147867,-4.8294576840999665e-05,-3.128078708954295
708315452,9849,vehicle,88.72600555419922,99.7447509765625,-5.536357861300531e-05,0.012746667398148982,1.575139676216707
1314594676,9849,vehicle,88.64353942871094,172.69149780273438,1.627632809983961e-07,0.0016473469942494166,1.5706975235184546
2302084468,9849,vehicle,312.66375732421875,330.7635498046875,-0.00810202826502153,0.0004481878738094927,-0.05526166204476943
757051778,9849,vehicle,297.6483154296875,199.0584716796875,7.305828483562891,-0.0011323739025405506,-0.00015499595918796633
4203008516,9849,vehicle,153.7655029296875,31.262548446655273,2.0448834378911654e-11,-4.235193746087817e-08,1.5712791579005279
2631691725,9849,vehicle,312.3171081542969,199.05612182617188,4.308575046927277e-08,-1.0841063793143523e-10,-0.0025161545979068643
1513387753,9849,vehicle,277.03936767578125,59.33023452758789,5.674736932923434,-0.0007042536221983449,-0.0001241033067976925
156273220,9849,vehicle,92.53369140625,118.66349029541016,0.04643322562986699,-5.762399041110164,-1.5627385334426984
3812119762,9849,vehicle,110.91465759277344,55.83747863769531,-1.7540174514326915e-06,1.823182126818876e-09,3.1405532218163352
3616050434,9849,vehicle,335.4158935546875,308.00689697265625,3.2082060241604504e-11,-6.62083430289677e-08,1.5712808889552365
2942158310,9849,vehicle,88.6182861328125,25.91712188720703,4.891122482613607e-10,2.5004564553475543e-06,1.5706007176128303
3608800298,9849,vehicle,145.6788787841797,133.23402404785156,-0.00673931664786412,3.2665154841976677e-06,-0.00048469531839442134
1146464971,9849,vehicle,27.835704803466797,2.5417909622192383,5.473961999555529,-0.0029301871995458945,-0.0005352954441245082
3013099654,9849,vehicle,-2.4064996242523193,70.40841674804688,0.000496406183425765,5.761896588876504,1.5707101735336326
2246582517,9849,vehicle,88.6150894165039,105.10009765625,-3.0599963520103246e-11,-2.2441584026745324e-07,1.5706599729470845
3192940987,9849,vehicle,344.48822021484375,325.74627685546875,-5.428487333974204,-1.7216029669165815,-2.8344841072167988
828836647,9849,vehicle,88.64352416992188,290.0619201660156,0.0008639143363442921,5.588188104607652,1.5706417302936175
1702089089,9849,vehicle,395.9796447753906,203.48765563964844,0.00035562170612667306,-3.3720626643533262,-1.5706908656157295
2111029583,9849,vehicle,54.97556686401367,330.44464111328125,0.006708850037988151,-2.7907862579865664e-06,-0.000415985762270377
420096522,9849,vehicle,158.5160369873047,129.7428436279297,0.16297940353496665,0.00040261669959177227,-3.1391223053626356
510102133,9849,vehicle,158.2852325439453,25.23541259765625,-7.365326827870255e-05,0.0021771680773745483,-1.536979374115016
4109025732,9849,vehicle,168.15658569335938,1.93966805934906,7.665123961028383,-0.08284920369645589,-0.01080817192768028
2913592560,9849,vehicle,228.00636291503906,1.9380711317062378,2.73604054653164,0.0020405401105047447,0.0007458002531296703
3970347779,9849,vehicle,128.59535217285156,59.51813888549805,-0.006826740161258264,0.0002571276504606513,-0.03764698196276733
1933996401,9849,vehicle,395.9421081542969,33.52149200439453,-0.0030884013968679775,-11.156084586853538,-1.5710731623902103
3047764241,9849,vehicle,4.283750057220459,5.063520908355713,3.4304443955949204,-4.063231059976541,-0.8696410726325705
1260711767,9849,vehicle,306.1365051269531,133.4156494140625,-0.008867250228745445,9.587658968521494e-06,-0.0010812433375535894
3957993155,9849,vehicle,335.0544128417969,20.523927688598633,0.0573561685380164,5.830201315067647,1.560958876044253
4289594148,9849,vehicle,-2.4125468730926514,129.6220703125,-0.0007124894910750847,4.239861428476971,1.5709643722596807
4139896837,9849,vehicle,227.0440216064453,129.4871063232422,-5.861409187165366,4.2146667577122027e-05,3.14158546305485
1686932955,9849,vehicle,175.89035034179688,-1.9625778198242188,8.283479113001619e-08,-4.2686566754863176e-11,3.1410773319188627
1726501337,9849,vehicle,395.9783935546875,12.055285453796387,-0.0018716341436907727,-7.382212878431687,-1.5710498597306721
1682591593,9849,vehicle,220.16796875,330.45721435546875,6.902846232941131,-0.0011949203471261203,-0.00017310545460050517
3380823586,9849,vehicle,392.4360046386719,279.40679931640625,-0.00021546377491424168,9.80669975044063,1.5708182978738898
4176583038,9849,vehicle,194.8083953857422,2.0046420097351074,5.596132637006031,-0.0011505427041721703,-0.0002055960361541172
3855978784,9849,vehicle,305.56915283203125,330.5410461425781,-7.867041448397447e-07,-1.6972009541528276e-10,0.0002157356026347445
1042098875,9849,vehicle,157.8470916748047,32.20794677734375,0.0,-0.0,-1.5562639893585521
644930681,9849,vehicle,88.63038635253906,165.76617431640625,-8.824959520093109e-10,3.4246679075277017e-07,1.5733732014656572
2234188147,9849,vehicle,358.0129089355469,-1.9549229145050049,-9.888039011615125e-07,-6.543860982447662e-10,-3.1409308580589084
4109707537,9849,vehicle,2.6319823265075684,295.72509765625,0.001560878521761519,-10.105171083064024,-1.570641863451672
3675841917,9849,vehicle,232.72213745117188,55.83517837524414,-7.711733301912322,0.005479429418307714,3.14088212221096
2817926641,9849,vehicle,139.49908447265625,55.7546272277832,-3.43624584873876,0.004487788419813854,3.1402866393912183
4029506115,9849,vehicle,-2.2829947471618652,60.302371978759766,-0.004293738487329343,6.81433303979685,1.5714264307088093
3277167701,9849,vehicle,88.64314270019531,33.21477127075195,1.7725205719454563e-07,0.001645414498400635,1.5706886019288029
518241310,9849,vehicle,37.70233154296875,-2.1246657371520996,-5.689824057163338,-0.017291048001960335,-3.1385537204699037
778540568,9849,vehicle,213.58847045898438,59.32889175415039,7.305862339000698,-0.0011323792687508534,-0.00015499597544261167
657465635,9849,vehicle,1.7298089265823364,223.65435791015625,-0.0023195646193284467,-19.12144265411011,-1.5709176337825497
835227171,9849,vehicle,134.6495819091797,59.32780456542969,-4.924703028261268e-08,-1.0213859495498179e-11,0.00020740051309560257
715280319,9849,vehicle,118.0025863647461,195.2687225341797,3.5702231012015074e-06,-4.17690111845855e-09,3.1404227269229215
3020211281,9849,vehicle,153.76817321777344,37.5069694519043,3.574269612206289e-10,-2.1655735684533493e-07,1.5724468208804732
2101598167,9849,vehicle,234.814208984375,-1.9628788232803345,-5.861357211903691,4.370726769437317e-05,3.141585196738741
14974470,9849,vehicle,245.47332763671875,59.3319091796875,6.116600923241437,-0.0009056957503729757,-0.0001480717403537603
1398818972,9849,vehicle,93.89192199707031,138.01185607910156,2.2482404695954323,-5.044622316582592,-1.1515484585052815
2694688339,9849,vehicle,3.1879494190216064,320.1429138183594,-2.44552737994814,-6.050429116113284,-1.9549101760875323
3916750283,9849,vehicle,131.28846740722656,326.9416198730469,-5.942819098126919,-0.0024309788882344945,-3.141183592046357
1983197581,9849,vehicle,92.12187194824219,21.969289779663086,3.0439121245083636e-10,5.5163396038110384e-08,-1.5763142634154863
2942851653,9849,vehicle,221.76519775390625,198.76361083984375,5.537410150549871,-0.0010971778591543598,-0.00019813916884725
3949181016,9849,vehicle,88.6303482055664,112.13860321044922,1.7786406088035086e-10,-6.849212395567924e-08,1.5733931751738328
3672416715,9849,vehicle,363.8857727050781,326.3082275390625,-6.0565842834506185,0.0009516499243787562,3.1414355270854784
3325384226,9849,vehicle,253.2398223876953,55.84587097167969,-6.057141780851338,4.8393432932712104e-06,3.141591854641466
1359910869,9849,vehicle,148.33824157714844,2.675178050994873,7.3390817945785285,1.6051744390849512,0.21532522940644916
2262630317,9849,vehicle,60.98176956176758,330.5295104980469,0.003597980970502542,5.1230294109893004e-05,0.01423766074232172
805172996,9849,vehicle,137.32928466796875,195.4010772705078,-7.92090254109114,-0.004252679720880163,-3.141055760314033
1986857511,9849,vehicle,-2.347780227661133,138.44668579101562,-0.0023014530935938733,2.7360479688993284,1.571637486225198
1279946346,9849,vehicle,91.584228515625,2.094102621078491,8.041561303723231,-0.0623945440949503,-0.007758852999688202
74618890,9849,vehicle,258.80841064453125,198.75845336914062,7.305838973980227,-0.0011323756472666853,-0.00015499597544261167
3085549129,9849,vehicle,392.4924011230469,78.98672485351562,0.01208377211394407,14.381547619669975,1.5699560994709767
2057201815,9849,vehicle,146.66693115234375,198.97434997558594,5.494992631984139,-0.0010536515644736964,-0.00019174758223105984
1015694095,9849,vehicle,66.94755554199219,330.46124267578125,-9.210091034105528e-08,3.9686241378904415e-11,-0.00043089952939340205
1250507297,9849,vehicle,249.15089416503906,-1.944743275642395,-8.192807179266842,0.0005476510098051554,3.141525808246432
4280502996,9849,vehicle,25.49651527404785,331.22869873046875,6.263225552787438,0.00018159206823965766,2.8993378357251933e-05
3428459672,9849,vehicle,56.76299285888672,2.0150701999664307,5.681956663000142,-0.0010925278591162192,-0.00019228021444907568
414519966,9849,vehicle,281.6241455078125,327.04559326171875,-5.698190212198026,-2.428031753121171e-05,-3.141588392532049
2866945113,9849,vehicle,274.4737548828125,330.4568786621094,5.939665262319174,-0.0008098961699785505,-0.00013635383968473434
1853482628,9849,vehicle,1.722432017326355,37.24142074584961,0.0007031576107462086,-5.946648556145077,-1.570678082442497
3880166169,9849,vehicle,335.5031433105469,271.08856201171875,0.0006132891417429011,5.596261467707359,1.5706867377160398
1073352953,9849,vehicle,372.0533447265625,-2.3775267601013184,-0.6896655011677416,0.001431334827576169,3.1395172521522943
213556023,9849,vehicle,219.604736328125,327.03802490234375,-5.537425994759938,3.5392937876205927e-05,3.141586262003177
1628590046,9849,vehicle,1.6761809587478638,118.79841613769531,-0.0005679441357806474,-7.469681241378652,-1.5708723600440184
4120465129,9849,vehicle,313.6098937988281,133.22540283203125,-9.708876009391647e-07,-3.6195824973571898e-09,0.003728099652981454
1015227284,9849,vehicle,253.2398223876953,129.75588989257812,-6.057142257688496,4.83934367423946e-06,3.141591854641466
2900396540,9849,vehicle,181.6448211669922,-1.9656519889831543,-0.0012110708443427314,-3.3017239890838543e-06,-3.138866375581879
3587539486,9849,vehicle,396.65435791015625,296.1351318359375,-0.010778935460445307,-4.312410711857202,-1.5732958366359904
1146849989,9849,vehicle,258.04248046875,133.1016082763672,7.8813833884487385,0.0028281489833696734,0.0003588391431541509
1457681385,9849,vehicle,395.8641662597656,194.47369384765625,0.001778647006325757,-2.7360528886675466,-1.5701462491728082
1726747598,9849,vehicle,115.29385375976562,129.5433807373047,-0.028639194552316834,0.0015078381391233084,3.0889917599513113
367118466,9849,vehicle,392.4739685058594,245.6053924560547,0.002736147188373738,13.997354240020702,1.5706008507708848
2065705843,9849,vehicle,201.92079162597656,133.22557067871094,5.526788711544715,-5.887491459872249e-06,-1.0652644360316953e-06
3978545900,9849,vehicle,334.8439636230469,258.1380310058594,0.0011146719745317593,5.7891038775196435,1.570603780248084
714679325,9849,vehicle,321.57952880859375,2.0201668739318848,5.674737886597743,-0.0007042537405524809,-0.0001241033067976925
3262285446,9849,vehicle,161.2646026611328,55.82554626464844,-5.729865524743925,-0.026760876031909034,-3.136922267986121
1401880247,9849,vehicle,173.51419067382812,195.26760864257812,-5.861359119252324,4.370728191718784e-05,3.141585196738741
2250339631,9849,vehicle,194.77647399902344,129.74008178710938,-6.116604322178405,-0.0002704057439048455,-3.141548445115698
2525145270,9849,vehicle,92.50379943847656,187.97706604003906,0.10451295545953854,-5.697129135874881,-1.5524535384708669
1825059061,9849,vehicle,291.14788818359375,2.013847589492798,6.902844801792246,-0.00119859677703435,-0.000173638086818521
346279610,9849,vehicle,110.9823226928711,194.9922637939453,-2.6451021231930803e-07,1.2460812916804013e-09,3.136881787937552
893025708,9849,vehicle,395.9429626464844,286.50128173828125,-0.001598167955333757,-5.7618997264796095,-1.5710736950224284
1724402154,9849,vehicle,88.61385345458984,258.32476806640625,0.0004980550146312543,6.032789686624627,1.5707137688011041
2595182244,9849,vehicle,185.9153289794922,198.76361083984375,5.53742636359654,-0.0010942316597923711,-0.00019760653662923415
874453657,9849,vehicle,392.5398254394531,155.36297607421875,0.023313354669324098,16.381006817274695,1.5693731335083583
1498616609,9849,vehicle,92.08820343017578,69.62857055664062,0.008610701267787346,-5.541149601641349,-1.5692423722988353
505512523,9849,vehicle,175.07359313964844,133.22496032714844,6.023015368500219,-0.0012543482658658183,-0.0002082591809895511
3709073522,9849,vehicle,259.8321228027344,195.56507873535156,-7.711732348238247,0.005479428740692244,3.14088212221096
27029540,9849,vehicle,1.486533522605896,166.8282012939453,-0.0034210928554731113,-11.944198118458639,-1.5710827497701345
1375770528,9849,vehicle,338.9185791015625,308.8611145019531,-0.0077225076388090464,-7.712104745599234,-1.5717976753647664
4266869573,9849,vehicle,29.513473510742188,-2.058190107345581,-2.736038676115027,0.002563395581284834,3.1406557535183035
368528135,9849,vehicle,19.825336456298828,326.6435852050781,-8.008763020855596,-0.06046140488032362,-3.1340433908477454
4012051816,9849,vehicle,338.9733581542969,228.75657653808594,3.78866776086107e-09,1.3321628797842903e-06,-1.5736403165229922
3938307140,9849,vehicle,92.09159088134766,263.4791259765625,-0.0005350278166484509,-5.526809666485886,-1.5708931327005209
1966079641,9849,vehicle,-1.8474198579788208,320.10894775390625,0.46768449154165814,6.064934583019933,1.4938357649815688
1759883367,9849,vehicle,-2.41804838180542,212.3651885986328,0.0008129817676110077,8.118868787115916,1.5706961919379097
3487645883,9849,vehicle,174.98446655273438,129.76666259765625,-5.729908943102916,2.8993374039520434e-05,3.141587593583722
544848518,9849,vehicle,92.24822235107422,42.96501922607422,0.0058295440766848155,-5.861443004869419,-1.5698017692858064
1325658571,9849,vehicle,128.577880859375,129.74827575683594,4.50877256541917e-05,-5.23170829153605e-08,3.1404323143028456
921579549,9849,vehicle,117.53837585449219,55.83096694946289,-3.1200197925942684e-05,-2.974664182981964e-08,-3.140639241919545
4072577581,9849,vehicle,96.36466217041016,324.81927490234375,-5.903614053946218,-3.2159946236630654,-2.642788973004568
94066344,9849,vehicle,279.83648681640625,133.26060485839844,5.947354657295691,0.0012730626779858124,0.00021405527867425291
2853390219,9849,vehicle,284.3079528808594,330.5246276855469,5.761751079890763,-0.0010464929532595,-0.00018162758634340405
2524564450,9849,vehicle,1.6299668550491333,100.69597625732422,-0.0008816104527947705,-6.018892700478723,-1.570942800654851
1882516347,9849,vehicle,-2.1520776748657227,22.158742904663086,-0.004601945210259375,5.6609359155727095,1.5716092567176432
815178544,9849,vehicle,183.552001953125,330.4331970214844,5.588195625678855,-0.0013989327720363486,-0.00025033710995815776
2188308515,9849,vehicle,93.71836853027344,204.04571533203125,2.1672093767937826,-5.152108371635083,-1.172620054840261
1160083145,9849,vehicle,392.4789123535156,300.6501770019531,-0.00025975588689756393,10.777533528058697,1.5708204284027618
1832698586,9849,vehicle,192.6321258544922,326.9650573730469,-7.711732348238247,0.005479428740692244,3.14088212221096
3748346955,9849,vehicle,114.17906951904297,1.9228490591049194,2.3245637062096516,-0.00040610907381118333,-0.0001747033512545527
3198444053,9849,vehicle,160.10862731933594,327.1033630371094,-7.506789299864379,-0.004482159665633906,-3.1409955728733974
808811405,9849,vehicle,338.9379577636719,221.65499877929688,-4.802278676810575e-07,-0.0016475330804006647,-1.5710878097762058
84250811,9849,vehicle,233.21946716308594,133.46658325195312,8.035327672012585,0.05862554766704657,0.007295845279272463
3956289865,9849,vehicle,88.6192398071289,306.89337158203125,-3.971415317016667e-11,-3.794022571455131e-08,1.5697495713284408
1912328786,9849,vehicle,365.2416687011719,-1.9526509046554565,-1.4220168069457686e-08,-1.4299942737211842e-11,-3.1405870439621792
4030311199,9849,vehicle,338.9632873535156,260.2017517089844,-0.0022262637453790484,-5.789112139835099,-1.571180887256304
3147513812,9849,vehicle,392.4675598144531,198.679931640625,-0.002521742326757378,18.105127158976398,1.5709356101199077
1663586846,9849,vehicle,241.23593139648438,330.43402099609375,5.729936965899267,-0.0011261690222273341,-0.00019654125593855713
