id,timestamp_ms,agent_type,x,y,vx,vy,psi_rad
-1,13534,vehicle,392.1853942871094,33.87754440307617,0.002410883586293065,6.0715718251183715,1.5703992494763659
2985032057,13534,vehicle,92.10367584228516,28.704078674316406,1.1765066755434004e-12,-1.4603991746259075e-08,-1.5707157661719218
3028941286,13534,vehicle,396.9354553222656,304.2364807128906,0.0002616155138135449,-5.629510396600524,-1.5707498546338747
2920337868,13534,vehicle,392.0106201171875,65.50934600830078,-0.0009264682844460924,14.345687836294509,1.570860908451331
1503980471,13534,vehicle,92.19277954101562,41.21949005126953,-0.00016374423726799153,0.0816043984185258,-1.5687897680715763
2125414330,13534,vehicle,395.9305725097656,29.50710678100586,-0.009436556132218159,-7.388166600064168,-1.5720735788536986
2396446624,13534,vehicle,236.93896484375,327.0327453613281,-6.046484469128934,-0.00012238099250895166,-3.1415724135655085
4076155829,13534,vehicle,112.6908187866211,-1.944727897644043,1.4397258304023164e-07,2.3542122134947638e-11,-3.1414291354988624
130361148,13534,vehicle,92.40962982177734,283.2608947753906,-0.0020744342829460867,-6.896297619672029,-1.571097130840021
3417340120,13534,vehicle,177.2458953857422,330.4839782714844,5.928725048636954,0.0015166021333799574,0.0002558057740674289
2197730220,13534,vehicle,202.2299041748047,-1.9463591575622559,-5.572466345654479,0.0005565140848828865,3.141492785048915
118743835,13534,vehicle,306.79681396484375,59.33424758911133,1.3592903381035115e-08,-2.0467543602836275e-11,-0.001505751020256476
904053063,13534,vehicle,178.70068359375,55.8249397277832,0.0006302699229960647,-9.831043006129034e-07,3.140032840139334
1291681130,13534,vehicle,194.84727478027344,195.59585571289062,-5.7081970365093815,0.0009577164482403149,3.1414248744411184
715062232,13534,vehicle,313.6129455566406,59.3152961730957,1.2983747817866465e-07,4.848877222120717e-10,0.0037345570384019204
220877689,13534,vehicle,121.40333557128906,129.7562713623047,0.00019945180518828157,-4.265313529016984e-08,3.14137880175426
2069714320,13534,vehicle,-2.397871255874634,265.2459411621094,0.0037661582020006973,9.334444239930951,1.5703928578897497
3190467641,13534,vehicle,118.22702026367188,-2.1736080646514893,-0.003907325254277636,-0.00013071273717893682,-3.1081518724138864
708315452,13534,vehicle,88.73711395263672,99.7490234375,3.3751326487196994e-05,0.011920588739022252,1.567964987081979
1314594676,13534,vehicle,88.64353942871094,172.70008850097656,1.59341613438985e-07,0.0016482578280661675,1.5706996540473268
2302084468,13534,vehicle,312.6556091308594,330.5957336425781,-0.009874732134517792,0.0009012405159592843,-0.09101518640676086
757051778,13534,vehicle,305.15435791015625,199.05624389648438,-3.374122872640571e-05,3.73091927735028e-08,-0.0011057444846008996
4203008516,13534,vehicle,153.7655029296875,31.262548446655273,-0.0,0.0,1.5712791579005279
2631691725,13534,vehicle,312.3171081542969,199.05612182617188,9.482317335247845e-09,-2.3859026712686546e-11,-0.0025161545979068643
1513387753,13534,vehicle,297.91400146484375,59.32893371582031,4.0495068086626,-0.008030140483627145,-0.001982989617635838
156273220,13534,vehicle,92.52974700927734,97.55059051513672,-0.0016367724298604245,-5.690718415432483,-1.571083948192625
3812119762,13534,vehicle,110.91465759277344,55.83747863769531,-1.405327006098321e-08,1.4607420683081277e-11,3.1405532218163352
3616050434,13534,vehicle,335.4158935546875,308.00689697265625,-1.2248610899897957e-10,2.5277685596922205e-07,1.5712808889552365
2942158310,13534,vehicle,88.6122055053711,25.917118072509766,2.8802946632608993e-10,1.4694731762236533e-06,1.5706003181386667
3608800298,13534,vehicle,145.68064880371094,133.23402404785156,2.100709403917085e-08,-1.0182040248285698e-11,-0.0004846952858851307
1146464971,13534,vehicle,48.90517807006836,2.544822931289673,5.509293431175778,-0.0011737707106354415,-0.0002130528546970484
3013099654,13534,vehicle,-2.4029691219329834,91.5475082397461,0.0007503613035148529,5.821402501383993,1.5706674297981367
2246582517,13534,vehicle,88.6150894165039,105.10009765625,-6.220229781392482e-12,-4.5618292718903245e-08,1.5706599729470845
3192940987,13534,vehicle,338.8995361328125,306.80157470703125,-0.01600145803337503,-6.2086614401582505,-1.5733736009398207
828836647,13534,vehicle,88.64753723144531,300.9996032714844,-0.0,0.0,1.571899807592571
1702089089,13534,vehicle,395.9750671386719,190.31607055664062,-0.0010536879972524202,-3.7063523225275277,-1.5710806192412625
2111029583,13534,vehicle,54.974609375,330.44464111328125,0.006686711088909286,-2.820753912065907e-06,-0.0004218447166685513
420096522,13534,vehicle,142.90313720703125,129.73793029785156,-7.305037661454422,0.00939068849090918,3.140307145731612
510102133,13534,vehicle,158.44354248046875,25.244403839111328,-0.00037112726323521673,0.004332644382579649,-1.4853465395327776
4109025732,13534,vehicle,203.1160125732422,1.8988577127456665,10.45154257287219,0.002425468901658934,0.0002320680264378162
2913592560,13534,vehicle,241.6839599609375,1.936409592628479,3.6661772050242516,-0.000704933407470312,-0.000192280230703721
3970347779,13534,vehicle,128.59390258789062,59.41581726074219,-0.008747495247643736,0.0006292679195543526,-0.0718132207031795
1933996401,13534,vehicle,395.93560791015625,9.85030460357666,-0.00046551259836661424,-5.905304413567205,-1.5708751563631629
3047764241,13534,vehicle,27.50118064880371,2.051769256591797,5.927923371080508,-0.004540346363552764,-0.000765925129506789
1260711767,13534,vehicle,306.1383361816406,133.41566467285156,3.594966488066455e-08,-3.887035078711325e-11,-0.0010812433375535894
3957993155,13534,vehicle,335.0718994140625,33.63307189941406,5.549076744282776e-07,-0.000793164285436091,1.5714959392132604
4289594148,13534,vehicle,-2.410715103149414,142.88528442382812,0.0008783134865227694,3.9591969469494472,1.570574485476093
4139896837,13534,vehicle,205.93722534179688,129.48745727539062,-5.778159540119214,-0.0009509888935457983,-3.141428070234426
1686932955,13534,vehicle,175.89035034179688,-1.962573766708374,1.394361262496677e-06,-7.185446392752686e-10,3.1410773319188627
1726501337,13534,vehicle,382.9335021972656,-2.36635160446167,-5.713262215103525,-0.14769165103122556,-3.11574774047501
1682591593,13534,vehicle,245.53659057617188,330.4571838378906,6.899230853661822,-0.0011942943931016173,-0.00017310543834585983
3380823586,13534,vehicle,392.4406433105469,312.4618225097656,0.010748255461187612,7.219853983749615,1.5693076197455422
4176583038,13534,vehicle,215.0204315185547,1.9986580610275269,5.572466136069444,-0.0016265051450245669,-0.0002918824554726845
3855978784,13534,vehicle,305.56915283203125,330.5410461425781,-1.4689319640774333e-07,-3.1690080803122313e-11,0.00021573552136151786
1042098875,13534,vehicle,157.8470916748047,32.20794677734375,5.342196511695894e-10,-3.6758164053467105e-08,-1.5562639893585521
644930681,13534,vehicle,88.63038635253906,165.76617431640625,2.9559279626196887e-10,-1.1470955314297676e-07,1.5733732014656572
2234188147,13534,vehicle,358.0132751464844,-1.954957127571106,9.514144568227157e-05,6.73222791251036e-08,-3.140885051688159
4109707537,13534,vehicle,2.6227126121520996,251.8118133544922,-0.0024325763229413877,-12.122320884773657,-1.570996995983034
3675841917,13534,vehicle,203.91339111328125,55.83647155761719,-6.401246070803704,2.7276079142079345e-05,3.141588392532049
2817926641,13534,vehicle,123.24595642089844,55.75123596191406,0.947112735155039,-0.0008275713632065257,3.1407188704361384
4029506115,13534,vehicle,-2.288239002227783,81.97931671142578,-0.00026015012443308787,3.4639968774382455,1.5708714279376368
3277167701,13534,vehicle,88.64314270019531,33.223899841308594,1.5791190108354149e-07,0.001647080869294686,1.5707004529956536
518241310,13534,vehicle,24.37885284423828,-2.0860559940338135,-4.567849368799461,0.02134228867524175,3.1369204037733582
778540568,13534,vehicle,236.8853302001953,59.32487487792969,5.499905057072053,-0.0007587214124350285,-0.0001379517282114592
657465635,13534,vehicle,1.7203301191329956,161.59054565429688,8.956209151083756e-05,-14.621736526214962,-1.5707902015243893
835227171,13534,vehicle,134.6495819091797,59.32780456542969,-1.2181581037235776e-09,-2.5264661936636543e-13,0.00020740051309560257
715280319,13534,vehicle,118.0025863647461,195.2687225341797,5.567801677365363e-07,-6.513922630133745e-10,3.1404227269229215
3020211281,13534,vehicle,153.76817321777344,37.5069694519043,-6.214701481106975e-11,3.7653548062944496e-08,1.5724468208804732
2101598167,13534,vehicle,213.7074737548828,-1.9623323678970337,-5.778138083457158,-0.0009448301169628151,-3.1414291354988624
14974470,13534,vehicle,266.9508361816406,59.33310317993164,6.046478182556239,-0.0010370169140013726,-0.00017150759045574826
1398818972,13534,vehicle,113.24909210205078,133.680419921875,5.642369031723931,-0.0016408983257164636,-0.0002908172560552341
2694688339,13534,vehicle,2.317958116531372,294.39703369140625,-0.002522366620494685,-8.935212732963418,-1.571078621870445
3916750283,13534,vehicle,116.79930114746094,326.93743896484375,0.00493520840438203,-2.3548948694049194e-05,3.136821067864698
1983197581,13534,vehicle,92.12187194824219,21.969289779663086,-0.0,-0.0,-1.5763142634154863
2942851653,13534,vehicle,243.57763671875,198.7650604248047,5.857874239824029,-0.0013416397244037721,-0.00022903183749216916
3949181016,13534,vehicle,88.6303482055664,112.13860321044922,-4.778963263749543e-10,1.8402893907868222e-07,1.5733931751738328
3672416715,13534,vehicle,342.79119873046875,324.6600646972656,-5.405051011149339,-2.6307549096758702,-2.688624105893704
3325384226,13534,vehicle,224.4362030029297,55.8431282043457,-5.528760400078092,0.0006051555629023262,3.141483197668991
1359910869,13534,vehicle,154.24229431152344,24.731571197509766,0.0004318148754749983,4.244600274055649,1.5706945940412556
2262630317,13534,vehicle,60.978050231933594,330.6838073730469,0.003910626196066153,0.00014027742447675787,0.03585546101390342
805172996,13534,vehicle,123.98622131347656,195.37510681152344,-0.6726411842318879,0.03163330526195601,3.0945987793103638
1986857511,13534,vehicle,-2.3474252223968506,152.1230926513672,0.0003534448602623391,3.666195852408622,1.5706999203634358
1279946346,13534,vehicle,123.5477523803711,2.0365097522735596,4.015535204960409,0.0366795437979876,0.009134155679835007
74618890,13534,vehicle,282.1053771972656,198.75497436523438,5.499821610973494,-0.0007557805186625693,-0.00013741909599344337
3085549129,13534,vehicle,392.52154541015625,145.662841796875,-0.009322054093154947,19.703752219867635,1.571269437362549
2057201815,13534,vehicle,167.82040405273438,198.97474670410156,5.972593719327197,-0.0008811911570005444,-0.00014753910813574447
1015694095,13534,vehicle,66.94755554199219,330.46124267578125,5.497704891643955e-08,-2.368958597171512e-11,-0.00043089952939340205
1250507297,13534,vehicle,225.07330322265625,-1.9458190202713013,-5.4046710699071925,-0.002544772702672286,-3.141121806709067
4280502996,13534,vehicle,48.1365966796875,331.2248840332031,0.38214207994043536,-0.00011337245503456909,-0.0002966761779441178
3428459672,13534,vehicle,66.85582733154297,2.01306414604187,-0.0001630913078645746,1.3186517463610797e-07,-0.0008085357069480567
414519966,13534,vehicle,260.84625244140625,327.045166015625,-5.5238823778792465,0.00035159262837196966,3.1415290040397403
2866945113,13534,vehicle,293.4079284667969,330.45635986328125,2.572996235832111,-0.0008551675869664522,-0.00033236253655117957
1853482628,13534,vehicle,1.7237085103988647,16.170507431030273,0.0009443028959831467,-5.929426594881024,-1.5706370697617098
3880166169,13534,vehicle,335.5068664550781,291.3006286621094,0.0010929937510458846,5.572466743089873,1.5706001849806122
1073352953,13534,vehicle,372.0358581542969,-2.3772799968719482,2.7637378095767375e-07,-5.751330310877566e-10,3.1395116595140053
213556023,13534,vehicle,197.79226684570312,327.03240966796875,-5.857873435658885,0.00021996649462691577,3.141555103018423
1628590046,13534,vehicle,1.6727137565612793,95.5297622680664,-0.00053462812409871,-5.639029477524998,-1.5708911353297035
4120465129,13534,vehicle,313.6098937988281,133.22540283203125,4.304355912841558e-08,1.6047142129991488e-10,0.003728099652981454
1015227284,13534,vehicle,224.4362030029297,129.75315856933594,-5.528759446564748,0.0006036830608127269,3.1414834639851
2900396540,13534,vehicle,181.6448211669922,-1.9666929244995117,-0.001325236657858019,-4.867658244429522e-06,-3.1379196218143557
3587539486,13534,vehicle,396.6459655761719,277.1980895996094,-0.0020791009717762276,-7.982506481255797,-1.5710567839495064
1146849989,13534,vehicle,289.8669128417969,133.104736328125,5.493255032150152,0.0034124533757340344,0.0006212078115448522
1457681385,13534,vehicle,395.8615417480469,180.7960662841797,-0.0010544707426862786,-3.666176167478139,-1.571083948192625
1726747598,13534,vehicle,115.30120849609375,129.7045440673828,-0.028131642782331937,0.0024819087627139156,3.053595685903068
367118466,13534,vehicle,392.4794921875,290.31793212890625,0.0012917576479590724,10.949136657809273,1.570678348758606
2065705843,13534,vehicle,223.00257873535156,133.22068786621094,5.721787283190227,-0.001392756998515722,-0.00024341292363324238
3978545900,13534,vehicle,334.8525390625,279.333984375,0.0007427169214342282,6.0495762369089014,1.570673555068644
714679325,13534,vehicle,343.1576232910156,1.9513098001480103,5.534978121975067,-0.02257672801389075,-0.00407889648526806
3262285446,13534,vehicle,140.1881103515625,55.74542999267578,-5.686154169306069,-0.0027666527250328706,-3.1411060940586357
1401880247,13534,vehicle,152.4073944091797,195.26864624023438,-5.778141421317221,-0.0009448306627633253,-3.1414291354988624
2250339631,13534,vehicle,173.2989959716797,129.73472595214844,-6.046485899640409,-0.00012238102146253863,-3.1415724135655085
2525145270,13534,vehicle,92.5521240234375,167.20040893554688,-0.0019212182599722713,-5.523776197111133,-1.571144135633261
1825059061,13534,vehicle,313.6132507324219,2.012180805206299,-0.031179796271156333,1.969633435024889e-05,-0.000631701745548214
346279610,13534,vehicle,110.9823226928711,194.9922637939453,7.572704589930674e-09,-3.567425784507647e-11,3.136881787937552
893025708,13534,vehicle,395.9349670410156,265.36181640625,-0.0018697018987311042,-5.821402249490814,-1.5711175040223602
1724402154,13534,vehicle,88.61559295654297,279.51904296875,0.0019291876875364828,5.650527624772581,1.5704549095431484
2595182244,13534,vehicle,207.7278594970703,198.7650604248047,5.857886637589816,-0.001341642563886901,-0.00022903183749216916
874453657,13534,vehicle,392.54296875,208.05462646484375,0.027215956406759396,15.004267804865231,1.5689824477764436
1498616609,13534,vehicle,92.17333984375,48.996673583984375,0.02147795809444546,-4.092022320048054,-1.565547635760514
505512523,13534,vehicle,202.96505737304688,133.22132873535156,8.23650493642796,0.003069605486732072,0.00037268299701258127
3709073522,13534,vehicle,231.02337646484375,195.5663299560547,-6.401246070803704,2.7276079142079345e-05,3.141588392532049
27029540,13534,vehicle,1.474801778793335,125.86884307861328,-0.0020691256193514536,-7.93204137517748,-1.57105718342367
1375770528,13534,vehicle,338.9052734375,273.4867858886719,0.0026345747568700248,-8.7429605329236,-1.5704949901175542
4266869573,13534,vehicle,15.836915016174316,-2.05722975730896,-3.666177988051198,2.9290867706782423e-06,3.141591854641466
368528135,13534,vehicle,2.5230042934417725,308.8631896972656,-0.11748561272976946,-6.097544948296789,-1.5900616341205298
4012051816,13534,vehicle,338.9733581542969,228.75657653808594,-3.849086140790585e-10,-1.3534070553307127e-07,-1.5736403165229922
3938307140,13534,vehicle,92.08470153808594,242.39732360839844,-0.0019413293886947403,-5.721795706432956,-1.5711356135177728
1966079641,13534,vehicle,13.530720710754395,331.2045593261719,5.652253317688655,0.11824705075386269,0.020917286955755378
1759883367,13534,vehicle,-2.415656566619873,243.98751831054688,-0.0006352871094444328,9.939427355490993,1.5708602426610585
3487645883,13534,vehicle,155.35812377929688,129.77496337890625,-5.838732460156535,0.001739987434564824,3.1412946458638134
544848518,13534,vehicle,92.24698638916016,35.244483947753906,1.76401451632592e-07,0.00016147633692411813,-1.571888755474047
1325658571,13534,vehicle,128.57786560058594,129.74827575683594,-4.9092967726621165e-09,5.696452473148817e-12,3.1404323143028456
921579549,13534,vehicle,117.53841400146484,55.82072067260742,-2.491019188540927e-05,-2.3676700942493274e-08,-3.140642171396744
4072577581,13534,vehicle,92.41218566894531,301.47076416015625,-0.003693534262694049,-6.8675336442129105,-1.571334152177038
94066344,13534,vehicle,298.6414489746094,133.25936889648438,1.0124732543244748,-0.0030587820695763637,-0.0030210899405858876
2853390219,13534,vehicle,299.99749755859375,330.5155029296875,-0.030110691164999127,-9.313511856820113e-06,0.0003093091257444027
2524564450,13534,vehicle,1.6196976900100708,79.3154525756836,-0.0027886719206969245,-5.518463383833419,-1.5713016616117392
1882516347,13534,vehicle,-2.158395290374756,59.19589614868164,0.009269801738042255,10.69190767896504,1.5699293347020213
815178544,13534,vehicle,204.42266845703125,330.4231872558594,5.708193886909812,-0.002052248283178095,-0.0003595267146514065
2188308515,13534,vehicle,113.30733489990234,199.22349548339844,6.112405399979629,-0.01770760628127832,-0.0028969866337881954
1160083145,13534,vehicle,384.9302978515625,326.1330871582031,-7.175901984961169,1.4308625847826177,2.9447757279691222
1832698586,13534,vehicle,163.8233642578125,326.96630859375,-6.401246070803704,2.7276079142079345e-05,3.141588392532049
3748346955,13534,vehicle,130.95359802246094,1.9197720289230347,-0.9612058854906207,0.00016536604495850934,-0.00017204019016447346
3198444053,13534,vehicle,125.30118560791016,327.09576416015625,-3.332545038781419,-0.00014732673111461859,-3.141548445115698
808811405,13534,vehicle,338.93572998046875,221.6464080810547,-4.702896916960567e-07,-0.0016473019988442572,-1.571081817663753
84250811,13534,vehicle,267.2263488769531,133.53729248046875,8.503303585665572,0.06530401505844564,0.007679689495988296
3956289865,13534,vehicle,88.6192398071289,306.89337158203125,5.130131758876764e-11,4.900982177391237e-08,1.5697495713284408
1912328786,13534,vehicle,365.2416687011719,-1.9526509046554565,1.1287900901973755e-08,1.1351225648889432e-11,-3.1405870439621792
4030311199,13534,vehicle,338.9547119140625,239.01942443847656,-0.0007684423908516437,-5.811585375526555,-1.570928552743019
3147513812,13534,vehicle,392.4748229980469,255.7015380859375,8.93649813321505e-05,14.58955669375707,1.5707902015243893
1663586846,13534,vehicle,262.3126220703125,330.4211120605469,5.686196698349312,-0.0010963719705585054,-0.00019281287917638216
