id,timestamp_ms,agent_type,x,y,vx,vy,psi_rad
-1,17286,vehicle,392.19427490234375,65.95765686035156,0.0017496645253082743,13.68724716447483,1.570668495062573
2985032057,17286,vehicle,92.10222625732422,25.90784454345703,-0.003474869163530663,-4.646691453557331,-1.5715441424289909
3028941286,17286,vehicle,396.9256591796875,273.24554443359375,-0.0030611322577743846,-8.828230327135147,-1.571143070368825
2920337868,17286,vehicle,392.0103759765625,135.16485595703125,-0.0008401201850400134,22.613603576313253,1.5708334778921031
1503980471,17286,vehicle,92.19307708740234,41.19698715209961,4.764197801385365e-10,-2.3561718060799374e-07,-1.5687743217372538
2125414330,17286,vehicle,395.18560791015625,6.05995512008667,-1.061406565993936,-5.965821196910577,-1.7468685591043953
2396446624,17286,vehicle,215.0907440185547,327.02618408203125,-5.902600765086772,4.087089939036279e-05,3.141585729370959
4076155829,17286,vehicle,112.6908187866211,-1.9415769577026367,-1.8809520025268444e-06,-3.035622606730755e-10,-3.1414312660277344
130361148,17286,vehicle,92.39868927001953,257.4376220703125,-0.0020724801245170115,-6.898963140094244,-1.5710967313658575
3417340120,17286,vehicle,198.7377471923828,330.4876403808594,5.94615445688171,0.0012789309362614169,0.0002150853843124462
2197730220,17286,vehicle,188.16664123535156,-1.9410480260849,-0.014505258761183972,7.351259321120601e-06,3.141085854034351
118743835,17286,vehicle,310.4499206542969,59.33587646484375,4.642515063236515,0.0023526086471475863,0.0005067530021378677
904053063,17286,vehicle,178.70040893554688,55.8249397277832,8.407469640082873e-08,-1.311409486454187e-10,3.140032840139334
1291681130,17286,vehicle,173.62905883789062,195.60205078125,-5.775539194198836,0.0015350429235165006,3.1413268701130033
715062232,17286,vehicle,320.04388427734375,59.31487274169922,5.714538736631746,-0.0030072225647431766,-0.0005262405988903669
220877689,17286,vehicle,115.32345581054688,129.75582885742188,-3.7312817487506793,-0.00025339361180861736,-3.1415247429819964
2069714320,17286,vehicle,-2.393254280090332,301.0939025878906,0.00813001203287924,8.406351926471945,1.5698291998450342
3190467641,17286,vehicle,118.23693084716797,-2.334017753601074,-0.0042231976813292705,-0.00036329140813952344,-3.055781075893587
708315452,17286,vehicle,88.74373626708984,99.7533950805664,3.557937277091621e-05,0.011901815326767783,1.5678069284712826
1314594676,17286,vehicle,88.64353942871094,172.70884704589844,1.589976212161965e-07,0.00164696806274286,1.5706997872053812
2302084468,17286,vehicle,312.6442565917969,330.4493713378906,-0.01041804171290924,0.0011834232975814099,-0.11310880409957184
757051778,17286,vehicle,308.2211608886719,199.05520629882812,3.6842415097353167,-0.0013893407208277195,-0.00037710357784592947
4203008516,17286,vehicle,153.76797485351562,38.4885139465332,0.003977659413780923,6.187181147859656,1.5701534397077515
2631691725,17286,vehicle,319.61248779296875,199.05038452148438,5.891628551269662,-0.0014999978663457886,-0.00025459816770228454
1513387753,17286,vehicle,300.7798767089844,59.32693862915039,3.205576867405101,-0.0018013001415080267,-0.000561926924988138
156273220,17286,vehicle,92.51567840576172,80.53761291503906,0.00010166678529813952,0.06550308622781623,-1.5723484170781947
3812119762,17286,vehicle,97.4761734008789,55.15044403076172,-7.6940276934380565,-1.1386124696920348,-2.994672447836738
3616050434,17286,vehicle,335.34197998046875,315.7252502441406,-0.2716120004177552,6.407575954462958,1.6131601623611687
2942158310,17286,vehicle,88.60150909423828,25.917118072509766,-5.834114080733849e-10,-2.972418712532071e-06,1.5706000518225578
3608800298,17286,vehicle,145.68064880371094,133.23402404785156,0.0,-0.0,-0.0004846952858851307
1146464971,17286,vehicle,60.19754409790039,2.548063039779663,-0.0007482950665885781,6.361115380046041e-07,-0.0008500809549347115
3013099654,17286,vehicle,-2.399465560913086,113.10093688964844,0.0007526879748234519,5.821411560989709,1.5706670303239731
2246582517,17286,vehicle,88.6150894165039,105.10009765625,1.3180248095148955e-11,9.66620907656681e-08,1.5706599729470845
3192940987,17286,vehicle,338.88787841796875,284.8840637207031,-0.0014128131954584953,-5.628671945645194,-1.5710473297276366
828836647,17286,vehicle,88.6478500366211,302.69476318359375,0.0022741631897975805,3.7103352729774346,1.5701834002700148
1702089089,17286,vehicle,395.9641418457031,171.393310546875,-0.009821273648358672,-7.673374089708778,-1.5720762420147887
2111029583,17286,vehicle,54.973567962646484,330.44464111328125,-0.00033224318569245975,1.4351734653336647e-07,-0.00043196472881085245
420096522,17286,vehicle,132.66116333007812,129.73159790039062,-3.008188548257161,-0.006852869913624999,-3.1393145855933393
510102133,17286,vehicle,158.6227569580078,16.186885833740234,0.0035513158349441067,-6.028464224971551,-1.570207235561771
4109025732,17286,vehicle,224.67601013183594,1.8866491317749023,3.222176826834221,-0.002728814185663282,-0.0008468850966080352
2913592560,17286,vehicle,260.8516845703125,1.9327352046966553,4.7649239617811086,-0.0009136628152882604,-0.00019174761474035048
3970347779,17286,vehicle,128.5828399658203,59.24298095703125,-0.010238876633011564,0.0010642196495238673,-0.10356721390127914
1933996401,17286,vehicle,385.6849670410156,-2.11723256111145,0.041340945381509786,0.005556533529188826,-3.007985856442153
3047764241,17286,vehicle,49.0551643371582,2.045984983444214,5.893760175080362,-0.0005870315797334648,-9.960221664164085e-05
1260711767,17286,vehicle,309.7835998535156,133.41441345214844,5.019220008274112,-0.0018580115670999151,-0.00037017932650243283
3957993155,17286,vehicle,335.0718994140625,33.63330078125,-1.4498884480331582e-10,2.0720219752034171e-07,1.571496072371315
4289594148,17286,vehicle,-2.4046683311462402,161.60166931152344,0.000640066933602567,6.531006781684652,1.5706983224667816
4139896837,17286,vehicle,184.6272430419922,129.48806762695312,-5.688211431628772,0.0003272102648687006,3.1415351293102476
1686932955,17286,vehicle,175.89035034179688,-1.9625705480575562,1.154303578443278e-06,-5.948377014587734e-10,3.1410773319188627
1726501337,17286,vehicle,378.89569091796875,-2.3898520469665527,2.0871004295617587e-05,5.912919035701334e-08,-3.138759582822167
1682591593,17286,vehicle,271.3622131347656,330.45721435546875,6.899086848842184,-0.001194269577226154,-0.00017310545460050517
3380823586,17286,vehicle,378.9828186035156,326.2736511230469,-5.595394985041722,0.19310835476791208,3.107094331145016
4176583038,17286,vehicle,235.59376525878906,1.992612600326538,5.557438618824388,-0.0016043584496220704,-0.0002886866621645894
3855978784,17286,vehicle,305.56915283203125,330.5410461425781,1.524130008926735e-09,3.288091853932175e-13,0.00021573565139868049
1042098875,17286,vehicle,157.860595703125,27.98037338256836,0.01542515300021394,-5.422234529061472,-1.5679515381184739
644930681,17286,vehicle,88.63038635253906,165.76617431640625,-3.8374158516280237e-10,1.4891711270727645e-07,1.5733732014656572
2234188147,17286,vehicle,358.0130310058594,-1.9551936388015747,1.627061903643539e-05,1.237974895047776e-08,-3.1408317884663575
4109707537,17286,vehicle,2.610687255859375,205.965087890625,-0.00246477332469839,-12.48154615861396,-1.570993800189726
3675841917,17286,vehicle,183.99026489257812,55.83412551879883,-2.8386341217252444,0.0008618103798615148,3.141289053225524
2817926641,17286,vehicle,117.75302124023438,55.752288818359375,-4.386002540314012,4.905865148905561e-05,3.141581468313215
4029506115,17286,vehicle,-2.296427011489868,103.38028717041016,-0.0012710445219752434,4.3987935137211265,1.5710852797731703
3277167701,17286,vehicle,88.64314270019531,33.23319625854492,1.5769135297471516e-07,0.0016470680636303562,1.5707005861537082
518241310,17286,vehicle,4.607664585113525,-0.5973075032234192,-7.417847562933031,2.9156804297956542,2.767080831607438
778540568,17286,vehicle,260.1678161621094,59.32328414916992,7.432837391376785,-0.0011876903682480969,-0.00015978963289546366
657465635,17286,vehicle,1.7182008028030396,121.86922454833984,0.0016325394509992934,-6.439161093707918,-1.570542793859121
835227171,17286,vehicle,134.6495819091797,59.32780456542969,-9.730395169050416e-10,-2.018088979620043e-13,0.00020740051309560257
715280319,17286,vehicle,114.5617446899414,195.26954650878906,-5.849171625106595,0.00039566307214632145,3.141525009298105
3020211281,17286,vehicle,154.7362518310547,50.26630783081055,1.1284258473571884,5.731442199821181,1.3763992824987261
2101598167,17286,vehicle,194.0581817626953,-1.9611247777938843,-2.3771685146774293,0.0008179371561955703,3.141248573176955
14974470,17286,vehicle,288.79901123046875,59.33431625366211,5.902597787716123,-0.0011726797488781618,-0.00019867180106526583
1398818972,17286,vehicle,134.4040069580078,133.67657470703125,5.758651602701404,-0.0012268974625393736,-0.0002130529034609844
2694688339,17286,vehicle,2.3050379753112793,241.4361114501953,-0.003939795523911679,-13.109154109204306,-1.571096864523912
3916750283,17286,vehicle,116.79842376708984,326.9374694824219,1.192160381007491e-06,-5.688856127121464e-09,3.136820801548589
1983197581,17286,vehicle,92.11946105957031,15.080798149108887,0.0017206319065605489,-6.409586198647021,-1.5705278801570166
2942851653,17286,vehicle,265.5567626953125,198.76657104492188,6.176271334321452,-0.0011349397914425469,-0.0001837580827061768
3949181016,17286,vehicle,88.6303482055664,112.13860321044922,2.6174320486841436e-10,-1.0079241384499767e-07,1.5733931751738328
3672416715,17286,vehicle,338.88861083984375,304.0589904785156,-0.009848626832968992,-5.5464456857047235,-1.572571989451707
3325384226,17286,vehicle,195.681396484375,55.84053421020508,-5.408392309350482,0.001139310535541408,3.141381997547568
1359910869,17286,vehicle,154.24012756347656,30.164642333984375,0.0015885260271613123,4.9706780756377285,1.570476747464087
2262630317,17286,vehicle,60.96759033203125,330.84344482421875,0.004196629204556906,0.0003791621019036542,0.09010456008390029
805172996,17286,vehicle,122.54678344726562,195.1979217529297,-4.314623902583567,0.22298481278718332,3.089957422162574
1986857511,17286,vehicle,-2.3452377319335938,174.8778533935547,0.0009979606009157393,10.351597737844797,1.5706999203634358
1279946346,17286,vehicle,125.5278549194336,2.056436061859131,0.02910286306998826,-0.0004342651411083528,-0.014920625282980639
74618890,17286,vehicle,300.4224853515625,198.7535858154297,2.095239706936583,-0.0008459219763972574,-0.0004037351562374312
3085549129,17286,vehicle,392.5246276855469,216.24020385742188,1.6612503532047858e-05,17.822540283195384,1.5707953946885151
2057201815,17286,vehicle,189.4071044921875,198.97509765625,5.991597506061361,-0.0013243970346425381,-0.0002210423867312221
1015694095,17286,vehicle,66.94755554199219,330.46124267578125,-1.6609155458909878e-06,7.156877713815796e-10,-0.00043089952939340205
1250507297,17286,vehicle,203.63905334472656,-1.9450732469558716,-4.63436770725876,-0.0025696187699431224,-3.1410381834508385
4280502996,17286,vehicle,48.153709411621094,331.2244567871094,-4.5346215735032454e-07,1.3694667991150866e-10,-0.00030200243510569496
3428459672,17286,vehicle,66.85588836669922,2.0130629539489746,-5.3822422245643035e-08,4.351735970290591e-11,-0.0008085357069480567
414519966,17286,vehicle,239.64845275878906,327.0450439453125,-5.601754662220985,0.00018797152573315422,3.1415590977600583
2866945113,17286,vehicle,294.2904968261719,330.4563903808594,-1.4224045532455729e-06,6.318538177398802e-10,-0.00044421523731592627
1853482628,17286,vehicle,13.752450942993164,2.6114501953125,5.655191938027559,-0.3319263657415921,-0.05862683239819355
3880166169,17286,vehicle,335.51611328125,305.75836181640625,0.006424533153637219,4.736638003735424,1.5694399788517193
1073352953,17286,vehicle,372.0358581542969,-2.3772799968719482,-1.1199227276776408e-09,2.3305559258240688e-12,3.1395116595140053
213556023,17286,vehicle,175.81314086914062,327.02655029296875,-6.176174640445039,-5.0989258764591354e-05,-3.141584397790414
1628590046,17286,vehicle,1.6661733388900757,74.24855041503906,-0.0021053269081735006,-5.778777692665061,-1.5711606472320194
4120465129,17286,vehicle,320.0690612792969,133.22459411621094,5.718978499710728,-0.0031344497708279263,-0.0005480785523383073
1015227284,17286,vehicle,196.42572021484375,129.75106811523438,-6.63355308317717,-0.0023655070198737903,-3.1412360563198316
2900396540,17286,vehicle,181.6448211669922,-1.966630220413208,-0.001325228795646963,-4.978450845339222e-06,-3.1378359985561275
3587539486,17286,vehicle,396.6395263671875,254.14358520507812,-0.002326903498222268,-8.67233149782777,-1.5710646402747221
1146849989,17286,vehicle,293.75946044921875,133.2749786376953,1.0041259885137872,-0.06276577465359964,-0.06242664728627542
1457681385,17286,vehicle,395.85498046875,156.97865295410156,-0.0032247537080462418,-11.21180011150226,-1.571083948192625
1726747598,17286,vehicle,105.74034881591797,129.93649291992188,-5.845063303552363,0.023704560362856144,3.1375371918818207
367118466,17286,vehicle,391.6339416503906,321.7001647949219,-2.5538638174150163,5.6444031240918475,1.9956936918629513
2065705843,17286,vehicle,244.5732421875,133.21560668945312,6.012619678352528,-0.001879876340054872,-0.0003126551119753026
3978545900,17286,vehicle,334.8428955078125,297.5714111328125,-0.00571539718461986,2.803883211090918,1.5728347102932432
714679325,17286,vehicle,364.4810791015625,1.928804636001587,5.618414769740851,-0.0011072430409342414,-0.00019707392066586362
3262285446,17286,vehicle,127.30654907226562,55.75103759765625,-4.406501546240796,0.0032213194139759003,3.1408616158705662
1401880247,17286,vehicle,131.77117919921875,195.27040100097656,-4.453102055910015,0.0007056300293707314,3.1414341955049334
2250339631,17286,vehicle,151.5229034423828,129.7299346923828,-4.763677623847306,0.009518649270718682,3.139594483823907
2525145270,17286,vehicle,92.54637145996094,154.58172607421875,-1.0525145455157431e-06,0.0012098956000415801,-1.5699264052248223
1825059061,17286,vehicle,313.625732421875,2.0121803283691406,0.0,-0.0,-0.0006253102239506051
346279610,17286,vehicle,103.4244384765625,195.04478454589844,-6.201289677091641,0.1967203592638234,3.1098807965935658
893025708,17286,vehicle,395.92620849609375,243.80838012695312,-0.001869703583372676,-5.821407494699284,-1.5711175040223602
1724402154,17286,vehicle,88.61664581298828,294.3188781738281,0.00035647121142031194,1.4186821728128345,1.5705450575460476
2595182244,17286,vehicle,229.70700073242188,198.7666015625,6.176274671576122,-0.001138230087678875,-0.00018429071492419264
874453657,17286,vehicle,392.5535583496094,266.5672302246094,-0.014201425374058373,13.488156471854785,1.5718492075318595
1498616609,17286,vehicle,92.17974090576172,47.55991744995117,-1.2786298211305276e-09,2.0989852987978425e-07,-1.5647047452755038
505512523,17286,vehicle,231.9419708251953,133.21881103515625,5.6351888644741255,-0.001470726865464481,-0.0002609898030824107
3709073522,17286,vehicle,200.86524963378906,195.5697784423828,-6.8144119188453764,-0.0064570164531141975,-3.140645100873943
27029540,17286,vehicle,1.4687848091125488,104.10308074951172,-0.0017405164018565536,-6.410522701491486,-1.5710678360680301
1375770528,17286,vehicle,338.8948669433594,244.3490447998047,-0.04850897386082345,-3.8533555000564172,-1.5833844234774286
4266869573,17286,vehicle,-1.5321557521820068,8.915512084960938,0.036978237332712056,5.877210159789017,1.5645046087195844
368528135,17286,vehicle,2.6506218910217285,265.7921142578125,0.0754867940762723,-12.719939358187714,-1.5648618717798186
4012051816,17286,vehicle,338.9733581542969,228.75657653808594,1.5069067763162725e-10,5.298551885287784e-08,-1.5736403165229922
3938307140,17286,vehicle,92.14279174804688,220.95179748535156,0.0337732026112502,-4.550846666038729,-1.5633751621012817
1966079641,17286,vehicle,37.52116012573242,331.2388610839844,6.071742966702466,-0.0007373533048532662,-0.0001214401375802906
1759883367,17286,vehicle,-2.4131920337677,279.4178161621094,0.002617862722108078,9.291027653958412,1.5705145643515661
3487645883,17286,vehicle,141.41514587402344,129.77264404296875,-0.963842570711692,-0.0021438517152149246,-3.139368381447359
544848518,17286,vehicle,92.24711608886719,34.71134567260742,-0.0012690225775123312,-2.01526673415818,-1.5714260312346457
1325658571,17286,vehicle,125.86856079101562,129.7501678466797,-5.186082124781245,0.002723602833384859,3.1410674782228294
921579549,17286,vehicle,109.56034851074219,55.80924987792969,-5.242500682616965,-0.003322866917153319,-3.1409588212503543
4072577581,17286,vehicle,92.40106964111328,275.6782531738281,-0.002074923251306208,-6.897923157470801,-1.571097130840021
94066344,17286,vehicle,299.8714294433594,133.2592315673828,3.4897939222138397,-0.0008085678123283415,-0.0002316949985822484
2853390219,17286,vehicle,299.99432373046875,330.5154724121094,-4.676302079096885e-07,-1.4259410097352348e-10,0.0003049291815243675
2524564450,17286,vehicle,1.6099592447280884,57.48457336425781,-0.001030268445702913,-5.970049769195087,-1.5709688996335338
1882516347,17286,vehicle,-2.1487789154052734,89.55325317382812,2.153888575211772e-05,6.739761829341804,1.5707931310015886
815178544,17286,vehicle,225.64085388183594,330.41302490234375,5.77554451572831,-0.002642491276971706,-0.0004575310752756131
2188308515,17286,vehicle,134.86062622070312,199.21630859375,6.143007103293644,-0.0028302488263510536,-0.00046072690109299884
1160083145,17286,vehicle,361.7925720214844,326.56463623046875,0.5342347789632393,-0.0005481870297572053,3.1405665376217855
1832698586,17286,vehicle,134.07005310058594,326.9682312011719,-5.772054085021032,-0.0035047958763160763,-3.1409854528612553
3748346955,17286,vehicle,131.64976501464844,1.9195939302444458,-0.9612058809486747,0.00018994056759420773,-0.00019760653662923415
3198444053,17286,vehicle,121.80814361572266,326.81451416015625,0.6577868835368939,0.06999194336931548,-3.035586325347516
808811405,17286,vehicle,338.93170166015625,221.6376495361328,-4.70286434615986e-07,-0.0016472905901431833,-1.571081817663753
84250811,17286,vehicle,287.06085205078125,133.5953826904297,-0.6287163200933836,0.004617668119917173,-0.007344465134071873
3956289865,17286,vehicle,88.619873046875,313.0307922363281,-0.00034361143542839144,6.499944677807354,1.5708491905425346
1912328786,17286,vehicle,365.2416687011719,-1.9526519775390625,9.770976416893208e-09,9.82579126813013e-12,-3.1405870439621792
4030311199,17286,vehicle,338.9559631347656,235.7322235107422,-1.7485934044557077e-09,2.524843543367055e-06,-1.5701037717534214
3147513812,17286,vehicle,392.48040771484375,300.1775207519531,0.0017278522739633657,9.44392283845779,1.570613367628008
1663586846,17286,vehicle,284.09967041015625,330.4078063964844,6.509909184179503,-0.004268354461485086,-0.0006556702603775084
