id,timestamp_ms,agent_type,x,y,vx,vy,psi_rad
-1,26063,vehicle,392.2181091308594,241.48016357421875,0.0008179444602311028,18.06664274271477,1.5707510530563653
2985032057,26063,vehicle,62.18688201904297,-1.963045597076416,-6.304581139468577,-0.0005708639176755959,-3.1415021061127306
3028941286,26063,vehicle,396.9065856933594,217.70974731445312,-0.001642302006099618,-5.409420240963147,-1.5710999271591657
2920337868,26063,vehicle,392.03118896484375,297.1559753417969,0.002961086573353204,11.310977548201459,1.5705345380597417
1503980471,26063,vehicle,100.33531188964844,2.103163003921509,5.606075057103493,-0.49430177617660837,-0.0879450859797391
2125414330,26063,vehicle,391.55084228515625,0.3841674029827118,-9.536627723950853e-09,-8.766910718797165e-09,-2.3982226343032123
2396446624,26063,vehicle,164.05941772460938,327.0108337402344,-5.863680839039314,7.651804061377822e-05,3.141579604100452
4076155829,26063,vehicle,112.6908187866211,-1.9214342832565308,6.400036833240493e-06,9.868666609390673e-10,-3.1414384565626774
130361148,26063,vehicle,92.38613891601562,226.82598876953125,1.6059073303276187e-10,2.6974184146560516e-07,-1.5713916764565838
3417340120,26063,vehicle,248.97021484375,330.4959716796875,5.895895403511815,0.0009565652467787053,0.00016224257265755218
2197730220,26063,vehicle,188.16998291015625,-1.9401477575302124,-6.677716833648832e-08,3.1548526776064766e-11,3.141120208812413
118743835,26063,vehicle,334.7076416015625,89.45250701904297,0.0020269150455752304,5.5012188992067825,1.570427878458084
904053063,26063,vehicle,178.70040893554688,55.8249397277832,2.100219841056459e-08,-3.2759538138202497e-11,3.140032840139334
1291681130,26063,vehicle,124.02080535888672,195.61642456054688,-5.744019250101569,0.001722470240335975,3.14129278165105
715062232,26063,vehicle,338.98651123046875,22.50446319580078,-5.734817048503794e-05,0.02425390780045436,-1.5684318392210697
220877689,26063,vehicle,92.90667724609375,91.83065032958984,-0.0003412271416934406,-2.2478704193522936,-1.5709481269770311
2069714320,26063,vehicle,34.33927536010742,331.1796875,0.0016895376452903627,2.440130407521142e-06,0.0014442582665824912
3190467641,26063,vehicle,118.27891540527344,-2.6085262298583984,-0.008130064975978575,-0.0014624290214933222,-2.963616793733106
708315452,26063,vehicle,88.75908660888672,99.76363372802734,3.559091490716883e-05,0.011901965235862965,1.5678059963649011
1314594676,26063,vehicle,88.64353942871094,172.72930908203125,1.590044430994271e-07,0.0016470387268428797,1.5706997872053812
2302084468,26063,vehicle,312.6162109375,330.16497802734375,-0.010471033141812545,0.0013661661581565315,-0.12973814786775825
757051778,26063,vehicle,334.6984558105469,228.3334197998047,0.0004709946432015562,5.875597458081493,1.5707161656460853
4203008516,26063,vehicle,116.64775085449219,55.69337844848633,-5.995469893746008,0.0013555900145974383,3.1413665512132454
2631691725,26063,vehicle,334.72576904296875,241.26290893554688,0.00043767838716287874,5.450926763129142,1.5707160324880307
1513387753,26063,vehicle,338.92779541015625,43.46359634399414,0.271479325125795,-5.629512843621093,-1.522609356347112
156273220,26063,vehicle,92.51573181152344,80.52529907226562,1.9731097245479503e-09,1.2747582977909815e-06,-1.5723441560204507
3812119762,26063,vehicle,92.35697937011719,20.290151596069336,-0.0006236093552047401,-6.137911764890595,-1.5708979263904832
3616050434,26063,vehicle,291.2342224121094,326.42962646484375,-5.984565734808951,-2.550058016956225e-05,-3.141588392532049
2942158310,26063,vehicle,88.58938598632812,25.917118072509766,2.9033931491915416e-10,1.4712626066297113e-06,1.5705989865581218
3608800298,26063,vehicle,189.47427368164062,133.22462463378906,6.947880163356966,-0.0012064167440695498,-0.00017363810307316634
1146464971,26063,vehicle,60.19769287109375,2.5480520725250244,-2.65421721955823e-08,2.2563000521020153e-11,-0.0008500809549347115
3013099654,26063,vehicle,-2.391270160675049,163.5205841064453,0.00075268828309026,5.82141394517548,1.5706670303239731
2246582517,26063,vehicle,88.6150894165039,105.10009765625,8.367682312244836e-12,6.136740836177294e-08,1.5706599729470845
3192940987,26063,vehicle,338.87249755859375,248.61105346679688,7.266799241320668e-08,6.340503224604998e-05,-1.5719424181700121
828836647,26063,vehicle,118.01168060302734,330.8376159667969,9.38460145892869,-0.018019760335598142,-0.0019201388858728055
1702089089,26063,vehicle,396.036865234375,99.32488250732422,-0.0009200859821475893,-8.50951761993589,-1.5709044511351538
2111029583,26063,vehicle,54.97136688232422,330.44464111328125,0.0067752103828221276,-3.067391243243131e-06,-0.0004527373853134705
420096522,26063,vehicle,88.6961669921875,137.56692504882812,-1.3462825626289017,4.791072063470731,1.844730408100992
510102133,26063,vehicle,201.63710021972656,1.8682911396026611,4.7312163597774335,-0.0008189993669531947,-0.00017310545460050517
4109025732,26063,vehicle,275.4252014160156,1.8456168174743652,4.403601902863468,-0.001393227051104582,-0.0003163835049921228
2913592560,26063,vehicle,308.28369140625,1.864036202430725,0.2510028835189118,0.0008719029912369752,0.0034736632190001553
3970347779,26063,vehicle,128.5548553466797,58.945579528808594,-0.010479639118442238,0.001350086361707521,-0.12812375625970904
1933996401,26063,vehicle,385.673828125,-2.1186752319335938,-1.4447697522492427e-07,-1.9390117601249583e-08,-3.008180799833947
3047764241,26063,vehicle,53.26544952392578,2.046077251434326,2.361084065116871e-08,1.066191908694413e-11,0.00045156877384246126
1260711767,26063,vehicle,338.99676513671875,105.36466217041016,0.0030926355925124504,-6.0294124301217975,-1.5702834019689473
3957993155,26063,vehicle,335.0718994140625,33.63330078125,2.2855128700101095e-10,-3.266204995077577e-07,1.571496072371315
4289594148,26063,vehicle,-2.404228687286377,181.4108123779297,-5.441238582707768e-10,5.719103595751402e-07,1.5717477410943275
4139896837,26063,vehicle,134.4971466064453,129.48907470703125,-5.550426901313285,-0.0008070797859349994,-3.141447244994275
1686932955,26063,vehicle,175.89035034179688,-1.9625625610351562,1.2092319352293756e-06,-6.231434765648456e-10,3.1410773319188627
1726501337,26063,vehicle,378.8957214355469,-2.4100029468536377,-7.381552717438635e-05,-2.077883991231418e-07,-3.1387776923175794
1682591593,26063,vehicle,281.6020202636719,330.4570617675781,1.2259285467372145e-07,-5.184574095913279e-11,-0.0004229099485952924
3380823586,26063,vehicle,368.77252197265625,326.3265380859375,-0.0,0.0,3.1383678318258164
4176583038,26063,vehicle,283.71942138671875,1.978469967842102,5.555930382100802,-0.0016068821289347587,-0.0002892192618733146
3855978784,26063,vehicle,305.56915283203125,330.5410461425781,0.0,0.0,0.0002157357326719071
1042098875,26063,vehicle,132.40992736816406,-1.9549269676208496,-5.5512977015425475,-0.0031903875594964,-3.141017943426554
644930681,26063,vehicle,88.63038635253906,165.76617431640625,-9.747919416847565e-10,3.782837384810099e-07,1.5733732014656572
2234188147,26063,vehicle,358.0129699707031,-1.9548426866531372,-1.8677076619317105e-07,-1.5852162116936816e-10,-3.140743904150385
4109707537,26063,vehicle,2.608518600463867,196.40345764160156,-0.0,-0.0,-1.5725963573756812
3675841917,26063,vehicle,183.96047973632812,55.83409118652344,-0.017441006093911644,-0.00013706684108999876,-3.133733931529078
2817926641,26063,vehicle,92.24359130859375,42.9349365234375,0.12244398866324493,-5.567744632206288,-1.5488082035707664
4029506115,26063,vehicle,-2.3376240730285645,153.646484375,-6.686593964144545e-05,2.9195039264651133,1.5708192299802712
3277167701,26063,vehicle,88.64314270019531,33.25494384765625,1.584305133953805e-07,0.0016479126567231824,1.5707001866795447
518241310,26063,vehicle,-2.727121114730835,65.82263946533203,-0.08380958264194106,9.650160212094017,1.579480895109645
778540568,26063,vehicle,315.73443603515625,59.31571960449219,5.642980077717395,-0.00048691254640065556,-8.628641931856732e-05
657465635,26063,vehicle,1.7743412256240845,70.89320373535156,0.07743820056161316,-5.862068363704934,-1.5575870477881035
835227171,26063,vehicle,134.6495819091797,59.32780456542969,-4.773569170530133e-08,-9.900407094608243e-12,0.00020740051309560257
715280319,26063,vehicle,92.40008544921875,164.41224670410156,-0.0011530857958433369,-3.63998609398759,-1.5711131098065616
3020211281,26063,vehicle,200.28790283203125,59.614070892333984,5.878019670927149,-0.0012773755677486594,-0.0002173139286958205
2101598167,26063,vehicle,193.7311248779297,-1.9614672660827637,-2.556233485127651e-07,1.2001908202946737e-10,3.141123138289612
14974470,26063,vehicle,335.930419921875,55.2581787109375,4.660647682880079,-3.9381400263016526,-0.7015707072923784
1398818972,26063,vehicle,170.65591430664062,133.66854858398438,5.647866132178745,-0.0011491456880902153,-0.00020346545851811782
2694688339,26063,vehicle,2.292745590209961,203.62313842773438,1.2616119587562365e-12,4.843836722849358e-09,-1.5710567839495064
3916750283,26063,vehicle,116.79842376708984,326.9374694824219,8.614397562958053e-07,-4.110694260455062e-09,3.136820801548589
1983197581,26063,vehicle,49.79751968383789,-1.9305431842803955,-5.521358910784773,0.0007866783548558956,3.141450174471474
2942851653,26063,vehicle,317.156494140625,198.7703857421875,6.19423434638648,-0.0005542737963220993,-8.94822126266624e-05
3949181016,26063,vehicle,88.6303482055664,112.13860321044922,-6.408681704004246e-10,2.46786348793886e-07,1.5733931751738328
3672416715,26063,vehicle,338.8674011230469,255.49583435058594,-7.154224003330438e-06,0.007298912140769087,-1.5698161503556929
3325384226,26063,vehicle,190.06900024414062,55.84153747558594,-0.0,0.0,3.1412288657848886
1359910869,26063,vehicle,187.99755859375,59.603309631347656,4.894045753236679,0.0038407191388021415,0.0007847736911329734
2262630317,26063,vehicle,60.92527770996094,331.1145324707031,0.008056836498011413,0.001458144020669999,0.17904415363845905
805172996,26063,vehicle,92.12344360351562,174.30625915527344,0.0030653781301968885,-4.89383410771013,-1.57016995130651
1986857511,26063,vehicle,-2.342132806777954,188.38003540039062,1.609375687670828e-07,0.0016466220762163138,1.5706985887828906
1279946346,26063,vehicle,127.20793914794922,2.393901824951172,0.6598199217947199,-0.024374403865804608,-0.03692420420410903
74618890,26063,vehicle,334.68548583984375,216.46463012695312,0.045774978799827,5.761934608222243,1.5628521172631902
3085549129,26063,vehicle,391.9740295410156,320.9927978515625,0.009438435620774165,-0.0349005288690701,1.8349165263259957
2057201815,26063,vehicle,239.83106994628906,198.9759063720703,5.510075913961952,-0.0012062209745387483,-0.0002189118578591587
1015694095,26063,vehicle,66.94755554199219,330.46124267578125,9.355768197569368e-07,-4.0313963629554407e-10,-0.00043089952939340205
1250507297,26063,vehicle,199.7627716064453,-1.94624924659729,-0.0,-0.0,-3.140322325749825
4280502996,26063,vehicle,48.153709411621094,331.2244567871094,3.01894637732657e-08,-9.117291851243704e-12,-0.00030200243510569496
3428459672,26063,vehicle,66.85588836669922,2.0130629539489746,-1.707883125118802e-07,1.3808847908612e-10,-0.0008085357069480567
414519966,26063,vehicle,190.03602600097656,327.0445251464844,-5.555585855241291,0.00025744030961575236,3.141546314586826
2866945113,26063,vehicle,294.2904968261719,330.4563903808594,6.205322576384436e-08,-2.756499022201213e-11,-0.00044421523731592627
1853482628,26063,vehicle,46.39567947387695,2.519810199737549,-9.293908510410132e-06,2.271667171401334e-08,-0.0024442489884003997
3880166169,26063,vehicle,304.3569030761719,326.4200439453125,-5.551535606313207,-2.8090803872424417e-05,-3.141587593583722
1073352953,26063,vehicle,372.0358581542969,-2.3772799968719482,3.2223515138828397e-10,-6.705704090264214e-13,3.1395116595140053
213556023,26063,vehicle,134.59756469726562,327.0172119140625,0.000572661851546906,-1.042553195888711e-06,3.139772116668615
1628590046,26063,vehicle,1.6507798433303833,24.518373489379883,-0.0008514060280191423,-5.516782218084134,-1.5709506569800666
4120465129,26063,vehicle,338.9845275878906,92.62132263183594,-0.0016266991807873297,-5.535252808916077,-1.571090206621187
1015227284,26063,vehicle,145.16514587402344,129.7509002685547,-5.724696829406994,-0.001802052419624537,-3.1412778679489457
2900396540,26063,vehicle,181.6448211669922,-1.9664727449417114,-0.0013252196690629909,-5.23217508818827e-06,-3.137644517273751
3587539486,26063,vehicle,396.6241455078125,204.33761596679688,-0.0013870084825243095,-5.540561979252678,-1.5710466639373641
1146849989,26063,vehicle,334.7322082519531,140.2432861328125,0.820683583470758,3.867416276831857,1.3616935732754176
1457681385,26063,vehicle,395.83453369140625,81.11901092529297,-0.0032250219706453287,-11.212732804945126,-1.571083948192625
1726747598,26063,vehicle,92.4061279296875,85.52793884277344,6.666749412244238e-06,0.00320773740417222,-1.5728746577095944
367118466,26063,vehicle,375.0947570800781,326.35400390625,5.511203409910887e-08,-4.038510048456576e-10,3.13426496585044
2065705843,26063,vehicle,294.9972229003906,133.203857421875,5.970415065348181,-0.0007727484654963512,-0.00012942960459588299
3978545900,26063,vehicle,356.9444580078125,330.8525695800781,6.246132092152444,0.02411074349387011,0.0038600886733936284
714679325,26063,vehicle,392.12030029296875,28.131216049194336,0.003931208373492334,5.630911408479661,1.5700981791151323
3262285446,26063,vehicle,90.97998809814453,59.74132537841797,-4.047180610411791,3.9218015105712385,2.37192658169977
1401880247,26063,vehicle,92.62562561035156,186.75076293945312,-0.605575853179659,-6.419139428910964,-1.6648570459676233
2250339631,26063,vehicle,110.73246002197266,129.73313903808594,-5.290731905945073,0.00010003950659765255,3.1415737451460535
2525145270,26063,vehicle,92.53423309326172,154.5819549560547,2.7352083304553034e-08,-3.171874689828485e-05,-1.5699339952339288
1825059061,26063,vehicle,313.625732421875,2.012181282043457,-1.0287860994598814e-06,6.433105500980996e-10,-0.0006253102239506051
346279610,26063,vehicle,88.17118835449219,235.7145233154297,1.246969325397033e-05,5.852862834917136,1.5707941962660246
893025708,26063,vehicle,395.9057312011719,193.38873291015625,-0.0018697040428203773,-5.821408925210685,-1.5711175040223602
1724402154,26063,vehicle,70.62289428710938,326.5423889160156,-5.918805442002516,0.01905563297962444,3.1383731581479966
2595182244,26063,vehicle,281.30670166015625,198.7703857421875,6.194226716991975,-0.0005542731639694757,-8.948222075398506e-05
874453657,26063,vehicle,388.6793212890625,324.6962890625,0.012090079694138023,-0.007309800694096438,2.59778927374939
1498616609,26063,vehicle,91.56349182128906,8.48232650756836,-0.7933185457896562,-5.889281444455208,-1.7046958053463366
505512523,26063,vehicle,284.1924743652344,133.20779418945312,6.194427952490655,0.00042501810626610577,6.861297102152206e-05
3709073522,26063,vehicle,136.76048278808594,195.56495666503906,-6.236603369410005,0.002140910422324045,3.141249372125282
27029540,26063,vehicle,1.4541752338409424,51.537166595458984,-0.0016643371193772389,-6.274577873749007,-1.5710615776394685
1375770528,26063,vehicle,338.8888244628906,241.85153198242188,-3.682996201623514e-05,-0.011761669147825888,-1.5739276716046118
4266869573,26063,vehicle,-1.5055958032608032,84.21538543701172,0.0003748586495015647,6.160045135536459,1.5707354735639882
368528135,26063,vehicle,2.8164165019989014,208.8421630859375,-0.0002870729331698409,-0.027906500366456373,-1.5810829196633822
4012051816,26063,vehicle,338.9733581542969,228.75657653808594,-1.3000365539092226e-10,-4.571159438606846e-08,-1.5736403165229922
3938307140,26063,vehicle,92.14663696289062,219.810791015625,1.7217520935678095e-10,-3.120175509436112e-08,-1.5652782570162525
1966079641,26063,vehicle,41.148319244384766,331.2388916015625,-5.046612016683799e-10,6.988768682724192e-15,-1.3848436652496706e-05
1759883367,26063,vehicle,9.312773704528809,330.9859313964844,5.870006903003727,0.8524640678154509,0.1442154993499709
3487645883,26063,vehicle,99.19602966308594,129.52783203125,-5.575127411999206,-0.36398468268061146,-3.0763979374724353
544848518,26063,vehicle,111.59963989257812,2.0923264026641846,5.697583873325669,-0.002934570972547433,-0.0005150552898027434
1325658571,26063,vehicle,92.40095520019531,111.01532745361328,-0.004984569158903615,-5.627400574855662,-1.571682094173457
921579549,26063,vehicle,92.29985046386719,31.72409439086914,0.009308206077101925,-5.185324897353144,-1.5690012230621286
4072577581,26063,vehicle,92.38365936279297,233.42501831054688,2.0982558662066e-08,3.604215934004805e-05,-1.571378493809188
94066344,26063,vehicle,334.4839782714844,150.27267456054688,0.017523588616750258,5.779513019254841,1.5677643178938414
2853390219,26063,vehicle,299.99432373046875,330.5154724121094,-1.511587513707791e-07,-4.609540375747075e-11,0.00030494696410635324
2524564450,26063,vehicle,3.0095934867858887,7.106992721557617,2.8353160529175683,-4.743123069694879,-1.032015136138165
1882516347,26063,vehicle,-2.1436920166015625,141.96714782714844,0.0021221875834691465,5.7041364536765435,1.5704242831906126
815178544,26063,vehicle,274.22344970703125,330.3899841308594,3.4709002971053433,-2.0335843035441783e-05,-5.858953382258991e-06
2188308515,26063,vehicle,185.40884399414062,199.2079620361328,5.605876857564461,-0.0008539588229888948,-0.00015233278184324176
1160083145,26063,vehicle,362.34600830078125,326.56256103515625,0.5668028865915671,-0.0006119464270185617,3.1405130080838752
1832698586,26063,vehicle,127.70616912841797,326.9648742675781,-0.017402707015347532,-4.010808303843809e-05,-3.1392879539824388
3748346955,26063,vehicle,133.27830505371094,1.9191275835037231,-0.9612058777909096,0.00020529964417949272,-0.0002135855031697096
3198444053,26063,vehicle,122.14652252197266,326.0232238769531,-0.02910238004074458,-0.010465764310362618,-2.7963745383338736
808811405,26063,vehicle,338.9222717285156,221.6171875,-4.7028593608332214e-07,-0.001647288843913427,-1.571081817663753
84250811,26063,vehicle,330.193115234375,132.59799194335938,7.21316927893722,-1.2890975122888524,-0.1768474452133072
3956289865,26063,vehicle,45.93842697143555,326.5669250488281,-5.696382921015817,0.0009451150159429392,3.1414267386538812
1912328786,26063,vehicle,365.2416687011719,-1.9526541233062744,8.285962389940903e-09,8.332446362102997e-12,-3.1405870439621792
4030311199,26063,vehicle,338.9559631347656,235.7322235107422,-7.514698318050197e-12,1.0850685745658666e-08,-1.5701037717534214
3147513812,26063,vehicle,382.0475769042969,326.14154052734375,5.943703217355409e-07,-7.042653195779935e-08,3.023653233135089
1663586846,26063,vehicle,287.7590637207031,330.4103088378906,-1.2369735465359385e-07,-1.5110976761855401e-10,0.0012216081166275092
