id,timestamp_ms,agent_type,x,y,vx,vy,psi_rad
-1,22445,vehicle,392.2116394042969,166.86380004882812,0.006186747644700475,22.103560535537323,1.5705164285643292
2985032057,22445,vehicle,84.45524597167969,-1.1165074110031128,-5.248206842687582,-2.072359481253802,-2.7655164907831256
3028941286,22445,vehicle,396.91412353515625,238.06216430664062,-0.0009344102384486723,-4.852905660315925,-1.5709888733417092
2920337868,22445,vehicle,392.0229187011719,242.26136779785156,0.005417233199197717,17.858967913125564,1.5704929927467366
1503980471,22445,vehicle,92.18412780761719,18.12608528137207,-0.0019532646304322864,-5.7956410931241376,-1.5711333498308462
2125414330,22445,vehicle,391.55084228515625,0.3841674029827118,-2.3673421420114082e-06,-2.17627004016698e-06,-2.3982226343032123
2396446624,22445,vehicle,185.1010284423828,327.01715087890625,-5.9406719207711,7.910483154294968e-06,3.141591322009248
4076155829,22445,vehicle,112.6908187866211,-1.9322729110717773,-3.294094499450057e-06,-5.18466828291577e-10,-3.1414352607693696
130361148,22445,vehicle,92.38612365722656,226.83493041992188,1.4128394252678563e-05,0.023641360427279556,-1.5713939401435104
3417340120,22445,vehicle,228.29090881347656,330.4926452636719,5.853046888342886,0.00025900375068148567,4.425109783901934e-05
2197730220,22445,vehicle,188.16998291015625,-1.9401488304138184,9.994114428668356e-07,-4.721667517662817e-10,3.141120208812413
118743835,22445,vehicle,334.653076171875,68.48735809326172,0.5560933543922257,5.896964957081676,1.4767727587193766
904053063,22445,vehicle,178.70040893554688,55.8249397277832,8.703023261827644e-09,-1.3575103752952394e-11,3.140032840139334
1291681130,22445,vehicle,144.4439239501953,195.610595703125,-5.814815263959561,0.0017297627668781473,3.1412951784960312
715062232,22445,vehicle,338.9749450683594,39.399723052978516,0.0578124644620389,-5.523937975032831,-1.5603309026592123
220877689,22445,vehicle,92.7039566040039,113.4598388671875,0.5743746740780722,-5.638717625883986,-1.4692838165760191
2069714320,22445,vehicle,13.098122596740723,331.23577880859375,6.393499760142668,-0.15968099468184793,-0.024970331012800953
3190467641,22445,vehicle,118.25858306884766,-2.4927666187286377,-0.008360201477969573,-0.0012854384527030726,-2.9890305410674047
708315452,22445,vehicle,88.75276184082031,99.75941467285156,3.559092604700116e-05,0.011901968961136607,1.5678059963649011
1314594676,22445,vehicle,88.64353942871094,172.7208709716797,1.5899212549807502e-07,0.001646911135650752,1.5706997872053812
2302084468,22445,vehicle,312.62762451171875,330.2769775390625,-0.010484634668481955,0.0013292473354711298,-0.12610772666976222
757051778,22445,vehicle,334.0640563964844,205.9017333984375,1.6769305265772447,6.712966418148659,1.3260014888720122
4203008516,22445,vehicle,137.6020965576172,55.68387222290039,-5.608106152715559,0.021064832214088256,3.1378365311883454
2631691725,22445,vehicle,334.7214660644531,220.08380126953125,0.012328058177321346,5.7997872936879356,1.5686707247708498
1513387753,22445,vehicle,328.30194091796875,58.70917510986328,5.934353794068146,-0.7745793208969709,-0.12979087845734183
156273220,22445,vehicle,92.51573181152344,80.52529907226562,5.935736757631115e-10,3.8348752687977117e-07,-1.5723441560204507
3812119762,22445,vehicle,92.3774185180664,40.18611145019531,-0.0574817787089894,-4.785376079875418,-1.582807715943372
3616050434,22445,vehicle,312.2596740722656,326.43585205078125,-5.735013462537937,0.0005070723895111302,3.1415042366416026
2942158310,22445,vehicle,88.59538269042969,25.917118072509766,1.324332366516665e-10,6.733626930153438e-07,1.5705996523483943
3608800298,22445,vehicle,164.25106811523438,133.23098754882812,7.299116430576895,-0.0016250772587721517,-0.0002226402671306243
1146464971,22445,vehicle,60.19769287109375,2.5480518341064453,3.39622593016113e-07,-2.8870676773200173e-10,-0.0008500809549347115
3013099654,22445,vehicle,-2.394648313522339,142.73690795898438,0.0007526882214368983,5.821413468338326,1.5706670303239731
2246582517,22445,vehicle,88.6150894165039,105.10009765625,-7.741726181074853e-12,-5.677673389724985e-08,1.5706599729470845
3192940987,22445,vehicle,338.8758544921875,255.63546752929688,-0.0012226671698009393,-5.558156355846535,-1.571016303900937
828836647,22445,vehicle,95.37171936035156,329.6640625,5.194917975856959,2.4101197681138,0.43438411079264855
1702089089,22445,vehicle,396.0478515625,129.96469116210938,-0.00048417240821170055,-8.301536545939344,-1.5708546500227694
2111029583,22445,vehicle,54.97230529785156,330.44464111328125,0.006775213202684208,-3.009653358915903e-06,-0.00044421526982521694
420096522,22445,vehicle,108.94957733154297,129.72525024414062,-4.196113616764346,-0.0027836746029248293,-3.1409292601622543
510102133,22445,vehicle,178.35003662109375,1.8751603364944458,2.363165335767528,-0.005219829071509017,-0.00220882580811172
4109025732,22445,vehicle,254.16824340820312,1.8583877086639404,4.002773804469965,-0.006453587589777236,-0.0016122774638596456
2913592560,22445,vehicle,291.6317138671875,1.926837682723999,4.743340405048985,-0.0009095242197165413,-0.00019174761474035048
3970347779,22445,vehicle,128.56649780273438,59.06039047241211,-0.010487628358213907,0.0012936174713929045,-0.12272709333725883
1933996401,22445,vehicle,385.673828125,-2.1186752319335938,1.6218066584199325e-07,2.1766113101616942e-08,-3.008180799833947
3047764241,22445,vehicle,53.26544952392578,2.046077251434326,-2.586857575299939e-08,-1.1681441827837338e-11,0.00045156877384246126
1260711767,22445,vehicle,337.7982482910156,126.02401733398438,2.2343049513088435,-5.41891467864832,-1.1797180449355946
3957993155,22445,vehicle,335.0718994140625,33.63330078125,3.909415631763262e-10,-5.586909193052608e-07,1.571496072371315
4289594148,22445,vehicle,-2.404228687286377,181.41053771972656,1.9938021202813995e-07,-0.00020956186173412878,1.5717477410943275
4139896837,22445,vehicle,155.07640075683594,129.48858642578125,-5.867295171517542,-0.001048474564102596,-3.141413955480649
1686932955,22445,vehicle,175.89035034179688,-1.9625658988952637,2.4841380762497376e-07,-1.2801302975907086e-10,3.1410773319188627
1726501337,22445,vehicle,378.8957214355469,-2.4037692546844482,-7.60881111145598e-05,-2.1471250671700013e-07,-3.138770768098745
1682591593,22445,vehicle,281.6020202636719,330.4570617675781,1.7524581177793848e-06,-7.411320166900012e-10,-0.0004229099485952924
3380823586,22445,vehicle,368.77252197265625,326.3265686035156,1.142651483166037e-06,-3.684860145100645e-09,3.1383678318258164
4176583038,22445,vehicle,263.8823547363281,1.9842987060546875,5.563240773978263,-0.0016030702929540409,-0.0002881540299465736
3855978784,22445,vehicle,305.56915283203125,330.5410461425781,-9.895417588208493e-09,-2.134793909833696e-12,0.0002157356026347445
1042098875,22445,vehicle,152.81591796875,-0.15316788852214813,-4.189538136215968,-4.074199481909677,-2.3701507858849054
644930681,22445,vehicle,88.63038635253906,165.76617431640625,-3.6935911001439746e-10,1.433357612053902e-07,1.5733732014656572
2234188147,22445,vehicle,358.0129699707031,-1.954847812652588,3.7116531348793096e-06,3.150264273965101e-09,-3.140743904150385
4109707537,22445,vehicle,2.608417272567749,196.40328979492188,-0.0,-0.0,-1.572605012649224
3675841917,22445,vehicle,183.96047973632812,55.834075927734375,-0.01741334772861382,-0.000136000770852273,-3.1337826673770266
2817926641,22445,vehicle,99.1529541015625,55.58849334716797,-6.386803414271593,-0.7897730242113109,-3.0185602038664214
4029506115,22445,vehicle,-2.3350977897644043,132.91702270507812,-0.0016044576996242673,4.490969848128371,1.5711535898551308
3277167701,22445,vehicle,88.64314270019531,33.24597930908203,1.5857514615489056e-07,0.0016471357008477992,1.5707000535214903
518241310,22445,vehicle,-2.611193895339966,38.079833984375,-0.02956310539279916,4.632104472430878,1.577178459189217
778540568,22445,vehicle,291.8674621582031,59.31944274902344,5.532017645863329,-0.000827975169080629,-0.0001496696532624532
657465635,22445,vehicle,1.715152382850647,91.86900329589844,-0.0019932627694578204,-5.999658730321689,-1.5711285561408839
835227171,22445,vehicle,134.6495819091797,59.32780456542969,-1.5736251962776653e-09,-3.2637067780776476e-13,0.00020740051309560257
715280319,22445,vehicle,92.44731140136719,184.8334197998047,-0.25479926531879227,-5.526382021788085,-1.61686967944354
3020211281,22445,vehicle,179.53073120117188,59.61833953857422,5.727380261784376,-0.0003996268375973222,-6.977480430543072e-05
2101598167,22445,vehicle,193.7311248779297,-1.9614672660827637,-1.2443653979011835e-07,5.842486362620938e-11,3.141123138289612
14974470,22445,vehicle,315.9279479980469,59.32515335083008,5.983834204785212,-0.0008605393848105578,-0.00014381069886427886
1398818972,22445,vehicle,150.0244140625,133.67405700683594,6.072229160462806,-0.0016527094962777605,-0.0002721750796607435
2694688339,22445,vehicle,2.2927439212799072,203.62380981445312,6.615364804313962e-07,0.0025347216588509705,-1.5710573165817243
3916750283,22445,vehicle,116.79842376708984,326.9374694824219,1.54582814843393e-06,-7.376519194727319e-09,3.136820801548589
1983197581,22445,vehicle,70.62306213378906,-1.9315191507339478,-5.88732600327509,-0.022290795143856075,-3.1378064374680275
2942851653,22445,vehicle,295.9819030761719,198.7688751220703,5.825806466356848,-0.0013280891584300381,-0.00022796657305613747
3949181016,22445,vehicle,88.6303482055664,112.13860321044922,1.7725461978751404e-10,-6.825743958679854e-08,1.5733931751738328
3672416715,22445,vehicle,338.87371826171875,273.7032165527344,-0.001716275233604289,-5.969897023498162,-1.5710838150345707
3325384226,22445,vehicle,190.06884765625,55.84153747558594,-0.0,0.0,3.1412363226359408
1359910869,22445,vehicle,160.47181701660156,58.99766540527344,7.191243757604276,2.834080734924425,0.375411238061502
2262630317,22445,vehicle,60.94551467895508,331.00054931640625,0.00813025497254941,0.0012695069804138739,0.1548952413743794
805172996,22445,vehicle,95.48391723632812,194.45114135742188,-9.340344060481396,-3.13794193565079,-2.8174838183982778
1986857511,22445,vehicle,-2.3420584201812744,188.37159729003906,3.4711511178744894e-07,0.0016241683253759894,1.5705826081174177
1279946346,22445,vehicle,126.48518371582031,2.2768664360046387,0.029190217041823303,-0.0009362893696654261,-0.03206445744395943
74618890,22445,vehicle,326.1790466308594,199.13121032714844,5.25267686217038,0.718355519287716,0.1359167148862557
3085549129,22445,vehicle,392.5234680175781,294.2633361816406,0.002334540173838191,12.24308563862827,1.570605644460847
2057201815,22445,vehicle,219.0531005859375,198.97555541992188,5.617702350830839,-0.0012237972480391333,-0.00021784657716848168
1015694095,22445,vehicle,66.94755554199219,330.46124267578125,3.723593745155055e-07,-1.6044948917440745e-10,-0.00043089952939340205
1250507297,22445,vehicle,199.7627716064453,-1.94624924659729,-3.412603834909312e-07,-4.335127990180111e-10,-3.140322325749825
4280502996,22445,vehicle,48.153709411621094,331.2244567871094,-1.0468133437877938e-08,3.1614018853628704e-12,-0.00030200243510569496
3428459672,22445,vehicle,66.85588836669922,2.01306414604187,-4.5484932141408603e-07,3.6776199778340106e-10,-0.0008085357069480567
414519966,22445,vehicle,210.45469665527344,327.04486083984375,-5.692032813991766,1.970644040756895e-05,3.141589191480376
2866945113,22445,vehicle,294.2904968261719,330.4563903808594,6.736670645017542e-08,-2.992531946131664e-11,-0.00044421523731592627
1853482628,22445,vehicle,43.23545837402344,2.521923065185547,5.233554683105595,-0.0025757053290259724,-0.0004921521369373526
3880166169,22445,vehicle,324.3642272949219,326.49853515625,-5.5342539123053704,-0.38258087544782043,-3.0725728391987546
1073352953,22445,vehicle,372.0358581542969,-2.3772799968719482,-6.0974178019795515e-09,1.2688708639832992e-11,3.1395116595140053
213556023,22445,vehicle,145.38818359375,327.01837158203125,-5.825792785638046,0.00021100433554538313,3.141556434598968
1628590046,22445,vehicle,1.6571595668792725,45.0458984375,-0.002934013674902904,-5.833748079630388,-1.571299264766758
4120465129,22445,vehicle,338.9738464355469,113.42229461669922,0.058259225431269275,-5.520126001504207,-1.5602427520271307
1015227284,22445,vehicle,165.14979553222656,129.75108337402344,-5.702380141455935,-0.0024252613453297025,-3.1411673467637073
2900396540,22445,vehicle,181.6448211669922,-1.9665402173995972,-0.001325235557786066,-5.128474350071666e-06,-3.1377228142097993
3587539486,22445,vehicle,396.6306457519531,225.6179962158203,-0.0013903256383870678,-5.426802457094869,-1.5710525228917622
1146849989,22445,vehicle,316.84295654296875,133.16368103027344,2.8272659443639387,-0.00043520306045796085,-0.00015393071100657996
1457681385,22445,vehicle,395.84295654296875,112.38945007324219,-0.0032250219706453287,-11.212732804945126,-1.571083948192625
1726747598,22445,vehicle,92.3659439086914,95.2938461303711,0.06954312964856614,-7.758587547568551,-1.5618331918301258
367118466,22445,vehicle,375.0948791503906,326.35400390625,0.00023653156825702312,-1.7332604952765223e-06,3.13426496585044
2065705843,22445,vehicle,274.19732666015625,133.2086944580078,6.033489483270201,-0.0016325243337071975,-0.00027057713424275996
3978545900,22445,vehicle,336.16741943359375,323.6072692871094,1.0753848535046129,5.299185116168898,1.3705812076232846
714679325,22445,vehicle,391.0582580566406,7.528436660766602,3.1529449732539234,5.283517603331075,1.0327691436217936
3262285446,22445,vehicle,108.21383666992188,55.753822326660156,-2.859459341760928,0.0005779937529673953,3.141390519663056
1401880247,22445,vehicle,107.66598510742188,195.26991271972656,-5.579271109469553,0.0015200243553602651,3.141320212210278
2250339631,22445,vehicle,129.42724609375,129.73367309570312,-4.610610484386108,7.9812189891569e-05,3.1415753430427076
2525145270,22445,vehicle,92.53721618652344,154.58193969726562,-2.4404010009635785e-08,2.8212893444121583e-05,-1.5699313320728387
1825059061,22445,vehicle,313.625732421875,2.0121803283691406,-2.8903375015837074e-07,1.807357825974874e-10,-0.0006253102239506051
346279610,22445,vehicle,88.18712615966797,215.0077667236328,-0.06763654843711325,5.7014988352378335,1.5826587120803821
893025708,22445,vehicle,395.9141845703125,214.17239379882812,-0.0018697038896711435,-5.821408448373551,-1.5711175040223602
1724402154,22445,vehicle,88.48538970947266,320.36083984375,-0.16929496703099212,6.395147550986485,1.597262555391995
2595182244,22445,vehicle,260.13214111328125,198.7688751220703,5.825817433611203,-0.0013280916585974723,-0.00022796657305613747
874453657,22445,vehicle,392.4090881347656,320.0783386230469,-0.4965169989508542,6.895510029102372,1.6426781072513887
1498616609,22445,vehicle,92.17768096923828,29.530075073242188,-0.002118885100294292,-5.277796319964261,-1.571197798329226
505512523,22445,vehicle,262.51580810546875,133.21226501464844,7.848798657184583,0.0029951494500826876,0.00038160608209171666
3709073522,22445,vehicle,160.59298706054688,195.57025146484375,-8.298354627814742,0.009328352790794909,3.140468533293671
27029540,22445,vehicle,1.45994234085083,72.29281616210938,-0.001657971259693535,-6.142650380495393,-1.571066238171376
1375770528,22445,vehicle,338.88885498046875,241.85365295410156,-3.492401746303942e-05,-0.011775429725256768,-1.5737621561428634
4266869573,22445,vehicle,-1.5079935789108276,52.94446563720703,0.0003748586495015647,6.160045135536459,1.5707354735639882
368528135,22445,vehicle,2.79447340965271,215.3152618408203,0.02187764029420953,-3.583420488768101,-1.5646911631539444
4012051816,22445,vehicle,338.9733581542969,228.75657653808594,8.098439825197555e-10,2.847555288628163e-07,-1.5736403165229922
3938307140,22445,vehicle,92.14663696289062,219.810791015625,1.914913467817938e-10,-3.470224387875612e-08,-1.5652782570162525
1966079641,22445,vehicle,41.148319244384766,331.2388916015625,1.3735598257473458e-07,-1.902165623649252e-12,-1.3848436652496706e-05
1759883367,22445,vehicle,-2.4085845947265625,316.326904296875,0.00046976628206601935,5.840868930999082,1.5707158993299761
3487645883,22445,vehicle,119.71322631835938,129.77345275878906,-5.034528000510033,0.0016022272638978464,3.1412744058395288
544848518,22445,vehicle,92.8804931640625,6.8252739906311035,1.0686339726456155,-5.537260318709783,-1.3801504780521572
1325658571,22445,vehicle,97.7641372680664,129.2898712158203,-5.610978039516472,-0.792186332861077,-3.00133461161968
921579549,22445,vehicle,92.73064422607422,50.298484802246094,-1.785366683708338,-3.9002873312971134,-2.0000785865977666
4072577581,22445,vehicle,92.38603210449219,240.168701171875,-0.0020752637649134025,-6.899055168833161,-1.571097130840021
94066344,22445,vehicle,326.9998779296875,133.53863525390625,5.84710189694121,0.46128906603516723,0.07872885084287001
2853390219,22445,vehicle,299.99432373046875,330.5154724121094,-2.814964130802653e-07,-8.584147923653044e-11,0.00030494696410635324
2524564450,22445,vehicle,1.595679759979248,27.59334373474121,-0.002869379002570164,-5.48172684911758,-1.5713197711071516
1882516347,22445,vehicle,-2.145657539367676,120.60990142822266,0.001145658328293737,6.303111925911441,1.5706145660504987
815178544,22445,vehicle,254.82611083984375,330.3991394042969,5.81481435081876,-0.0028400930541652544,-0.0004884236463926603
2188308515,22445,vehicle,164.61712646484375,199.21139526367188,5.579415734353532,-0.0008439844638471219,-0.00015126753366185542
1160083145,22445,vehicle,362.1294860839844,326.56341552734375,0.46288629352077504,-0.0005076428509723539,3.1404959638528984
1832698586,22445,vehicle,127.70616912841797,326.96484375,-0.017404731515461114,-3.769781828519287e-05,-3.1394267046752318
3748346955,22445,vehicle,132.60699462890625,1.9193259477615356,-0.9612058784420964,0.0002022278288665037,-0.00021038970986161448
3198444053,22445,vehicle,122.03533172607422,326.4465637207031,-0.02845835965016641,-0.00988541470460554,-2.807267932456734
808811405,22445,vehicle,338.92620849609375,221.62562561035156,-4.702812831117927e-07,-0.0016472725457690354,-1.571081817663753
84250811,22445,vehicle,306.6300048828125,133.51026916503906,5.548856258392334,0.0,0.0
3956289865,22445,vehicle,66.74959564208984,326.55926513671875,-5.763547421467408,0.00331390457014073,3.141017677110445
1912328786,22445,vehicle,365.2416687011719,-1.9526530504226685,-1.004016841603219e-07,-1.0096493425390204e-10,-3.1405870439621792
4030311199,22445,vehicle,338.9559631347656,235.7322235107422,-8.966894899902073e-11,1.2947553521806847e-07,-1.5701037717534214
3147513812,22445,vehicle,382.0580139160156,326.1405334472656,0.007421534620174298,-0.0008793244480611438,3.0236596247217054
1663586846,22445,vehicle,287.7590637207031,330.4103088378906,2.3699188256499597e-06,2.8951091988221876e-09,0.0012216062961072328
