id,timestamp_ms,agent_type,x,y,vx,vy,psi_rad
-1,38927,vehicle,392.2198791503906,306.496337890625,2.0375018531075048e-11,-9.515782787875794e-08,1.571010444946539
2985032057,38927,vehicle,-2.267564535140991,12.568856239318848,-0.1303638207507092,6.922130030794593,1.5896270062306288
3028941286,38927,vehicle,396.880615234375,144.45736694335938,-0.0008903274815311332,-3.665704857469931,-1.5710392070863117
2920337868,38927,vehicle,392.0353088378906,314.20721435546875,-5.211976331266371e-11,-1.3250262439152522e-07,1.570402977901892
1503980471,38927,vehicle,115.69559478759766,2.032792091369629,1.330519329429058,-0.0026362834338778175,-0.0019813917209817906
2125414330,38927,vehicle,358.8836364746094,-1.601246953010559,-2.4626597301295026,0.0013018543461912528,3.1410640161134125
2396446624,38927,vehicle,141.33572387695312,327.0087585449219,1.9459028796246938e-07,-2.3289055356060725e-10,3.1403958289959117
4076155829,38927,vehicle,69.92810821533203,-1.961515188217163,-5.816391943101297,-0.00014405689501002046,-3.1415678861916554
130361148,38927,vehicle,92.38613891601562,226.82598876953125,2.936145308912089e-11,4.9317991610074414e-08,-1.5713916764565838
3417340120,38927,vehicle,280.7997131347656,330.50042724609375,3.7336856632493305,-0.0007159253288924799,-0.00019174761474035048
2197730220,38927,vehicle,157.6715850830078,-0.47192907333374023,-4.832554506317395,1.8456792654998309,2.7767635526987484
118743835,38927,vehicle,334.71221923828125,108.75579071044922,5.896090048636873e-11,2.8120677702866623e-08,1.5686996200686771
904053063,38927,vehicle,178.70040893554688,55.8249397277832,-1.2804975268055171e-08,1.9973388854453563e-11,3.140032840139334
1291681130,38927,vehicle,113.09465789794922,195.61886596679688,1.0138949988254034e-07,3.9527926096136964e-10,-3.1376940520700263
715062232,38927,vehicle,338.9866638183594,22.499813079833984,1.9588268941975497e-10,-8.277353473084521e-08,-1.5684298418502522
220877689,38927,vehicle,92.90684509277344,91.65251922607422,1.0805797996927803e-07,0.00019894620321228936,-1.5713394784992183
2069714320,38927,vehicle,57.44367599487305,331.175537109375,3.20403013073952,0.001995555383899199,0.0006228265791634973
3190467641,38927,vehicle,81.7833023071289,-2.0787532329559326,-6.514740300624526,0.20472562576099618,3.1101780053712185
708315452,38927,vehicle,88.4441909790039,138.8573760986328,-0.17013480698812788,7.964193051414913,1.5921555445276045
1314594676,38927,vehicle,93.7870864868164,198.26431274414062,3.0327090607590743,2.0439630187699933,0.5930435639202868
2302084468,38927,vehicle,388.2265625,329.92889404296875,7.892362692387791,-2.558154943371172,-0.31344520529170183
757051778,38927,vehicle,334.70269775390625,297.7953796386719,-4.044368883346048e-06,-0.034203484415314685,1.570678082442497
4203008516,38927,vehicle,112.88423919677734,55.693016052246094,4.039873819766959e-08,9.600126331972432e-11,-3.1392163149491155
2631691725,38927,vehicle,334.72576904296875,304.8205261230469,6.79320254146373e-09,-0.00018026884923462262,1.5708340105243213
1513387753,38927,vehicle,339.01324462890625,29.555875778198242,-5.147215655506929e-10,1.6418113408592214e-07,-1.5676612535596552
156273220,38927,vehicle,92.51573181152344,80.52529907226562,1.2573620870144172e-09,8.123383782504197e-07,-1.5723441560204507
3812119762,38927,vehicle,109.2630615234375,2.0955193042755127,-0.0009580702536385121,4.2161177509622315e-06,-0.0044006068650982826
3616050434,38927,vehicle,216.47027587890625,326.4071350097656,-5.599634167951546,0.00017000509736782228,3.1415622935533665
2942158310,38927,vehicle,94.18305206298828,58.71400833129883,3.7526576321700724,1.8036653719770528,0.448037405332185
3608800298,38927,vehicle,278.0325927734375,133.20213317871094,6.93625296690714,-0.0012007033478001218,-0.00017310547085515047
1146464971,38927,vehicle,60.19769287109375,2.5480518341064453,-1.9770000354479453e-07,1.680610482863693e-10,-0.0008500809549347115
3013099654,38927,vehicle,-2.353238821029663,194.6896209716797,-0.0037452002425582944,4.046319658814917,1.5717219084317535
2246582517,38927,vehicle,103.05085754394531,133.42694091796875,5.5306920142936455,-0.2059286975092182,-0.037216610969421325
3192940987,38927,vehicle,338.8689880371094,228.56675720214844,-0.0014208393760475559,-3.6109380310857695,-1.5711898088459557
828836647,38927,vehicle,271.57769775390625,330.7974548339844,3.994493187602185,0.0006834957305142998,0.000171109497937089
1702089089,38927,vehicle,394.2701110839844,2.982581377029419,-2.0972803096568473,-5.0597910489031435,-1.963739354049472
2111029583,38927,vehicle,87.48216247558594,329.7480773925781,7.7456836225292625,-1.2883867276831222,-0.16482701796188237
420096522,38927,vehicle,88.08943176269531,182.67190551757812,-0.0011038711296151543,5.076504110482477,1.5710137738979015
510102133,38927,vehicle,274.873779296875,1.8546701669692993,5.989504251935091,-0.0010112943398541015,-0.0001688444131110237
4109025732,38927,vehicle,297.70428466796875,1.514933705329895,0.005110850032378677,-0.0017298441232753545,-0.32636196934226325
2913592560,38927,vehicle,308.86279296875,1.6724853515625,0.0016461381153264414,-3.156430342580606e-07,-0.00019174759848570515
3970347779,38927,vehicle,157.6178436279297,31.774017333984375,-0.00628631433972056,-0.7105707218814892,-1.5796429484619763
1933996401,38927,vehicle,348.02362060546875,-2.121403694152832,-5.139094489758033,0.3644935312745409,3.0707855917912026
3047764241,38927,vehicle,53.26544952392578,2.0460774898529053,2.1355626199436766e-08,9.643533204489861e-12,0.0004515687088238799
1260711767,38927,vehicle,325.3392028808594,55.70640182495117,-5.941219422666879,-0.13501383016429605,-3.118871628433673
3957993155,38927,vehicle,335.0718994140625,33.63330078125,3.5322199629361044e-11,-5.0478624023690616e-08,1.571496072371315
4289594148,38927,vehicle,-2.399880886077881,202.12771606445312,0.0013066848642057005,3.815332904217102,1.5704538442787124
4139896837,38927,vehicle,112.17839813232422,129.49009704589844,-1.397722839415702e-08,1.9203672898457637e-11,3.140218728783421
1686932955,38927,vehicle,130.6420440673828,-1.9651240110397339,-5.599601742402672,0.0001893905468728756,3.141558831443949
1726501337,38927,vehicle,337.3560485839844,1.3827576637268066,-4.228139701992049,4.417504746719941,2.334295050232514
1682591593,38927,vehicle,298.8341064453125,330.4570617675781,4.656859772701156,-0.0009747946792784176,-0.00020932446168022814
3380823586,38927,vehicle,368.77252197265625,326.3265380859375,-1.7144429546689532e-08,5.528792118839119e-11,3.1383678318258164
4176583038,38927,vehicle,302.4993591308594,1.9665971994400024,7.777787294143445e-08,-4.088844361739447e-11,-0.000525707869144479
3855978784,38927,vehicle,338.6261901855469,314.2167663574219,0.01594241652502561,-5.914985629980938,-1.5681010746136819
1042098875,38927,vehicle,92.63331604003906,-1.9578043222427368,-4.6546068160998395,0.00016858516164141134,3.141556434598968
644930681,38927,vehicle,88.56456756591797,190.8245086669922,-0.05635513638558825,5.71537224984442,1.5806562812567515
2234188147,38927,vehicle,335.1517639160156,26.42038345336914,3.6366501406507007e-07,-0.0002032503491879132,1.5725855715732664
4109707537,38927,vehicle,2.60502028465271,186.59796142578125,-0.0015360393358898406,-4.955094099383462,-1.5711063187457819
3675841917,38927,vehicle,183.96047973632812,55.83415222167969,-0.0174082171854156,-0.00013984598668550873,-3.1335594944776783
2817926641,38927,vehicle,92.55958557128906,28.036033630371094,0.0001823569399891055,-0.0038864284878604703,-1.5239092452751795
4029506115,38927,vehicle,-2.5300540924072266,188.94496154785156,0.000903167644583675,2.2541287520156206,1.5703956542088942
3277167701,38927,vehicle,104.50053405761719,59.3657112121582,4.743603287298712,0.03874785131379079,0.008168260962125544
518241310,38927,vehicle,-2.7397115230560303,166.0059356689453,-0.005416705025487764,5.1097535986796006,1.5718563980668026
778540568,38927,vehicle,338.9315185546875,42.95614242553711,-5.937224047123342e-09,1.9486244612604273e-07,-1.5403369544593333
657465635,38927,vehicle,11.754839897155762,2.2999234199523926,7.291405198819617,-1.0832341967176553,-0.1474844297195023
835227171,38927,vehicle,157.7899627685547,23.68145179748535,1.43403105298006e-06,0.008657066032727116,-1.5709619754146995
715280319,38927,vehicle,92.39908599853516,161.5304412841797,1.682644644093665e-10,2.900928644467879e-07,-1.571376363280316
3020211281,38927,vehicle,274.1327819824219,59.59885025024414,5.960175149286985,-0.0020856998117351638,-0.00034993933472712125
2101598167,38927,vehicle,166.93763732910156,-1.9661200046539307,-5.72184949965557,-0.009010359217852102,-3.1400179264372294
14974470,38927,vehicle,338.9898681640625,36.57738494873047,1.051657216543489e-08,-2.2220275576113494e-06,-1.5660634900636623
1398818972,38927,vehicle,243.32345581054688,133.64793395996094,5.594187118359558,-0.0012574099127572436,-0.0002247707960026877
2694688339,38927,vehicle,2.2910494804382324,197.2461700439453,-0.0008910115783480595,-4.449057966656368,-1.5709965965088706
3916750283,38927,vehicle,116.79842376708984,326.9374694824219,-1.1253614699674391e-08,5.3700991876951633e-11,3.136820801548589
1983197581,38927,vehicle,-2.1145999431610107,26.250267028808594,-0.0021439553708626816,6.306631677509641,1.5711362793080452
2942851653,38927,vehicle,338.9783935546875,140.485107421875,-0.03881079515218824,-5.823605436525103,-1.5774606211067108
3949181016,38927,vehicle,88.34320831298828,155.3275909423828,0.0008486683545254974,5.799263892065236,1.5706499860929968
3672416715,38927,vehicle,338.85980224609375,236.98521423339844,-0.0005508307416745897,-3.174726438420126,-1.5709698317399152
3325384226,38927,vehicle,190.06956481933594,55.8415412902832,-0.0064640659521866765,2.5357473771050104e-06,3.1412003699612243
1359910869,38927,vehicle,264.1094970703125,59.605960845947266,7.561081389322225,-0.00660070483004676,-0.0008729840102722304
2262630317,38927,vehicle,99.21187591552734,330.7345275878906,4.359355240265902,-0.10450234506313803,-0.02396738246568251
805172996,38927,vehicle,92.11746215820312,167.5182342529297,-3.692801777072094e-05,-0.011760975001631683,-1.5739361937201
1986857511,38927,vehicle,-2.480703353881836,210.6947479248047,0.0002704443299854427,2.7372000083833816,1.5706975235184546
1279946346,38927,vehicle,129.56109619140625,2.805290460586548,0.028867116457702617,-0.0013695431567025298,-0.04740747151909694
74618890,38927,vehicle,334.70404052734375,290.0092468261719,0.001376327863751936,4.101605661262277,1.5704607684975467
3085549129,38927,vehicle,391.97674560546875,320.9991455078125,-3.6705506638391176e-09,1.358932699375248e-08,1.8346064012170558
2057201815,38927,vehicle,306.4560546875,198.9739532470703,-0.002330057713840648,2.8184572830951327e-06,-0.00120960776711399
1015694095,38927,vehicle,112.68797302246094,330.6495666503906,7.450306414053315,0.00014972865411554755,2.0096979342079203e-05
1250507297,38927,vehicle,176.81336975097656,-1.942047119140625,-5.512638614035213,0.0021816033504510556,3.1411969078518074
4280502996,38927,vehicle,77.08588409423828,331.224609375,5.150188441485581,-0.0002167093263295325,-4.2077941159590634e-05
3428459672,38927,vehicle,66.85588836669922,2.0130608081817627,-4.5082603080731956e-07,3.645090229595459e-10,-0.0008085357069480567
414519966,38927,vehicle,148.38682556152344,327.0613098144531,1.0101568824774977e-05,3.370833886993733e-09,-3.141258959505206
2866945113,38927,vehicle,318.2291259765625,330.4563293457031,6.07011880632662,-0.001089568377271116,-0.00017949704121669532
1853482628,38927,vehicle,46.39568328857422,2.5198092460632324,-1.0099250532295506e-07,2.468513205641695e-10,-0.0024442489884003997
3880166169,38927,vehicle,233.24066162109375,326.41986083984375,-5.551513671873228,4.435372561430638e-06,3.141591854641466
1073352953,38927,vehicle,335.20703125,11.404227256774902,-0.09649180370842297,3.465275374216119,1.5986344828275494
213556023,38927,vehicle,134.5973358154297,327.0172119140625,2.26310204019164e-08,-4.120668074877521e-11,3.139771850352506
1628590046,38927,vehicle,33.744266510009766,2.3478176593780518,2.577218182141089e-06,5.027388797184867e-09,0.0019507011300875542
4120465129,38927,vehicle,311.4285888671875,55.679603576660156,-5.838527171436572,-0.0006032988115368032,-3.1414893229394982
1015227284,38927,vehicle,117.512451171875,129.75152587890625,-0.0066415676541860934,6.367523258859986e-07,3.1414967797905504
2900396540,38927,vehicle,141.55271911621094,-1.9574151039123535,-5.7972045565238695,-0.004625492307564687,-3.1407947705272052
3587539486,38927,vehicle,396.6023254394531,131.8534393310547,-0.0023533444470312938,-8.368047383318089,-1.571077556606009
1146849989,38927,vehicle,334.0301208496094,168.27073669433594,-0.0003110864862862778,-0.002573987295387255,1.450521846696411
1457681385,38927,vehicle,380.93792724609375,-2.7268424034118652,-5.867787111963915,0.020283748085837355,3.1381358704948705
1726747598,38927,vehicle,92.04610443115234,85.5406723022461,0.0010868996292749825,0.010251178071014394,-1.6764284809040175
367118466,38927,vehicle,375.0947570800781,326.35400390625,1.4348058992367779e-07,-1.0513997779926243e-09,3.13426496585044
2065705843,38927,vehicle,311.215087890625,133.19998168945312,-2.6608852323614635e-08,-1.3130611696268167e-11,0.0004934677554206829
3978545900,38927,vehicle,396.9007873535156,283.9827575683594,-0.005790591195706841,-13.731164664945656,-1.5712180383535106
714679325,38927,vehicle,392.1269836425781,234.0782928466797,0.0005210920610859784,22.36191367495886,1.5707730241353584
3262285446,38927,vehicle,88.32376861572266,122.76119995117188,0.0033555430882643124,6.173370403047719,1.5702527756164115
1401880247,38927,vehicle,92.49676513671875,174.20469665527344,-2.8335608019571807e-10,-3.0098548527127895e-07,-1.5717377542402395
2250339631,38927,vehicle,92.39317321777344,111.54768371582031,7.575740157410933e-11,2.67857064473693e-07,-1.571079154502663
2525145270,38927,vehicle,92.50687408447266,154.58193969726562,-2.387507567538998e-08,2.8019804463908327e-05,-1.5699442484041257
1825059061,38927,vehicle,313.625732421875,2.0121867656707764,1.5295686773255632e-06,-9.564550568283628e-10,-0.0006253102239506051
346279610,38927,vehicle,88.17623901367188,305.63116455078125,-9.063633876830654e-05,-0.0321508448785087,1.5679772376229932
893025708,38927,vehicle,395.875732421875,119.49122619628906,-0.0018697048085665462,-5.821411309396352,-1.5711175040223602
1724402154,38927,vehicle,2.4674906730651855,314.9803771972656,-0.5813125660175646,-8.16436584128071,-1.641877561027711
2595182244,38927,vehicle,313.6766662597656,198.77235412597656,4.660743572039555e-08,-1.1526094216259717e-10,-0.002473011128173255
874453657,38927,vehicle,388.6775817871094,324.7012939453125,2.052652847997516e-06,-1.2411679109725354e-06,2.597749858965257
1498616609,38927,vehicle,22.003402709960938,-1.957443356513977,-5.620950201858244,-0.00047602996970433895,-3.1415079650671287
505512523,38927,vehicle,305.52655029296875,133.2028045654297,-0.4440478084959227,1.1589193388470123e-05,-2.609897665094587e-05
3709073522,38927,vehicle,118.92913818359375,195.56092834472656,-0.017409622434595255,-1.4238580759248506e-05,-3.14077479681903
27029540,38927,vehicle,27.77760124206543,2.538775682449341,0.0010281696829603365,5.782448891303939e-06,0.005623962681191156
1375770528,38927,vehicle,338.9283447265625,219.99386596679688,0.003728578298166457,-2.9311349518936023,-1.5695242679002201
4266869573,38927,vehicle,-1.5042731761932373,173.9349365234375,-0.003521766425585239,1.4631536538408763,1.5732032917881102
368528135,38927,vehicle,2.33878493309021,204.7918701171875,-0.24560114412773812,-4.587006050569688,-1.6242880478180102
4012051816,38927,vehicle,338.9234313964844,202.9098358154297,-0.039787571860496945,-6.111334507352825,-1.5773066903957043
3938307140,38927,vehicle,92.14663696289062,219.810791015625,-2.869899506771817e-10,5.2008591649315345e-08,-1.5652782570162525
1966079641,38927,vehicle,66.7317886352539,331.2374572753906,5.124606454188185,-0.0012610432007466575,-0.00024607610097796695
1759883367,38927,vehicle,47.31126403808594,331.1674499511719,3.805084833986539,-0.0009140465770454492,-0.00024021713032514727
3487645883,38927,vehicle,92.42707824707031,105.2142333984375,-1.7037098081139255e-10,1.6367709691356775e-07,-1.5697554302828391
544848518,38927,vehicle,122.55062103271484,2.094959020614624,0.018299317504670124,5.459456894224784e-05,0.0029834121928707462
1325658571,38927,vehicle,92.39752960205078,98.92157745361328,-1.217755713224392e-11,1.190779948413962e-07,-1.5706940614090374
921579549,38927,vehicle,92.2895278930664,22.447221755981445,-2.519831922096056e-07,-7.443181222813694e-05,-1.5741817371726052
4072577581,38927,vehicle,92.38365936279297,233.42498779296875,1.0152149967885655e-10,1.743855040177309e-07,-1.571378493809188
94066344,38927,vehicle,334.482177734375,173.806396484375,-2.8182436621613647e-10,-2.429925400093074e-06,1.5706803461294236
2853390219,38927,vehicle,328.1730651855469,330.5283508300781,5.552141480623409,0.034392511461931,0.006194379537469804
2524564450,38927,vehicle,39.81764221191406,2.0300538539886475,2.658819946637692e-06,-3.513526977245287e-09,-0.0013214602728229927
1882516347,38927,vehicle,-2.139261484146118,180.9158935546875,0.0010108923506592653,2.912033859266876,1.5704491837468049
815178544,38927,vehicle,289.9337158203125,330.38623046875,4.184262281339409,-0.0019857479747385446,-0.00047457537127070155
2188308515,38927,vehicle,259.0751037597656,199.19630432128906,5.547193936507591,-0.000865701880439084,-0.00015606122362399804
1160083145,38927,vehicle,363.1291198730469,326.5596923828125,0.5538861154320213,-0.0005746944719199329,3.1405550860290985
1832698586,38927,vehicle,127.3373794555664,326.96343994140625,-0.0013251539829681296,-6.13432287432344e-06,-3.1369635469830173
3748346955,38927,vehicle,135.66517639160156,1.9184238910675049,-0.9612059964500417,0.00020785951605089927,-0.00021624866425978882
3198444053,38927,vehicle,121.5987777709961,327.33392333984375,-0.030027327460875698,0.010627762921867052,2.801415369645176
808811405,38927,vehicle,333.3435363769531,196.04006958007812,-2.930906505024187,-2.148848338752072,-2.508951013474309
84250811,38927,vehicle,338.8980712890625,51.96784973144531,-0.029415994594143142,-5.3402019000321115,-1.576304676035562
3956289865,38927,vehicle,2.4677746295928955,283.88311767578125,-0.0013505304130645062,-12.308629915532416,-1.5709060490318079
1912328786,38927,vehicle,335.13543701171875,19.399328231811523,5.042754241300877e-06,-0.02052598384663251,1.5710420034054564
4030311199,38927,vehicle,338.9530334472656,212.65541076660156,-0.0011307954920596421,-3.8115483037107807,-1.5710930029403314
3147513812,38927,vehicle,382.0475769042969,326.14154052734375,2.628703196498696e-07,-3.114732396718769e-08,3.023653233135089
1663586846,38927,vehicle,308.1911315917969,330.4040832519531,5.638467958319571,-0.004426761846341008,-0.0007850999543739407
