id,timestamp_ms,agent_type,x,y,vx,vy,psi_rad
-1,47034,vehicle,392.2198791503906,306.496337890625,-1.5134204520733593e-11,7.06815567637131e-08,1.571010444946539
2985032057,47034,vehicle,-2.261134386062622,107.42450714111328,0.006247122475929389,18.602335834576166,1.5704605021814375
3028941286,47034,vehicle,396.8621826171875,97.259033203125,-0.0016576370555555242,-5.707768199542996,-1.5710867445117698
2920337868,47034,vehicle,392.0353088378906,314.20721435546875,7.660171596024372e-11,1.9474241156349062e-07,1.570402977901892
1503980471,47034,vehicle,117.0879135131836,2.032353162765503,2.17321350462887,-0.002473628850144952,-0.0011382350498998664
2125414330,47034,vehicle,358.60247802734375,-1.6013845205307007,-7.746145466001077e-10,7.684391888957229e-13,3.1406006260837387
2396446624,47034,vehicle,141.33572387695312,327.0087585449219,1.6389220633361333e-07,-1.9615031694010397e-10,3.1403958289959117
4076155829,47034,vehicle,24.072248458862305,-1.957082748413086,-5.575022215983562,0.0002271618884286205,3.141551907225115
130361148,47034,vehicle,92.38567352294922,225.54547119140625,-0.0012228419490165664,-3.1710588958426547,-1.57118195252074
3417340120,47034,vehicle,300.4178466796875,330.5010986328125,-1.5951894120983534e-06,3.1606992307407962e-09,-0.0019813917209817906
2197730220,47034,vehicle,154.23239135742188,35.14846420288086,-3.5834272522922544e-06,0.00785037327728586,1.5712527926057362
118743835,47034,vehicle,334.7108154296875,112.11297607421875,-0.003388584410166501,5.220068308574522,1.5714454723106035
904053063,47034,vehicle,158.18441772460938,47.11637496948242,-0.9460936750251974,-5.583974305340886,-1.7386326002752708
1291681130,47034,vehicle,113.09465789794922,195.61886596679688,-2.4641497338520245e-07,-9.606786568861605e-10,-3.1376940520700263
715062232,47034,vehicle,338.9866638183594,22.499813079833984,5.224914177286127e-10,-2.2078756239277074e-07,-1.5684298418502522
220877689,47034,vehicle,92.90483093261719,78.67871856689453,-0.00046454951966800457,-4.832005001625377,-1.5708924669102484
2069714320,47034,vehicle,92.08988952636719,311.4346008300781,-0.20620451907991905,-6.559353064032709,-1.6022226929222676
3190467641,47034,vehicle,35.12229919433594,-1.9504902362823486,-5.515189167878467,-0.00018066039757908567,-3.1415598967083853
708315452,47034,vehicle,88.30368041992188,169.40489196777344,-0.06802592616857228,0.5592174018190357,1.6918464525608679
1314594676,47034,vehicle,139.9587860107422,199.01290893554688,10.41235808830293,-0.002018728512832499,-0.00019387812735776854
2302084468,47034,vehicle,396.77764892578125,215.34544372558594,0.015040561346694584,-17.695859239256652,-1.5699463789329977
757051778,47034,vehicle,334.7028503417969,297.8030090332031,-1.439595904849012e-11,-7.047706271432393e-08,1.5705920623392875
4203008516,47034,vehicle,112.88423919677734,55.693016052246094,-1.4944655727399365e-08,-3.551362972498617e-11,-3.1392163149491155
2631691725,47034,vehicle,334.72576904296875,304.8206481933594,7.73486835399645e-12,-2.0525750684533515e-07,1.5708340105243213
1513387753,47034,vehicle,339.01324462890625,29.555875778198242,0.0,-0.0,-1.5676612535596552
156273220,47034,vehicle,92.37297821044922,59.21525192260742,-0.07754958207203327,-5.911023718669416,-1.5839150583246269
3812119762,47034,vehicle,110.74478149414062,2.0930917263031006,0.0,-0.0,-0.0019872504153056396
3616050434,47034,vehicle,169.28749084472656,326.3929443359375,-5.940655231465508,1.1074645302784101e-05,3.1415907893770303
2942158310,47034,vehicle,124.82683563232422,59.338523864746094,0.00016888442357510845,1.1695828583249185e-07,0.0006925343655662523
3608800298,47034,vehicle,298.1677551269531,133.19717407226562,1.4184349797933254e-07,-2.6744845608036352e-11,-0.00018855178892296473
1146464971,47034,vehicle,60.67400360107422,2.548407793045044,2.170290439907259,0.0003621534629885134,0.00016686866097174677
3013099654,47034,vehicle,-2.3423986434936523,231.02735900878906,0.0007521566615124298,5.72299952332706,1.5706648997951012
2246582517,47034,vehicle,127.98570251464844,133.3568572998047,-0.00015411977005804484,-1.4510051066967522e-08,9.41478891295465e-05
3192940987,47034,vehicle,338.8669738769531,219.46205139160156,1.2437860009431946e-10,6.1006212745122e-08,-1.5728351097674067
828836647,47034,vehicle,293.2968444824219,330.7931823730469,-4.271677922992638e-06,-5.180213247967926e-09,0.0012126875672730446
1702089089,47034,vehicle,371.1454162597656,-2.4276890754699707,7.511247719476383e-07,9.809801748088496e-10,-3.1402866393912183
2111029583,47034,vehicle,92.0092544555664,269.86590576171875,0.0002839101226876196,-7.3776082937925604,-1.570757844117145
420096522,47034,vehicle,88.35807800292969,226.03726196289062,0.0014204913303941834,5.4678156914913885,1.5705365354305594
510102133,47034,vehicle,297.0487060546875,1.8774346113204956,4.337132416193982,0.007355135911786818,0.0016958506577805321
4109025732,47034,vehicle,304.4422607421875,1.3892765045166016,2.5738818269552044,-0.0675585997506079,-0.02624172203661018
2913592560,47034,vehicle,319.2259826660156,1.7440186738967896,4.212765936298529,-0.006175092462213839,-0.0014658037339424501
3970347779,47034,vehicle,157.47079467773438,29.855731964111328,-0.00236057917171561,-0.028460111268294588,-1.653550329243583
1933996401,47034,vehicle,337.9419860839844,1.0783088207244873,-3.055465636209182e-08,2.7813223361695354e-08,2.4031281770311383
3047764241,47034,vehicle,53.26544952392578,2.046076774597168,2.7734235189569015e-08,1.2523916330901351e-11,0.0004515688063517519
1260711767,47034,vehicle,278.8114929199219,55.68152618408203,-5.481790065438601,-5.985544902758644e-05,-3.141581734629324
3957993155,47034,vehicle,335.0700988769531,37.08234405517578,-0.0034218589427386192,5.848366213144021,1.571381423286387
4289594148,47034,vehicle,-2.388277769088745,245.35794067382812,0.0019311367600230434,7.742974040493417,1.5705469217588106
4139896837,47034,vehicle,112.17839813232422,129.49009704589844,-5.581375423055617e-08,7.668394972543838e-11,3.140218728783421
1686932955,47034,vehicle,112.7573013305664,-1.9680248498916626,-1.6165895783889459e-06,4.6048955156633145e-09,3.1387441364878446
1726501337,47034,vehicle,335.2392578125,5.901649475097656,-0.0006052772016794699,0.0026594567013120754,1.7945786905590013
1682591593,47034,vehicle,313.8250427246094,330.4513854980469,-2.6074306218858458e-08,3.406731136851068e-11,-0.0013065464406813864
3380823586,47034,vehicle,368.4872131347656,326.3267822265625,-1.720414234455948,0.005334995445435462,3.138491668816505
4176583038,47034,vehicle,311.0036315917969,1.9642269611358643,3.7627281458579946,-0.0007174857327806575,-0.00019068231779502813
3855978784,47034,vehicle,338.6291809082031,267.4495544433594,-0.0023051935464190004,-5.5238380390514195,-1.571213644137712
1042098875,47034,vehicle,46.85176467895508,-1.9608193635940552,-5.612985118962042,-0.0004125726272205247,-3.141519150343707
644930681,47034,vehicle,88.35578918457031,237.3871612548828,0.0013036928110938225,5.702135413863533,1.5705676944153133
2234188147,47034,vehicle,335.15167236328125,26.995643615722656,-0.0019159492856681696,2.1555851527805308,1.5716851568087105
4109707537,47034,vehicle,2.584151268005371,116.10896301269531,0.0031718353649209646,-8.760602376857596,-1.5704342700447003
3675841917,47034,vehicle,166.79991149902344,55.81498718261719,-7.433906187837671,-0.015242262664762626,-3.139542285866541
2817926641,47034,vehicle,92.78781127929688,28.06035041809082,0.0011824975085599305,-0.007698292387725145,-1.4183824191871712
4029506115,47034,vehicle,-2.4961185455322266,221.89056396484375,-0.00017255137533714516,3.8797569236531415,1.570840801585101
3277167701,47034,vehicle,132.22586059570312,59.399349212646484,0.0024745514446920403,-7.380945640998621e-07,-0.00029827407459816533
518241310,47034,vehicle,-2.658785104751587,194.23480224609375,-0.0027959147401617666,0.32375934491259356,1.5794318929455875
778540568,47034,vehicle,338.9315185546875,42.95614242553711,-3.212809587455238e-09,1.0544590033654898e-07,-1.5403369544593333
657465635,47034,vehicle,20.29448699951172,2.0589969158172607,-2.2725389663588922e-08,1.4790422085160256e-10,-0.006508233071935642
835227171,47034,vehicle,157.7899627685547,23.67967414855957,-2.033778710833372e-11,-1.2327214281445525e-07,-1.570961309624427
715280319,47034,vehicle,92.39895629882812,161.3250732421875,-0.00048392598972798095,-1.481541912199829,-1.5711229635025947
3020211281,47034,vehicle,311.7209777832031,59.59044647216797,-0.0024011672709522065,-3.0092827104497354e-06,0.0012532576015587692
2101598167,47034,vehicle,125.24484252929688,-2.030352830886841,0.029490723833725738,-2.6098366390729205e-05,3.1407076851595597
14974470,47034,vehicle,338.9898681640625,36.57738494873047,-5.692676770471039e-10,1.2027954034428995e-07,-1.5660634900636623
1398818972,47034,vehicle,288.85052490234375,133.63807678222656,3.7649051702851444,-0.011847408374367896,-0.0031467908839633027
2694688339,47034,vehicle,2.2743358612060547,134.7474822998047,-0.0025902235828755803,-8.565498914080774,-1.571098728736675
3916750283,47034,vehicle,113.38980865478516,326.93798828125,-5.733295077469377,-0.005612771637261087,-3.1406136755730802
1983197581,47034,vehicle,-2.1518030166625977,159.56875610351562,0.014994535210536761,14.513082387689254,1.5697631534500003
2942851653,47034,vehicle,338.80303955078125,92.6222152709961,-0.0018251777585736935,-5.732685752234766,-1.5711147077032155
3949181016,47034,vehicle,88.34362030029297,174.86178588867188,-4.081607054561573e-09,1.5307004029578456e-06,1.5734628168363385
3672416715,47034,vehicle,338.85546875,226.30577087402344,-1.7480915463203714e-12,1.3460409204793032e-09,-1.5694976362893194
3325384226,47034,vehicle,176.40049743652344,55.84052276611328,-5.683098513363147,-0.0017829038632863137,-3.141278933213382
1359910869,47034,vehicle,306.1735534667969,59.60496520996094,3.34828391669409,0.0007738465439318586,0.0002311173572513271
2262630317,47034,vehicle,187.64149475097656,330.6265563964844,11.928118490107597,-0.0022681280077554676,-0.0001901496855770123
805172996,47034,vehicle,92.11036682128906,167.51351928710938,-3.692800607382436e-05,-0.011760971276359748,-1.5739361937201
1986857511,47034,vehicle,-2.47570538520813,262.4862060546875,0.0010839660077508531,11.212736077365756,1.5706996540473268
1279946346,47034,vehicle,133.53871154785156,2.7872543334960938,3.1995951562544325,-0.22923720012847734,-0.07152347709895729
74618890,47034,vehicle,334.70416259765625,291.78424072265625,1.1343974037691183e-10,1.351821289666647e-07,1.5699571647354127
3085549129,47034,vehicle,391.97674560546875,320.9991455078125,6.773264817523569e-10,-2.5076376503229043e-09,1.8346064012170558
2057201815,47034,vehicle,306.45654296875,198.97398376464844,-1.827084701368957e-09,2.2100566862441784e-12,-0.0012096076370768274
1015694095,47034,vehicle,255.0116729736328,330.6300048828125,15.57550148501082,-0.005326039614059572,-0.00034194978643830226
1250507297,47034,vehicle,154.2291717529297,25.128568649291992,0.0014204515202809343,5.890342064294785,1.5705551775581899
4280502996,47034,vehicle,92.22465515136719,295.1669006347656,-0.0016672647939129483,-5.9284780065245135,-1.571077556606009
3428459672,47034,vehicle,70.28815460205078,2.010465621948242,5.824286250554526,-0.0028292089061706287,-0.0004857605828304531
414519966,47034,vehicle,148.38682556152344,327.07733154296875,1.0159481828526891e-05,3.3225182653444234e-09,-3.1412656174079316
2866945113,47034,vehicle,338.62860107421875,296.0875549316406,-0.0021611852905985968,-6.877214092183203,-1.5711105798035259
1853482628,47034,vehicle,46.39568328857422,2.5198092460632324,1.4465261299372762e-08,-3.5356770709245134e-11,-0.0024442489884003997
3880166169,47034,vehicle,188.4229278564453,326.41986083984375,-5.5557708739901415,1.9234686661901658e-05,3.141589191480376
1073352953,47034,vehicle,335.1936340332031,12.533079147338867,-4.3345637638280393e-11,2.284976341908271e-09,1.589763892710659
213556023,47034,vehicle,134.5973358154297,327.0172119140625,-2.0281378485583993e-09,3.69284404131317e-12,3.139771850352506
1628590046,47034,vehicle,33.744266510009766,2.3478176593780518,-6.706744700116469e-08,-1.3082871060195967e-10,0.0019507011300875542
4120465129,47034,vehicle,264.9651794433594,55.67708969116211,-5.535461419207383,-0.0002697754062649928,-3.1415439177418447
1015227284,47034,vehicle,117.51480102539062,129.75149536132812,0.00019794497212003993,-2.319501140617259e-08,3.1414754745018296
2900396540,47034,vehicle,118.2197036743164,-1.9651262760162354,-0.0013252562048331575,-4.64361211168555e-06,-3.138088732543576
3587539486,47034,vehicle,396.58837890625,83.90140533447266,-8.653723118402208e-05,-0.3480897438246101,-1.5710449328826555
1146849989,47034,vehicle,334.12408447265625,169.85423278808594,0.49710606869406326,4.924942430305631,1.470200609781279
1457681385,47034,vehicle,363.87615966796875,-2.6953125,-0.002483996792699409,1.1775204827897015e-07,3.1415452493223897
1726747598,47034,vehicle,91.97196960449219,69.27725219726562,0.4424366867287793,-5.7327310615546,-1.4937717159573523
367118466,47034,vehicle,375.0947570800781,326.35400390625,1.0815697013644503e-07,-7.925546894552268e-10,3.13426496585044
2065705843,47034,vehicle,311.215087890625,133.19998168945312,1.121592793082862e-09,5.534699230238473e-13,0.0004934677554206829
3978545900,47034,vehicle,396.85455322265625,132.95603942871094,-0.002708405730102138,-14.374403698395174,-1.5709847454420196
714679325,47034,vehicle,392.1418151855469,299.22723388671875,-2.3919497572320295e-09,-7.234489262576529e-06,1.5704656953455634
3262285446,47034,vehicle,88.3431625366211,162.97296142578125,9.039581865240211e-05,-0.04874068684257744,1.5726509521780279
1401880247,47034,vehicle,92.49676513671875,174.20469665527344,-2.395145452399357e-11,-2.544162863164181e-08,-1.5717377542402395
2250339631,47034,vehicle,92.39149475097656,107.59153747558594,-0.0014609932237292533,-4.200563653550111,-1.571144135633261
2525145270,47034,vehicle,92.50120544433594,152.2119140625,0.00267938169873329,-4.161698432525234,-1.57015250760137
1825059061,47034,vehicle,331.9417419433594,1.9882667064666748,-0.01529555350102692,5.456004744451544e-05,-0.0035670377039778065
346279610,47034,vehicle,88.17655181884766,305.6376037597656,-2.356554626956657e-10,-8.326610205501485e-08,1.5679661855044693
893025708,47034,vehicle,395.8568420410156,72.92086029052734,-0.0018697038896711435,-5.821408448373551,-1.5711175040223602
1724402154,47034,vehicle,2.3893239498138428,215.0745849609375,-0.029552298378703563,-15.630236344787239,-1.5726870380107985
2595182244,47034,vehicle,313.6766662597656,198.77235412597656,-5.416765459000645e-10,1.3395748567326002e-12,-0.002473011128173255
874453657,47034,vehicle,388.6775817871094,324.7012939453125,9.109044859403524e-08,-5.507923168854643e-08,2.597749858965257
1498616609,47034,vehicle,-2.454127550125122,27.147748947143555,0.0002447190959482201,6.3154954862865225,1.5707575778010359
505512523,47034,vehicle,305.59271240234375,133.2028350830078,-0.4440486419867913,-3.1614189775471914e-05,7.119533026968978e-05
3709073522,47034,vehicle,118.92913055419922,195.5609893798828,-0.01740656770095458,-1.8227380029591312e-05,-3.140545498649174
27029540,47034,vehicle,27.76963996887207,2.844600200653076,0.0039850943604928845,0.00022372012345199375,0.05608036353694102
1375770528,47034,vehicle,304.017578125,195.27561950683594,-8.65098422618967,-0.00508009227428075,-3.1410054265694307
4266869573,47034,vehicle,-1.4994372129440308,202.4204864501953,-0.019338551530104185,4.647483645548455,1.574957382840091
368528135,47034,vehicle,2.24664306640625,153.3272247314453,0.01444413006212728,-3.513635748791099,-1.5666854713362504
4012051816,47034,vehicle,338.7908020019531,153.38174438476562,-0.00019071323565686825,-0.2416860900873951,-1.571585421425887
3938307140,47034,vehicle,92.14983367919922,217.015869140625,0.005624677756118274,-4.64539664210451,-1.569585520605292
1966079641,47034,vehicle,117.54625701904297,330.6540832519531,10.628793697940152,-0.004545974015284292,-0.000427703638557435
1759883367,47034,vehicle,65.09627532958984,331.1673889160156,1.315491461880286e-06,-9.038684865465154e-10,-0.0006870955612404434
3487645883,47034,vehicle,92.42303466796875,98.1756591796875,-0.003329676386929526,-4.883875188664439,-1.571478096033957
544848518,47034,vehicle,124.96705627441406,2.097846746444702,3.8889602620047787,0.005683180981448903,0.0014613615344308195
1325658571,47034,vehicle,92.39478302001953,89.06558227539062,-0.001056276374375131,-4.2351845377743045,-1.5710457318309825
921579549,47034,vehicle,92.2743911743164,22.4475040435791,-2.4854300678425264e-07,-7.357190261835349e-05,-1.5741745466376622
4072577581,47034,vehicle,92.38365173339844,233.37741088867188,-0.00039211856835537676,-0.6841914722231134,-1.5713694390614816
94066344,47034,vehicle,334.4775695800781,177.16778564453125,-0.013994529612599603,5.736731625848544,1.573235782353409
2853390219,47034,vehicle,373.4295959472656,330.6495361328125,5.572778026531199,-0.0014870887462255552,-0.00026684872497129435
2524564450,47034,vehicle,39.81764221191406,2.0300540924072266,-4.7832438967911e-07,6.320870464121542e-10,-0.0013214602728229927
1882516347,47034,vehicle,-2.1368837356567383,211.51385498046875,0.0005985737690431277,5.022583925818865,1.5706771503361157
815178544,47034,vehicle,307.15032958984375,330.3822937011719,2.3616175565501868e-07,3.739323521688955e-10,0.0015833725432822534
2188308515,47034,vehicle,298.7961120605469,199.19065856933594,-0.004529493002814499,-5.37266170178099e-06,0.0011861502333151382
1160083145,47034,vehicle,358.1337890625,326.5589904785156,-5.308692930800561,0.0001187583974208414,3.1415702830366365
1832698586,47034,vehicle,127.3373794555664,326.9634704589844,-0.0013251983181767053,-6.336403767381903e-06,-3.136811214168665
3748346955,47034,vehicle,142.33480834960938,1.9286693334579468,5.672362656157991,0.09057117610409694,0.015965742281187505
3198444053,47034,vehicle,120.93767547607422,327.1886291503906,-3.754916659288116,0.3868924809866069,3.0389187388195325
808811405,47034,vehicle,270.9906921386719,195.30758666992188,-5.834933753001321,-0.00023619840184904226,-3.141552173541224
84250811,47034,vehicle,338.6632385253906,48.357810974121094,0.0005919764368489053,0.010618346235815637,-1.6264890173009061
3956289865,47034,vehicle,2.43498158454895,172.6852569580078,-0.00338810225792625,-10.080909159648682,-1.5711324177244645
1912328786,47034,vehicle,335.1353759765625,19.40218734741211,-1.4023141933488178e-11,5.745335769195029e-08,1.5710404055088023
4030311199,47034,vehicle,338.7926940917969,166.95314025878906,-0.0016297463118553693,-5.6375801591763395,-1.5710854129312246
3147513812,47034,vehicle,382.0475769042969,326.14154052734375,3.3421164879004983e-07,-3.960050914967112e-08,3.023653233135089
1663586846,47034,vehicle,338.6357727050781,313.48248291015625,-4.488879551094327e-06,-5.618485450742836,-1.5707971257432236
