id,timestamp_ms,agent_type,x,y,vx,vy,psi_rad
-1,42344,vehicle,392.2198791503906,306.496337890625,5.319762168649741e-12,-2.484498416667651e-08,1.571010444946539
2985032057,42344,vehicle,-2.2921981811523438,36.65559387207031,0.0036836156544466994,9.20275519081339,1.5703960536830577
3028941286,42344,vehicle,396.8728942871094,124.71587371826172,-0.0015278360794436729,-5.714070592709097,-1.5710637081683405
2920337868,42344,vehicle,392.0353088378906,314.20721435546875,-1.51925866505241e-10,-3.862369041113769e-07,1.570402977901892
1503980471,42344,vehicle,116.47310638427734,2.032811164855957,-4.5261338531176356e-06,6.542819989098701e-09,-0.0014455638396950105
2125414330,42344,vehicle,358.60247802734375,-1.6013845205307007,5.113525033679671e-06,-5.0727591503743574e-09,3.1406006260837387
2396446624,42344,vehicle,141.33572387695312,327.0087585449219,-1.175534844658427e-07,1.4069096847993034e-10,3.1403958289959117
4076155829,42344,vehicle,50.5279541015625,-1.9598673582077026,-5.798809051422985,-3.2430641532174795e-05,-3.141587060951504
130361148,42344,vehicle,92.38613891601562,226.82598876953125,4.928380654172258e-11,8.278126937926623e-08,-1.5713916764565838
3417340120,42344,vehicle,294.8414306640625,330.50189208984375,5.06111728254329,0.0036556081460437204,0.0007222925900046357
2197730220,42344,vehicle,154.22633361816406,17.164339065551758,0.010737278291216764,5.561835415121094,1.5688658013206982
118743835,42344,vehicle,334.71221923828125,108.75579071044922,-6.529811760364396e-09,-3.1143135613413394e-06,1.5686996200686771
904053063,42344,vehicle,178.70040893554688,55.8249397277832,6.1462875514645885e-09,-9.587069768338156e-12,3.140032840139334
1291681130,42344,vehicle,113.09465789794922,195.61886596679688,-3.2923463683530813e-07,-1.283561158521466e-09,-3.1376940520700263
715062232,42344,vehicle,338.9866638183594,22.499813079833984,1.0654107516282223e-10,-4.502072853591356e-08,-1.5684298418502522
220877689,42344,vehicle,92.90692901611328,91.65347290039062,1.1560414525030494e-07,0.00020995702380477717,-1.5713469353502705
2069714320,42344,vehicle,73.69280242919922,331.17535400390625,5.950641069347519,-0.0010110714182951807,-0.00016990966129241006
3190467641,42344,vehicle,61.70576477050781,-1.9500250816345215,-5.785900592475667,-6.163514131930084e-05,-3.1415820009454327
708315452,42344,vehicle,88.34027862548828,163.382568359375,0.0018258327654399607,7.790778899820112,1.5705619686189696
1314594676,42344,vehicle,111.99039459228516,199.0155487060547,4.764907979463996,0.00551821783738068,0.0011580948455210218
2302084468,42344,vehicle,396.6781921386719,301.3984069824219,0.07041314379467058,-6.981183683463772,-1.560710536272603
757051778,42344,vehicle,334.7028503417969,297.8030090332031,1.3300924414328551e-11,6.511619552053624e-08,1.5705920623392875
4203008516,42344,vehicle,112.88423919677734,55.693016052246094,3.741695269385401e-10,8.891551787108928e-13,-3.1392163149491155
2631691725,42344,vehicle,334.72576904296875,304.8206481933594,1.9098134391200945e-12,-5.068005389528906e-08,1.5708340105243213
1513387753,42344,vehicle,339.01324462890625,29.555875778198242,-1.2676136979456686e-10,4.043317172633068e-08,-1.5676612535596552
156273220,42344,vehicle,92.51573181152344,80.52529907226562,8.982670961259071e-10,5.803394611931435e-07,-1.5723441560204507
3812119762,42344,vehicle,110.74476623535156,2.0930917263031006,-3.816480706620873e-05,7.584314838285014e-08,-0.0019872509354542903
3616050434,42344,vehicle,196.58865356445312,326.4011535644531,-5.635527131523491,0.00016509148241427657,3.1415633588178022
2942158310,42344,vehicle,112.55795288085938,59.335174560546875,5.9599961239872705,-0.0010888486946396723,-0.00018269285077943573
3608800298,42344,vehicle,298.0233459472656,133.1971893310547,0.7593963344170119,-0.0004914419976590924,-0.0006471481448892548
1146464971,42344,vehicle,60.19769287109375,2.5480518341064453,-1.6122581173396534e-07,1.37055025012641e-10,-0.0008500809549347115
3013099654,42344,vehicle,-2.343898296356201,207.03665161132812,0.0018658534638071136,4.423081004460035,1.570374482078228
2246582517,42344,vehicle,122.86835479736328,133.35728454589844,5.8938216344035705,-0.0009825819067861732,-0.00016671388423896032
3192940987,42344,vehicle,338.8670349121094,219.46270751953125,5.162007406196454e-06,0.0025317374146406457,-1.5728352429254613
828836647,42344,vehicle,285.3589172363281,330.7940979003906,3.7586872336798156,0.0004255235656899768,0.00011321068698111709
1702089089,42344,vehicle,375.72119140625,-2.42671275138855,-5.912793636286586,2.0470738529355054e-05,3.141589191480376
2111029583,42344,vehicle,92.03512573242188,306.8525695800781,-0.06164603577747449,-7.233931139389581,-1.5793179096509322
420096522,42344,vehicle,88.23765563964844,199.37823486328125,0.04732074367863158,4.63275870418721,1.5605823050661156
510102133,42344,vehicle,291.718505859375,1.8524188995361328,1.5359071235618114,0.00028126259075072173,0.00018312473670572605
4109025732,42344,vehicle,298.95111083984375,1.2770053148269653,-0.362468785390885,0.12713869106479186,-0.3373496060781986
2913592560,42344,vehicle,308.8707580566406,1.6724542379379272,0.0016461404436328353,-3.1564348070522556e-07,-0.00019174759848570515
3970347779,42344,vehicle,157.5801544189453,29.853872299194336,-0.001091878957567366,-0.028240600625600267,-1.6094405252666548
1933996401,42344,vehicle,337.9424133300781,1.0780441761016846,-0.0,0.0,2.4031276443989205
3047764241,42344,vehicle,53.26544952392578,2.046076774597168,1.7988442677678256e-08,8.123020140219645e-12,0.0004515688063517519
1260711767,42344,vehicle,305.73455810546875,55.68167495727539,-5.63191890543815,-0.00013948797783958476,-3.1415678861916554
3957993155,42344,vehicle,335.0718994140625,33.63330078125,1.0941358326425688e-10,-1.5636192509625706e-07,1.571496072371315
4289594148,42344,vehicle,-2.3972253799438477,214.97283935546875,0.0006612260704879923,4.076948589109739,1.5706341402845108
4139896837,42344,vehicle,112.17839813232422,129.49009704589844,6.895086699676919e-08,-9.473336619615794e-11,3.140218728783421
1686932955,42344,vehicle,112.77303314208984,-1.9681718349456787,0.040713113387910456,-0.00010571517753065805,3.138996071526966
1726501337,42344,vehicle,335.2327575683594,5.900634765625,0.0005922323664218589,-0.002598627010479847,1.7948712388047465
1682591593,42344,vehicle,313.8103332519531,330.4513854980469,0.010015732379039362,-1.3134040637328616e-05,-0.0013113402606806917
3380823586,42344,vehicle,368.77252197265625,326.3265380859375,5.92285946968018e-08,-1.9100232333645943e-10,3.1383678318258164
4176583038,42344,vehicle,302.4993591308594,1.9665971994400024,-1.6080620122725413e-07,8.453709318020218e-11,-0.000525707869144479
3855978784,42344,vehicle,338.6291809082031,294.499267578125,-0.00248410004344895,-5.625836300782831,-1.5712378789036316
1042098875,42344,vehicle,74.14464569091797,-1.9630061388015747,-5.5303182299028135,0.0005788154453099404,3.1414879913589533
644930681,42344,vehicle,88.3511962890625,210.77984619140625,-0.02073727984648981,5.678528114144119,1.5744481864396678
2234188147,42344,vehicle,335.1517639160156,26.420446395874023,-8.313398957391271e-12,4.646312336016666e-09,1.5725855715732664
4109707537,42344,vehicle,2.5964388847351074,160.87155151367188,0.003554693776833865,-10.90048827385452,-1.5704702227194165
3675841917,42344,vehicle,183.96047973632812,55.834163665771484,-0.017443144543912395,-0.00014080019503335685,-3.133520878641872
2817926641,42344,vehicle,92.69093322753906,28.04600715637207,0.0003819206780871638,-0.003950220952255644,-1.474412532203294
4029506115,42344,vehicle,-2.549384832382202,200.8713836669922,-3.654780704292986e-05,0.43915098753481013,1.5708795505789617
3277167701,42344,vehicle,124.81851959228516,59.387733459472656,4.7433404088814735,-0.0008893124952410659,-0.00018748654074157836
518241310,42344,vehicle,-2.6317968368530273,177.4595489501953,0.02710873213982835,3.6682958306001474,1.5634064542440902
778540568,42344,vehicle,338.9315185546875,42.95614242553711,0.0,-0.0,-1.5403369544593333
657465635,42344,vehicle,20.29444694519043,2.058997631072998,-0.00019186381193339906,1.248711837184435e-06,-0.006508232031638341
835227171,42344,vehicle,157.7899627685547,23.67967414855957,-1.336178793788537e-11,-8.098896021290987e-08,-1.570961309624427
715280319,42344,vehicle,92.39908599853516,161.5304412841797,-3.514508945713666e-10,-6.059116348568636e-07,-1.571376363280316
3020211281,42344,vehicle,293.7340393066406,59.59490203857422,5.553416683599325,-0.0007099029239816528,-0.0001278317404511261
2101598167,42344,vehicle,147.3492431640625,-2.016598701477051,-5.72303393133064,-0.010691827378982138,-3.139724446085103
14974470,42344,vehicle,338.9898681640625,36.57738494873047,2.3283259616648505e-09,-4.919477914035026e-07,-1.5660634900636623
1398818972,42344,vehicle,262.6201171875,133.6425323486328,5.6941045548463105,-0.0011524882529847433,-0.00020240025910066742
2694688339,42344,vehicle,2.285768985748291,176.8235321044922,-0.0018813599453647604,-6.929265720548811,-1.5710678360680301
3916750283,42344,vehicle,116.79842376708984,326.9374694824219,-4.994440751809126e-08,2.3832913192823126e-10,3.136820801548589
1983197581,42344,vehicle,-2.153489828109741,69.21026611328125,-0.029606529028275562,18.758210659718728,1.572374649214932
2942851653,42344,vehicle,338.8124084472656,120.1811294555664,-0.04153248348982097,-5.857577427781561,-1.577886593723069
3949181016,42344,vehicle,88.34516143798828,174.3600311279297,-0.004718134563198277,3.299428665831002,1.5722263111422146
3672416715,42344,vehicle,338.8553161621094,226.3114776611328,-3.556733120606494e-05,0.027522511150188753,-1.5695040278759356
3325384226,42344,vehicle,190.0697021484375,55.84154510498047,-0.0,0.0,3.1411931794262813
1359910869,42344,vehicle,283.9433288574219,59.605979919433594,4.690854549356268,2.202152430481899e-05,4.694565579245951e-06
2262630317,42344,vehicle,130.3806915283203,330.6374816894531,11.921320698494068,-0.0022731850895175033,-0.00019068231779502813
805172996,42344,vehicle,92.11447143554688,167.51625061035156,-3.6927985604255356e-05,-0.011760964757133861,-1.5739361937201
1986857511,42344,vehicle,-2.4793617725372314,224.5974578857422,0.00035441772389234444,3.66615961269051,1.5706996540473268
1279946346,42344,vehicle,130.23289489746094,2.91392183303833,-0.01613555224177296,-0.00020013926075039358,0.012402984100230914
74618890,42344,vehicle,334.70416259765625,291.78424072265625,-1.921013554009998e-09,-2.2892039521781556e-06,1.5699571647354127
3085549129,42344,vehicle,391.97674560546875,320.9991455078125,-3.428158651267009e-10,1.2691929131364463e-09,1.8346064012170558
2057201815,42344,vehicle,306.45654296875,198.97398376464844,8.123875855152398e-07,-9.826707069707748e-10,-0.0012096076370768274
1015694095,42344,vehicle,160.45704650878906,330.6480407714844,19.126615505213834,0.0008542840259331203,4.4664672907350824e-05
1250507297,42344,vehicle,158.6920166015625,-0.6526724100112915,-5.294988305175399,2.0067140839362,2.7793340357828926
4280502996,42344,vehicle,92.01011657714844,322.07916259765625,1.0476996191795782,-5.816560796414607,-1.3925837119173012
3428459672,42344,vehicle,66.85588836669922,2.0130598545074463,2.9422584521636395e-07,-2.378921344733234e-10,-0.0008085356419294754
414519966,42344,vehicle,148.38682556152344,327.06390380859375,-0.0,-0.0,-3.1412618889824055
2866945113,42344,vehicle,335.53466796875,328.0517883300781,4.547291659603895,-3.3944345761760806,-0.6412405878011866
1853482628,42344,vehicle,46.39568328857422,2.5198092460632324,-8.00952287765936e-08,1.9577307178552998e-10,-0.0024442489884003997
3880166169,42344,vehicle,214.35040283203125,326.41986083984375,-5.551511764524595,4.435371037557639e-06,3.141591854641466
1073352953,42344,vehicle,335.1935729980469,12.53307819366455,6.392316605338709e-08,-3.369725999897829e-06,1.589763892710659
213556023,42344,vehicle,134.5973358154297,327.0172119140625,1.1800724820031007e-08,-2.1486821699917168e-11,3.139771850352506
1628590046,42344,vehicle,33.744266510009766,2.3478176593780518,-1.2958504172651463e-07,-2.5278200797007586e-10,0.0019507011300875542
4120465129,42344,vehicle,291.82989501953125,55.67873764038086,-5.963790867942554,0.0005527122470344089,3.1414999755838586
1015227284,42344,vehicle,117.5134048461914,129.75152587890625,-0.006663948261187067,6.956889769755106e-07,3.141488257675062
2900396540,42344,vehicle,121.74085998535156,-1.9628582000732422,-4.765875684272797,-0.0011219988706619307,-3.1413572301494304
3587539486,42344,vehicle,396.5962829589844,111.0756607055664,-0.0021752914477971975,-8.091213887583349,-1.57106517290694
1146849989,42344,vehicle,333.9964904785156,168.263427734375,0.001558671180501412,0.01359193286938114,1.4566188876960384
1457681385,42344,vehicle,363.8873291015625,-2.6942641735076904,0.012626680579618067,-0.0001863199118141058,3.126837675886318
1726747598,42344,vehicle,91.92484283447266,85.55084991455078,0.00119932553402033,0.010421655677326233,-1.6853724411089397
367118466,42344,vehicle,375.0947570800781,326.35400390625,1.00155010051211e-07,-7.339177751409199e-10,3.13426496585044
2065705843,42344,vehicle,311.215087890625,133.19998168945312,4.347333696629765e-08,2.145269175472396e-11,0.0004934677554206829
3978545900,42344,vehicle,396.8800354003906,224.40817260742188,-0.008491779448112762,-21.735574970830115,-1.5711870125268113
714679325,42344,vehicle,392.13897705078125,287.8514709472656,0.003951013860614738,8.950711331953281,1.570354907844216
3262285446,42344,vehicle,88.33866119384766,142.3744354248047,0.001236129581840095,5.812883722478766,1.5705836733818537
1401880247,42344,vehicle,92.49676513671875,174.20469665527344,-1.0484974198035502e-11,-1.1137311911121798e-08,-1.5717377542402395
2250339631,42344,vehicle,92.39317321777344,111.54768371582031,5.543258668821626e-11,1.9599418192774372e-07,-1.571079154502663
2525145270,42344,vehicle,92.50078582763672,154.58193969726562,-2.2903887079728175e-08,2.6960067137108613e-05,-1.5699467784071612
1825059061,42344,vehicle,313.625732421875,2.0121889114379883,1.373994295721729e-06,-8.591727927471528e-10,-0.0006253102239506051
346279610,42344,vehicle,88.17655181884766,305.6376037597656,-3.9327149709005857e-10,-1.3895788469083334e-07,1.5679661855044693
893025708,42344,vehicle,395.8677673339844,99.8622055053711,-0.0018697048085665462,-5.821411309396352,-1.5711175040223602
1724402154,42344,vehicle,2.366710662841797,289.9501647949219,0.014385844176173605,-10.253965776889935,-1.5693933735326429
2595182244,42344,vehicle,313.6766662597656,198.77235412597656,-1.8443083951164708e-08,4.561004482949655e-11,-0.002473011128173255
874453657,42344,vehicle,388.6775817871094,324.7012939453125,-9.11429641748283e-08,5.5110986036959514e-08,2.597749858965257
1498616609,42344,vehicle,2.3457727432250977,0.6198428869247437,-5.113545598530912,2.9239493087147164,2.6221630566780134
505512523,42344,vehicle,305.554443359375,133.2028045654297,-0.44404765945042074,-1.2822127820780075e-05,2.887556671976562e-05
3709073522,42344,vehicle,118.92913055419922,195.56097412109375,-0.017405475380728327,-1.5190073591562076e-05,-3.140719935700574
27029540,42344,vehicle,27.776168823242188,2.6554951667785645,0.0034808241260915447,5.749399118211435e-05,0.016515848372965096
1375770528,42344,vehicle,338.5699157714844,204.5189666748047,-0.6898461226760909,-7.093785115966735,-1.667738053634871
4266869573,42344,vehicle,-1.4081553220748901,184.526123046875,0.006464893182024668,4.697222552303253,1.5694200051435436
368528135,42344,vehicle,2.1119706630706787,188.32843017578125,0.03940660198505878,-9.485459488214191,-1.5666419286524276
4012051816,42344,vehicle,338.80145263671875,181.91549682617188,-0.006837678105896731,-5.553159318782487,-1.5720276393248946
3938307140,42344,vehicle,92.14663696289062,219.810791015625,3.7044361280415784e-11,-6.713214362373272e-09,-1.5652782570162525
1966079641,42344,vehicle,85.30593872070312,331.06451416015625,7.402126104238624,-0.1695224534024701,-0.022897856971906688
1759883367,42344,vehicle,62.18054962158203,331.1674499511719,4.436286817891642,-0.000980607370311495,-0.00022104237047657676
3487645883,42344,vehicle,92.42707824707031,105.2142333984375,-7.028500883257226e-11,6.752350750974037e-08,-1.5697554302828391
544848518,42344,vehicle,122.98859405517578,2.0957014560699463,-0.0008426468966832764,-2.477025495666489e-06,0.002939568603053691
1325658571,42344,vehicle,92.39752960205078,98.92157745361328,-1.3178435874689194e-11,1.2886506727599707e-07,-1.5706940614090374
921579549,42344,vehicle,92.28732299804688,22.447322845458984,-0.0,-0.0,-1.5741785413792972
4072577581,42344,vehicle,92.38365936279297,233.42498779296875,-6.570296040577992e-11,-1.1285928499936435e-07,-1.571378493809188
94066344,42344,vehicle,334.482177734375,173.806396484375,2.3729675321243253e-11,2.0460026779525934e-07,1.5706803461294236
2853390219,42344,vehicle,347.2471923828125,330.64154052734375,5.552446883299059,0.0323729390025263,0.005830325416455972
2524564450,42344,vehicle,39.81764221191406,2.0300538539886475,-1.5425798270362346e-07,2.0384591456447082e-10,-0.0013214602728229927
1882516347,42344,vehicle,-2.13834547996521,192.04551696777344,0.0011179426755702877,3.3118763467317045,1.570458771126729
815178544,42344,vehicle,304.7470703125,330.3812561035156,4.61937885392025,-0.0013237115289973192,-0.0002865561658018167
2188308515,42344,vehicle,278.76824951171875,199.19302368164062,5.582834591997152,-0.0011983597489928634,-0.00021465076760574127
1160083145,42344,vehicle,363.3540954589844,326.5589294433594,0.544588116730987,-0.0005994199293445129,3.1404919691112636
1832698586,42344,vehicle,127.3373794555664,326.96343994140625,-0.0013251405083737223,-6.227782693270707e-06,-3.13689297321413
3748346955,42344,vehicle,136.2991943359375,1.9182370901107788,-0.9612058772407549,0.00020785949027204984,-0.00021624866425978882
3198444053,42344,vehicle,121.59815216064453,327.34814453125,-0.008734599209076306,0.0025962582165177973,2.852671366933168
808811405,42344,vehicle,310.07586669921875,195.30758666992188,-5.835039134138179,-0.00023309473784208522,-3.141552706173442
84250811,42344,vehicle,338.8214416503906,48.3548469543457,0.00021846903871744388,0.006742837645412354,-1.6031851593402222
3956289865,42344,vehicle,2.456052541732788,231.04312133789062,-0.011977716052945384,-16.12315877421093,-1.5715392155809742
1912328786,42344,vehicle,335.1353759765625,19.40218734741211,-3.9627782614756884e-10,1.6235656601802274e-06,1.5710404055088023
4030311199,42344,vehicle,338.85552978515625,193.94381713867188,-0.03784834472008689,-5.995959514028648,-1.5771085512106024
3147513812,42344,vehicle,382.0475769042969,326.14154052734375,2.2093502441772207e-07,-2.617843958345385e-08,3.023653233135089
1663586846,42344,vehicle,325.01055908203125,330.3485412597656,4.637631287645355,-0.13513824415157455,-0.029131253899940757
