id,timestamp_ms,agent_type,x,y,vx,vy,psi_rad
-1,33835,vehicle,392.2198791503906,306.4963073730469,8.773331325624581e-09,-4.097425241276823e-05,1.571010444946539
2985032057,33835,vehicle,17.351375579833984,-1.9646663665771484,-5.798737501464163,0.0005327825384499168,3.1415007745321852
3028941286,33835,vehicle,396.8898620605469,172.565673828125,-0.0012997728802734737,-5.587365952944764,-1.571028953916115
2920337868,33835,vehicle,392.0353088378906,314.20721435546875,-7.974258766006794e-11,-2.0272736231254097e-07,1.570402977901892
1503980471,33835,vehicle,114.96379852294922,2.032087564468384,8.685402844475191e-08,-1.5034906227990138e-11,-0.00017310545460050517
2125414330,33835,vehicle,383.7549133300781,-1.533515453338623,-4.315969545258636,-0.22224186507703414,-3.0901451750194244
2396446624,33835,vehicle,141.33572387695312,327.0087585449219,5.675505490889658e-07,-6.79258779741612e-10,3.1403958289959117
4076155829,33835,vehicle,98.67958068847656,-1.9209797382354736,-5.809693946383711,-0.010452996402832607,-3.139793421957336
130361148,33835,vehicle,92.38613891601562,226.82598876953125,3.3035511980343724e-11,5.5489253128442004e-08,-1.5713916764565838
3417340120,33835,vehicle,268.4902648925781,330.4994201660156,-9.923403623829217e-07,1.331952711366586e-09,-0.0013422329293256109
2197730220,33835,vehicle,182.3124237060547,-1.9393688440322876,-2.9493715763065893,3.927325811168732e-06,3.141591322009248
118743835,33835,vehicle,334.71221923828125,108.75579071044922,1.844446884459096e-11,8.796862997355671e-09,1.5686996200686771
904053063,33835,vehicle,178.70040893554688,55.8249397277832,3.277442238482705e-08,-5.112202632716849e-11,3.140032840139334
1291681130,33835,vehicle,113.09465789794922,195.61886596679688,-2.62601521044488e-09,-1.0237838759048036e-11,-3.1376940520700263
715062232,33835,vehicle,338.9866638183594,22.499813079833984,1.0546904094936483e-11,-4.45677223950283e-09,-1.5684298418502522
220877689,33835,vehicle,92.90675354003906,91.6510009765625,-3.512772993965766e-06,-0.0066083352989655545,-1.5713278937484765
2069714320,33835,vehicle,37.197975158691406,331.18017578125,2.4864384939926274,-0.001131001169516245,-0.0004548679141855339
3190467641,33835,vehicle,109.1878662109375,-2.736556053161621,-7.874303601997041,-0.0018433104086331316,-3.1413585617299753
708315452,33835,vehicle,88.72805786132812,106.81229400634766,-0.01584994497819268,4.672814667901376,1.574188261917276
1314594676,33835,vehicle,88.6181411743164,181.39776611328125,-3.8464779988191226e-05,2.1719217297008977,1.5708140368161456
2302084468,33835,vehicle,337.6463623046875,330.36328125,5.924165591872867,0.20835195144727733,0.035155349252835214
757051778,33835,vehicle,334.7019348144531,273.1341247558594,0.0006114819405342892,6.172246425856607,1.5706972572023457
4203008516,33835,vehicle,112.88423919677734,55.693016052246094,1.0480736102968693e-06,2.4905825065191757e-09,-3.1392163149491155
2631691725,33835,vehicle,334.72576904296875,285.988525390625,0.0006854045420373126,6.055647811248089,1.5706831424485683
1513387753,33835,vehicle,339.01324462890625,29.555875778198242,2.354382596787162e-10,-7.509792297105633e-08,-1.5676612535596552
156273220,33835,vehicle,92.51573181152344,80.52529907226562,5.221667588382932e-10,3.3735397498597663e-07,-1.5723441560204507
3812119762,33835,vehicle,109.01219177246094,2.0952510833740234,-0.0001078262296375433,6.083232168940861e-07,-0.005641639933075208
3616050434,33835,vehicle,246.1128692626953,326.416015625,-5.530375478147613,0.00016642957294340488,3.141562559869475
2942158310,33835,vehicle,88.584228515625,40.11233901977539,0.00042500111095949836,2.650917019154079,1.5706360044972738
3608800298,33835,vehicle,242.98353576660156,133.21102905273438,6.9362658415102185,-0.0012007055764643722,-0.00017310547085515047
1146464971,33835,vehicle,60.19769287109375,2.5480518341064453,-4.9701384146978414e-08,4.225021027443811e-11,-0.0008500809549347115
3013099654,33835,vehicle,-2.3766982555389404,179.47743225097656,-0.004778002222092887,2.381347154429911,1.5728027523601622
2246582517,33835,vehicle,88.60990142822266,115.34236145019531,-0.002284827292642587,6.099808265014123,1.5711709004022163
3192940987,33835,vehicle,338.8726501464844,245.8313446044922,0.0006540648845602279,-4.796820119134675,-1.5706599729470845
828836647,33835,vehicle,238.94287109375,330.77490234375,13.180672037693382,0.03496788714994946,0.0026529607149704494
1702089089,33835,vehicle,396.0162048339844,33.766380310058594,-0.0014592878231110384,-7.306043479140984,-1.5709960638766525
2111029583,33835,vehicle,63.01762008666992,330.44476318359375,5.902503872206446,0.0010594361314030833,0.0001794892714962299
420096522,33835,vehicle,88.08889770507812,165.6588592529297,0.0021696107301546583,4.663279505513081,1.5703310725524597
510102133,33835,vehicle,244.4671630859375,1.8604583740234375,2.474992482479834,-0.000392841702482714,-0.0001587244009687226
4109025732,33835,vehicle,297.8020324707031,1.902395248413086,-0.6778232583999207,0.06755749899921304,-0.09934023629672696
2913592560,33835,vehicle,308.8509216308594,1.6725318431854248,0.0016461291513468256,-3.156413154364753e-07,-0.00019174759848570515
3970347779,33835,vehicle,153.9608154296875,58.57049560546875,7.6629232004056655,-1.2592908650902312,-0.16287973121757324
1933996401,33835,vehicle,374.89764404296875,-2.2718186378479004,-4.532248233689796,-0.004435765792660754,-3.140613941889189
3047764241,33835,vehicle,53.26544952392578,2.046077251434326,3.739737471432852e-09,1.6887487792543484e-12,0.00045156877384246126
1260711767,33835,vehicle,338.99017333984375,77.29267883300781,-0.00179430756503631,-5.671304895751257,-1.571112710332398
3957993155,33835,vehicle,335.0718994140625,33.63330078125,-1.2859936871703964e-09,1.837801510457301e-06,1.571496072371315
4289594148,33835,vehicle,-2.402601718902588,186.7272186279297,0.0009567078413117809,3.371540887516774,1.5705125669807487
4139896837,33835,vehicle,112.17839813232422,129.49009704589844,2.209607561746463e-06,-3.0358365516496776e-09,3.140218728783421
1686932955,33835,vehicle,160.2847442626953,-1.9634989500045776,-5.532784379588107,0.0009548083154313243,3.141420080751156
1726501337,33835,vehicle,364.72113037109375,-2.4137606620788574,-5.509916712739179,0.0008760256165782776,3.1414336628727155
1682591593,33835,vehicle,281.6117858886719,330.4570617675781,0.27342451190652867,-0.0001147601536772161,-0.00041971418779648796
3380823586,33835,vehicle,368.77252197265625,326.3265380859375,-3.386326752391496e-08,1.0920338066337888e-10,3.1383678318258164
4176583038,33835,vehicle,302.4993591308594,1.9665982723236084,-4.12927590570389e-06,2.1707935744365014e-09,-0.0005257079991816417
3855978784,33835,vehicle,319.1877746582031,330.5496520996094,8.216899394895144,0.0027996051106409336,0.0003407130680033804
1042098875,33835,vehicle,118.5363540649414,-1.9535791873931885,-3.987770762557832,0.0005150736855182695,3.1414634902769243
644930681,33835,vehicle,88.63301849365234,172.92323303222656,-0.00045382337185304907,2.910465920352349,1.5709522548767207
2234188147,33835,vehicle,335.2000427246094,9.137393951416016,-0.3338556110554682,6.127901422924236,1.6252237494670094
4109707537,33835,vehicle,2.608344554901123,195.96702575683594,-0.002394543206897045,-2.0078947570986383,-1.5719888903310342
3675841917,33835,vehicle,183.96047973632812,55.83412551879883,-0.017407155581459346,-0.00013866452450822902,-3.133626872453257
2817926641,33835,vehicle,92.3549575805664,28.030452728271484,4.5207675315050275e-05,-0.0034232889276632956,-1.5575911756877932
4029506115,33835,vehicle,-2.4695487022399902,173.87559509277344,0.05761539177882569,-1.0457907426135096,1.6258333470405286
3277167701,33835,vehicle,88.80809020996094,49.21676254272461,0.1575698151687223,2.7325018710468076,1.5131950818936817
518241310,33835,vehicle,-2.7123162746429443,132.28086853027344,-0.04484871445096885,6.598932928750293,1.5775925807387243
778540568,33835,vehicle,338.9315185546875,42.956268310546875,-2.0677361292126145e-05,0.000678640585033652,-1.5403369544593333
657465635,33835,vehicle,1.7766385078430176,25.972230911254883,-0.002890854180559946,-5.997222203648273,-1.571278358952201
835227171,33835,vehicle,157.7802276611328,49.91428756713867,0.910590879998396,-7.392801552011791,-1.4482409823808127
715280319,33835,vehicle,92.39908599853516,161.5304412841797,-1.6475564696169894e-10,-2.8404356040753237e-07,-1.571376363280316
3020211281,33835,vehicle,244.94985961914062,59.604793548583984,5.828921217346247,-0.0010835300845717468,-0.00018588861157824016
2101598167,33835,vehicle,189.08741760253906,-1.9616845846176147,-2.746299023852796,0.00015797887293831053,3.1415351293102476
14974470,33835,vehicle,338.9898376464844,36.57738494873047,8.511881837463062e-09,-1.7984601553097716e-06,-1.5660634900636623
1398818972,33835,vehicle,214.52349853515625,133.65631103515625,5.839681073479738,-0.0009362308103400257,-0.00016032224885883416
2694688339,33835,vehicle,2.292745590209961,203.62313842773438,-3.808038865130293e-12,-1.4620595793289937e-08,-1.5710567839495064
3916750283,33835,vehicle,116.79842376708984,326.9374694824219,-1.4818402403498617e-06,7.071176047307751e-09,3.136820801548589
1983197581,33835,vehicle,4.936857223510742,-0.5795416831970215,-5.770366797072756,1.6470948253812028,2.8635463852445064
2942851653,33835,vehicle,339.0043640136719,170.25424194335938,-0.00026108328364639376,-5.683194631301562,-1.5708422663237005
3949181016,33835,vehicle,88.54869079589844,126.50055694580078,-0.06692011585391336,5.67512778597735,1.582587605679277
3672416715,33835,vehicle,338.86773681640625,254.5782012939453,-0.00019083653945893466,-2.719465010622816,-1.5708665010896201
3325384226,33835,vehicle,190.06942749023438,55.841522216796875,0.00012502499699765344,-4.778000732239917e-08,3.141210489973367
1359910869,33835,vehicle,234.1293182373047,59.606468200683594,5.15184778489101,-0.0007491229560049364,-0.0001454085955183264
2262630317,33835,vehicle,72.30746459960938,331.5003356933594,7.666243934164069,0.004837632343034645,0.0006310302336405397
805172996,33835,vehicle,92.12232208251953,167.52120971679688,-3.53448789697983e-05,-0.011778254114945739,-1.5737971767111978
1986857511,33835,vehicle,-2.453198194503784,194.7067413330078,-0.041180262467696835,2.2687054987058977,1.5889457696237865
1279946346,33835,vehicle,128.6644744873047,2.6442599296569824,0.028963551589180132,-0.001304873211079076,-0.04502180765341476
74618890,33835,vehicle,334.7002258300781,261.1980285644531,0.0005847713118732588,6.202765437217794,1.5707020508923077
3085549129,33835,vehicle,391.97674560546875,320.9991455078125,-6.837216852195767e-09,2.531314346019765e-08,1.8346064012170558
2057201815,33835,vehicle,284.45965576171875,198.9767303466797,5.923276281094523,-0.0013029850993301353,-0.00021997708978589974
1015694095,33835,vehicle,82.73284912109375,330.4969177246094,5.638693512419207,0.038499011644291606,0.006827541405298289
1250507297,33835,vehicle,197.38172912597656,-1.9457926750183105,-4.295849151755539,0.0023601832907873366,3.14104324345691
4280502996,33835,vehicle,53.80999755859375,331.22454833984375,4.3356909699837525,-0.0002124582403836354,-4.900216405745798e-05
3428459672,33835,vehicle,66.85588836669922,2.013062000274658,-1.5207397300022126e-07,1.2295726406175173e-10,-0.0008085357069480567
414519966,33835,vehicle,148.455322265625,327.0513916015625,-0.9406375366403418,-0.00045792670192189755,-3.1411058277425266
2866945113,33835,vehicle,297.6268615722656,330.4564514160156,3.300019212625016,-0.0005835552615841391,-0.00017683389638126142
1853482628,33835,vehicle,46.39568328857422,2.5198092460632324,3.355466939554661e-07,-8.201613005734714e-10,-0.0024442489884003997
3880166169,33835,vehicle,261.39068603515625,326.41986083984375,-5.559389591215266,-4.441665014013922e-06,-3.141591854641466
1073352953,33835,vehicle,353.19061279296875,-2.38395094871521,-5.505388082575491,-0.0013972634066933796,-3.1413388543379086
213556023,33835,vehicle,134.5973358154297,327.0172119140625,3.382485480196544e-08,-6.158847318613339e-11,3.139771850352506
1628590046,33835,vehicle,27.82072639465332,2.34698748588562,5.731107933408274,-0.004395705966162555,-0.0007669904589614019
4120465129,33835,vehicle,338.30194091796875,63.47126007080078,-0.884448916165252,-8.081772060921228,-1.6798000428440578
1015227284,33835,vehicle,117.51102447509766,129.75152587890625,-0.00659731866333071,5.534462557338215e-07,3.1415087640154558
2900396540,33835,vehicle,170.9654083251953,-1.969616174697876,-5.21392007435519,-0.000662338786145776,-3.1414656208057963
3587539486,33835,vehicle,396.61053466796875,159.1071319580078,-0.0020980193793857303,-8.010095321554871,-1.571058248688106
1146849989,33835,vehicle,334.4405517578125,168.25782775878906,0.05075687153810975,0.665597088441277,1.4946859791595766
1457681385,33835,vehicle,395.81640625,19.850906372070312,-0.0029948104188698838,-10.412334965127206,-1.571083948192625
1726747598,33835,vehicle,92.25521087646484,85.52680206298828,0.0006685129315517145,0.008638965091807253,-1.6480258678783224
367118466,33835,vehicle,375.0947570800781,326.35400390625,-3.81943733972272e-08,2.7988145108528786e-10,3.13426496585044
2065705843,33835,vehicle,311.215087890625,133.19998168945312,-1.0783527068402114e-07,-5.3213233298951444e-11,0.0004934677554206829
3978545900,33835,vehicle,396.5308837890625,320.4356689453125,1.1061733493048374,-5.565547473115642,-1.374599385075996
714679325,33835,vehicle,392.11907958984375,121.50080108642578,-0.00247489333239043,21.462047434208287,1.570911641670097
3262285446,33835,vehicle,88.31442260742188,97.40928649902344,0.0008504743752150921,4.065534025881725,1.5705871354912708
1401880247,33835,vehicle,92.49676513671875,174.20469665527344,-3.7836254709137893e-10,-4.019029158157332e-07,-1.5717377542402395
2250339631,33835,vehicle,92.39317321777344,111.54782104492188,6.148473751252226e-08,0.00021739290099501266,-1.571079154502663
2525145270,33835,vehicle,92.51597595214844,154.58193969726562,-2.271303061640858e-08,2.654815881868643e-05,-1.5699407862947086
1825059061,33835,vehicle,313.625732421875,2.0121846199035645,1.1388410759471826e-06,-7.121290610618941e-10,-0.0006253102239506051
346279610,33835,vehicle,88.17426300048828,280.2740783691406,0.0006950348753421558,5.767539459311541,1.5706758187555705
893025708,33835,vehicle,395.8876037597656,148.74232482910156,-0.001869703583372676,-5.821407494699284,-1.5711175040223602
1724402154,33835,vehicle,25.703571319580078,326.5333251953125,-5.671877327899446,0.0007990610123756509,3.141451772368128
2595182244,33835,vehicle,313.6766662597656,198.77235412597656,-5.280917179806482e-05,1.3059793576259315e-07,-0.002473011128173255
874453657,33835,vehicle,388.6775817871094,324.7012939453125,-6.985077883510387e-07,4.2236340807042974e-07,2.597749858965257
1498616609,33835,vehicle,51.79884719848633,-1.9627745151519775,-6.068723189663585,0.00038303910343409517,3.1415295366719582
505512523,33835,vehicle,305.4849853515625,133.20277404785156,-0.4440478610983684,7.970528529961307e-05,-0.00017949705747134065
3709073522,33835,vehicle,118.92913818359375,195.5609130859375,-0.017408536727351827,-1.141889762025448e-05,-3.1409367170133065
27029540,33835,vehicle,6.619416236877441,4.121571063995361,5.772036162740511,-2.105654879550593,-0.34980081628070053
1375770528,33835,vehicle,338.9404296875,236.50843811035156,0.008678252266478012,-1.2984717763454285,-1.5641129908812883
4266869573,33835,vehicle,-1.500445008277893,151.38890075683594,0.0003748586495015647,6.160045135536459,1.5707354735639882
368528135,33835,vehicle,2.6247644424438477,208.84481811523438,-0.0022872576714853712,-0.027736033716494714,-1.6530753544631671
4012051816,33835,vehicle,338.9683532714844,221.05950927734375,-0.0011299057777960809,-2.26097722430678,-1.5712960689734499
3938307140,33835,vehicle,92.14663696289062,219.810791015625,2.5716303817519316e-10,-4.6603330214845476e-08,-1.5652782570162525
1966079641,33835,vehicle,44.7309455871582,331.2387390136719,3.047600009593698,-0.0003603614416490063,-0.00011824433614487286
1759883367,33835,vehicle,28.023881912231445,331.16748046875,1.8048980200404947,-0.00011343891942825092,-6.285059766220869e-05
3487645883,33835,vehicle,92.42707824707031,105.2142562866211,-2.871242999116784e-08,2.7584317258178e-05,-1.5697554302828391
544848518,33835,vehicle,121.46568298339844,2.0926339626312256,0.8919363806053461,0.00026974504882599934,0.0003024263237464853
1325658571,33835,vehicle,92.39752960205078,98.92157745361328,1.1795860063911356e-11,-1.1534557781881181e-07,-1.5706940614090374
921579549,33835,vehicle,92.298583984375,22.447050094604492,-2.4038148536295587e-07,-7.089331475974279e-05,-1.5741870634947854
4072577581,33835,vehicle,92.38365936279297,233.42498779296875,-1.0901627013710085e-11,-1.8725942065600465e-08,-1.571378493809188
94066344,33835,vehicle,334.482177734375,173.806396484375,1.2412143655984696e-11,1.0701907554774948e-07,1.5706803461294236
2853390219,33835,vehicle,304.4539489746094,330.5146789550781,3.00406142033344,-0.0004912184417000348,-0.00016351810718551055
2524564450,33835,vehicle,39.81745910644531,2.030048131942749,-0.0009795069524060392,1.2943802779989068e-06,-0.0013214602728229927
1882516347,33835,vehicle,-2.1407487392425537,165.33395385742188,0.0011612273477401083,2.866755011928762,1.5703912599930956
815178544,33835,vehicle,275.25213623046875,330.3910217285156,-2.1149227540261018e-07,-2.814328679006201e-10,0.0013306996733001564
2188308515,33835,vehicle,229.96102905273438,199.20091247558594,5.740121261401545,-0.0010884248925549238,-0.00018961705335899645
1160083145,33835,vehicle,362.8225402832031,326.56085205078125,0.5571648272076881,-0.0005959022141483956,3.1405231280960173
1832698586,33835,vehicle,127.3373794555664,326.9634094238281,-0.001325221053716251,-5.926401690225289e-06,-3.137120673487332
3748346955,33835,vehicle,134.7203826904297,1.9187023639678955,-0.9612058772407549,0.00020785949027204984,-0.00021624866425978882
3198444053,33835,vehicle,121.40340423583984,326.68896484375,0.7772236946205856,-0.10095017404096347,3.012430139669277
808811405,33835,vehicle,339.0032653808594,212.89419555664062,-0.0069484413455978234,-2.138595260360033,-1.5740453833247932
84250811,33835,vehicle,339.16943359375,86.71241760253906,0.043836095574234124,-10.756818143199045,-1.5667211576948574
3956289865,33835,vehicle,3.270899534225464,320.7056884765625,-3.098926741004942,-6.057554642198859,-2.043665345736603
1912328786,33835,vehicle,341.65728759765625,-1.2646135091781616,-6.15052016240398,0.6076902580863801,3.043109222794772
4030311199,33835,vehicle,338.9558410644531,229.5173797607422,-0.0003743166741993196,-3.072208143319136,-1.5709181664147678
3147513812,33835,vehicle,382.0475769042969,326.14154052734375,1.6454294781584833e-07,-1.94965810859234e-08,3.023653233135089
1663586846,33835,vehicle,288.8255920410156,330.410888671875,2.9551739686403233,6.094676834242552e-05,2.062374972862465e-05
