id,timestamp_ms,agent_type,x,y,vx,vy,psi_rad
-1,40200,vehicle,392.2198791503906,306.496337890625,2.030801603276083e-11,-9.48449048651024e-08,1.571010444946539
2985032057,40200,vehicle,-2.2952651977539062,21.043712615966797,-0.005710227258177812,6.538049588451963,1.571669710474388
3028941286,40200,vehicle,396.87786865234375,137.4202880859375,-0.0011594677343714317,-4.859070639557414,-1.5710349460285677
2920337868,40200,vehicle,392.0353088378906,314.20721435546875,-1.368813811190413e-10,-3.479897274246198e-07,1.570402977901892
1503980471,40200,vehicle,116.47124481201172,2.032792806625366,-0.014862578665869994,2.1484819316601383e-05,-0.0014455637096578479
2125414330,40200,vehicle,358.6033935546875,-1.6013915538787842,0.003054377749781347,-3.030027735633018e-06,3.1406006260837387
2396446624,40200,vehicle,141.33572387695312,327.0087585449219,-0.0,0.0,3.1403958289959117
4076155829,40200,vehicle,62.66314697265625,-1.9606791734695435,-5.553856838514283,0.00035202140775698274,3.1415292703558495
130361148,40200,vehicle,92.38613891601562,226.82598876953125,-7.589911711198254e-11,-1.274866066600686e-07,-1.5713916764565838
3417340120,40200,vehicle,285.7216796875,330.5001220703125,4.4032038578692845,0.0009678252769890315,0.00021980023924476167
2197730220,40200,vehicle,154.46200561523438,5.375978469848633,-0.8089536940260874,5.514798346121952,1.7164454057596572
118743835,40200,vehicle,334.71221923828125,108.75579071044922,8.944938163859025e-10,4.2661784522118106e-07,1.5686996200686771
904053063,40200,vehicle,178.70040893554688,55.8249397277832,-7.675170266060745e-09,1.1971843524806296e-11,3.140032840139334
1291681130,40200,vehicle,113.09465789794922,195.61886596679688,2.0629581852018166e-07,8.042692663298214e-10,-3.1376940520700263
715062232,40200,vehicle,338.9866638183594,22.499813079833984,-1.1979091830318445e-11,5.06196732645457e-09,-1.5684298418502522
220877689,40200,vehicle,92.9068832397461,91.65279388427734,-3.668847528491923e-06,-0.006708686168130058,-1.5713432069247444
2069714320,40200,vehicle,63.28738784790039,331.1764831542969,7.568377738318026,-0.008275977534063826,-0.0010934938135493727
3190467641,40200,vehicle,75.4534683227539,-1.9571305513381958,-6.249424472079241,0.034694821375348184,3.136041027981414
708315452,40200,vehicle,88.34169006347656,149.17652893066406,-0.007734802975217363,6.087544772533494,1.5720669209509734
1314594676,40200,vehicle,99.32887268066406,198.8894500732422,9.55012981713657,0.36183725135476563,0.037870088283088715
2302084468,40200,vehicle,396.3117370605469,321.6864013671875,1.7284498208502879,-6.9439187785021295,-1.326838520402624
757051778,40200,vehicle,334.7028503417969,297.8028564453125,-4.6218344861857e-08,-0.00022641478682386868,1.570592195497342
4203008516,40200,vehicle,112.88423919677734,55.693016052246094,2.2676292321732206e-09,5.388665110385142e-12,-3.1392163149491155
2631691725,40200,vehicle,334.72576904296875,304.8206481933594,-6.21149303376218e-11,1.6483222668404545e-06,1.5708340105243213
1513387753,40200,vehicle,339.01324462890625,29.555875778198242,-1.1218918223180456e-09,3.578506983923099e-07,-1.5676612535596552
156273220,40200,vehicle,92.51573181152344,80.52529907226562,-4.507365811778801e-11,-2.9120539513132257e-08,-1.5723441560204507
3812119762,40200,vehicle,110.73384857177734,2.0926623344421387,0.05537374594635537,-0.0001098646879426689,-0.0019840547520347074
3616050434,40200,vehicle,209.01329040527344,326.4049072265625,-5.86368942212833,7.49565576687949e-05,3.1415798704165607
2942158310,40200,vehicle,100.34723663330078,59.3155517578125,5.908009345221554,0.1824455528604606,0.030871242681711635
3608800298,40200,vehicle,286.79486083984375,133.1999053955078,6.936253443744291,-0.0012007034303432422,-0.00017310547085515047
1146464971,40200,vehicle,60.19769287109375,2.5480518341064453,-3.555822865894473e-07,3.0227380255330395e-10,-0.0008500809549347115
3013099654,40200,vehicle,-2.3481507301330566,198.7021484375,-0.0019986653608909844,2.2540498455511044,1.5716830262798385
2246582517,40200,vehicle,110.49449920654297,133.36456298828125,5.654984578089518,-0.013891493426443061,-0.002456499269340439
3192940987,40200,vehicle,338.86767578125,223.9543914794922,-0.000874072097811196,-4.123222258427985,-1.571008314417667
828836647,40200,vehicle,276.65069580078125,330.7965087890625,4.575532868929727,-0.0030219746554353516,-0.0006604638853210697
1702089089,40200,vehicle,388.1935729980469,-1.8362361192703247,-5.391347715882876,-2.2971382920588366,-2.738808713475157
2111029583,40200,vehicle,92.33914184570312,323.6542663574219,1.7090474194795655,-6.1501738774706345,-1.2997489789523926
420096522,40200,vehicle,88.12358856201172,188.55511474609375,0.048545956217433656,5.5233705532979505,1.5620073625654172
510102133,40200,vehicle,283.1048278808594,1.8531445264816284,2.2873997366343803,-0.00038377794691214133,-0.00016777913242034667
4109025732,40200,vehicle,297.662109375,1.3580548763275146,0.0040865653621204095,-0.001434300915822472,-0.33754721263108245
2913592560,40200,vehicle,308.8657531738281,1.672473669052124,0.0016461376496651628,-3.1564294496862757e-07,-0.00019174759848570515
3970347779,40200,vehicle,157.59339904785156,29.856290817260742,-0.000437162680207446,-0.028201790600083456,-1.5862963238133212
1933996401,40200,vehicle,340.58447265625,-1.0649298429489136,-4.73491623567935,1.1157273398218674,2.910175939086813
3047764241,40200,vehicle,53.26545333862305,2.046076774597168,-1.3484366025622423e-08,-6.0891212379558505e-12,0.0004515689363889145
1260711767,40200,vehicle,318.03997802734375,55.68424987792969,-5.989017624124286,-0.007821746499736376,-3.1402866393912183
3957993155,40200,vehicle,335.0718994140625,33.63330078125,1.5236872125983079e-10,-2.1774870971093723e-07,1.571496072371315
4289594148,40200,vehicle,-2.3988542556762695,206.5735626220703,0.0004749161692586952,3.4393055111101596,1.570658241892376
4139896837,40200,vehicle,112.17839813232422,129.49009704589844,-2.3289829843103767e-08,3.1998495091821516e-11,3.140218728783421
1686932955,40200,vehicle,123.18507385253906,-1.9670209884643555,-5.863677024342048,7.651799083392692e-05,3.141579604100452
1726501337,40200,vehicle,335.2452392578125,5.825575351715088,-0.1822614962004178,0.7809607150370012,1.8000735908361618
1682591593,40200,vehicle,304.7937316894531,330.45709228515625,5.761802565050445,-0.0011170874118577397,-0.0001938781111031232
3380823586,40200,vehicle,368.77252197265625,326.3265380859375,-2.8329093870633203e-08,9.135659515486986e-11,3.1383678318258164
4176583038,40200,vehicle,302.4993591308594,1.9665971994400024,-1.8905426432045151e-07,9.938732360443241e-11,-0.000525707869144479
3855978784,40200,vehicle,338.6290283203125,306.89990234375,0.00011467574126939406,-6.022378920416984,-1.5707772851931026
1042098875,40200,vehicle,85.81267547607422,-1.960510015487671,-5.079112525314955,-0.00021236596926160842,-3.141550841960679
644930681,40200,vehicle,88.4738540649414,198.6464385986328,-0.07334613262791642,5.927083162007476,1.5831704384838408
2234188147,40200,vehicle,335.1517639160156,26.42044448852539,5.821572798421676e-11,-3.2536445859219985e-08,1.5725855715732664
4109707537,40200,vehicle,2.601604461669922,178.75192260742188,0.0012702617638935957,-8.479558849557757,-1.5706465239835796
3675841917,40200,vehicle,183.96047973632812,55.83415985107422,-0.017409258072455178,-0.0001398914417978304,-3.133557363948806
2817926641,40200,vehicle,92.61073303222656,28.03907012939453,0.00025687374654193815,-0.004024314431034598,-1.5070523676813594
4029506115,40200,vehicle,-2.545628070831299,193.29220581054688,-0.0009575391452503808,2.3677959890175444,1.571200727806425
3277167701,40200,vehicle,111.96622467041016,59.38714599609375,4.764908345046436,0.004735253046403626,0.0009937759857428564
518241310,40200,vehicle,-2.6745753288269043,170.70103454589844,0.04716749274315488,1.4560550467461615,1.5384136195200782
778540568,40200,vehicle,338.9315185546875,42.95614242553711,4.2167442302719245e-09,-1.383955008059332e-07,-1.5403369544593333
657465635,40200,vehicle,18.915771484375,2.0656793117523193,3.74365315615219,-0.04367634678278616,-0.01166624243090381
835227171,40200,vehicle,157.7899627685547,23.679706573486328,7.157362289039653e-09,4.33824674026485e-05,-1.570961309624427
715280319,40200,vehicle,92.39908599853516,161.5304412841797,1.0027365631083621e-10,1.7287472010129295e-07,-1.571376363280316
3020211281,40200,vehicle,281.48065185546875,59.59737777709961,5.581839525540337,-0.0006332633037777766,-0.00011345064618273023
2101598167,40200,vehicle,159.72569274902344,-1.983891248703003,-6.159183304083963,-0.014423093979024354,-3.1392509360432865
14974470,40200,vehicle,338.9898376464844,36.57738494873047,-5.5876176114477246e-09,1.1805976432928246e-06,-1.5660634900636623
1398818972,40200,vehicle,250.45867919921875,133.64584350585938,5.562492215758843,-0.0013125038413509562,-0.00023595607258102051
2694688339,40200,vehicle,2.289365291595459,190.53016662597656,-0.0013926401227601986,-5.563058201997481,-1.5710466639373641
3916750283,40200,vehicle,116.79842376708984,326.9374694824219,4.8227571074242854e-08,-2.3013658025611606e-10,3.136820801548589
1983197581,40200,vehicle,-2.1248226165771484,37.32182693481445,-0.021181829965839442,11.693940052296348,1.572607675810314
2942851653,40200,vehicle,338.9168395996094,132.79257202148438,-0.04955093957985337,-5.825176256238482,-1.5793024633166097
3949181016,40200,vehicle,88.3438949584961,162.5395050048828,0.0015526438300988298,5.830078395090125,1.5705300106858886
3672416715,40200,vehicle,338.858154296875,232.50379943847656,-0.0005929087045294517,-3.312997526519802,-1.57097529122015
3325384226,40200,vehicle,190.0697021484375,55.84153366088867,0.00023808056312309532,-9.421937307194958e-08,3.1411969078518074
1359910869,40200,vehicle,271.39031982421875,59.60657501220703,6.118802591024724,-0.003337289241159776,-0.0005454153587389374
2262630317,40200,vehicle,107.08148956298828,330.6441345214844,5.418247910901293,-0.011032937237494126,-0.0020362527094002604
805172996,40200,vehicle,92.11634826660156,167.5175018310547,-3.69279885284795e-05,-0.011760965688451844,-1.5739361937201
1986857511,40200,vehicle,-2.480250358581543,215.37619018554688,0.0003539126142818602,3.6609346695539142,1.5706996540473268
1279946346,40200,vehicle,129.794921875,2.848158836364746,0.028721704108424947,-0.0014588717718883237,-0.05074974284833559
74618890,40200,vehicle,334.7041015625,291.78082275390625,-1.540247819460275e-05,-0.018683673053115028,1.5699719452794625
3085549129,40200,vehicle,391.97674560546875,320.9991455078125,9.37464478138839e-10,-3.4707357301892256e-09,1.8346064012170558
2057201815,40200,vehicle,306.4565124511719,198.9739532470703,-2.19447796081519e-05,2.654458595423223e-08,-0.0012096076370768274
1015694095,40200,vehicle,126.42247772216797,330.64959716796875,13.545389112510112,0.0013054284450498665,9.637437730028715e-05
1250507297,40200,vehicle,170.3497772216797,-1.9412994384765625,-4.997860393513199,-0.0006175889834244976,-3.1414690829152137
4280502996,40200,vehicle,84.17891693115234,330.361083984375,6.259192267424756,-0.9106419541981892,-0.14447505768771277
3428459672,40200,vehicle,66.85588836669922,2.0130598545074463,2.3019124320956612e-07,-1.8611786515192912e-10,-0.0008085356419294754
414519966,40200,vehicle,148.38682556152344,327.0599060058594,-7.729990584782915e-06,-2.569159121578526e-09,-3.1412602910857514
2866945113,40200,vehicle,324.4183044433594,330.40863037109375,3.7377703392977524,-0.0918228494877205,-0.024561269469364783
1853482628,40200,vehicle,46.39568328857422,2.5198092460632324,7.444265793064308e-08,-1.8195675369892188e-10,-0.0024442489884003997
3880166169,40200,vehicle,226.20343017578125,326.41986083984375,-5.5557713508273,1.9234688312764074e-05,3.141589191480376
1073352953,40200,vehicle,335.1932067871094,12.532079696655273,0.00014878018432220005,-0.007843205657330916,1.5897633600784409
213556023,40200,vehicle,134.5973358154297,327.0172119140625,-4.0987440554921535e-08,7.463014692492754e-11,3.139771850352506
1628590046,40200,vehicle,33.744266510009766,2.3478176593780518,-2.75470215437205e-07,-5.373607421536072e-10,0.0019507011300875542
4120465129,40200,vehicle,304.2358703613281,55.67882537841797,-5.839643856350967,0.0010746371519340602,3.1414086291584686
1015227284,40200,vehicle,117.51288604736328,129.75152587890625,0.00019721807522603822,-1.9695881473088086e-08,3.141492785048915
2900396540,40200,vehicle,134.29197692871094,-1.9609525203704834,-5.1749324181972725,-0.0023608017182207893,-3.141136454095063
3587539486,40200,vehicle,396.60015869140625,123.84566497802734,-0.001487294081781595,-5.521200456568162,-1.5710657055391581
1146849989,40200,vehicle,334.03973388671875,168.2655792236328,0.0014850064837500319,0.012514675257973291,1.452687396136809
1457681385,40200,vehicle,370.31793212890625,-2.7257814407348633,-5.835493560491558,-0.00021912611752679306,-3.141555103018423
1726747598,40200,vehicle,91.999755859375,85.54443359375,0.0011372773743911515,0.01033143056215843,-1.6804342746576602
367118466,40200,vehicle,375.0947570800781,326.35400390625,1.7211207867634098e-07,-1.261206142283162e-09,3.13426496585044
2065705843,40200,vehicle,311.215087890625,133.19998168945312,2.4359768123237262e-08,1.2020761074069089e-11,0.0004934677554206829
3978545900,40200,vehicle,396.8943176269531,265.5049133300781,-0.00691645994456203,-16.60541199647323,-1.571212845189385
714679325,40200,vehicle,392.1325378417969,259.2366638183594,0.0074828019859049045,17.52803642768057,1.570369422072157
3262285446,40200,vehicle,88.3302230834961,130.15757751464844,0.003176707937484913,5.5558147885261615,1.5702245461088566
1401880247,40200,vehicle,92.49676513671875,174.20469665527344,-7.012247499188779e-11,-7.448524538198848e-08,-1.5717377542402395
2250339631,40200,vehicle,92.39317321777344,111.54768371582031,3.120423369884196e-11,1.1032947624987444e-07,-1.571079154502663
2525145270,40200,vehicle,92.50843811035156,154.5819549560547,2.4468591476542904e-08,-2.8738810712647593e-05,-1.5699449141943982
1825059061,40200,vehicle,313.625732421875,2.0121877193450928,-1.2996553965640018e-06,8.12687913007864e-10,-0.0006253102239506051
346279610,40200,vehicle,88.17655181884766,305.6374816894531,-5.875133869421339e-07,-0.00020759098506020293,1.5679661855044693
893025708,40200,vehicle,395.8727722167969,112.17845153808594,-0.0018697046554173125,-5.821410832559219,-1.5711175040223602
1724402154,40200,vehicle,2.368222236633301,305.20208740234375,-0.01696130394102915,-5.895440021356437,-1.5736733397205092
2595182244,40200,vehicle,313.6766662597656,198.77235412597656,4.5097942032145184e-08,-1.11527939863565e-10,-0.002473011128173255
874453657,40200,vehicle,388.6775817871094,324.7012939453125,-1.0490469127460454e-06,6.343222461973621e-07,2.597749858965257
1498616609,40200,vehicle,14.509976387023926,-1.955977439880371,-6.002249239645808,0.00012148567038985156,3.1415724135655085
505512523,40200,vehicle,305.5369567871094,133.2028045654297,-0.4440477192391808,9.460564300250437e-07,-2.130528745073974e-06
3709073522,40200,vehicle,118.92913055419922,195.5609588623047,-0.017409644267120085,-1.4859885857634175e-05,-3.140739110460423
27029540,40200,vehicle,27.77734375,2.5684943199157715,0.00344427246329702,3.6583067158329806e-05,0.010621021402966864
1375770528,40200,vehicle,338.93017578125,215.12469482421875,0.0009634345713357328,-2.4906266256413203,-1.5704095026465625
4266869573,40200,vehicle,-1.4481585025787354,177.7482147216797,0.017256574407734517,1.5182366787316663,1.559430621052711
368528135,40200,vehicle,2.180582284927368,199.30479431152344,-0.11741944791378499,-10.722822088723996,-1.5817463130909208
4012051816,40200,vehicle,338.864990234375,194.36648559570312,-0.0407133768883211,-5.8599230747206885,-1.5777439814466954
3938307140,40200,vehicle,92.14663696289062,219.810791015625,0.0,-0.0,-1.5652782570162525
1966079641,40200,vehicle,72.8906021118164,331.23651123046875,4.741957577799245,-0.00090673334641155,-0.00019121498252233464
1759883367,40200,vehicle,52.83339309692383,331.1674499511719,3.5043155265970105,-0.0007858012352155712,-0.00022423814753002653
3487645883,40200,vehicle,92.42707824707031,105.2142333984375,1.7894545998311668e-10,-1.7191468439290106e-07,-1.5697554302828391
544848518,40200,vehicle,122.55567169189453,2.0954930782318115,-0.0003068163957269778,-9.153547515994516e-07,0.0029833869656612014
1325658571,40200,vehicle,92.39752960205078,98.92157745361328,-1.2937956061841601e-11,1.265135403151501e-07,-1.5706940614090374
921579549,40200,vehicle,92.29109191894531,22.44725227355957,2.483556095825134e-07,7.338048626481417e-05,-1.5741808050662238
4072577581,40200,vehicle,92.38365936279297,233.42498779296875,-6.584868675650317e-11,-1.1310960205732674e-07,-1.571378493809188
94066344,40200,vehicle,334.482177734375,173.806396484375,7.235630970027616e-11,6.23865271687906e-07,1.5706803461294236
2853390219,40200,vehicle,335.28094482421875,330.57135009765625,5.572693843150928,0.032189098801806114,0.005776154535259429
2524564450,40200,vehicle,39.81764221191406,2.0300538539886475,-2.3327036256593775e-06,3.082576963903361e-09,-0.0013214602728229927
1882516347,40200,vehicle,-2.1388039588928223,184.86871337890625,0.0005093505821399535,3.3941063498731423,1.5706462576674707
815178544,40200,vehicle,295.3032531738281,330.3840637207031,4.014592632974215,-0.0003421281561374541,-8.52211386278903e-05
2188308515,40200,vehicle,266.6390686035156,199.1945037841797,5.868896343064072,-0.0012878968905959294,-0.00021944447382252923
1160083145,40200,vehicle,363.2268371582031,326.5594177246094,0.5612444340288224,-0.0006283655585513442,3.140473060667524
1832698586,40200,vehicle,127.3373794555664,326.96343994140625,-0.0013252085811690788,-6.1345756170214855e-06,-3.1369635469830173
3748346955,40200,vehicle,135.90138244628906,1.9183542728424072,-0.9612058772407549,0.00020785949027204984,-0.00021624866425978882
3198444053,40200,vehicle,121.59909057617188,327.35394287109375,-0.009500260035032642,0.002973127068877555,2.838295889685029
808811405,40200,vehicle,327.9797058105469,195.3435821533203,-6.2470062260664205,-0.25772507712476167,-3.1003602620126416
84250811,40200,vehicle,338.8085021972656,48.50529861450195,-0.013451684094318028,-0.5894743996257606,-1.5936121604858235
3956289865,40200,vehicle,2.464405059814453,267.26568603515625,-0.0021035096854734657,-14.846888393162487,-1.5709380069648888
1912328786,40200,vehicle,335.1353759765625,19.40216827392578,3.560049372232464e-08,-0.00014585660685315297,1.5710404055088023
4030311199,40200,vehicle,338.9307861328125,206.2030029296875,-0.03129608926459606,-6.078718207973397,-1.5759447498142378
3147513812,40200,vehicle,382.0475769042969,326.14154052734375,9.291269388356765e-08,-1.1009161402893494e-08,3.023653233135089
1663586846,40200,vehicle,314.5491943359375,330.3996887207031,4.163363456720759,-6.652624537083576e-06,-1.597896654047543e-06
