id,timestamp_ms,agent_type,x,y,vx,vy,psi_rad
-1,30418,vehicle,392.21990966796875,300.9325866699219,-0.000538530519445767,7.1327962672069285,1.5708718274118003
2985032057,30418,vehicle,36.941749572753906,-1.9641765356063843,-5.79765508040516,0.0005404031314002535,3.1414994429516403
3028941286,30418,vehicle,396.8975830078125,193.3979034423828,-0.002496774649274975,-6.810918350344419,-1.571162910918946
2920337868,30418,vehicle,392.0353088378906,314.20709228515625,-7.895952243216579e-08,-0.00020073659736711438,1.570402977901892
1503980471,30418,vehicle,114.96338653564453,2.0320677757263184,-0.003807523929277502,6.591031053733824e-07,-0.00017310543834585983
2125414330,30418,vehicle,391.55084228515625,0.3841674029827118,3.000021317857553e-08,2.7578846327503895e-08,-2.3982226343032123
2396446624,30418,vehicle,141.35824584960938,327.0086669921875,-0.5295877313714148,0.0005751521461466881,3.140506616497259
4076155829,30418,vehicle,112.6908187866211,-1.9136654138565063,5.0316070311511285e-06,7.58438877475775e-10,-3.1414419186720948
130361148,30418,vehicle,92.38613891601562,226.82598876953125,4.383431857421896e-11,7.362784631655935e-08,-1.5713916764565838
3417340120,30418,vehicle,268.48614501953125,330.49993896484375,-0.022457098896327403,3.0106794469853057e-05,-0.001340635162708726
2197730220,30418,vehicle,188.16998291015625,-1.9401477575302124,1.0632274673150776e-07,-5.023163014731874e-11,3.141120208812413
118743835,30418,vehicle,334.7121887207031,108.75416564941406,-2.5226056678089426e-05,-0.012030494028890278,1.5686994869106228
904053063,30418,vehicle,178.70040893554688,55.8249397277832,1.3824964341660588e-08,-2.1564382821090803e-11,3.140032840139334
1291681130,30418,vehicle,113.09466552734375,195.61886596679688,1.1451700003264239e-05,4.46458412289802e-08,-3.1376940520700263
715062232,30418,vehicle,338.9866638183594,22.499813079833984,-3.6086139437117896e-09,1.5248806950978903e-06,-1.5684298418502522
220877689,30418,vehicle,92.90665435791016,91.65011596679688,-3.754910850513503e-08,-7.186263720892705e-05,-1.5713188390007702
2069714320,30418,vehicle,34.90071105957031,331.1800231933594,0.017436528784544096,2.1154295822272126e-05,0.0012132165584505074
3190467641,30418,vehicle,118.30072784423828,-2.715488910675049,0.0006975463538637813,0.00014764491125104505,-2.9330080180603892
708315452,30418,vehicle,88.76670837402344,99.76870727539062,3.559089262750415e-05,0.01190195778531568,1.5678059963649011
1314594676,30418,vehicle,88.64353942871094,172.73947143554688,1.5909553266052061e-07,0.0016479822730218901,1.5706997872053812
2302084468,30418,vehicle,312.6083679199219,330.06964111328125,-0.010467413815990536,0.0012508203140164846,-0.11893263806087075
757051778,30418,vehicle,334.7001953125,253.35986328125,0.0009810758593282994,5.707013522698219,1.570624419746532
4203008516,30418,vehicle,112.88423919677734,55.693016052246094,1.5135713521546266e-06,3.5967648598433064e-09,-3.1392163149491155
2631691725,30418,vehicle,334.72576904296875,266.37420654296875,0.0006042551557136272,5.916400401729708,1.570694194567092
1513387753,30418,vehicle,339.01324462890625,29.55594825744629,-5.90344935164972e-07,0.00018830277851981635,-1.5676612535596552
156273220,30418,vehicle,92.51573181152344,80.52529907226562,-5.733287280821569e-09,-3.704079628172334e-06,-1.5723441560204507
3812119762,30418,vehicle,103.09927368164062,2.131934881210327,6.993282087784313,-0.21603904508974492,-0.030882546552182262
3616050434,30418,vehicle,266.0028991699219,326.4219970703125,-5.507750032054103,0.00015841467630096874,3.14156389145002
2942158310,30418,vehicle,88.58416748046875,29.34451675415039,-0.00012799646563150274,3.408642289619535,1.5708338773662667
3608800298,30418,vehicle,219.46376037597656,133.21701049804688,6.936502829574314,-0.0012007464876448077,-0.00017310545460050517
1146464971,30418,vehicle,60.19769287109375,2.5480518341064453,1.1847070862552326e-07,-1.0070971737905512e-10,-0.0008500809549347115
3013099654,30418,vehicle,-2.3784403800964355,175.9595489501953,2.0320304582408127e-06,0.002927352201866098,1.5701021738567675
2246582517,30418,vehicle,88.6150894165039,105.10009765625,4.655805471451508e-12,3.4145024268122754e-08,1.5706599729470845
3192940987,30418,vehicle,338.87249755859375,248.6110076904297,-5.3975841359509704e-11,-4.709556227241274e-08,-1.5719424181700121
828836647,30418,vehicle,178.46072387695312,330.7790832519531,17.566666178904086,-0.025524747388603507,-0.0014530206907472324
1702089089,30418,vehicle,396.0220642089844,61.368709564208984,0.0010375120352681681,-8.450740750520414,-1.570673555068644
2111029583,30418,vehicle,54.970218658447266,330.44464111328125,0.004465182762647661,-2.071499621693209e-06,-0.00046392266189180327
420096522,30418,vehicle,88.08952331542969,159.91380310058594,-1.8409013290766643e-05,0.01728548246840172,1.5718613249148192
510102133,30418,vehicle,227.8587646484375,1.8634573221206665,8.602211798432382,-0.0016265442578232685,-0.00018908442114098058
4109025732,30418,vehicle,297.0429382324219,1.8786818981170654,1.6406510466149848,0.008285609925554518,0.00505015341541456
2913592560,30418,vehicle,308.84295654296875,1.6727259159088135,0.001712915137346263,-5.839063206972684e-08,-3.408845585752225e-05
3970347779,30418,vehicle,132.4665985107422,58.70976257324219,4.063812306325098,-0.18929605224024565,-0.04654725800343374
1933996401,30418,vehicle,385.673828125,-2.1186752319335938,4.5995407412096256e-08,6.172999936145366e-09,-3.008180799833947
3047764241,30418,vehicle,53.26544952392578,2.046077251434326,-2.696810677370311e-08,-1.2177955736407037e-11,0.00045156877384246126
1260711767,30418,vehicle,338.9930114746094,87.2911148071289,4.3217248771824345e-07,0.003704977429411925,-1.5709129732506422
3957993155,30418,vehicle,335.0718994140625,33.63330078125,-1.325977802026056e-09,1.8949424337830722e-06,1.571496072371315
4289594148,30418,vehicle,-2.404228687286377,181.4108123779297,-1.9811431360923122e-10,2.0823131831292226e-07,1.5717477410943275
4139896837,30418,vehicle,112.19538116455078,129.49002075195312,0.04649887069740318,-6.295723551636303e-05,3.140238702491597
1686932955,30418,vehicle,175.89035034179688,-1.9625585079193115,1.2340512749591362e-07,-6.359334213179283e-11,3.1410773319188627
1726501337,30418,vehicle,378.86712646484375,-2.415139675140381,-0.23507528829414212,-0.0008047818846962671,-3.138169160008496
1682591593,30418,vehicle,281.6020202636719,330.4570617675781,1.3903333418010657e-07,-5.879858371657194e-11,-0.0004229099485952924
3380823586,30418,vehicle,368.77252197265625,326.3265380859375,1.1128923424341024e-08,-3.5888918877176424e-11,3.1383678318258164
4176583038,30418,vehicle,302.5027160644531,1.9666426181793213,-0.032179470446775736,1.679702569752573e-05,-0.0005219795086369494
3855978784,30418,vehicle,305.56915283203125,330.5410461425781,-7.2604716103885695e-09,-1.566343540760148e-12,0.00021573578143584308
1042098875,30418,vehicle,125.58846282958984,-1.9531060457229614,5.4393817994826865e-06,-6.262278935567124e-09,3.140441369050552
644930681,30418,vehicle,88.63038635253906,165.76617431640625,-2.555132286342948e-10,9.915603035462143e-08,1.5733732014656572
2234188147,30418,vehicle,351.16595458984375,-1.951433539390564,-6.039471612496667,0.004817184719563144,3.1407950368433144
4109707537,30418,vehicle,2.608631134033203,196.4037322998047,3.5218166068625054e-07,0.00019668599026718538,-1.5725869031538113
3675841917,30418,vehicle,183.96047973632812,55.834110260009766,-0.017439984455081436,-0.00013812248002591828,-3.1336729451401157
2817926641,30418,vehicle,92.27704620361328,28.029693603515625,1.0883674779936856e-06,-0.0006896299452926574,-1.5692181375329157
4029506115,30418,vehicle,-2.417630672454834,171.46778869628906,0.024886947757754244,-0.5392432330360185,1.6169152194981802
3277167701,30418,vehicle,88.66551208496094,38.2432861328125,-0.00627901069684894,2.139299237932134,1.573731396632273
518241310,30418,vehicle,-2.7143077850341797,103.1494140625,-0.0013840291161734911,7.217973576414315,1.5709880743933824
778540568,30418,vehicle,338.06927490234375,51.64605712890625,2.233515903732742,-6.251586918807054,-1.2276580071922745
657465635,30418,vehicle,1.7857979536056519,45.77083969116211,-0.003125305745905971,-5.946451796354209,-1.5713219016360238
835227171,30418,vehicle,142.34620666503906,59.32193374633789,5.807651467126001,-0.024242659739542198,-0.0041742379123672225
715280319,30418,vehicle,92.39908599853516,161.5304412841797,-1.590832454543681e-11,-2.7426417408654107e-08,-1.571376363280316
3020211281,30418,vehicle,225.30731201171875,59.60897445678711,5.674586725388292,-0.0007344595663324787,-0.00012942961272320564
2101598167,30418,vehicle,193.7311248779297,-1.9614672660827637,-4.398251233599478e-08,2.0650463999583402e-11,3.141123138289612
14974470,30418,vehicle,338.98992919921875,36.582550048828125,-0.00010118247519416378,0.021261415895959708,-1.5660373910849794
1398818972,30418,vehicle,195.2080078125,133.66151428222656,5.557484475535393,-0.001296521576714788,-0.0002332928789816506
2694688339,30418,vehicle,2.292745590209961,203.62313842773438,-2.695680988445314e-11,-1.0349805638962855e-07,-1.5710567839495064
3916750283,30418,vehicle,116.79842376708984,326.9374694824219,-1.2374018840469852e-06,5.9047435243766105e-09,3.136820801548589
1983197581,30418,vehicle,24.592098236083984,-1.9238255023956299,-5.505243260081425,0.0006744220868915573,3.1414701481796494
2942851653,30418,vehicle,338.390380859375,189.83164978027344,1.3423465335159472,-5.648280392463591,-1.3374690605258932
3949181016,30418,vehicle,88.6303482055664,112.13860321044922,2.679864840863767e-10,-1.0319658392843151e-07,1.5733931751738328
3672416715,30418,vehicle,338.86767578125,255.48391723632812,1.8184199360511151e-10,-1.8128364704210285e-07,-1.5697932471703182
3325384226,30418,vehicle,190.06927490234375,55.84152603149414,0.0001961277456404625,-7.349039660855294e-08,3.141217946824419
1359910869,30418,vehicle,214.66867065429688,59.6047248840332,4.743991484730185,0.0028296711298174855,0.0005964746781994608
2262630317,30418,vehicle,60.90165710449219,331.23480224609375,0.010147817238788256,0.0019970791842589732,0.19431568472486857
805172996,30418,vehicle,92.12801361083984,167.52464294433594,-1.955705479333605e-05,-0.011914565940868982,-1.5724377661327669
1986857511,30418,vehicle,-2.3420932292938232,188.39019775390625,1.6093796700415644e-07,0.0016466261507525584,1.5706985887828906
1279946346,30418,vehicle,128.00193786621094,2.51950740814209,0.028804837365772863,-0.0014329935821895436,-0.04970738575886778
74618890,30418,vehicle,334.6984558105469,241.40432739257812,0.0008696163430777039,5.878224785376016,1.5706483881963427
3085549129,30418,vehicle,391.97674560546875,320.9991455078125,2.9375557411265708e-09,-1.0875590390786546e-08,1.8346064012170558
2057201815,30418,vehicle,264.8717956542969,198.97637939453125,5.854040483123108,-0.001278400752743063,-0.00021837920938649752
1015694095,30418,vehicle,66.94755554199219,330.46124267578125,-1.535672140103414e-07,6.6172044342797e-11,-0.00043089952939340205
1250507297,30418,vehicle,199.7627716064453,-1.94624924659729,-4.0987738327507564e-07,-5.206789310265137e-10,-3.140322325749825
4280502996,30418,vehicle,48.153709411621094,331.2244567871094,7.629800443224815e-09,-2.304218383276846e-12,-0.00030200243510569496
3428459672,30418,vehicle,66.85588836669922,2.013062000274658,-8.777530497742289e-07,7.096948372746252e-10,-0.0008085357069480567
414519966,30418,vehicle,165.49310302734375,327.0444030761719,-5.706944465530148,-3.495657862236836e-05,-3.141586528319286
2866945113,30418,vehicle,294.2904968261719,330.4563903808594,8.691150407838545e-08,-3.8607416949094987e-11,-0.00044421523731592627
1853482628,30418,vehicle,46.39568328857422,2.5198092460632324,6.639042800942465e-08,-1.6227505966447065e-10,-0.0024442489884003997
3880166169,30418,vehicle,280.28094482421875,326.41986083984375,-5.559391498563899,-4.441666537886922e-06,-3.141591854641466
1073352953,30418,vehicle,370.74951171875,-2.3778412342071533,-3.3664946875874775,0.0011789656207438072,3.1412424479064476
213556023,30418,vehicle,134.5973358154297,327.0172119140625,4.4651117172332686e-08,-8.130098854228695e-11,3.139771850352506
1628590046,30418,vehicle,8.573488235473633,3.0043399333953857,5.350807369493131,-2.101778276942615,-0.37428105907389964
4120465129,30418,vehicle,338.9817810058594,79.81330108642578,-1.9775292640703166e-07,8.912006775552473e-05,-1.5685773809746426
1015227284,30418,vehicle,120.51688385009766,129.75086975097656,-5.589364526941681,0.00013843401660463848,3.1415678861916554
2900396540,30418,vehicle,181.6448211669922,-1.96639084815979,-0.0013252132356259886,-5.356381493447195e-06,-3.13755077400338
3587539486,30418,vehicle,396.61676025390625,180.02943420410156,-0.0015032411379410104,-5.64457444201273,-1.5710626429039045
1146849989,30418,vehicle,334.3756103515625,164.55812072753906,-0.0012488021269956903,5.792677267886152,1.5710119096851385
1457681385,30418,vehicle,395.8243713378906,43.47804641723633,-0.0032250219706453287,-11.212732804945126,-1.571083948192625
1726747598,30418,vehicle,92.38432312011719,85.52246856689453,0.0003560695270572967,0.007406097439724711,-1.6188372228568906
367118466,30418,vehicle,375.0947570800781,326.35400390625,4.232491742916255e-08,-3.101493296915558e-10,3.13426496585044
2065705843,30418,vehicle,311.2148742675781,133.19998168945312,-0.0008009288183319819,-3.9523575490646643e-07,0.0004934717215541422
3978545900,30418,vehicle,382.2840576171875,330.8590087890625,5.686797961422629,-0.0012358204261501493,-0.0002173139286958205
714679325,30418,vehicle,392.11962890625,61.39925765991211,-0.002626974304572866,14.041453115774772,1.5709834138614747
3262285446,30418,vehicle,88.31847381591797,84.28117370605469,0.00028491064532470376,5.5575132296964185,1.5707450609439126
1401880247,30418,vehicle,92.49677276611328,174.20481872558594,2.563927579071635e-07,0.00027230608546580066,-1.5717378873982941
2250339631,30418,vehicle,92.37564849853516,119.79354095458984,-0.21487332975450607,-6.239879895763316,-1.6052182165163889
2525145270,30418,vehicle,92.52665710449219,154.5819549560547,2.0873707618448856e-08,-2.4281109413026958e-05,-1.569936658395019
1825059061,30418,vehicle,313.625732421875,2.012183427810669,9.114248124011558e-07,-5.699233278391602e-10,-0.0006253102239506051
346279610,30418,vehicle,88.1731948852539,260.6243591308594,0.0018464396150013299,5.487346815352471,1.570459836391165
893025708,30418,vehicle,395.89556884765625,168.371337890625,-0.001869703583372676,-5.821407494699284,-1.5711175040223602
1724402154,30418,vehicle,45.46317672729492,326.5392761230469,-5.96745776459634,-0.0002828829638044124,-3.1415452493223897
2595182244,30418,vehicle,306.89898681640625,198.7722930908203,6.196883197322828,0.00023021594855867088,3.715028041067778e-05
874453657,30418,vehicle,388.6775817871094,324.7012939453125,2.2355324206930274e-06,-1.3517488391716094e-06,2.597749858965257
1498616609,30418,vehicle,71.81413269042969,-1.9573936462402344,-5.724752723096672,-0.025098025089379156,-3.1372085578033047
505512523,30418,vehicle,304.8796691894531,133.20289611816406,-0.0020209111879649095,7.125784239309992e-07,-0.00035260252832649115
3709073522,30418,vehicle,118.92911529541016,195.5604705810547,-0.01760683046935676,-1.7869718757918083e-05,-3.140577722898364
27029540,30418,vehicle,1.4466813802719116,24.58200454711914,-0.0005909285503885085,-2.2607223215267456,-1.5710577160558878
1375770528,30418,vehicle,338.8888244628906,241.8489990234375,-3.6958636732541456e-05,-0.011760751386930479,-1.57393885688119
4266869573,30418,vehicle,-1.5027096271514893,121.85572052001953,0.0003748586495015647,6.160045135536459,1.5707354735639882
368528135,30418,vehicle,2.7710940837860107,208.8386688232422,-0.001495755139302293,-0.027723963168455393,-1.6246957777809012
4012051816,30418,vehicle,338.9733581542969,228.75657653808594,4.963603359049522e-10,1.7452911055456524e-07,-1.5736403165229922
3938307140,30418,vehicle,92.14663696289062,219.810791015625,9.011852497181833e-11,-1.6331364754196534e-08,-1.5652782570162525
1966079641,30418,vehicle,41.148319244384766,331.2388916015625,-8.135984940535243e-11,1.1267067206187213e-15,-1.3848436652496706e-05
1759883367,30418,vehicle,27.710906982421875,331.1675720214844,-0.004856669034147289,2.7446142986191768e-06,-0.0005651227182962331
3487645883,30418,vehicle,92.4271469116211,108.47270202636719,0.001421312734708663,-4.38712573869924,-1.5704723532482885
544848518,30418,vehicle,120.82371520996094,2.0923564434051514,-4.383129990237089e-05,2.7781695394969672e-09,-6.338323394388587e-05
1325658571,30418,vehicle,92.39752960205078,98.92161560058594,0.0,-0.0,-1.570694194567092
921579549,30418,vehicle,92.30469512939453,22.44696807861328,-4.4143203217809356e-07,-0.00013006456025346967,-1.5741902592880936
4072577581,30418,vehicle,92.38365936279297,233.42498779296875,1.851251236388937e-11,3.179931156871661e-08,-1.571378493809188
94066344,30418,vehicle,334.48150634765625,173.78488159179688,-4.4593996353037593e-07,0.016913900145970124,1.5708226920896884
2853390219,30418,vehicle,299.99432373046875,330.5154724121094,-7.443042102966028e-08,-2.2697331633714254e-11,0.00030494696410635324
2524564450,30418,vehicle,30.435678482055664,2.0332908630371094,5.8121445668375,-0.0027830665730581962,-0.00047883639650553767
1882516347,30418,vehicle,-2.1409518718719482,164.33724975585938,0.0007563141584403161,0.7293041599161123,1.5697592918664198
815178544,30418,vehicle,275.25213623046875,330.3910217285156,-9.601210163823147e-08,-1.277633476956758e-10,0.0013306996733001564
2188308515,30418,vehicle,210.34483337402344,199.2040557861328,5.847828405890076,-0.002317367460895027,-0.0003962782726759187
1160083145,30418,vehicle,362.6192932128906,326.5616455078125,0.460641884655692,-0.0005027278997938238,3.1405012901750786
1832698586,30418,vehicle,127.3373794555664,326.96337890625,-0.0013249857446458648,-5.90735290947133e-06,-3.1371342556088915
3748346955,30418,vehicle,134.08636474609375,1.9188892841339111,-0.9612058773513312,0.00020734752105365577,-0.00021571603204177298
3198444053,30418,vehicle,121.36568450927734,326.8148498535156,0.5530047927237152,-0.017820732744449185,3.1093785244119765
808811405,30418,vehicle,338.91754150390625,221.60702514648438,-4.7027516777778244e-07,-0.0016472511253506922,-1.571081817663753
84250811,30418,vehicle,339.1052551269531,97.17135620117188,0.00022959929823006828,-0.20218816774292514,-1.5696607549060868
3956289865,30418,vehicle,20.53514289855957,326.5748291015625,-5.627566334991895,-0.00017085311897690645,-3.1415622935533665
1912328786,30418,vehicle,361.48956298828125,-1.952345371246338,-4.80855639526384,0.0012460199642343158,3.1413335280157284
4030311199,30418,vehicle,338.9559631347656,235.7322235107422,-9.109129552968169e-11,1.3152930165983752e-07,-1.5701037717534214
3147513812,30418,vehicle,382.0475769042969,326.14154052734375,6.427025347814857e-08,-7.615338274794684e-09,3.023653233135089
1663586846,30418,vehicle,287.7590637207031,330.4103088378906,-3.9779352950418393e-07,-4.859480978432899e-10,0.0012216082466646717
