id,timestamp_ms,agent_type,x,y,vx,vy,psi_rad
-1,14807,vehicle,392.1883544921875,41.33088302612305,0.0020695375192986694,5.984583020003228,1.5704505153273498
2985032057,14807,vehicle,92.10367584228516,28.704078674316406,1.5388024733814302e-12,-1.9101173913871648e-08,-1.5707157661719218
3028941286,14807,vehicle,396.93304443359375,295.4466247558594,-0.0040212713295107935,-9.472783188827707,-1.5712208346726553
2920337868,14807,vehicle,392.0100402832031,85.27393341064453,-0.002651920698212125,17.624412337105692,1.570946795396486
1503980471,14807,vehicle,92.19307708740234,41.197113037109375,-7.941680005731488e-07,0.00039276208298849596,-1.5687743217372538
2125414330,14807,vehicle,395.92669677734375,20.381084442138672,-0.0021901948536086954,-7.182569169853989,-1.5711012587397106
2396446624,14807,vehicle,229.64845275878906,327.0304870605469,-5.985247536351824,-0.0009515988057103721,-3.1414336628727155
4076155829,14807,vehicle,112.6908187866211,-1.946254849433899,-5.531173354661155e-06,-9.044469156229112e-10,-3.1414291354988624
130361148,14807,vehicle,92.40591430664062,274.5006103515625,-0.0020749949685781527,-6.898161576039117,-1.571097130840021
3417340120,14807,vehicle,184.55050659179688,330.4853515625,5.945916991661685,0.0012803701850932015,0.00021533603094336067
2197730220,14807,vehicle,195.25070190429688,-1.9456443786621094,-5.5642800032527235,0.00057644253062258,3.141489056623389
118743835,14807,vehicle,306.79681396484375,59.33424758911133,2.914060353537169e-07,-4.387852666600545e-10,-0.001505751020256476
904053063,14807,vehicle,178.70040893554688,55.8249397277832,1.0014820513338327e-05,-1.56212644095833e-08,3.140032840139334
1291681130,14807,vehicle,187.62933349609375,195.5980224609375,-5.73157922611386,0.000943322549103524,3.141428070234426
715062232,14807,vehicle,313.6129455566406,59.3152961730957,-9.556085141651395e-08,-3.5687910937578426e-10,0.0037345570384019204
220877689,14807,vehicle,121.40361022949219,129.7562255859375,-0.006774838389746085,1.4650498853186527e-06,3.1413764049092787
2069714320,14807,vehicle,-2.395646810531616,277.86822509765625,0.0038068684791441065,9.333690820644224,1.570388463673951
3190467641,14807,vehicle,118.22942352294922,-2.22866153717041,-0.0040403575354829215,-0.0001929690035230679,-3.0938685405394644
708315452,14807,vehicle,88.73939514160156,99.75050354003906,3.5143408084705404e-05,0.011909826031093546,1.567845544307089
1314594676,14807,vehicle,88.64353942871094,172.70306396484375,1.5921606170647084e-07,0.001646959098741935,1.5706996540473268
2302084468,14807,vehicle,312.6518859863281,330.54327392578125,-0.010166532401263811,0.0010225569696057524,-0.10024357221610343
757051778,14807,vehicle,305.1543884277344,199.05624389648438,-7.522441995783495e-07,8.317902137586929e-10,-0.0011057444846008996
4203008516,14807,vehicle,153.7655029296875,31.262548446655273,-1.444219237880221e-12,2.9911476472995746e-09,1.5712791579005279
2631691725,14807,vehicle,312.3171081542969,199.05612182617188,1.0743056853935121e-08,-2.703124894387947e-11,-0.0025161545979068643
1513387753,14807,vehicle,299.7982482910156,59.32717514038086,-0.006066516380961992,8.979571128327763e-06,-0.0014801846737917154
156273220,14807,vehicle,92.5251235961914,90.29188537597656,-0.0023359373895449876,-5.878884328242949,-1.5711936704295364
3812119762,14807,vehicle,110.51145935058594,55.83734893798828,-1.7451096772939638,0.001117261121643705,3.1409524296637383
3616050434,14807,vehicle,335.4158935546875,308.00689697265625,-0.0,0.0,1.5712808889552365
2942158310,14807,vehicle,88.60993194580078,25.917118072509766,0.0,0.0,1.5706003181386667
3608800298,14807,vehicle,145.68064880371094,133.23402404785156,3.688408789232822e-08,-1.7877544925572022e-11,-0.0004846952858851307
1146464971,14807,vehicle,56.196311950683594,2.5459649562835693,5.480788070652801,-0.0013253369410049646,-0.00024181502697919483
3013099654,14807,vehicle,-2.401780366897583,98.86026763916016,0.0007503622254580149,5.8214096539413065,1.5706674297981367
2246582517,14807,vehicle,88.6150894165039,105.10009765625,-5.650114909128793e-12,-4.143715021446944e-08,1.5706599729470845
3192940987,14807,vehicle,338.8936767578125,299.2872619628906,-0.002070123636214965,-5.684228043301217,-1.5711605140739648
828836647,14807,vehicle,88.64752960205078,300.9998474121094,1.6711231153953736e-09,-1.5144100745796473e-06,1.571899807592571
1702089089,14807,vehicle,395.9727783203125,185.10269165039062,-0.0012450636425315252,-4.09560613780731,-1.5711003266333292
2111029583,14807,vehicle,54.974212646484375,330.44464111328125,-0.00019611307327483958,8.356491801774547e-08,-0.0004261057744126781
420096522,14807,vehicle,135.80029296875,129.7369842529297,-3.886935474716784,-0.0033321600344765625,-3.140735382034897
510102133,14807,vehicle,158.4869842529297,25.248695373535156,-0.0004895530814475152,0.00462041476285286,-1.465235811719099
4109025732,14807,vehicle,211.87110900878906,1.8978850841522217,5.299918174442938,-5.645814345325648e-05,-1.0652644360316952e-05
2913592560,14807,vehicle,247.15907287597656,1.935360074043274,3.6661779202799756,-0.0007049335449998493,-0.000192280230703721
3970347779,14807,vehicle,128.58995056152344,59.34571075439453,-0.009653891512920298,0.0008259723214906356,-0.0853506261234055
1933996401,14807,vehicle,394.2026062011719,2.8278605937957764,-2.231067079289124,-4.955949925955705,-1.9937995185376325
3047764241,14807,vehicle,34.72065734863281,2.0494191646575928,5.739114993716682,-0.0016751470241777148,-0.0002918824554726845
1260711767,14807,vehicle,306.1383361816406,133.41566467285156,-6.140668736692319e-08,6.639559747080393e-11,-0.0010812433375535894
3957993155,14807,vehicle,335.0718994140625,33.633296966552734,5.3056852144774295e-09,-7.5823049509928045e-06,1.571496072371315
4289594148,14807,vehicle,-2.4098267555236816,148.08380126953125,0.0019400006120742189,4.689139441676515,1.5703826047195528
4139896837,14807,vehicle,198.66665649414062,129.4876251220703,-5.9000939256230165,-0.0011219011142586455,-3.1414025038879614
1686932955,14807,vehicle,175.89035034179688,-1.9625729322433472,-1.9069866280885665e-06,9.827116226171875e-10,3.1410773319188627
1726501337,14807,vehicle,378.92596435546875,-2.3909425735473633,-0.302358801265281,-0.0005227559633169155,-3.1398637294101137
1682591593,14807,vehicle,254.29885864257812,330.4571838378906,6.899131194697251,-0.0011942771415926977,-0.00017310543834585983
3380823586,14807,vehicle,391.7522277832031,321.3244323730469,-2.113000700395021,6.167581526244651,1.9008617212385377
4176583038,14807,vehicle,221.99961853027344,1.9966071844100952,5.564281221378845,-0.0016418982252914026,-0.00029507821627148894
3855978784,14807,vehicle,305.56915283203125,330.5410461425781,2.1632841147937516e-07,4.666972335984318e-11,0.00021573552136151786
1042098875,14807,vehicle,157.8470916748047,32.20794677734375,-3.992219276119306e-09,2.746934725589532e-07,-1.5562639893585521
644930681,14807,vehicle,88.63038635253906,165.76617431640625,9.312838136618169e-10,-3.613997075211494e-07,1.5733732014656572
2234188147,14807,vehicle,358.0129699707031,-1.9552913904190063,7.226487980562768e-05,5.1750624869745074e-08,-3.140876529572671
4109707537,14807,vehicle,2.6186625957489014,236.2568359375,-0.002419610181245966,-12.187098262919712,-1.570994865454162
3675841917,14807,vehicle,193.7228546142578,55.83683395385742,-7.62514582298974,0.008173567274467221,3.140520731251036
2817926641,14807,vehicle,122.93563842773438,55.751609802246094,0.871483387550712,-0.0005551595101870585,3.140955625457046
4029506115,14807,vehicle,-2.291095018386841,89.72428131103516,-0.0011736788825909524,3.248867776586097,1.5711575845967658
3277167701,14807,vehicle,88.64314270019531,33.227054595947266,1.5769088485625852e-07,0.001647063174186862,1.5707005861537082
518241310,14807,vehicle,19.1612491607666,-2.0705697536468506,-5.135284757064982,-0.0012144368636127507,-3.141356164884994
778540568,14807,vehicle,244.49215698242188,59.324607849121094,5.772995841480764,-0.0011131077757871137,-0.00019281284666709152
657465635,14807,vehicle,1.718963861465454,144.83798217773438,0.000516738829220814,-11.653581607806174,-1.5707519851627467
835227171,14807,vehicle,134.6495819091797,59.32780456542969,2.1889074803782531e-10,4.539805410585726e-14,0.00020740051309560257
715280319,14807,vehicle,118.0025863647461,195.2687225341797,-0.0,0.0,3.1404227269229215
3020211281,14807,vehicle,153.76812744140625,37.79594802856445,-0.0014828967183233687,1.4740385702735075,1.571802335896674
2101598167,14807,vehicle,206.43695068359375,-1.9621201753616333,-5.900094879297315,-0.0011219012955995314,-3.1414025038879614
14974470,14807,vehicle,274.2413330078125,59.33354949951172,5.985236641481328,-0.00019765165186936762,-3.302319751698255e-05
1398818972,14807,vehicle,120.37862396240234,133.67910766601562,5.612287863722324,-0.0012285962914878729,-0.0002189118416045134
2694688339,14807,vehicle,2.315061569213867,278.5577697753906,-0.0019235127660711666,-15.85657012716768,-1.5709176337825497
3916750283,14807,vehicle,116.79844665527344,326.9374694824219,4.4001965913571716e-05,-2.0997246459513015e-07,3.136820801548589
1983197581,14807,vehicle,92.12187194824219,21.969289779663086,5.703752684794828e-11,1.0336644271739322e-08,-1.5763142634154863
2942851653,14807,vehicle,250.89805603027344,198.76568603515625,6.159458575987967,0.0008686360125824408,0.00014102473392876781
3949181016,14807,vehicle,88.6303482055664,112.13860321044922,-3.972942959929123e-10,1.5299060436012457e-07,1.5733931751738328
3672416715,14807,vehicle,339.3337097167969,318.44305419921875,-1.2141559022025354,-5.490801444562735,-1.788419864222084
3325384226,14807,vehicle,214.50534057617188,55.842220306396484,-7.666132704338871,-0.003274750070451344,-3.1411654825509445
1359910869,14807,vehicle,154.2416229248047,25.514284133911133,-4.1325901920224935e-05,0.017638629319576434,1.5731392427638937
2262630317,14807,vehicle,60.9754753112793,330.7391052246094,0.004103044980688925,0.00020973421820138298,0.0510722724622902
805172996,14807,vehicle,123.962646484375,195.38143920898438,-0.6272415104455549,0.05574517374628438,3.052951999867596
1986857511,14807,vehicle,-2.346897602081299,157.5983428955078,0.0003534413665295149,3.666159612784767,1.5706999203634358
1279946346,14807,vehicle,125.38990020751953,2.0903451442718506,0.010932442402375191,0.00011942327498838387,0.010923316194123378
74618890,14807,vehicle,289.7121276855469,198.754638671875,5.772919070699721,-0.0011130929733940964,-0.00019281284666709152
3085549129,14807,vehicle,392.5206604003906,170.31809997558594,-0.011346279770948672,18.637161615780208,1.5714051254200887
2057201815,14807,vehicle,175.14260864257812,198.974853515625,5.984953757720673,-0.001211356110526291,-0.00020240024284602211
1015694095,14807,vehicle,66.94755554199219,330.46124267578125,0.0,-0.0,-0.00043089952939340205
1250507297,14807,vehicle,217.63058471679688,-1.9458330869674683,-5.504239511924607,-0.000721206887859422,-3.1414616260641615
4280502996,14807,vehicle,48.153465270996094,331.2244873046875,-0.0010946226039912407,3.3057870197728696e-07,-0.00030200243510569496
3428459672,14807,vehicle,66.85588836669922,2.0130629539489746,-1.5141678939655616e-06,1.224259075363798e-09,-0.0008085357069480567
414519966,14807,vehicle,253.55213928222656,327.0451965332031,-5.662363520766723,0.00030913561753804076,3.1415380587874466
2866945113,14807,vehicle,294.2898254394531,330.4563903808594,-0.0023842446947609564,1.0591178925667252e-06,-0.00044421523731592627
1853482628,14807,vehicle,1.9183191061019897,8.906716346740723,0.6142742456031893,-5.5359205537614224,-1.4602868594654046
3880166169,14807,vehicle,335.50836181640625,298.2798156738281,0.0011099106204285176,5.564277061391262,1.5705968560292496
1073352953,14807,vehicle,372.0358581542969,-2.3772799968719482,-3.59106469486694e-07,7.472995143151286e-10,3.1395116595140053
213556023,14807,vehicle,190.4718475341797,327.03033447265625,-6.159460680130159,-0.002050454578144041,-3.141259758453533
1628590046,14807,vehicle,1.6706554889678955,88.3209228515625,-0.0014514711944538163,-5.665469460523229,-1.5710525228917622
4120465129,14807,vehicle,313.6098937988281,133.22540283203125,-1.9018904131371517e-07,-7.090469838757391e-10,0.003728099652981454
1015227284,14807,vehicle,214.50534057617188,129.7522430419922,-7.666132704338871,-0.003274750070451344,-3.1411654825509445
2900396540,14807,vehicle,181.6448211669922,-1.966671347618103,-0.0013252311609309527,-4.906107991353457e-06,-3.137890593358474
3587539486,14807,vehicle,396.6437683105469,269.5231628417969,-0.0021870815236899013,-7.915519412206914,-1.5710726297579922
1146849989,14807,vehicle,293.0354919433594,133.1156463623047,0.4657698820053165,-0.005420135326885351,-0.01163641294610032
1457681385,14807,vehicle,395.8600769042969,175.32095336914062,-0.0010544708112605625,-3.6661764058967083,-1.571083948192625
1726747598,14807,vehicle,115.30484771728516,129.7581329345703,-0.027645244422067523,0.0027078926475706377,3.043952645912
367118466,14807,vehicle,392.4808654785156,302.9111328125,0.0010488264857534105,9.617280902892363,1.570687270348258
2065705843,14807,vehicle,230.3919677734375,133.21888732910156,5.618905543189867,-0.0001107339631224292,-1.9707390034755696e-05
3978545900,14807,vehicle,334.8554992675781,286.65008544921875,0.0006876828766388568,5.9911956392440455,1.5706815445519142
714679325,14807,vehicle,350.39910888671875,1.930662989616394,5.539644859763051,-0.008813430429281755,-0.0015909725652504996
3262285446,14807,vehicle,132.97930908203125,55.74778366088867,-4.830400632443229,0.012994094121034753,3.1389025945727043
1401880247,14807,vehicle,145.1368408203125,195.26898193359375,-5.9000953561344645,-0.0011219013862699744,-3.1414025038879614
2250339631,14807,vehicle,166.0084991455078,129.7328338623047,-5.985242767980301,-0.0009515980475835582,-3.1414336628727155
2525145270,14807,vehicle,92.5500259399414,159.9064178466797,-0.001933960071028537,-5.6622973954050595,-1.5711378772046993
1825059061,14807,vehicle,313.62554931640625,2.0121779441833496,-0.00020777782204799155,1.2992561337099495e-07,-0.0006253102239506051
346279610,14807,vehicle,110.9823226928711,194.9922637939453,2.9363409797636376e-07,-1.3832810192073194e-09,3.136881787937552
893025708,14807,vehicle,395.9319763183594,258.0490417480469,-0.0018697038896711435,-5.821408448373551,-1.5711175040223602
1724402154,14807,vehicle,88.61604309082031,286.8591003417969,0.0014713262127278076,5.827780537840625,1.570543859123557
2595182244,14807,vehicle,215.0482940673828,198.7657012939453,6.159466205397967,0.0008685268564634152,0.00014100683756426477
874453657,14807,vehicle,392.563232421875,228.80389404296875,-0.002849451057981331,16.876193759687194,1.5709651712080077
1498616609,14807,vehicle,92.17969512939453,47.56118392944336,-4.682733893104908e-05,0.007687799044995646,-1.564705277907722
505512523,14807,vehicle,212.93516540527344,133.22056579589844,5.948244484744968,-0.00101700076559029,-0.00017097494198308708
3709073522,14807,vehicle,220.83282470703125,195.566650390625,-7.625144862783281,0.008179658348936874,3.140519932302709
27029540,14807,vehicle,1.4726908206939697,118.18704986572266,-0.0014604226616103345,-5.442971510464837,-1.5710646402747221
1375770528,14807,vehicle,338.9013671875,264.3949279785156,0.005649294965793582,-6.927739224170419,-1.5699808668691144
4266869573,14807,vehicle,10.361616134643555,-2.057229995727539,-3.6661689281458423,-1.9527196877947353e-06,-3.1415921209575752
368528135,14807,vehicle,2.5454883575439453,296.2294921875,0.06867626607463985,-8.458059929355233,-1.562676881263463
4012051816,14807,vehicle,338.9733581542969,228.75657653808594,3.2684651669447576e-10,1.149250407822032e-07,-1.5736403165229922
3938307140,14807,vehicle,92.08221435546875,235.00794982910156,-0.0006464464913795052,-5.618901215560213,-1.570911375353988
1966079641,14807,vehicle,20.881193161010742,331.239013671875,5.846808104139184,0.009050699459692585,0.0015479714862099393
1759883367,14807,vehicle,-2.415107011795044,256.7731628417969,-1.3742487351008792e-05,10.320432662954717,1.5707976583754417
3487645883,14807,vehicle,147.56622314453125,129.7758026123047,-5.947381000483915,-0.00047674889443897035,-3.141512492440982
544848518,14807,vehicle,92.24698638916016,35.24443435668945,-6.986489596701965e-10,-6.396930580334149e-07,-1.571888489157938
1325658571,14807,vehicle,128.57786560058594,129.74827575683594,1.3451501427794267e-07,-1.5608312580046437e-10,3.1404323143028456
921579549,14807,vehicle,117.53840637207031,55.82170867919922,1.954053034535804e-05,1.854170795281161e-08,-3.140643769293398
4072577581,14807,vehicle,92.4083023071289,292.7319030761719,-0.00211990019264184,-6.888870389918365,-1.5711040550588553
94066344,14807,vehicle,298.6881103515625,133.2589111328125,-0.0008896399650740799,2.7829349962604795e-06,-0.0031281484962584227
2853390219,14807,vehicle,299.9940490722656,330.5155029296875,-0.00047873162073091977,-1.4583254682751996e-07,0.000304622748950697
2524564450,14807,vehicle,1.6164599657058716,71.87879943847656,-0.0025007188077419158,-5.653244419131191,-1.5712386778519587
1882516347,14807,vehicle,-2.153068780899048,71.2464828491211,0.005851250682733207,8.283155281960807,1.570089923315753
815178544,14807,vehicle,211.64059448242188,330.4197692871094,5.731580848302783,-0.0020392865595325396,-0.0003557982566160049
2188308515,14807,vehicle,120.80958557128906,199.21861267089844,5.683216758428966,-0.0018162383008207782,-0.0003195792657909273
1160083145,14807,vehicle,374.68255615234375,326.5473327636719,-8.542045767937429,0.06895324353956964,3.133520612325763
1832698586,14807,vehicle,153.63287353515625,326.9666442871094,-7.625144385946396,0.008179657837423603,3.140519932302709
3748346955,14807,vehicle,131.18978881835938,1.9197149276733398,-0.9612058835808273,0.00017611739862587455,-0.00018322546674280626
3198444053,14807,vehicle,122.06671905517578,327.073974609375,0.4840184635817556,0.0005201194228230385,-3.1405180680899463
808811405,14807,vehicle,338.9343566894531,221.6434326171875,-4.702871325617155e-07,-0.001647293034864842,-1.571081817663753
84250811,14807,vehicle,279.2621765136719,133.5801239013672,6.817345002850782,0.04919859473036474,0.007216554339153207
3956289865,14807,vehicle,88.6192398071289,306.89337158203125,-5.6197462568465975e-11,-5.3687268750182435e-08,1.5697495713284408
1912328786,14807,vehicle,365.2416687011719,-1.9526519775390625,1.2379410343579162e-08,1.2448858421993403e-11,-3.1405870439621792
4030311199,14807,vehicle,338.9559631347656,235.73912048339844,-1.4797858539961985e-05,0.021599613649034816,-1.5701112286044736
3147513812,14807,vehicle,392.476318359375,272.9847106933594,0.003348131742915068,12.47224285962364,1.5705278801570166
1663586846,14807,vehicle,269.60980224609375,330.4167175292969,5.878088723914189,-0.001634308475939616,-0.0002780339852949818
