id,timestamp_ms,agent_type,x,y,vx,vy,psi_rad
-1,49714,vehicle,392.2198791503906,306.496337890625,-1.1141661203014951e-11,5.203510747354356e-08,1.571010444946539
2985032057,49714,vehicle,-2.2618749141693115,152.3912811279297,-0.006357294709764442,14.671932750511427,1.5712296231042524
3028941286,49714,vehicle,396.8559265136719,81.44397735595703,-0.0015509459447221338,-5.667837407581223,-1.5710699665969023
2920337868,49714,vehicle,392.0353088378906,314.20721435546875,-8.600728209704488e-11,-2.1865392070711342e-07,1.570402977901892
1503980471,49714,vehicle,127.3795166015625,2.027198076248169,3.993981525565999,-0.0007700910868648353,-0.00019281287917638216
2125414330,49714,vehicle,358.60247802734375,-1.6013845205307007,-1.7997534155603503e-07,1.7854054780350934e-10,3.1406006260837387
2396446624,49714,vehicle,136.41481018066406,327.0113220214844,-4.638049942244311,0.0011277261312085105,3.141349506982269
4076155829,49714,vehicle,8.921858787536621,-1.8237415552139282,-5.447185873512816,0.37049580117507086,3.0736812468444454
130361148,49714,vehicle,92.38204956054688,212.5941619873047,-0.001541347878801944,-6.405824952655093,-1.5710369433993852
3417340120,49714,vehicle,300.4178466796875,330.5010986328125,8.712957487522571e-07,-1.7263804423115052e-09,-0.0019813917209817906
2197730220,49714,vehicle,154.23297119140625,35.14805221557617,4.0236871987527305e-09,-8.636003230425288e-06,1.5712622468276058
118743835,49714,vehicle,329.60791015625,128.9408721923828,-5.322524826721704,3.2760052252940723,2.589855184229826
904053063,49714,vehicle,157.9049530029297,36.691558837890625,8.345509613801295e-05,0.01613914809945019,-1.575967253525449
1291681130,49714,vehicle,113.09465789794922,195.61886596679688,1.2630181994773796e-07,4.924029618930493e-10,-3.1376940520700263
715062232,49714,vehicle,338.9866638183594,22.499813079833984,-2.5876196742855504e-10,1.093442343548365e-07,-1.5684298418502522
220877689,49714,vehicle,92.76911163330078,64.82555389404297,-0.10992627090336204,-4.265967986821987,-1.5965588150739416
2069714320,49714,vehicle,91.97647094726562,291.94793701171875,-0.007226274589880757,-4.714068596191328,-1.5723292423183461
3190467641,49714,vehicle,19.95370101928711,-1.9507627487182617,-7.764721392349142,-0.00013854731606046316,-3.1415748104104897
708315452,49714,vehicle,88.107177734375,169.24057006835938,-0.002511955834551484,0.007994476888912251,1.8752395815489398
1314594676,49714,vehicle,155.91700744628906,199.00924682617188,4.743340855429565,-0.0010383734986071289,-0.0002189118416045134
2302084468,49714,vehicle,396.79595947265625,165.04185485839844,0.013780232073193784,-17.623937941447195,-1.5700144226988493
757051778,49714,vehicle,334.7028503417969,297.8030090332031,-3.188056090649998e-11,-1.560749292775237e-07,1.5705920623392875
4203008516,49714,vehicle,112.88423919677734,55.693016052246094,1.5118201747888023e-09,3.592603461569097e-12,-3.1392163149491155
2631691725,49714,vehicle,334.72576904296875,304.8206481933594,-9.827848496841668e-13,2.607981917459692e-08,1.5708340105243213
1513387753,49714,vehicle,339.01324462890625,29.555875778198242,-7.2669738462258e-10,2.3179522431114917e-07,-1.5676612535596552
156273220,49714,vehicle,92.1989517211914,43.848304748535156,-0.01678606345000728,-5.593752947144885,-1.5737971767111978
3812119762,49714,vehicle,118.90445709228516,2.0906929969787598,4.569502759060676,-0.0008080429858321863,-0.00017683389638126142
3616050434,49714,vehicle,155.37448120117188,326.39349365234375,-2.6873956270298853,0.002719648566110082,3.1405806523755633
2942158310,49714,vehicle,124.82676696777344,59.33686447143555,2.18542648164342e-05,1.5076447083140756e-08,0.0006898628170791852
3608800298,49714,vehicle,298.1677551269531,133.19717407226562,-4.009210669906491e-08,7.559438529382893e-12,-0.00018855178892296473
1146464971,49714,vehicle,74.55963897705078,2.553954839706421,5.820550775578482,0.0012902266276065427,0.00022166744286255697
3013099654,49714,vehicle,-2.3417575359344482,246.42198181152344,0.000740876668704234,5.724165868497175,1.5706668971659188
2246582517,49714,vehicle,129.86439514160156,133.35824584960938,0.9497354009454562,6.338965658041058e-05,6.674454424166604e-05
3192940987,49714,vehicle,338.8669738769531,219.46205139160156,-2.864341907513187e-10,-1.4049253782564386e-07,-1.5728351097674067
828836647,49714,vehicle,293.2968444824219,330.7931823730469,2.5777133902594668e-08,3.1259625127194827e-11,0.0012126875672730446
1702089089,49714,vehicle,371.1454162597656,-2.4276890754699707,-6.492583151783905e-09,-8.479410602692736e-12,-3.1402866393912183
2111029583,49714,vehicle,92.00474548339844,248.79530334472656,0.0020018979419855415,-8.237807030620683,-1.5705533133454268
420096522,49714,vehicle,88.35627746582031,241.09002685546875,-0.0013212205489790084,4.9885357060789435,1.571061178165305
510102133,49714,vehicle,306.27362060546875,1.8782466650009155,0.8208956065010693,-9.706626315902977e-05,-0.00011824434427219551
4109025732,49714,vehicle,314.5447082519531,1.3134114742279053,2.5203702430186614,-0.005024722961722445,-0.0019936421319589927
2913592560,49714,vehicle,326.43988037109375,1.7521106004714966,0.001852617030337559,1.8656248689581534e-05,0.01006987293329386
3970347779,49714,vehicle,157.47216796875,29.854326248168945,0.0006731321599196959,0.008030102148978008,-1.6544269087163823
1933996401,49714,vehicle,337.93402099609375,1.0876538753509521,-0.18294359321449175,0.167007629822631,2.4017007226868556
3047764241,49714,vehicle,62.79949951171875,2.0421087741851807,5.589497533088291,-0.0023876714313711975,-0.0004271710063394192
1260711767,49714,vehicle,263.3767395019531,55.68147277832031,-6.031373023026685,0.00010761887030785237,3.1415748104104897
3957993155,49714,vehicle,332.0651550292969,52.5733528137207,-3.3446097249306392,5.147233769857743,2.1470223613264694
4289594148,49714,vehicle,-2.38348388671875,268.0282897949219,0.000853115745702924,8.531012492438702,1.570696325095964
4139896837,49714,vehicle,112.17839813232422,129.49009704589844,-5.052996803521634e-08,6.942442023223004e-11,3.140218728783421
1686932955,49714,vehicle,112.7573013305664,-1.9680259227752686,1.4739440133216072e-07,-4.1985660850588773e-10,3.1387441364878446
1726501337,49714,vehicle,335.0817565917969,8.252800941467285,-0.3005776121023978,4.124482312020792,1.6435441672378825
1682591593,49714,vehicle,313.8250427246094,330.4513854980469,1.0150431824410001e-08,-1.3262018117932287e-11,-0.0013065464406813864
3380823586,49714,vehicle,354.5760192871094,326.32379150390625,-5.520926800747042,0.0012938743581383054,3.141358295413866
4176583038,49714,vehicle,319.80914306640625,1.959244966506958,3.323242175817022,-0.001801927213019325,-0.0005422195979401329
3855978784,49714,vehicle,338.6291809082031,251.87991333007812,-0.002498535641873392,-5.6279792007904605,-1.5712402757486128
1042098875,49714,vehicle,31.541748046875,-1.9588630199432373,-5.854611867974335,-0.0002572642798160542,-3.141548711431807
644930681,49714,vehicle,88.36174011230469,252.53128051757812,0.0013291308097798035,5.677817189096174,1.5705622349350787
2234188147,49714,vehicle,335.15814208984375,40.90890884399414,0.0024544153064006767,6.183275689319719,1.5703993826344202
4109707537,49714,vehicle,2.581051826477051,94.9378433227539,0.0005244361963902879,-7.058152179308124,-1.5707220246004834
3675841917,49714,vehicle,145.52891540527344,55.75763702392578,-8.103907295088918,-0.018979254808944232,-3.1392506697271774
2817926641,49714,vehicle,92.85118103027344,28.071760177612305,0.001850626905686534,-0.010596181223658185,-1.3978899272312295
4029506115,49714,vehicle,-2.560345411300659,235.96583557128906,0.0015448373167462528,3.294953222522904,1.5703274772849882
3277167701,49714,vehicle,132.2321014404297,59.39975357055664,0.0024853194349878462,-5.956925528182074e-07,-0.00023968449810713143
518241310,49714,vehicle,-2.666914701461792,207.10606384277344,-0.03243650724684232,5.849800304322785,1.576341161342496
778540568,49714,vehicle,338.9315185546875,42.95614242553711,3.8521616119089835e-09,-1.2642973022605057e-07,-1.5403369544593333
657465635,49714,vehicle,20.29448699951172,2.0589969158172607,-1.6826507090871638e-08,1.0951237614714255e-10,-0.006508233071935642
835227171,49714,vehicle,157.7899627685547,23.67967414855957,5.370364284992387e-12,3.255104941254696e-08,-1.570961309624427
715280319,49714,vehicle,92.39599609375,148.53428649902344,-0.0015833092217205113,-5.235777138684382,-1.571098728736675
3020211281,49714,vehicle,311.7214050292969,59.5904541015625,5.244367431608616e-07,6.572710461393666e-10,0.0012532888104777936
2101598167,49714,vehicle,125.23815155029297,-2.030270576477051,5.619355358449839e-06,-4.996897805222461e-09,3.1407034241018157
14974470,49714,vehicle,338.9898681640625,36.57738494873047,-4.050902417900728e-09,8.559078627686704e-07,-1.5660634900636623
1398818972,49714,vehicle,291.3095397949219,133.6365966796875,0.00018330340504585892,-2.5218697094493757e-07,-0.0013757890191349344
2694688339,49714,vehicle,2.2685647010803223,115.36084747314453,-0.0021985924831725186,-6.7724152810951646,-1.5711209661317773
3916750283,49714,vehicle,97.8169937133789,325.5694580078125,-5.090751391511738,-1.6834459282831322,-2.822225576719164
1983197581,49714,vehicle,-2.134376287460327,189.44021606445312,0.00869374148874115,8.144818434512434,1.5697289318299927
2942851653,49714,vehicle,338.8025817871094,79.2650375366211,5.121452289405144e-05,0.027904962689479507,-1.5726316442601247
3949181016,49714,vehicle,88.34362030029297,174.86178588867188,-2.9320070137601887e-12,1.0995728538890505e-09,1.5734628168363385
3672416715,49714,vehicle,338.85546875,226.30577087402344,-1.1944144375776438e-13,9.197062432885498e-11,-1.5694976362893194
3325384226,49714,vehicle,160.3694305419922,55.54165267944336,-4.249448103325551,0.005838425836222931,3.140218728783421
1359910869,49714,vehicle,306.3953552246094,59.60513687133789,0.01743744835709317,2.5737721034199772e-05,0.0014760016383451495
2262630317,49714,vehicle,220.36337280273438,330.62030029296875,11.928118490107597,-0.0022681280077554676,-0.0001901496855770123
805172996,49714,vehicle,92.17341613769531,157.94761657714844,0.019601444743064658,-7.996743497621875,-1.5683451533275876
1986857511,49714,vehicle,-2.4734714031219482,285.6502685546875,0.0010839660077508531,11.212736077365756,1.5706996540473268
1279946346,49714,vehicle,146.46926879882812,2.3933651447296143,3.8771748290614623,-0.06211963583947817,-0.016020510813183366
74618890,49714,vehicle,334.70416259765625,291.78424072265625,-1.7135524391586388e-10,-2.041979874529328e-07,1.5699571647354127
3085549129,49714,vehicle,391.97674560546875,320.9991455078125,-2.4811557017616503e-09,9.185879515523919e-09,1.8346064012170558
2057201815,49714,vehicle,306.45654296875,198.97398376464844,-7.434358352451343e-09,8.992661025764039e-12,-0.0012096076370768274
1015694095,49714,vehicle,282.35101318359375,330.6208801269531,5.911804712114045,-0.0022828927220952177,-0.0003861583255521989
1250507297,49714,vehicle,154.227783203125,30.018871307373047,1.4903769152559017e-06,-0.001526740816345346,1.5717725084924652
4280502996,49714,vehicle,92.2269287109375,279.91668701171875,-0.0004859894400447432,-5.784023264495029,-1.5708803495272885
3428459672,49714,vehicle,85.70228576660156,5.010128498077393,4.89649085219479,3.450681849083094,0.6138903894592636
414519966,49714,vehicle,146.52674865722656,327.07952880859375,-3.689374775868696,-0.0010444399787867176,-3.1413095595659177
2866945113,49714,vehicle,338.6223449707031,277.6622314453125,-0.002074655315578221,-6.897032425699576,-1.571097130840021
1853482628,49714,vehicle,52.294368743896484,2.5211398601531982,4.9861547690756955,0.002718127256102512,0.0005451349010884965
3880166169,49714,vehicle,173.60658264160156,326.41986083984375,-5.559390068052425,-4.441665394982173e-06,-3.141591854641466
1073352953,49714,vehicle,335.1695556640625,19.195472717285156,-0.008788111354100311,4.896321993143085,1.5725911642115555
213556023,49714,vehicle,127.02503967285156,327.0174865722656,-4.478401171362804,0.0003375257166314088,3.141517286130944
1628590046,49714,vehicle,33.79207229614258,2.3481717109680176,0.4258846492696715,0.0010746675355284064,0.0025233716604312487
4120465129,49714,vehicle,249.505126953125,55.676902770996094,-5.963827584403577,0.0005527156498428114,3.1414999755838586
1015227284,49714,vehicle,117.51546478271484,129.75149536132812,-0.006808447600475929,8.340716699114361e-07,3.1414701481796494
2900396540,49714,vehicle,118.2197036743164,-1.9650787115097046,-0.0013252467274514844,-4.722990169469612e-06,-3.138028811419049
3587539486,49714,vehicle,396.5836486816406,68.25703430175781,-0.0016636949336221707,-6.287939805235181,-1.571060911849196
1146849989,49714,vehicle,334.5412292480469,182.79185485839844,0.041950126096625025,5.398851018250662,1.5630262879984813
1457681385,49714,vehicle,363.8699035644531,-2.6956253051757812,-0.002484441731899905,1.2108137457870138e-07,3.1415439177418447
1726747598,49714,vehicle,92.17194366455078,53.88396453857422,0.050436535470912425,-6.790336694925856,-1.5633687705146655
367118466,49714,vehicle,366.2370910644531,326.3619384765625,-5.400912158879166,0.0011665017961588215,3.141376671225388
2065705843,49714,vehicle,311.215087890625,133.19998168945312,1.499162389329925e-08,7.39788359322473e-12,0.0004934677554206829
3978545900,49714,vehicle,396.8472595214844,101.7403335571289,-0.0030923431248031014,-10.225936422083151,-1.571098728736675
714679325,49714,vehicle,392.1418151855469,299.22723388671875,-1.6705507006559843e-11,-5.052606590061023e-08,1.5704656953455634
3262285446,49714,vehicle,88.3433609008789,162.9807586669922,6.152986207990609e-09,-3.3150217600574417e-06,1.5726524169166274
1401880247,49714,vehicle,92.4959945678711,168.2205810546875,-0.000662236339970675,-5.405772168603713,-1.5709188322050402
2250339631,49714,vehicle,92.39708709716797,96.16393280029297,0.0034558290795658423,-3.537735443209663,-1.5698194793070555
2525145270,49714,vehicle,94.26716613769531,137.1908416748047,2.485220831824323,-4.8849811787621675,-1.1001754152873806
1825059061,49714,vehicle,331.94671630859375,1.9882502555847168,-4.923825197568013e-07,1.7563543338437796e-09,-0.003567037443903481
346279610,49714,vehicle,88.17655181884766,305.6376037597656,0.0,0.0,1.5679661855044693
893025708,49714,vehicle,395.8505859375,57.52633285522461,-0.001869703583372676,-5.821407494699284,-1.5711175040223602
1724402154,49714,vehicle,2.3620126247406006,177.42247009277344,-0.015533577200157323,-11.37100207771635,-1.5721623952760528
2595182244,49714,vehicle,313.6766662597656,198.77235412597656,-9.707340334855662e-09,2.400640961242202e-11,-0.002473011128173255
874453657,49714,vehicle,387.56072998046875,325.13946533203125,-2.827194905240403,1.334090336795062,2.700694883534488
1498616609,49714,vehicle,-2.427751302719116,56.8448486328125,0.02423682541653359,14.84748388019482,1.5691639422047325
505512523,49714,vehicle,305.6145935058594,133.2028350830078,-0.4440485520933002,-3.78356612298816e-05,8.520613559025515e-05
3709073522,49714,vehicle,118.92913055419922,195.56103515625,-0.01740865435883519,-1.9490614350137146e-05,-3.140473060667524
27029540,49714,vehicle,27.763700485229492,2.909644365310669,-0.0004299617483606007,-4.128279685768598e-05,0.09572161623131135
1375770528,49714,vehicle,283.81982421875,195.27157592773438,-7.729282705586125,-0.004131274412032944,-3.1410581571590144
4266869573,49714,vehicle,-1.5169743299484253,217.43544006347656,7.326702418061935e-05,4.7433276170794105,1.570780880460574
368528135,49714,vehicle,2.347003936767578,131.3332061767578,0.106427889275388,-10.550091860742647,-1.5607088052178943
4012051816,49714,vehicle,338.79058837890625,153.35789489746094,1.2623458718158436e-08,1.047403805935946e-05,-1.572001540346212
3938307140,49714,vehicle,92.30709075927734,199.15411376953125,0.12024402927594487,-7.360399405933297,-1.554461162458623
1966079641,49714,vehicle,156.73403930664062,330.6430358886719,18.880419786985577,-0.005822608774495979,-0.0003083940217218851
1759883367,49714,vehicle,65.09627532958984,331.1673889160156,-2.1569352977068224e-06,1.482020902158042e-09,-0.0006870955612404434
3487645883,49714,vehicle,92.41818237304688,86.3944320678711,-0.0011698541935005915,-4.410369241057309,-1.5710615776394685
544848518,49714,vehicle,136.5341339111328,2.0980565547943115,5.323423858650716,-0.00020131532116225264,-3.781688747912518e-05
1325658571,49714,vehicle,92.39165496826172,76.4220962524414,-0.0009044086800898684,-5.86021893198124,-1.5709506569800666
921579549,49714,vehicle,92.2698745727539,22.447608947753906,-2.409475997837762e-07,-7.13854687098343e-05,-1.574171617160463
4072577581,49714,vehicle,92.38053131103516,223.31300354003906,-0.0010713397368858877,-4.316322193703352,-1.571044533408492
94066344,49714,vehicle,334.51226806640625,192.8876190185547,0.02831831958990992,5.528795199250676,1.5656744022284017
2853390219,49714,vehicle,388.19915771484375,329.7938232421875,5.236100929410494,-1.9714603963570172,-0.3600965304759196
2524564450,49714,vehicle,42.82785415649414,2.031629800796509,5.056527623790305,0.00379128419695872,0.00074978004049109
1882516347,49714,vehicle,-2.1354482173919678,225.34934997558594,0.0028819349707918805,4.625552710150843,1.5701732802578725
815178544,49714,vehicle,307.15032958984375,330.3822937011719,3.76715189106299e-06,5.9648093655420045e-09,0.0015833724132450907
2188308515,49714,vehicle,298.796875,199.190673828125,-4.418083126031712e-07,-5.241007446571455e-10,0.0011862621953121382
1160083145,49714,vehicle,339.8310852050781,326.35455322265625,-6.9671735016843535,0.016736376442547017,3.1391904822865415
1832698586,49714,vehicle,117.32374572753906,326.9587097167969,-4.700595736689804,-0.001057808507645407,-3.1413676164776816
3748346955,49714,vehicle,158.57948303222656,2.0658414363861084,5.4110984338381165,-0.06769888677000906,-0.012510464496458928
3198444053,49714,vehicle,107.52616882324219,327.3802795410156,-9.697963465623573,-0.006467141592885149,-3.1409257980528373
808811405,49714,vehicle,248.6563262939453,195.30758666992188,-5.8349337531263,-0.00023309052814292594,-3.141552706173442
84250811,49714,vehicle,338.61883544921875,48.35802459716797,0.00040130928390126445,0.010614666463944019,-1.6085853842406304
3956289865,49714,vehicle,2.427639961242676,149.28826904296875,-0.0026685401895840135,-9.01502283654858,-1.571092337150059
1912328786,49714,vehicle,335.1393737792969,29.31402015686035,0.0019328109778123871,5.883730570901604,1.5704678258744353
4030311199,49714,vehicle,338.7906494140625,160.21673583984375,-2.7511675961749525e-08,0.0008829451976714423,-1.5707651678101426
3147513812,49714,vehicle,376.605224609375,326.3033447265625,-4.923927047715252,0.09979339334090048,3.121328394539271
1663586846,49714,vehicle,338.6297302246094,298.14276123046875,-0.001532422772658808,-5.633039266045698,-1.5710683687002482
