id,timestamp_ms,agent_type,x,y,vx,vy,psi_rad
-1,469,vehicle,356.79998779296875,2.0200390815734863,-2.2819575118375467e-09,3.646332272846976e-15,-1.597896654047543e-06
2985032057,469,vehicle,92.11000061035156,39.709999084472656,-1.442966250485997e-14,-2.7785878042488357e-09,-1.5708015199590222
3028941286,469,vehicle,358.39996337890625,330.53997802734375,-1.0846452208598842e-11,1.7331509692421425e-17,-1.597896654047543e-06
2920337868,469,vehicle,378.17999267578125,2.0200390815734863,-4.265432007594211e-09,6.815719533007885e-15,-1.597896654047543e-06
1503980471,469,vehicle,92.1099853515625,95.44999694824219,-1.0619628072894176e-13,-2.0449244075572837e-08,-1.5708015199590222
2125414330,469,vehicle,395.9599914550781,164.1699981689453,1.2039766469940647e-13,2.318387437551907e-08,-1.5708015199590222
2396446624,469,vehicle,301.3399658203125,327.04998779296875,1.1536146696179494e-16,-4.9156187217174425e-22,3.141588392532049
4076155829,469,vehicle,116.63999938964844,-1.95999014377594,1.4856526106257213e-17,-9.495677342371211e-23,3.141586262003177
130361148,469,vehicle,124.73997497558594,326.9700012207031,3.6422440618746526e-09,-1.5519812265862204e-14,3.141588392532049
3417340120,469,vehicle,114.3499755859375,330.4599914550781,-2.0952389823109992e-10,3.3479753592675743e-16,-1.597896654047543e-06
2197730220,469,vehicle,244.09999084472656,-1.9599803686141968,7.284878033992882e-09,-4.6561928942587157e-14,3.141586262003177
118743835,469,vehicle,272.2900085449219,59.33003616333008,3.845005425157731e-10,-6.143921303659418e-16,-1.597896654047543e-06
904053063,469,vehicle,234.26998901367188,55.84001922607422,-9.450413541914586e-13,4.026875780800541e-18,3.141588392532049
1291681130,469,vehicle,256.3499755859375,195.5699920654297,-9.450387521062446e-13,4.02686469316519e-18,3.141588392532049
715062232,469,vehicle,299.3999938964844,59.33003616333008,4.599110425823296e-09,-7.34890316102447e-15,-1.597896654047543e-06
220877689,469,vehicle,128.94998168945312,129.75,-0.0,0.0,3.141588392532049
2069714320,469,vehicle,-2.4200377464294434,187.97000122070312,-2.6056250007580998e-17,-3.557802056340996e-12,1.570789003101899
3190467641,469,vehicle,137.7899932861328,-1.959989070892334,-0.0,0.0,3.141586262003177
708315452,469,vehicle,88.61997985839844,72.6199951171875,-5.685000001508284e-18,7.115604112870548e-12,1.5707971257432236
1314594676,469,vehicle,88.6199722290039,169.84999084472656,5.685000001508284e-18,-7.115604112870548e-12,1.5707971257432236
2302084468,469,vehicle,306.76995849609375,330.5400390625,0.0,-0.0,-1.597896654047543e-06
757051778,469,vehicle,256.3499755859375,199.05999755859375,8.127282846704558e-09,-1.2986558067258257e-14,-1.597896654047543e-06
4203008516,469,vehicle,153.75999450683594,18.889999389648438,-6.967640952830135e-15,5.232609456835371e-09,1.5707976583754417
2631691725,469,vehicle,299.39996337890625,199.05999755859375,-1.0846452208598842e-11,1.7331509692421425e-17,-1.597896654047543e-06
1513387753,469,vehicle,234.26998901367188,59.33001708984375,-4.265432007594211e-09,6.815719533007885e-15,-1.597896654047543e-06
156273220,469,vehicle,92.1099853515625,159.9499969482422,-1.0619628072894176e-13,-2.0449244075572837e-08,-1.5708015199590222
3812119762,469,vehicle,118.94999694824219,55.84000015258789,-9.517441088621377e-13,4.055436605497041e-18,3.141588392532049
3616050434,469,vehicle,335.489990234375,298.80999755859375,-6.1102497815583e-15,4.588719626493027e-09,1.5707976583754417
2942158310,469,vehicle,88.6199951171875,15.279999732971191,3.2697931161016777e-16,-2.0463107597264407e-10,1.5707979246915507
3608800298,469,vehicle,105.43998718261719,133.24002075195312,6.764105386905219e-10,-1.0808341365370011e-15,-1.597896654047543e-06
1146464971,469,vehicle,1.55999755859375,22.440019607543945,-3.166546814947695e-14,-4.323702284975759e-09,-1.5708036504878944
3013099654,469,vehicle,-2.4200048446655273,48.70000076293945,4.869265329601733e-15,7.462767625928587e-10,1.570789802050226
2246582517,469,vehicle,88.61998748779297,95.44999694824219,1.0028214455456564e-14,-7.531061108061439e-09,1.5707976583754417
3192940987,469,vehicle,381.3399963378906,327.04998779296875,-9.450413541914586e-13,4.026875780800541e-18,3.141588392532049
828836647,469,vehicle,88.61997985839844,249.42999267578125,-1.8316544161931758e-14,1.3755490968480073e-08,1.5707976583754417
1702089089,469,vehicle,395.9599914550781,249.42999267578125,5.195583705918244e-14,8.86776607685092e-09,-1.5708021857492949
2111029583,469,vehicle,22.17997932434082,330.46002197265625,0.0,-0.0,-1.597896654047543e-06
420096522,469,vehicle,191.3199920654297,129.75,-0.0,0.0,3.141588392532049
510102133,469,vehicle,158.08004760742188,27.18000030517578,2.9562000008366462e-16,5.692483290221496e-11,-1.5708015199590222
4109025732,469,vehicle,126.38999938964844,2.0200650691986084,0.0,-0.0,-1.597896654047543e-06
2913592560,469,vehicle,209.5800018310547,2.0200555324554443,0.0,-0.0,-1.597896654047543e-06
3970347779,469,vehicle,111.56999969482422,59.33005905151367,0.0,-0.0,-1.597896654047543e-06
1933996401,469,vehicle,395.9599914550781,105.38999938964844,-1.0887432703044201e-13,-1.8582552385418528e-08,-1.5708021857492949
3047764241,469,vehicle,1.5599950551986694,48.70001983642578,6.72013057456521e-14,9.175876946907857e-09,-1.5708036504878944
1260711767,469,vehicle,270.79998779296875,133.43003845214844,-1.0846452208598842e-11,1.7331509692421425e-17,-1.597896654047543e-06
3957993155,469,vehicle,306.28997802734375,2.02001953125,-4.265432007594211e-09,6.815719533007885e-15,-1.597896654047543e-06
4289594148,469,vehicle,-2.4200048446655273,79.31999969482422,1.20689105947521e-14,2.014132860458851e-09,1.570790334682444
4139896837,469,vehicle,271.0400085449219,129.489990234375,-9.517441088621377e-13,4.055436605497041e-18,3.141588392532049
1686932955,469,vehicle,185.55999755859375,-1.9599803686141968,-2.931538466981654e-15,1.8737182030382642e-20,3.141586262003177
1726501337,469,vehicle,395.9599914550781,68.86003875732422,-7.397187477238661e-16,-1.262543958247521e-10,-1.5708021857492949
1682591593,469,vehicle,173.11997985839844,330.4599914550781,6.764105386905219e-10,-1.0808341365370011e-15,-1.597896654047543e-06
3380823586,469,vehicle,392.4700012207031,212.89999389648438,6.056893714880631e-15,-4.5486499011775015e-09,1.5707976583754417
4176583038,469,vehicle,173.14999389648438,2.02001953125,2.948012278732437e-09,-4.7106189562816436e-15,-1.597896654047543e-06
3855978784,469,vehicle,301.3399658203125,330.53997802734375,3.845005425157731e-10,-6.143921303659418e-16,-1.597896654047543e-06
1042098875,469,vehicle,157.25,39.709999084472656,-1.2166043720392923e-13,-1.9439454490185575e-08,-1.5708025852234582
644930681,469,vehicle,88.61998748779297,145.83999633789062,-1.8316544161931758e-14,1.3755490968480073e-08,1.5707976583754417
2234188147,469,vehicle,363.0,-1.9599609375,-1.5017235501692215e-12,9.598396144466917e-18,3.141586262003177
4109707537,469,vehicle,22.17997932434082,326.9700012207031,-0.0,0.0,3.141588392532049
3675841917,469,vehicle,272.2900085449219,55.84000015258789,-0.0,0.0,3.141588392532049
2817926641,469,vehicle,191.0800018310547,55.84000015258789,-0.0,0.0,3.141588392532049
4029506115,469,vehicle,-2.420022487640381,17.779998779296875,2.4161250007506672e-17,3.5578020563543696e-12,1.5707895357341168
3277167701,469,vehicle,88.61997985839844,26.559999465942383,5.685000001508284e-18,-7.115604112870548e-12,1.5707971257432236
518241310,469,vehicle,72.5999984741211,-1.9599937200546265,-0.0,0.0,3.141586262003177
778540568,469,vehicle,172.2899932861328,59.33001708984375,8.127282846704558e-09,-1.2986558067258257e-14,-1.597896654047543e-06
657465635,469,vehicle,1.5099804401397705,308.2099914550781,-1.442966250485997e-14,-2.7785878042488357e-09,-1.5708015199590222
835227171,469,vehicle,125.9699935913086,59.33001708984375,-1.0846452208598842e-11,1.7331509692421425e-17,-1.597896654047543e-06
715280319,469,vehicle,142.91998291015625,195.26998901367188,-9.440605849062371e-13,4.022696666242544e-18,3.141588392532049
3020211281,469,vehicle,153.75999450683594,28.899999618530273,-2.6799149345358728e-14,2.012581923336746e-08,1.5707976583754417
2101598167,469,vehicle,278.80999755859375,-1.9599803686141968,-1.5124549832722639e-12,9.666987028660775e-18,3.141586262003177
14974470,469,vehicle,202.5500030517578,59.33001708984375,-7.442922278490462e-09,1.1893020605145947e-14,-1.597896654047543e-06
1398818972,469,vehicle,92.1099853515625,176.88999938964844,-7.397187477238661e-16,-1.262543958247521e-10,-1.5708021857492949
2694688339,469,vehicle,46.14997863769531,326.9700012207031,3.6422440618746526e-09,-1.5519812265862204e-14,3.141588392532049
3916750283,469,vehicle,173.11997985839844,326.9700012207031,-9.450411373510241e-13,4.026874856830929e-18,3.141588392532049
1983197581,469,vehicle,92.11000061035156,30.820009231567383,1.7223854633637378e-13,3.316639762784531e-08,-1.5708015199590222
2942851653,469,vehicle,178.7699737548828,198.75999450683594,-7.1647869928545676e-12,1.1448589162855414e-17,-1.597896654047543e-06
3949181016,469,vehicle,88.61998748779297,103.37999725341797,-1.8316544161931758e-14,1.3755490968480073e-08,1.5707976583754417
3672416715,469,vehicle,392.4700012207031,308.2099914550781,-2.0087072178324235e-14,1.5085134918977288e-08,1.5707976583754417
3325384226,469,vehicle,299.3999938964844,55.84000015258789,-0.0,0.0,3.141588392532049
1359910869,469,vehicle,110.02999877929688,2.0200583934783936,0.0,-0.0,-1.597896654047543e-06
2262630317,469,vehicle,46.14997863769531,330.46002197265625,0.0,-0.0,-1.597896654047543e-06
805172996,469,vehicle,178.7699737548828,195.26998901367188,-0.0,0.0,3.141588392532049
1986857511,469,vehicle,-2.4200265407562256,120.0199966430664,0.0,0.0,1.5707895357341168
1279946346,469,vehicle,47.939998626708984,2.020054817199707,0.0,-0.0,-1.597896654047543e-06
74618890,469,vehicle,217.50997924804688,198.75999450683594,8.127282846704558e-09,-1.2986558067258257e-14,-1.597896654047543e-06
3085549129,469,vehicle,392.4700012207031,19.9200382232666,-6.967640952830135e-15,5.232609456835371e-09,1.5707976583754417
2057201815,469,vehicle,105.22998809814453,198.5,-1.0846452208598842e-11,1.7331509692421425e-17,-1.597896654047543e-06
1015694095,469,vehicle,60.10997772216797,330.4599914550781,-4.265432007594211e-09,6.815719533007885e-15,-1.597896654047543e-06
1250507297,469,vehicle,316.8500061035156,-1.9599803686141968,-1.5016805073429746e-12,9.598121032514756e-18,3.141586262003177
4280502996,469,vehicle,-1.2800195217132568,309.4599914550781,-1.4148765600878914e-15,1.7709237409840772e-09,1.5707971257432236
3428459672,469,vehicle,14.139999389648438,2.0200109481811523,-7.442922278490462e-09,1.1893020605145947e-14,-1.597896654047543e-06
414519966,469,vehicle,320.8699645996094,327.04998779296875,2.2769938712101434e-10,-9.702402368256349e-16,3.141588392532049
2866945113,469,vehicle,232.19998168945312,330.4599914550781,6.764105386905219e-10,-1.0808341365370011e-15,-1.597896654047543e-06
1853482628,469,vehicle,1.5599950551986694,79.32001495361328,-3.166546814947695e-14,-4.323702284975759e-09,-1.5708036504878944
3880166169,469,vehicle,335.489990234375,249.42999267578125,4.0201019010720884e-15,-3.0190452360274615e-09,1.5707976583754417
1073352953,469,vehicle,396.4499816894531,19.9200382232666,1.7223854633637378e-13,3.316639762784531e-08,-1.5708015199590222
213556023,469,vehicle,262.5999755859375,327.04998779296875,-9.450413541914586e-13,4.026875780800541e-18,3.141588392532049
1628590046,469,vehicle,1.5599803924560547,187.9700164794922,1.0104032829069877e-13,1.3796363162640033e-08,-1.5708036504878944
4120465129,469,vehicle,299.3999938964844,133.2400360107422,4.599110425823296e-09,-7.34890316102447e-15,-1.597896654047543e-06
1015227284,469,vehicle,299.3999938964844,129.75,-0.0,0.0,3.141588392532049
2900396540,469,vehicle,209.5800018310547,-1.9599791765213013,-0.0,0.0,3.141586262003177
3587539486,469,vehicle,381.3399658203125,330.5400390625,0.0,-0.0,-1.597896654047543e-06
1146849989,469,vehicle,216.26998901367188,133.2400360107422,0.0,-0.0,-1.597896654047543e-06
1457681385,469,vehicle,395.96002197265625,212.89999389648438,2.9562000008366462e-16,5.692483290221496e-11,-1.5708015199590222
1726747598,469,vehicle,119.46998596191406,129.75,-0.0,0.0,3.141588392532049
367118466,469,vehicle,392.4700012207031,164.1699981689453,-4.6804793929655375e-14,3.5149803068148447e-08,1.5707976583754417
2065705843,469,vehicle,157.1899871826172,133.24002075195312,-1.0082646939566958e-09,1.6111027808690456e-15,-1.597896654047543e-06
3978545900,469,vehicle,334.8299865722656,217.0800018310547,7.224687488101448e-17,-5.4256481252186934e-11,1.5707976583754417
714679325,469,vehicle,278.80999755859375,2.02001953125,-4.265432007594211e-09,6.815719533007885e-15,-1.597896654047543e-06
3262285446,469,vehicle,202.5500030517578,55.84000015258789,-9.450411373510241e-13,4.026874856830929e-18,3.141588392532049
1401880247,469,vehicle,217.50997924804688,195.26998901367188,-9.517441088621377e-13,4.055436605497041e-18,3.141588392532049
2250339631,469,vehicle,237.6999969482422,129.75,1.1536146696179494e-16,-4.9156187217174425e-22,3.141588392532049
2525145270,469,vehicle,92.1099853515625,227.22000122070312,-7.397187477238661e-16,-1.262543958247521e-10,-1.5708021857492949
1825059061,469,vehicle,244.09999084472656,2.02001953125,6.764105386905219e-10,-1.0808341365370011e-15,-1.597896654047543e-06
346279610,469,vehicle,121.22996520996094,195.00999450683594,-9.450411373510241e-13,4.026874856830929e-18,3.141588392532049
893025708,469,vehicle,395.9599914550781,308.2099914550781,3.490250299401939e-14,6.720854983564418e-09,-1.5708015199590222
1724402154,469,vehicle,88.61998748779297,212.89999389648438,1.0028214455456564e-14,-7.531061108061439e-09,1.5707976583754417
2595182244,469,vehicle,142.91998291015625,198.75999450683594,-7.1647869928545676e-12,1.1448589162855414e-17,-1.597896654047543e-06
874453657,469,vehicle,392.4700012207031,68.86003875732422,-1.8316544161931758e-14,1.3755490968480073e-08,1.5707976583754417
1498616609,469,vehicle,92.1099853515625,113.05999755859375,5.195583705918244e-14,8.86776607685092e-09,-1.5708021857492949
505512523,469,vehicle,128.94998168945312,133.24005126953125,0.0,-0.0,-1.597896654047543e-06
3709073522,469,vehicle,299.39996337890625,195.5699920654297,-0.0,0.0,3.141588392532049
27029540,469,vehicle,1.5100284814834595,249.42999267578125,3.6952499109587707e-16,7.115603939304522e-11,-1.5708015199590222
1375770528,469,vehicle,366.53997802734375,327.04998779296875,-0.0,0.0,3.141588392532049
4266869573,469,vehicle,47.939998626708984,-1.9599939584732056,-0.0,0.0,3.141586262003177
368528135,469,vehicle,65.3499755859375,326.9700012207031,-0.0,0.0,3.141588392532049
4012051816,469,vehicle,338.97998046875,249.42999267578125,-1.0887432703044201e-13,-1.8582552385418528e-08,-1.5708021857492949
3938307140,469,vehicle,92.10997772216797,308.2099914550781,-1.442966250485997e-14,-2.7785878042488357e-09,-1.5708015199590222
1966079641,469,vehicle,-1.980019450187683,249.42999267578125,7.224687488101448e-17,-5.4256481252186934e-11,1.5707976583754417
1759883367,469,vehicle,-2.4200096130371094,149.8300018310547,-2.322433956334692e-14,-3.419839744643849e-09,1.5707895357341168
3487645883,469,vehicle,216.26998901367188,129.75,-9.450411373510241e-13,4.026874856830929e-18,3.141588392532049
544848518,469,vehicle,92.11000061035156,86.95999908447266,1.2039766469940647e-13,2.318387437551907e-08,-1.5708015199590222
1325658571,469,vehicle,157.1899871826172,129.75,1.1536146696179494e-16,-4.9156187217174425e-22,3.141588392532049
921579549,469,vehicle,141.12998962402344,55.84000015258789,2.2769938712101434e-10,-9.702402368256349e-16,3.141588392532049
4072577581,469,vehicle,142.91998291015625,326.9700012207031,3.6422440618746526e-09,-1.5519812265862204e-14,3.141588392532049
94066344,469,vehicle,237.6999969482422,133.239990234375,-2.0952389823109992e-10,3.3479753592675743e-16,-1.597896654047543e-06
2853390219,469,vehicle,262.5999755859375,330.53997802734375,2.948012278732437e-09,-4.7106189562816436e-15,-1.597896654047543e-06
2524564450,469,vehicle,1.5599901676177979,149.83001708984375,2.41460519402675e-13,3.296977624156882e-08,-1.5708036504878944
1882516347,469,vehicle,21.770000457763672,-1.9599987268447876,-1.50094520142961e-12,9.593421261080095e-18,3.141586262003177
815178544,469,vehicle,142.91998291015625,330.4599914550781,-2.1415281006826187e-11,3.421940586632459e-17,-1.597896654047543e-06
2188308515,469,vehicle,92.10997772216797,249.42999267578125,5.195583705918244e-14,8.86776607685092e-09,-1.5708021857492949
1160083145,469,vehicle,392.4700012207031,249.42999267578125,-0.0,0.0,1.5707976583754417
1832698586,469,vehicle,232.19998168945312,326.9700012207031,-0.0,0.0,3.141588392532049
3748346955,469,vehicle,62.12999725341797,2.0200469493865967,0.0,-0.0,-1.597896654047543e-06
3198444053,469,vehicle,199.94998168945312,326.9700012207031,-0.0,0.0,3.141588392532049
808811405,469,vehicle,338.98004150390625,226.75,2.9562000008366462e-16,5.692483290221496e-11,-1.5708015199590222
84250811,469,vehicle,191.3199920654297,133.24005126953125,0.0,-0.0,-1.597896654047543e-06
3956289865,469,vehicle,88.61997985839844,295.32000732421875,-4.6804793929655375e-14,3.5149803068148447e-08,1.5707976583754417
1912328786,469,vehicle,378.17999267578125,-1.9599609375,2.9144015200559314e-08,-1.8627649749769972e-13,3.141586262003177
4030311199,469,vehicle,338.97998046875,301.2599792480469,2.6562280257096565e-14,5.114854761887196e-09,-1.5708015199590222
3147513812,469,vehicle,392.4700012207031,105.38999938964844,-2.5711301671076005e-16,3.218143251880828e-10,1.5707971257432236
1663586846,469,vehicle,199.94998168945312,330.4599914550781,-1.1914913500261968e-09,1.90388004153507e-15,-1.597896654047543e-06
