id,timestamp_ms,agent_type,x,y,vx,vy,psi_rad
-1,14405,vehicle,392.1873779296875,39.0716438293457,0.00028412366677158446,5.644794933797982,1.570745993050294
2985032057,14405,vehicle,92.10367584228516,28.704078674316406,2.4740832624783166e-12,-3.0710825782695015e-08,-1.5707157661719218
3028941286,14405,vehicle,396.93402099609375,298.8396301269531,-0.0021891517475758323,-7.261594442357256,-1.5710977966302935
2920337868,14405,vehicle,392.01068115234375,78.47689056396484,-0.002728650949360234,16.289205322605437,1.5709638396274626
1503980471,14405,vehicle,92.19307708740234,41.197547912597656,-9.619412652571746e-06,0.004755790861463,-1.5687736559469814
2125414330,14405,vehicle,395.9276428222656,23.26475715637207,-0.002471153792746914,-7.226654583903311,-1.5711382766788629
2396446624,14405,vehicle,231.91302490234375,327.0312194824219,-5.565016267119112,0.00016895409663720838,3.1415622935533665
4076155829,14405,vehicle,112.6908187866211,-1.943187952041626,2.033442770070437e-06,3.3250468274259735e-10,-3.1414291354988624
130361148,14405,vehicle,92.40708923339844,277.2671813964844,-0.0020785544882378527,-6.897781058897959,-1.5710976634722391
3417340120,14405,vehicle,182.193603515625,330.48455810546875,5.618463514621485,-0.00013466586078931598,-2.3968449810713143e-05
2197730220,14405,vehicle,197.4529571533203,-1.9458696842193604,-5.563223335829682,0.0005392936629019732,3.141495714526114
118743835,14405,vehicle,306.79681396484375,59.33424758911133,1.7341473915402874e-08,-2.6111961775301556e-11,-0.001505751020256476
904053063,14405,vehicle,178.70042419433594,55.8249397277832,2.8307966327878825e-05,-4.415518244350158e-08,3.140032840139334
1291681130,14405,vehicle,189.9419708251953,195.59725952148438,-5.824563164322498,0.001987055250286336,3.141251502654154
715062232,14405,vehicle,313.6129455566406,59.3152961730957,1.894500632283458e-07,7.075153562773113e-10,0.0037345570384019204
220877689,14405,vehicle,121.40357971191406,129.7562255859375,0.00019610081922886974,-4.240654406708543e-08,3.1413764049092787
2069714320,14405,vehicle,-2.396336793899536,273.882080078125,0.0038306060303725633,9.333991218367332,1.5703859336709154
3190467641,14405,vehicle,118.22856140136719,-2.2112443447113037,-0.0040084265337444296,-0.00017160317231766924,-3.098808171729343
708315452,14405,vehicle,88.73867797851562,99.75003814697266,3.4879171931119836e-05,0.011912200759288939,1.567868314334409
1314594676,14405,vehicle,88.64353942871094,172.70211791992188,1.5921624177349489e-07,0.0016469609613870755,1.5706996540473268
2302084468,14405,vehicle,312.653076171875,330.5594177246094,-0.010085414617933799,0.0009869112942424206,-0.09754474141217395
757051778,14405,vehicle,305.1543884277344,199.05624389648438,-3.834480978706788e-06,4.239957921536571e-09,-0.0011057444846008996
4203008516,14405,vehicle,153.7655029296875,31.262548446655273,-1.9870711539657617e-12,4.115457716742092e-09,1.5712791579005279
2631691725,14405,vehicle,312.3171081542969,199.05612182617188,1.2273985609853236e-08,-3.0883310501331614e-11,-0.0025161545979068643
1513387753,14405,vehicle,299.7922668457031,59.32719421386719,-0.021254603950845247,3.132491105333803e-05,-0.0014737930871755252
156273220,14405,vehicle,92.52671813964844,92.64697265625,-0.0029875741942635733,-5.885702805446074,-1.5713039252986658
3812119762,14405,vehicle,110.9075927734375,55.837440490722656,-0.06977843590999404,5.461580537142603e-05,3.140809950545419
3616050434,14405,vehicle,335.4158935546875,308.00689697265625,5.615854469134256e-12,-1.1589543074637861e-08,1.5712808889552365
2942158310,14405,vehicle,88.60669708251953,25.917118072509766,1.4489379344758812e-09,7.407310335279497e-06,1.5706007176128303
3608800298,14405,vehicle,145.68064880371094,133.23402404785156,1.8108445947267595e-09,-8.777079072677974e-13,-0.0004846952858851307
1146464971,14405,vehicle,53.9531135559082,2.545868396759033,5.764251697791555,-0.00035921646200357996,-6.231796950785417e-05
3013099654,14405,vehicle,-2.402156114578247,96.55097198486328,0.0007503618566807501,5.821406792918381,1.5706674297981367
2246582517,14405,vehicle,88.6150894165039,105.10009765625,1.7572834789247206e-11,1.288767054417959e-07,1.5706599729470845
3192940987,14405,vehicle,338.8948669433594,301.5812683105469,-0.0030256466426533423,-5.857751541746974,-1.5713128468883175
828836647,14405,vehicle,88.64752960205078,300.9998474121094,1.3094783689328789e-08,-1.18667931529802e-05,1.571899807592571
1702089089,14405,vehicle,395.9733581542969,186.73085021972656,-0.0028632362201951966,-4.554657036124934,-1.5714249659702098
2111029583,14405,vehicle,54.97438430786133,330.44464111328125,0.006653262169962115,-2.820818631174532e-06,-0.00042397524554061474
420096522,14405,vehicle,137.50169372558594,129.7382354736328,-3.6545802539176973,-0.005013335423718884,-3.1402208593122936
510102133,14405,vehicle,158.47811889648438,25.247684478759766,-0.00046846513616799625,0.004665799600754384,-1.4707276493610058
4109025732,14405,vehicle,209.0343475341797,1.8977127075195312,7.063149161993481,0.0032917506299765405,0.00046604571362701707
2913592560,14405,vehicle,245.4300994873047,1.9356913566589355,3.6661779202799756,-0.0007049335449998493,-0.000192280230703721
3970347779,14405,vehicle,128.59097290039062,59.36355209350586,-0.00950125073353164,0.0007779326597168156,-0.08169463857894473
1933996401,14405,vehicle,395.055419921875,4.9405951499938965,-1.0622999978861982,-5.783726674422698,-1.7524422889498221
3047764241,14405,vehicle,32.500057220458984,2.04997181892395,5.609990559299285,-0.0006484093037774785,-0.00011558117505479361
1260711767,14405,vehicle,306.1383361816406,133.41566467285156,-6.260797995178251e-08,6.769448758080756e-11,-0.0010812433375535894
3957993155,14405,vehicle,335.0718994140625,33.63328170776367,2.512681116185976e-08,-3.590849003920698e-05,1.571496072371315
4289594148,14405,vehicle,-2.4101035594940186,146.40074157714844,-0.00013778495012075977,3.6693170044778673,1.5708338773662667
4139896837,14405,vehicle,201.03565979003906,129.48765563964844,-5.945072650175542,-9.341284835009085e-05,-3.1415769409393617
1686932955,14405,vehicle,175.89035034179688,-1.9625731706619263,1.223339560422741e-06,-6.304134421958805e-10,3.1410773319188627
1726501337,14405,vehicle,379.5086669921875,-2.387871503829956,-2.0092453185754198,-0.0053900187732109665,-3.1389100514237565
1682591593,14405,vehicle,251.53182983398438,330.4571838378906,6.899151221857577,-0.0011942807205463587,-0.00017310545460050517
3380823586,14405,vehicle,392.4432678222656,318.64398193359375,0.0003940605057558751,7.271115769198589,1.5707421314667134
4176583038,14405,vehicle,219.79736328125,1.9972540140151978,5.563234098258378,-0.0016030681884615905,-0.0002881539974372829
3855978784,14405,vehicle,305.56915283203125,330.5410461425781,-2.682507264954023e-09,-5.787121123390195e-13,0.00021573552136151786
1042098875,14405,vehicle,157.8470916748047,32.20794677734375,-3.779315656763041e-09,2.600441683809043e-07,-1.5562639893585521
644930681,14405,vehicle,88.63038635253906,165.76617431640625,-4.5715484982367297e-10,1.774063143742625e-07,1.5733732014656572
2234188147,14405,vehicle,358.0130310058594,-1.9552597999572754,0.00014205581829563577,1.0165393709923388e-07,-3.140877062204889
4109707537,14405,vehicle,2.619969129562378,241.16921997070312,-0.002537037187286944,-12.08935615621669,-1.5710061838887948
3675841917,14405,vehicle,196.8217010498047,55.83846664428711,-5.320128151995525,-0.007673588170564805,-3.1401502855434065
2817926641,14405,vehicle,123.0377426147461,55.75150680541992,0.8716252664638644,-0.0006144425193473586,3.1408877148492493
4029506115,14405,vehicle,-2.290614604949951,86.90234375,-0.0034782326829836314,6.169362518189224,1.5713601179976664
3277167701,14405,vehicle,88.64314270019531,33.22605895996094,1.5769637967528517e-07,0.0016471205669402597,1.5707005861537082
518241310,14405,vehicle,20.646591186523438,-2.074531316757202,-4.507902367649867,0.002567927569994233,3.1410230034326254
778540568,14405,vehicle,242.12290954589844,59.3245735168457,6.043798721833087,-0.0015612741651782,-0.0002583266257376861
657465635,14405,vehicle,1.7200762033462524,149.89236450195312,0.0005144656846586407,-12.667448033376191,-1.5707557135882728
835227171,14405,vehicle,134.6495819091797,59.32780456542969,-4.75492950334383e-08,-9.861748328670238e-12,0.00020740051309560257
715280319,14405,vehicle,118.0025863647461,195.2687225341797,2.7403788469253613e-08,-3.206043753083836e-11,3.1404227269229215
3020211281,14405,vehicle,153.76817321777344,37.51154327392578,-5.9086712890123564e-05,0.03590946626256341,1.5724417608744021
2101598167,14405,vehicle,208.8059539794922,-1.9620957374572754,-5.945065020781012,-9.341272847208157e-05,-3.1415769409393617
14974470,14405,vehicle,271.9767761230469,59.33336639404297,5.565010887209088,-0.0012360314267461467,-0.00022210763491260847
1398818972,14405,vehicle,118.12052154541016,133.67942810058594,5.693662072682544,-0.0010341261110877642,-0.00018162758634340405
2694688339,14405,vehicle,2.316016912460327,284.4985046386719,-0.001634349811411266,-13.74441041766116,-1.5709152369375687
3916750283,14405,vehicle,116.79850006103516,326.9374694824219,0.00018778277559718915,-8.960784224528192e-07,3.136820801548589
1983197581,14405,vehicle,92.12187194824219,21.969289779663086,-7.707498516186205e-10,-1.3967939142796353e-07,-1.5763142634154863
2942851653,14405,vehicle,248.5130615234375,198.76559448242188,5.550653914322541,-0.00047303318318894685,-8.522116300985829e-05
3949181016,14405,vehicle,88.6303482055664,112.13860321044922,8.52619311200686e-09,-3.2832775357044937e-06,1.5733931751738328
3672416715,14405,vehicle,339.8009948730469,320.67242431640625,-2.284886552195341,-5.239781850218662,-1.982001848066636
3325384226,14405,vehicle,217.56011962890625,55.84246826171875,-8.694263700386777,-0.005381042529158562,-3.1409737349524587
1359910869,14405,vehicle,154.2423095703125,25.51431655883789,-3.2282375138741604e-05,0.01761379301091053,1.5726291142570892
2262630317,14405,vehicle,60.97639465332031,330.7214660644531,0.004038439537046383,0.0001850218146737448,0.045783159635987176
805172996,14405,vehicle,123.96259307861328,195.38973999023438,-0.6455960835121801,0.049883042026711316,3.064479226329895
1986857511,14405,vehicle,-2.347064256668091,155.8693084716797,0.0003534413665295149,3.666159612784767,1.5706999203634358
1279946346,14405,vehicle,125.38299560546875,2.0952224731445312,0.6019880611524784,0.009978015719431186,0.016573587994052074
74618890,14405,vehicle,287.3428955078125,198.75460815429688,6.0436723599904045,-0.0015612414243112746,-0.00025832660948304077
3085549129,14405,vehicle,392.5208435058594,162.75674438476562,0.010747790318961494,20.05828188003786,1.5702604987835727
2057201815,14405,vehicle,172.86764526367188,198.97474670410156,5.448349817663973,-0.0012130220788684333,-0.0002226402671306243
1015694095,14405,vehicle,66.94755554199219,330.46124267578125,-2.1681371128453268e-08,9.342493194074836e-12,-0.00043089952939340205
1250507297,14405,vehicle,219.85302734375,-1.9454959630966187,-5.547215665588305,-0.0017402746437360187,-3.141278933213382
4280502996,14405,vehicle,48.15279006958008,331.2244873046875,-0.004661991048346153,1.407932994961283e-06,-0.00030200250012427625
3428459672,14405,vehicle,66.85588836669922,2.0130631923675537,-1.004582499227696e-05,8.122409981961517e-09,-0.0008085357069480567
414519966,14405,vehicle,255.83872985839844,327.04534912109375,-5.7978582381675805,-2.4705008745111424e-05,-3.141588392532049
2866945113,14405,vehicle,294.2872314453125,330.4563903808594,-0.011925104760251376,5.297313977203771e-06,-0.00044421526982521694
1853482628,14405,vehicle,1.723864197731018,11.222302436828613,-0.000675628259667495,-5.6189169477534495,-1.5709165685181137
3880166169,14405,vehicle,335.50787353515625,296.0775451660156,0.0010719206882467331,5.563225642886104,1.5706036470900293
1073352953,14405,vehicle,372.0358581542969,-2.3772799968719482,4.2014880794718827e-07,-8.743284423915058e-10,3.1395116595140053
213556023,14405,vehicle,192.8568572998047,327.03082275390625,-5.550659147560352,-0.0005972049007351385,-3.141485061881754
1628590046,14405,vehicle,1.6713852882385254,90.61457061767578,-0.002505212411580756,-5.806735928854269,-1.5712277588914894
4120465129,14405,vehicle,313.6098937988281,133.22540283203125,1.5199985155204414e-07,5.666732191723023e-10,0.003728099652981454
1015227284,14405,vehicle,217.56011962890625,129.75250244140625,-8.694263700386777,-0.005381042529158562,-3.1409737349524587
2900396540,14405,vehicle,181.6448211669922,-1.9666792154312134,-0.0013252371502597451,-4.892012691329379e-06,-3.1379012460028344
3587539486,14405,vehicle,396.64471435546875,273.0210266113281,-0.0017402269102342496,-6.617155323081735,-1.571059313952542
1146849989,14405,vehicle,292.8302307128906,133.05938720703125,3.7511212598908097,-0.021444420645397273,-0.005716740555666792
1457681385,14405,vehicle,395.86053466796875,177.04994201660156,-0.0010544708112605625,-3.6661764058967083,-1.571083948192625
1726747598,14405,vehicle,115.30368041992188,129.74156188964844,-0.027832771854701913,0.00264665939214456,3.0467862493118445
367118466,14405,vehicle,392.48077392578125,299.0008850097656,0.001174053094375996,9.829419065931283,1.5706768840200065
2065705843,14405,vehicle,228.1179962158203,133.2193603515625,5.825696452387044,-0.0004313105543742024,-7.403587830420282e-05
3978545900,14405,vehicle,334.8546142578125,284.3041687011719,0.0005181338238721126,5.4959306472681275,1.5707020508923077
714679325,14405,vehicle,348.1505432128906,1.9333372116088867,5.713004129184471,-0.018075064871144384,-0.003163835375014135
3262285446,14405,vehicle,135.25091552734375,55.74652099609375,-5.9258927557483645,0.0009374274642781497,3.1414344618210426
1401880247,14405,vehicle,147.50584411621094,195.26898193359375,-5.945064067106696,-9.341271348733042e-05,-3.1415769409393617
2250339631,14405,vehicle,168.27305603027344,129.7334442138672,-5.5650157902819535,0.0001689540821604149,3.1415622935533665
2525145270,14405,vehicle,92.55052185058594,162.1929168701172,-0.0016451775048999854,-5.79778171085727,-1.5710800866090446
1825059061,14405,vehicle,313.6252136230469,2.0121774673461914,-0.0010112593068861305,6.323509318308835e-07,-0.0006253102889691864
346279610,14405,vehicle,110.9823226928711,194.9922637939453,2.339633669365437e-07,-1.1021781424690316e-09,3.136881787937552
893025708,14405,vehicle,395.93292236328125,260.35833740234375,-0.001869703583372676,-5.821407494699284,-1.5711175040223602
1724402154,14405,vehicle,88.61591339111328,284.49847412109375,3.71355214472584e-05,6.06267452228617,1.5707902015243893
2595182244,14405,vehicle,212.66329956054688,198.765625,5.550665358414296,-0.0004730341584677582,-8.522116300985829e-05
874453657,14405,vehicle,392.5587463378906,222.023193359375,0.027237781583166847,17.11732986107107,1.5692050880435742
1498616609,14405,vehicle,92.17969512939453,47.5667724609375,-0.00017725323378086074,0.029148041560828064,-1.5647152647618097
505512523,14405,vehicle,209.80230712890625,133.2207794189453,6.812395572016012,9.384174002762991e-05,1.3775145472640754e-05
3709073522,14405,vehicle,223.93167114257812,195.56829833984375,-5.320125767812215,-0.007673584731692595,-3.1401502855434065
27029540,14405,vehicle,1.4735267162322998,121.18437194824219,-0.0022141854459829867,-8.013614348648014,-1.5710726297579922
1375770528,14405,vehicle,338.90240478515625,267.9736022949219,0.005952815911104729,-8.050581638580962,-1.570056900118236
4266869573,14405,vehicle,12.090655326843262,-2.05722975730896,-3.666177988051198,2.9290867706782423e-06,3.141591854641466
368528135,14405,vehicle,2.5238840579986572,300.5052795410156,0.07093317024512209,-7.835669847596907,-1.5617439759336083
4012051816,14405,vehicle,338.9733581542969,228.75657653808594,4.2365933079516224e-10,1.4896614582834211e-07,-1.5736403165229922
3938307140,14405,vehicle,92.0828857421875,237.2819061279297,-0.0009898422846817089,-5.825696861098538,-1.5709662364724437
1966079641,14405,vehicle,18.65383529663086,331.2358093261719,5.600869248350531,0.01972674281526718,0.0035220713732988496
1759883367,14405,vehicle,-2.4152638912200928,252.60479736328125,0.0009336395836634095,9.80631347026449,1.5707011187859263
3487645883,14405,vehicle,149.98057556152344,129.77590942382812,-6.154490947356508,6.720064336516421e-05,3.141581734629324
544848518,14405,vehicle,92.24698638916016,35.24443817138672,7.834834085912552e-09,7.173687022976093e-06,-1.571888489157938
1325658571,14405,vehicle,128.57786560058594,129.74827575683594,7.801822198608577e-08,-9.052764869668217e-11,3.1404323143028456
921579549,14405,vehicle,117.53841400146484,55.81852340698242,-2.1760169355667682e-05,-2.0647889185482506e-08,-3.140643769293398
4072577581,14405,vehicle,92.40946960449219,295.494140625,-0.0022221473128669652,-6.884505866958997,-1.5711191019190143
94066344,14405,vehicle,298.6874694824219,133.2589874267578,-0.005301837023748882,1.658216503175744e-05,-0.003127616124114732
2853390219,14405,vehicle,299.9944152832031,330.51556396484375,0.006058761104159893,1.842570546433037e-06,0.0003041167093324332
2524564450,14405,vehicle,1.6177090406417847,74.20497131347656,-0.001323214860385338,-5.9291017963168775,-1.5710194996942453
1882516347,14405,vehicle,-2.155360460281372,67.90388488769531,0.014636060367171511,8.428405451618422,1.5690598126061104
815178544,14405,vehicle,209.3279571533203,330.42083740234375,5.824567445430579,-0.0031023523814661057,-0.000532632185506557
2188308515,14405,vehicle,118.51480102539062,199.2190704345703,5.86246104667501,-0.0034191769028915665,-0.0005832322787273532
1160083145,14405,vehicle,377.8957214355469,326.5159606933594,-5.556923269650733,0.13754317706799568,3.116846028108559
1832698586,14405,vehicle,156.73165893554688,326.9682922363281,-5.320126721485539,-0.007673586107241479,-3.1401502855434065
3748346955,14405,vehicle,131.11520385742188,1.9197338819503784,-0.9612058841387536,0.0001730455832945312,-0.0001800296734347112
3198444053,14405,vehicle,122.90326690673828,327.07525634765625,-2.8747110468599737,-0.0046769437123737045,-3.1399657284798637
808811405,14405,vehicle,338.9348449707031,221.6443634033203,-4.7028543755065827e-07,-0.0016472870976836707,-1.571081817663753
84250811,14405,vehicle,275.24127197265625,133.5638885498047,6.328276144827511,0.060127148535404136,0.009501061255750365
3956289865,14405,vehicle,88.6192398071289,306.89337158203125,1.5385893270977468e-10,1.4698645619350404e-07,1.5697495713284408
1912328786,14405,vehicle,365.2416687011719,-1.9526519775390625,1.3936339252634163e-08,1.4014521650209052e-11,-3.1405870439621792
4030311199,14405,vehicle,338.9559631347656,235.99578857421875,0.002165003646890058,-2.190045240300873,-1.5698077613982593
3147513812,14405,vehicle,392.4759216308594,267.6664123535156,0.0014434290162111468,13.49933711918011,1.57068940087713
1663586846,14405,vehicle,267.2499084472656,330.4181213378906,5.925929555394707,-0.0023546303194301806,-0.00039734360213053167
