id,timestamp_ms,agent_type,x,y,vx,vy,psi_rad
-1,34505,vehicle,392.2198791503906,306.496337890625,1.0565287912124808e-09,-4.934326057658058e-06,1.571010444946539
2985032057,34505,vehicle,13.621252059936523,-1.9649361371994019,-5.513131141449691,4.845177592455336e-05,3.141583865158196
3028941286,34505,vehicle,396.8883056640625,168.83786010742188,-0.0014092672185914638,-5.326329521663842,-1.571060911849196
2920337868,34505,vehicle,392.0353088378906,314.20721435546875,-1.0187651664230326e-11,-2.5899783423790423e-08,1.570402977901892
1503980471,34505,vehicle,114.96379852294922,2.032087564468384,-4.014919447811865e-09,6.950044631399338e-13,-0.00017310545460050517
2125414330,34505,vehicle,380.8680419921875,-1.5768165588378906,-4.125093734812547,-0.06394790747412737,-3.126091724464987
2396446624,34505,vehicle,141.33572387695312,327.0087585449219,-2.512988371720749e-08,3.00760772343526e-11,3.1403958289959117
4076155829,34505,vehicle,94.91012573242188,-1.9283018112182617,-5.521670434297814,-0.010715618257432228,-3.1396520081034525
130361148,34505,vehicle,92.38613891601562,226.82598876953125,-1.4407399969670935e-10,-2.4199893263814347e-07,-1.5713916764565838
3417340120,34505,vehicle,268.4902648925781,330.4994201660156,-2.7550938914880413e-09,3.697979965286325e-12,-0.0013422329293256109
2197730220,34505,vehicle,179.8287811279297,-1.939277172088623,-4.250967498686445,-0.00018226828103924095,-3.141549776696243
118743835,34505,vehicle,334.71221923828125,108.75579071044922,1.5928547179084478e-11,7.59692504359725e-09,1.5686996200686771
904053063,34505,vehicle,178.70040893554688,55.8249397277832,-2.4516895553693725e-08,3.8241814462506345e-11,3.140032840139334
1291681130,34505,vehicle,113.09465789794922,195.61886596679688,1.9681733217021433e-08,7.673162378230431e-11,-3.1376940520700263
715062232,34505,vehicle,338.9866638183594,22.499813079833984,7.148321217953793e-10,-3.020643714634762e-07,-1.5684298418502522
220877689,34505,vehicle,92.90675354003906,91.65116119384766,-5.694143660746933e-06,-0.01069057208647259,-1.5713289590129125
2069714320,34505,vehicle,39.0558967590332,331.1793212890625,2.5203521911622495,-0.0014390750662779575,-0.0005709816726944074
3190467641,34505,vehicle,105.39356231689453,-2.7368874549865723,-6.236853584940141,-0.00042687046752036697,-3.141524210349778
708315452,34505,vehicle,88.7216796875,110.18057250976562,-0.005841434871389674,3.665474051799606,1.5723899623912
1314594676,34505,vehicle,88.624755859375,183.5804443359375,-0.012439521018319084,2.7366584346764644,1.5753418101434438
2302084468,34505,vehicle,344.0438537597656,330.5407409667969,7.893162564536507,0.23838123449986526,0.030191801628010568
757051778,34505,vehicle,334.7021484375,277.18560791015625,-0.00014619503943711276,5.934627531158283,1.57082096103498
4203008516,34505,vehicle,112.88423919677734,55.693016052246094,-2.027247485814625e-08,-4.81743560275765e-11,-3.1392163149491155
2631691725,34505,vehicle,334.72576904296875,289.8300476074219,0.00043207765852233085,5.444375974675972,1.5707169645944121
1513387753,34505,vehicle,339.01324462890625,29.555875778198242,1.0770894205311008e-10,-3.43560041797644e-08,-1.5676612535596552
156273220,34505,vehicle,92.51573181152344,80.52529907226562,-1.1170735661975472e-09,-7.217027923165965e-07,-1.5723441560204507
3812119762,34505,vehicle,109.01224517822266,2.0952491760253906,-1.1632101143220369e-05,6.562482860508317e-08,-0.0056416404532238585
3616050434,34505,vehicle,242.1878662109375,326.41485595703125,-6.097409720951156,-0.00022733738057262813,-3.141555369334532
2942158310,34505,vehicle,88.58429718017578,42.48784637451172,-0.0001544269835790608,4.141881939870176,1.5708336110501577
3608800298,34505,vehicle,247.59524536132812,133.20985412597656,6.936260119464405,-0.0012007045859469276,-0.00017310547085515047
1146464971,34505,vehicle,60.19769287109375,2.5480518341064453,1.1296811419075762e-06,-9.603206552058197e-10,-0.0008500809549347115
3013099654,34505,vehicle,-2.3733859062194824,181.4200897216797,-0.003035971857991229,1.998224693909342,1.5723156601967867
2246582517,34505,vehicle,88.62953186035156,118.91850280761719,0.06926635925520717,5.883735170178028,1.5590243558284194
3192940987,34505,vehicle,338.8718566894531,243.25213623046875,-0.001540017137162599,-3.9839240912326517,-1.5711828846271216
828836647,34505,vehicle,247.02291870117188,330.78369140625,10.720126589093082,0.0280724869695693,0.0026186652338545733
1702089089,34505,vehicle,396.0155029296875,29.176883697509766,-0.0009382441452619817,-6.729793483180634,-1.5709357432779623
2111029583,34505,vehicle,66.2973861694336,330.4444885253906,5.686839562106923,0.0004578265512011977,8.050632433218816e-05
420096522,34505,vehicle,88.089111328125,167.39566040039062,0.002352981453447995,4.635516523176383,1.5702887282911275
510102133,34505,vehicle,249.09068298339844,1.8595951795578003,7.561100345480827,-0.00144176815643118,-0.00019068231779502813
4109025732,34505,vehicle,297.7697448730469,1.961592674255371,-0.7231163705193882,0.08287298938284227,-0.11410748950835156
2913592560,34505,vehicle,308.85247802734375,1.6725257635116577,0.001646129733423424,-3.1564142704826656e-07,-0.00019174759848570515
3970347779,34505,vehicle,157.17079162597656,54.96173858642578,3.048046316748982,-5.223761777165247,-1.0426002027858212
1933996401,34505,vehicle,371.8877258300781,-2.2723066806793213,-4.954257346890146,-0.0011835005125773867,-3.141353768040013
3047764241,34505,vehicle,53.26544952392578,2.046077251434326,-1.9494729175066976e-08,-8.803211548342935e-12,0.00045156877384246126
1260711767,34505,vehicle,338.9886169433594,72.76611328125,-0.0019422782785218245,-6.53506345496023,-1.5710935355725495
3957993155,34505,vehicle,335.0718994140625,33.63330078125,2.73714167972853e-10,-3.9116234889216843e-07,1.571496072371315
4289594148,34505,vehicle,-2.40238618850708,188.5519256591797,0.0009373318723968247,3.31258474440004,1.5705133659290758
4139896837,34505,vehicle,112.17839813232422,129.49009704589844,-1.2565599909019333e-06,1.7264200284984305e-09,3.140218728783421
1686932955,34505,vehicle,156.3592529296875,-1.9638592004776,-6.097094471841542,0.0008833224411215216,3.141447777626493
1726501337,34505,vehicle,360.8433532714844,-2.410858631134033,-5.269575753111096,0.0076582113651331605,3.140139366582937
1682591593,34505,vehicle,283.0916442871094,330.45709228515625,3.1672843968893774,-0.0007625229297067537,-0.0002407497462885178
3380823586,34505,vehicle,368.77252197265625,326.3265380859375,1.5910836072174126e-08,-5.130978831369949e-11,3.1383678318258164
4176583038,34505,vehicle,302.4993591308594,1.9665971994400024,-1.595152447307511e-07,8.385842712874664e-11,-0.000525707869144479
3855978784,34505,vehicle,324.4884338378906,330.515380859375,7.916860068796249,-0.156002901241177,-0.01970259837662422
1042098875,34505,vehicle,115.55671691894531,-1.9537745714187622,-4.508363718400789,0.00021971892885057435,3.1415439177418447
644930681,34505,vehicle,88.63328552246094,174.9304656982422,0.0018006267520795276,3.680586851263787,1.570307104102649
2234188147,34505,vehicle,335.1614074707031,13.108835220336914,-0.040695490803924664,5.834870044789972,1.5777707462156505
4109707537,34505,vehicle,2.608236312866211,195.85079956054688,-0.0,-0.0,-1.5721131267958863
3675841917,34505,vehicle,183.96047973632812,55.834129333496094,-0.01740819956857931,-0.00013878875031725883,-3.133620214550532
2817926641,34505,vehicle,92.3817367553711,28.030834197998047,5.1211722257936227e-05,-0.003466771799168335,-1.5560252369668266
4029506115,34505,vehicle,-2.5322909355163574,175.67465209960938,-0.10763367225996769,2.634428151183657,1.6116301763149181
3277167701,34505,vehicle,88.9483413696289,51.53176498413086,0.16843138546773403,2.7320428214335686,1.5092239092342101
518241310,34505,vehicle,-2.7392232418060303,139.01687622070312,-0.0768042697500223,9.976974505237553,1.5784943270838252
778540568,34505,vehicle,338.9315185546875,42.95616912841797,-1.7719380803972676e-06,5.81560837852324e-05,-1.5403370876173879
657465635,34505,vehicle,1.774843692779541,22.03321075439453,-0.0016468107450009978,-5.725619556109227,-1.571083948192625
835227171,34505,vehicle,157.82037353515625,44.89149475097656,-0.08874212424378357,-7.565034615984414,-1.582526352974205
715280319,34505,vehicle,92.39908599853516,161.5304412841797,-3.951179588123353e-10,-6.811949324450344e-07,-1.571376363280316
3020211281,34505,vehicle,248.74595642089844,59.60417175292969,5.572564565698285,-0.0006351792263389403,-0.00011398328652806874
2101598167,34505,vehicle,187.04458618164062,-1.961731195449829,-3.1023094654029344,-5.783364900024959e-06,-3.1415907893770303
14974470,34505,vehicle,338.9898681640625,36.57738494873047,1.7127190765781882e-09,-3.618773234031262e-07,-1.5660634900636623
1398818972,34505,vehicle,218.390380859375,133.65524291992188,5.73213707116256,-0.0012304077344172195,-0.0002146507838603866
2694688339,34505,vehicle,2.2924516201019287,202.7272186279297,-7.524856481251151e-05,-0.38105671854905654,-1.570993800189726
3916750283,34505,vehicle,116.79842376708984,326.9374694824219,-2.0392421647609998e-06,9.731035746953042e-09,3.136820801548589
1983197581,34505,vehicle,1.7149327993392944,1.3550379276275635,-4.559084963602514,3.5407784528687793,2.481257333930793
2942851653,34505,vehicle,339.00457763671875,166.49380493164062,0.0008256316519144375,-5.821960867513122,-1.57065451346685
3949181016,34505,vehicle,88.5040283203125,130.23956298828125,-0.06780570491744954,5.769909618518127,1.5825473919468167
3672416715,34505,vehicle,338.8658447265625,251.97406005859375,-0.0024021657795141593,-3.984969368752827,-1.571399133307636
3325384226,34505,vehicle,190.06936645507812,55.8415412902832,-0.006708470611884975,2.570879810749407e-06,3.1412094247089306
1359910869,34505,vehicle,238.56204223632812,59.60573959350586,5.06293605313032,-0.002718256089934028,-0.0005368931782321025
2262630317,34505,vehicle,75.888916015625,331.50054931640625,5.2963809961150945,-7.898864303287902e-05,-1.4913701088528401e-05
805172996,34505,vehicle,92.12152099609375,167.52081298828125,-3.6012494263691295e-05,-0.01176629944275635,-1.5738569646776701
1986857511,34505,vehicle,-2.4889984130859375,196.65921020507812,0.00623128410714369,2.151936807560519,1.5679006717416535
1279946346,34505,vehicle,128.8397216796875,2.6886422634124756,0.45857702176747245,-0.01600726055961652,-0.034892206050594766
74618890,34505,vehicle,334.70050048828125,265.2303466796875,-0.0001106014081285848,5.890797614012983,1.5708151020805816
3085549129,34505,vehicle,391.97674560546875,320.9991455078125,-2.9655131159817475e-09,1.097909581642656e-08,1.8346064012170558
2057201815,34505,vehicle,288.22808837890625,198.9768524169922,5.66301482120672,-0.0008747281169204185,-0.0001544633269699505
1015694095,34505,vehicle,86.5176773071289,330.5256652832031,5.8495569205167675,0.044627427473980935,0.00762904990397936
1250507297,34505,vehicle,194.97317504882812,-1.945372462272644,-2.978767829797562,-0.0005005684291538734,-3.1414246081250092
4280502996,34505,vehicle,56.63011169433594,331.22454833984375,3.8743399627234574,-0.0008563932403642152,-0.00022104235422193145
3428459672,34505,vehicle,66.85588836669922,2.013062000274658,-1.9923139998157842e-07,1.6108573593255022e-10,-0.0008085357069480567
414519966,34505,vehicle,148.39024353027344,327.0502624511719,0.042282183957261917,1.4514690601735053e-05,-3.141249372125282
2866945113,34505,vehicle,299.45849609375,330.4564514160156,3.914775306220416,-0.0007152014688113625,-0.00018269285077943573
1853482628,34505,vehicle,46.39568328857422,2.5198090076446533,2.0148241684853773e-07,-4.924741743011027e-10,-0.0024442489884003997
3880166169,34505,vehicle,257.6868591308594,326.41986083984375,-5.551512718199896,-2.956914532401099e-06,-3.1415921209575752
1073352953,34505,vehicle,349.38916015625,-2.3212058544158936,-5.25216468681298,0.19368958974558997,3.1047313083097885
213556023,34505,vehicle,134.5973358154297,327.0172119140625,-0.0,0.0,3.139771850352506
1628590046,34505,vehicle,31.04421043395996,2.34623122215271,3.443688588898944,0.008322125282764789,0.0024166264943205834
4120465129,34505,vehicle,336.6348876953125,58.67998504638672,-3.810626645986726,-5.838078137178919,-2.1490808516910462
1015227284,34505,vehicle,117.51129913330078,129.7515106201172,0.00019833525510711255,-1.7113639030313633e-08,3.1415063671704746
2900396540,34505,vehicle,167.81817626953125,-1.898538589477539,-4.632873454083814,0.12114567870215176,3.1154494664329215
3587539486,34505,vehicle,396.6097717285156,156.02626037597656,-0.0020079571464888153,-7.635190699711645,-1.571059313952542
1146849989,34505,vehicle,334.4200744628906,168.25091552734375,0.06085086276096777,0.6358677883064116,1.4753895128491894
1457681385,34505,vehicle,395.8148498535156,15.844901084899902,-0.001364285792026535,-4.743338865538166,-1.571083948192625
1726747598,34505,vehicle,92.2235107421875,85.52851104736328,0.0007748138810638967,0.009402754210816574,-1.6530134359678228
367118466,34505,vehicle,375.0947570800781,326.35400390625,-7.112617515241953e-08,5.211997302526949e-10,3.13426496585044
2065705843,34505,vehicle,311.215087890625,133.19998168945312,-7.508749373980382e-10,-3.705326000356399e-13,0.0004934677554206829
3978545900,34505,vehicle,396.8035888671875,316.64093017578125,0.33595239277657735,-6.028152428198117,-1.5151233436809537
714679325,34505,vehicle,392.1191711425781,136.30987548828125,-6.0158284853233345e-06,22.589052200316583,1.5707965931110055
3262285446,34505,vehicle,88.3148193359375,100.07634735107422,0.0023350216940101346,4.792488006140831,1.5703091014734667
1401880247,34505,vehicle,92.49676513671875,174.20468139648438,-1.9174366847693898e-10,-2.036732759161694e-07,-1.5717377542402395
2250339631,34505,vehicle,92.39317321777344,111.54769134521484,8.572760214089787e-09,3.02539162153553e-05,-1.571079687134881
2525145270,34505,vehicle,92.51905822753906,154.5819549560547,1.996907356143523e-08,-2.3344514019517975e-05,-1.5699409194527632
1825059061,34505,vehicle,313.625732421875,2.0121846199035645,2.140270546464253e-07,-1.3383332291596256e-10,-0.0006253102239506051
346279610,34505,vehicle,88.1748046875,284.0329895019531,-0.0007781527771370756,5.879102655411376,1.5709286859010736
893025708,34505,vehicle,395.88604736328125,144.89349365234375,-0.0018697046554173125,-5.821410832559219,-1.5711175040223602
1724402154,34505,vehicle,21.89590072631836,326.5322265625,-6.04632307325768,-0.0016537095732479178,-3.141319146945842
2595182244,34505,vehicle,313.6766662597656,198.77235412597656,-4.3436092673187496e-06,1.074181595273353e-08,-0.002473011128173255
874453657,34505,vehicle,388.6775817871094,324.7012939453125,-5.844357019770585e-07,3.533879779175942e-07,2.597749858965257
1498616609,34505,vehicle,47.84668731689453,-1.962105631828308,-5.7446837247945695,-0.00045132103696341787,-3.141514090337636
505512523,34505,vehicle,305.4904479980469,133.20277404785156,-0.44404613456499425,6.764279068605981e-05,-0.0001523327980978871
3709073522,34505,vehicle,118.92913818359375,195.5609130859375,-0.017408540452641324,-1.141890006380847e-05,-3.1409367170133065
27029540,34505,vehicle,11.503644943237305,2.8173162937164307,6.5862432512802425,-1.4011358472667437,-0.20961188334087494
1375770528,34505,vehicle,338.9435729980469,234.4265899658203,0.00857465761028659,-1.1243227384946346,-1.5631699655392912
4266869573,34505,vehicle,-1.500001072883606,157.17971801757812,0.0003748586495015647,6.160045135536459,1.5707354735639882
368528135,34505,vehicle,2.616412401199341,208.821044921875,-0.09077055656424884,-1.0477651325293884,-1.6572131078488233
4012051816,34505,vehicle,338.96832275390625,219.52210998535156,-0.0010588975206103919,-2.7882836238536055,-1.571176093566342
3938307140,34505,vehicle,92.14663696289062,219.810791015625,1.2558533830951867e-10,-2.275869437891154e-08,-1.5652782570162525
1966079641,34505,vehicle,47.181556701660156,331.23876953125,4.899826883199303,-0.001085679252260189,-0.00022157501894923794
1759883367,34505,vehicle,30.241756439208984,331.1674499511719,3.5172045178958866,-0.00019108436884793362,-5.43284781102938e-05
3487645883,34505,vehicle,92.42707824707031,105.2142333984375,-2.2342496809625876e-09,2.146465905275622e-06,-1.5697554302828391
544848518,34505,vehicle,121.5501708984375,2.092907428741455,-0.004725756928653472,-7.349047699541518e-06,0.0015551036344671452
1325658571,34505,vehicle,92.39752960205078,98.92157745361328,-2.3876985625385272e-11,2.3348061850593896e-07,-1.5706940614090374
921579549,34505,vehicle,92.29705810546875,22.44706916809082,-2.5032145070719437e-07,-7.38364082775108e-05,-1.5741865308625675
4072577581,34505,vehicle,92.38365936279297,233.42498779296875,-4.783254740654379e-11,-8.216292031075417e-08,-1.571378493809188
94066344,34505,vehicle,334.482177734375,173.806396484375,0.0,0.0,1.5706803461294236
2853390219,34505,vehicle,306.4687805175781,330.5145263671875,3.421615063611846,-0.0006415067239252978,-0.00018748652448693305
2524564450,34505,vehicle,39.81760787963867,2.0300514698028564,-0.00011143646135609662,1.4725894234339834e-07,-0.0013214602728229927
1882516347,34505,vehicle,-2.140875816345215,167.72915649414062,0.0016352655519007923,2.604036056143698,1.5701683534098558
815178544,34505,vehicle,275.25341796875,330.3910217285156,0.026772389122994986,3.605630512972496e-05,0.001346771226300404
2188308515,34505,vehicle,233.81529235839844,199.20016479492188,5.750451313534935,-0.0016998960284503302,-0.0002956108809987954
1160083145,34505,vehicle,362.8746032714844,326.56072998046875,0.5438555685550718,-0.0006054209954007192,3.14047945225414
1832698586,34505,vehicle,127.3373794555664,326.9634094238281,-0.0013252205880596199,-5.926399607804219e-06,-3.137120673487332
3748346955,34505,vehicle,134.84469604492188,1.9186655282974243,-0.9612058772407549,0.00020785949027204984,-0.00021624866425978882
3198444053,34505,vehicle,121.44585418701172,326.69384765625,-0.017500569240777725,0.0034024673976753065,2.949567820034611
808811405,34505,vehicle,338.9929504394531,210.7132568359375,-0.005849836669363788,-2.736310189443078,-1.5729341793599576
84250811,34505,vehicle,339.1470947265625,83.5015869140625,0.02748526591709603,-7.645945738901005,-1.5672015919555076
3956289865,34505,vehicle,2.582984209060669,316.09716796875,-0.5414676551603012,-7.278472015219647,-1.6450525816793036
1912328786,34505,vehicle,338.3440246582031,0.5307191014289856,-4.638351617296038,3.1350658247942724,2.5472243667642736
4030311199,34505,vehicle,338.9558410644531,227.56744384765625,-0.0005693298744673447,-2.8676020533920625,-1.570994865454162
3147513812,34505,vehicle,382.0475769042969,326.14154052734375,2.9172376469501734e-07,-3.456614889039583e-08,3.023653233135089
1663586846,34505,vehicle,291.29010009765625,330.4098815917969,3.1519813420259672,-0.0002719732100545009,-8.628642744588998e-05
