id,timestamp_ms,agent_type,x,y,vx,vy,psi_rad
-1,23316,vehicle,392.2147216796875,186.18966674804688,0.0007374097239347048,21.975606905962763,1.5707627709651617
2985032057,23316,vehicle,79.0453872680664,-1.8126205205917358,-7.075869888501725,-0.5765725800294044,-3.060287943406328
3028941286,23316,vehicle,396.91241455078125,233.2327117919922,-0.0016861118299636034,-5.808479064355915,-1.5710866113537152
2920337868,23316,vehicle,392.0250549316406,257.4704895019531,0.006488580003412988,16.406870512604346,1.5704008473730198
1503980471,23316,vehicle,92.20503997802734,13.161592483520508,0.10015580001818047,-6.2202139364052424,-1.554696053266768
2125414330,23316,vehicle,391.55084228515625,0.3841674029827118,1.1735643563886655e-06,1.0788440351281463e-06,-2.3982226343032123
2396446624,23316,vehicle,180.16665649414062,327.015625,-5.542546272206877,-2.8045317787270345e-05,-3.141587593583722
4076155829,23316,vehicle,112.6908187866211,-1.9307178258895874,-3.127263615025755e-06,-4.897103225463891e-10,-3.1414360597176967
130361148,23316,vehicle,92.38613891601562,226.8263397216797,4.0990671038070004e-07,0.0006885141427472126,-1.5713916764565838
3417340120,23316,vehicle,233.20619201660156,330.4930725097656,5.899168261031806,0.0016484936105777917,0.0002794450835649523
2197730220,23316,vehicle,188.16998291015625,-1.9401477575302124,-2.3385030322493236e-07,1.1048136266735593e-10,3.141120208812413
118743835,23316,vehicle,334.696044921875,73.4632339477539,0.04191438287140862,5.911994174850496,1.5637067256569968
904053063,23316,vehicle,178.70040893554688,55.8249397277832,1.894678196484338e-08,-2.9553469319729576e-11,3.140032840139334
1291681130,23316,vehicle,139.55044555664062,195.61181640625,-5.569968188894448,0.000621532977576927,3.141481067140119
715062232,23316,vehicle,338.9867248535156,34.23928451538086,0.006224471306879627,-6.098495644734759,-1.5697756703071237
220877689,23316,vehicle,92.88473510742188,106.55464935302734,0.09892201179651346,-8.420034128109489,-1.5590484574362846
2069714320,23316,vehicle,20.016677856445312,331.1857604980469,5.846417537927702,-0.009668948823071228,-0.001653823036939207
3190467641,23316,vehicle,118.26350402832031,-2.5223748683929443,-0.010925983147028077,-0.001765295945168468,-2.9814083077114892
708315452,23316,vehicle,88.75428771972656,99.76042938232422,3.559091769212691e-05,0.011901966167181375,1.5678059963649011
1314594676,23316,vehicle,88.64353942871094,172.722900390625,1.589914511768331e-07,0.0016469041507314749,1.5706997872053812
2302084468,23316,vehicle,312.625,330.2494201660156,-0.01047726805103993,0.0013403528399955178,-0.12723848822385306
757051778,23316,vehicle,334.63238525390625,212.00021362304688,0.319003549338521,7.054588266559267,1.525607809418432
4203008516,23316,vehicle,132.44924926757812,55.68952941894531,-5.842069037033945,0.0035286389594322318,3.140988648654563
2631691725,23316,vehicle,334.7253112792969,225.46560668945312,0.0024269628401344862,5.873728727575669,1.5703831373517707
1513387753,23316,vehicle,333.06365966796875,57.48310852050781,5.3722604720626626,-2.130189287529738,-0.37749965569882854
156273220,23316,vehicle,92.51573181152344,80.52529907226562,2.2545437730660772e-10,1.4565831523167913e-07,-1.5723441560204507
3812119762,23316,vehicle,92.36406707763672,36.16748809814453,-0.012054735196399602,-4.474781488417929,-1.5734902473955663
3616050434,23316,vehicle,307.2973327636719,326.4344177246094,-5.570775506490241,0.00016319459832233842,3.1415633588178022
2942158310,23316,vehicle,88.5938949584961,25.917118072509766,1.944766455930134e-10,9.841609006552618e-07,1.5705987202420126
3608800298,23316,vehicle,170.42860412597656,133.2294921875,7.069899491228003,-0.0009790706305209367,-0.0001384843766841204
1146464971,23316,vehicle,60.19769287109375,2.5480520725250244,1.2870329481482365e-08,-1.0940824611360217e-11,-0.0008500809549347115
3013099654,23316,vehicle,-2.3938350677490234,147.74038696289062,0.000752687666556644,5.821409176803938,1.5706670303239731
2246582517,23316,vehicle,88.6150894165039,105.10009765625,-1.5642434252058195e-11,-1.1471941867505162e-07,1.5706599729470845
3192940987,23316,vehicle,338.87396240234375,250.97879028320312,-0.004593420309685566,-3.9925908845079787,-1.571946812385811
828836647,23316,vehicle,100.19193267822266,330.5167541503906,5.756422536323534,0.7415959923624657,0.12812360645689772
1702089089,23316,vehicle,396.0465393066406,122.8648681640625,0.0014344188781583438,-7.6453531826981225,-1.5706087070961006
2111029583,23316,vehicle,54.97208023071289,330.44464111328125,0.006475481956634797,-2.890304357823871e-06,-0.0004463457986972803
420096522,23316,vehicle,103.93671417236328,129.73280334472656,-5.830955580875865,0.1697852243180375,3.112482971294682
510102133,23316,vehicle,184.67044067382812,1.871520757675171,9.588802927765514,-0.0026404772555492302,-0.0002753708892234839
4109025732,23316,vehicle,259.309814453125,1.8528927564620972,6.761077143900061,-0.004051313939628537,-0.0005992112452678286
2913592560,23316,vehicle,296.7069396972656,1.9258649349212646,4.7649239617811086,-0.0009136628152882604,-0.00019174761474035048
3970347779,23316,vehicle,128.5636749267578,59.03213882446289,-0.01048843197934051,0.0013116365121745841,-0.1244096785139709
1933996401,23316,vehicle,385.673828125,-2.1186752319335938,-6.548789798920536e-09,-8.789068579906613e-10,-3.008180799833947
3047764241,23316,vehicle,53.26544952392578,2.046077251434326,4.976313253691653e-08,2.2471478269674326e-11,0.00045156877384246126
1260711767,23316,vehicle,338.6603698730469,121.20082092285156,0.755476424053757,-5.577362288131131,-1.4361616826245402
3957993155,23316,vehicle,335.0718994140625,33.63330078125,4.2682816084508627e-10,-6.099761192706956e-07,1.571496072371315
4289594148,23316,vehicle,-2.404229164123535,181.41079711914062,1.9745256263102573e-08,-2.0753577402802826e-05,1.5717477410943275
4139896837,23316,vehicle,150.20263671875,129.48883056640625,-5.699624528549847,0.0003354563042085668,3.1415337977297026
1686932955,23316,vehicle,175.89035034179688,-1.9625648260116577,3.5922435363900507e-07,-1.8511611054243953e-10,3.1410773319188627
1726501337,23316,vehicle,378.8957214355469,-2.4053616523742676,-7.330651670321828e-05,-2.0672648493914638e-07,-3.1387726323115084
1682591593,23316,vehicle,281.6020202636719,330.4570617675781,1.0445175523022108e-07,-4.417368906863057e-11,-0.0004229099485952924
3380823586,23316,vehicle,368.77252197265625,326.3265380859375,-2.152518197708341e-07,6.941511594035876e-10,3.1383678318258164
4176583038,23316,vehicle,268.6575012207031,1.982896089553833,5.557440049335803,-0.0016043588625916476,-0.0002886866621645894
3855978784,23316,vehicle,305.56915283203125,330.5410461425781,-7.642781340913919e-09,-1.6488200639673575e-12,0.0002157356026347445
1042098875,23316,vehicle,148.08265686035156,-1.5719468593597412,-5.860796117482694,-1.0446937196850679,-2.96519418404676
644930681,23316,vehicle,88.63038635253906,165.76617431640625,-8.80459538776084e-10,3.4167652774585007e-07,1.5733732014656572
2234188147,23316,vehicle,358.0129699707031,-1.9548426866531372,-2.2827800754146507e-08,-1.937508774545543e-11,-3.140743904150385
4109707537,23316,vehicle,2.608433723449707,196.40341186523438,3.579873472265639e-07,0.00019815997480659699,-1.572602882120352
3675841917,23316,vehicle,183.96047973632812,55.83407974243164,-0.017441295441357293,-0.0001365116929997973,-3.1337658894621594
2817926641,23316,vehicle,95.28836822509766,54.35550308227539,-6.557031327444832,-4.338181419133342,-2.5571006996668326
4029506115,23316,vehicle,-2.335872173309326,137.43557739257812,-0.0013550516856098021,4.080298675600496,1.5711284229828295
3277167701,23316,vehicle,88.64314270019531,33.248138427734375,1.5903224761196816e-07,0.0016473267383477373,1.5706997872053812
518241310,23316,vehicle,-2.6382429599761963,44.14494705200195,-0.030329959945234335,4.3110567352366385,1.5778315994465588
778540568,23316,vehicle,296.8784484863281,59.31914520263672,6.192415681544953,-0.000636568011086655,-0.00010279800994973593
657465635,23316,vehicle,1.7145638465881348,86.815673828125,-0.0009865929635028171,-5.583411606407145,-1.5709730275332234
835227171,23316,vehicle,134.6495819091797,59.32780456542969,4.502650599895356e-08,9.338520580983933e-12,0.00020740051309560257
715280319,23316,vehicle,92.4146499633789,179.8323516845703,-0.03632643146161165,-5.720463807362612,-1.577146501256136
3020211281,23316,vehicle,184.40257263183594,59.61762619018555,5.629196557399646,-0.0009864378049933866,-0.00017523598347256856
2101598167,23316,vehicle,193.7311248779297,-1.9614672660827637,2.364300316941117e-08,-1.1100752545970242e-11,3.141123138289612
14974470,23316,vehicle,320.9117736816406,59.32421875,6.111752922768059,-0.000885445899645644,-0.0001448759307910199
1398818972,23316,vehicle,155.07720947265625,133.6725616455078,5.627320995636858,-0.001669492134031324,-0.0002966761779441178
2694688339,23316,vehicle,2.2927446365356445,203.62319946289062,3.024284491749782e-08,0.00011623331708871802,-1.5710565176333973
3916750283,23316,vehicle,116.79842376708984,326.9374694824219,1.4735591579999287e-06,-7.031659647655382e-09,3.136820801548589
1983197581,23316,vehicle,65.69403076171875,-1.9340462684631348,-5.909047453589727,-0.0036115834863867835,-3.14098145811962
2942851653,23316,vehicle,300.9039306640625,198.7694854736328,5.667023150237273,0.0005991994988772204,0.00010573443600969962
3949181016,23316,vehicle,88.6303482055664,112.13860321044922,-2.5779037167473426e-10,9.927025169634535e-08,1.5733931751738328
3672416715,23316,vehicle,338.8716735839844,268.68902587890625,-0.0011380299083417972,-5.564101102796178,-1.5710008575666148
3325384226,23316,vehicle,190.06895446777344,55.841522216796875,0.00019797258023815964,-7.11237175727625e-08,3.1412333931587413
1359910869,23316,vehicle,167.39512634277344,59.740760803222656,6.76654241799021,0.007200740817437162,0.0010641680276952206
2262630317,23316,vehicle,60.94062423706055,331.0295104980469,0.010999384125536518,0.0017984844113824886,0.1620735590660926
805172996,23316,vehicle,92.56678771972656,190.93431091308594,-1.485888940595278,-3.405359943761595,-1.9822312793945462
1986857511,23316,vehicle,-2.3421471118927,188.37362670898438,1.851396885402204e-07,0.0016434697795685916,1.5706836750807862
1279946346,23316,vehicle,126.67787170410156,2.2937347888946533,0.029124038355229816,-0.0011056807442188894,-0.037946317108103034
74618890,23316,vehicle,331.0689697265625,200.72874450683594,5.279032288879728,2.8832163226262697,0.49989317978717657
3085549129,23316,vehicle,392.5226135253906,303.7093200683594,-0.005414353020883714,9.542618169184829,1.571363713265138
2057201815,23316,vehicle,224.08364868164062,198.97567749023438,5.91357932157198,-0.0012977021312145388,-0.00021944444131323857
1015694095,23316,vehicle,66.94755554199219,330.46124267578125,-1.819235366656789e-07,7.839077118654434e-11,-0.00043089952939340205
1250507297,23316,vehicle,199.7627716064453,-1.94624924659729,-3.6406472260431425e-07,-4.624818014485593e-10,-3.140322325749825
4280502996,23316,vehicle,48.153709411621094,331.2244567871094,1.9526841474803153e-08,-5.897153854597665e-12,-0.00030200243510569496
3428459672,23316,vehicle,66.85588836669922,2.01306414604187,-3.077552850256551e-07,2.4883119116802507e-10,-0.0008085357069480567
414519966,23316,vehicle,205.58384704589844,327.0446472167969,-5.524124612777153,0.000325127105708012,3.1415337977297026
2866945113,23316,vehicle,294.2904968261719,330.4563903808594,-2.1156299068044014e-09,9.397951029394938e-13,-0.00044421523731592627
1853482628,23316,vehicle,46.21219253540039,2.5203921794891357,1.8166509774888402,-0.003295672274594903,-0.0018141452045248145
3880166169,23316,vehicle,319.5441589355469,326.4162292480469,-5.558352861893403,0.02022662026053701,3.137953710276309
1073352953,23316,vehicle,372.0358581542969,-2.3772799968719482,-5.028603525465315e-09,1.0464509251629658e-11,3.1395116595140053
213556023,23316,vehicle,140.46612548828125,327.01678466796875,-5.667013393532334,-0.001688813824497871,-3.1412946458638134
1628590046,23316,vehicle,1.6556544303894043,40.1029167175293,-0.0008528406722165807,-5.5260781583725995,-1.5709506569800666
4120465129,23316,vehicle,338.9856872558594,108.264404296875,0.006311707723037503,-6.095692227917222,-1.5697608897630737
1015227284,23316,vehicle,161.21478271484375,129.75106811523438,-2.4039264840629824,0.0007810493315269696,3.1412677479368036
2900396540,23316,vehicle,181.6448211669922,-1.9665241241455078,-0.0013252259145934814,-5.153495369027104e-06,-3.1377039057660596
3587539486,23316,vehicle,396.6287536621094,219.21080017089844,-0.0016465035741490216,-5.967679273441792,-1.5710722302838287
1146849989,23316,vehicle,321.4034729003906,133.1627960205078,4.655860868036524,-0.0005530091551444493,-0.00011877699274485669
1457681385,23316,vehicle,395.8409423828125,104.86138153076172,-0.0032250247136166896,-11.212742341687896,-1.571083948192625
1726747598,23316,vehicle,92.40653991699219,88.83950805664062,0.00394326090118414,-0.6263853767146942,-1.5645011466101673
367118466,23316,vehicle,375.0947570800781,326.35400390625,1.5054301547919044e-05,-1.1031519534269828e-07,3.13426496585044
2065705843,23316,vehicle,279.2344970703125,133.20753479003906,5.630228518346359,-0.00011095710941022094,-1.9707390034755696e-05
3978545900,23316,vehicle,339.0367126464844,327.7639465332031,4.541762973345551,5.314513374389977,0.8636399720112132
714679325,23316,vehicle,391.9287109375,12.524633407592773,0.6316877319132677,5.637347693235027,1.4592077465917044
3262285446,23316,vehicle,104.75086975097656,55.75599670410156,-4.871545245005014,0.004389007194280869,3.1406917061930195
1401880247,23316,vehicle,102.9849853515625,195.22328186035156,-5.597776267504941,-0.16541416123841376,-3.1120512728819802
2250339631,23316,vehicle,125.24796295166016,129.73350524902344,-5.10343456072564,-0.00014134919085454533,-3.1415649567144563
2525145270,23316,vehicle,92.53953552246094,154.5819549560547,0.0,-0.0,-1.5699313320728387
1825059061,23316,vehicle,313.625732421875,2.0121803283691406,8.894820064556296e-07,-5.562022651508877e-10,-0.0006253102239506051
346279610,23316,vehicle,88.17293548583984,219.95755004882812,-0.012370517979248284,5.9399537972440095,1.5728789187673387
893025708,23316,vehicle,395.9121398925781,209.16891479492188,-0.0018697048085665462,-5.821411309396352,-1.5711175040223602
1724402154,23316,vehicle,86.21844482421875,324.6945495605469,-3.6398915054879426,4.341910104774514,2.268467833356263
2595182244,23316,vehicle,265.0541687011719,198.7694854736328,5.6670322102563615,0.0005981295208716767,0.00010554545950314894
874453657,23316,vehicle,389.5729064941406,324.2507019042969,-3.177502744523073,2.6414172832437735,2.4480631614718273
1498616609,23316,vehicle,92.1754150390625,24.543169021606445,-0.001592304785699911,-5.567041646213589,-1.5710823502959712
505512523,23316,vehicle,267.4358215332031,133.2113037109375,5.883746146885351,-5.64097096899677e-05,-9.587379924285257e-06
3709073522,23316,vehicle,154.81536865234375,195.56845092773438,-6.654857371902939,0.00537537409169933,3.1407849168311723
27029540,23316,vehicle,1.4587124586105347,67.83954620361328,-0.0019320009668857957,-6.992327900052872,-1.5710726297579922
1375770528,23316,vehicle,338.8888244628906,241.85313415527344,-3.597073453821871e-05,-0.01176904046563606,-1.5738527036199261
4266869573,23316,vehicle,-1.5074163675308228,60.472660064697266,0.0003748586495015647,6.160045135536459,1.5707354735639882
368528135,23316,vehicle,2.8180856704711914,210.77633666992188,9.999430973884403e-05,-0.02453652510514762,-1.5667210245368028
4012051816,23316,vehicle,338.9733581542969,228.75657653808594,5.524427825128459e-10,1.942486949294011e-07,-1.5736403165229922
3938307140,23316,vehicle,92.14663696289062,219.810791015625,2.1411064437313932e-10,-3.880133448818967e-08,-1.5652782570162525
1966079641,23316,vehicle,41.148319244384766,331.2388916015625,-4.698048527534117e-08,6.506062742807073e-13,-1.3848436652496706e-05
1759883367,23316,vehicle,-1.896257996559143,321.24493408203125,1.1829824559774396,5.701170904192183,1.3662015060525947
3487645883,23316,vehicle,115.45682525634766,129.7740936279297,-4.4893698005125175,-0.0007855036216571725,-3.141417683906175
544848518,23316,vehicle,96.12991333007812,3.1415786743164062,4.6646742165303285,-3.8644052949778604,-0.691843777726973
1325658571,23316,vehicle,93.76780700683594,126.61991882324219,-4.083182760617694,-3.7245608015555534,-2.4020938052637515
921579549,23316,vehicle,92.2857666015625,46.23080062866211,-0.2325122996536241,-4.629298788052866,-1.6209804017441318
4072577581,23316,vehicle,92.38422393798828,235.30532836914062,-0.001713016262329103,-3.2033198067876323,-1.5713310895417845
94066344,23316,vehicle,331.61688232421875,135.2261199951172,5.203670211996034,2.995226296677273,0.5222841727052085
2853390219,23316,vehicle,299.99432373046875,330.5154724121094,-2.4230969880803975e-07,-7.389160931549546e-11,0.00030494696410635324
2524564450,23316,vehicle,1.5937581062316895,22.457462310791016,-0.0015914543222993866,-5.884598039957826,-1.5710667708035941
1882516347,23316,vehicle,-2.1449928283691406,125.87995147705078,0.0003010282354210973,6.109955780243089,1.57074705831473
815178544,23316,vehicle,259.7195129394531,330.39703369140625,5.56996796687099,-0.001691044174589467,-0.0003036003317597425
2188308515,23316,vehicle,169.56341552734375,199.2106475830078,5.792514006301432,-0.0019190434059443574,-0.00033129714207798526
1160083145,23316,vehicle,362.17596435546875,326.5632019042969,0.5524894379157614,-0.0005942859153536297,3.14051700282551
1832698586,23316,vehicle,127.70616912841797,326.96484375,-0.01740578157594003,-3.876161355297513e-05,-3.139365718286269
3748346955,23316,vehicle,132.76861572265625,1.9192780256271362,-0.9612058782261249,0.00020325176730439775,-0.0002114549742976462
3198444053,23316,vehicle,122.06244659423828,326.3424072265625,-0.028770880370913632,-0.010164854586892156,-2.8019778292674005
808811405,23316,vehicle,338.9252624511719,221.62359619140625,-4.702891599278819e-07,-0.001647300136199184,-1.571081817663753
84250811,23316,vehicle,310.5915222167969,133.54217529296875,7.281323995120401,0.0348420136224312,0.0047850841027216595
3956289865,23316,vehicle,61.77302932739258,326.5616455078125,-6.166792333597579,0.0008540043979170736,3.1414541692131093
1912328786,23316,vehicle,365.2416687011719,-1.9526530504226685,-3.1743555276716356e-08,-3.1921635561222605e-11,-3.1405870439621792
4030311199,23316,vehicle,338.9559631347656,235.7322235107422,4.5249478528901566e-11,-6.533700368153094e-08,-1.5701037717534214
3147513812,23316,vehicle,382.0482482910156,326.1416015625,0.0007566852317071214,-8.965829698020765e-05,3.023654298399525
1663586846,23316,vehicle,287.7590637207031,330.4103088378906,-7.763057288764902e-07,-9.483402359452732e-10,0.0012216060360329074
