id,timestamp_ms,agent_type,x,y,vx,vy,psi_rad
-1,36448,vehicle,392.2198791503906,306.496337890625,-2.7106064560745627e-11,1.2659395730158574e-07,1.571010444946539
2985032057,36448,vehicle,2.860934019088745,0.19103866815567017,-5.193193248088971,2.2888261970291905,2.726469489196493
3028941286,36448,vehicle,396.8837890625,157.45443725585938,-0.0017091114420732779,-5.942226164123597,-1.571083948192625
2920337868,36448,vehicle,392.0353088378906,314.20721435546875,-1.3552448492404596e-10,-3.445401279744996e-07,1.570402977901892
1503980471,36448,vehicle,115.25009155273438,2.032456159591675,0.02097026170291807,6.089483964871683e-06,0.00029038663799127917
2125414330,36448,vehicle,371.5015869140625,-1.5929864645004272,-5.606879436171345,-0.0017560059799925825,-3.1412794658456
2396446624,36448,vehicle,141.33572387695312,327.0087585449219,2.0865264338536388e-08,-2.497207344144202e-11,3.1403958289959117
4076155829,36448,vehicle,83.85124969482422,-1.9505223035812378,-5.649524024974924,-0.011696460368321247,-3.1395223121583657
130361148,36448,vehicle,92.38613891601562,226.82598876953125,-5.38483549911573e-11,-9.0448272829324e-08,-1.5713916764565838
3417340120,36448,vehicle,271.1507873535156,330.5008239746094,5.061495420448022,0.007205519688317986,0.0014235940610734829
2197730220,36448,vehicle,171.17391967773438,-1.9392855167388916,-5.3097710604728645,-7.070387843159026e-05,-3.141579337784343
118743835,36448,vehicle,334.71221923828125,108.75579071044922,2.3496707519009663e-11,1.120646621354353e-08,1.5686996200686771
904053063,36448,vehicle,178.70040893554688,55.8249397277832,-4.096690443669969e-09,6.390078038797477e-12,3.140032840139334
1291681130,36448,vehicle,113.09465789794922,195.61886596679688,1.836480662091819e-07,7.159742574156909e-10,-3.1376940520700263
715062232,36448,vehicle,338.9866638183594,22.499813079833984,6.329364351612812e-10,-2.674579675898408e-07,-1.5684298418502522
220877689,36448,vehicle,92.90681457519531,91.6517333984375,-3.775522177395141e-06,-0.007019977001329061,-1.571334152177038
2069714320,36448,vehicle,46.59580612182617,331.1763610839844,4.906422054558067,-0.003854645523678497,-0.0007856325215733753
3190467641,36448,vehicle,95.36875915527344,-2.504695177078247,-6.142053688878524,0.189370932889414,3.110770558713761
708315452,36448,vehicle,88.76025390625,120.32943725585938,0.03889233279989118,4.260288577707978,1.561667543210323
1314594676,36448,vehicle,88.91117858886719,190.2777557373047,0.18260432931107023,2.731165832537785,1.5040362045887903
2302084468,36448,vehicle,363.4761962890625,330.7080078125,7.94854936620428,0.05477523078800016,0.006891114493499573
757051778,36448,vehicle,334.70355224609375,288.2348937988281,-0.00012367410154422327,5.561537264402493,1.5708185641899988
4203008516,36448,vehicle,112.88423919677734,55.693016052246094,-6.068404364503966e-08,-1.4420610922964807e-10,-3.1392163149491155
2631691725,36448,vehicle,334.72576904296875,301.0571594238281,0.0006041860010871479,5.915723292968591,1.570694194567092
1513387753,36448,vehicle,339.01324462890625,29.555875778198242,-5.7174911113136605e-09,1.8237125420951624e-06,-1.5676612535596552
156273220,36448,vehicle,92.51573181152344,80.52529907226562,-3.261688752540861e-10,-2.1072648674242207e-07,-1.5723441560204507
3812119762,36448,vehicle,109.01225280761719,2.0952491760253906,-2.1266273856356652e-07,1.1997793270836127e-09,-0.005641639933075208
3616050434,36448,vehicle,230.85052490234375,326.4114685058594,-6.013157367173201,-8.007003364863966e-05,-3.141579337784343
2942158310,36448,vehicle,88.83866882324219,49.31386947631836,0.19828251924376122,3.8765264643759805,1.519691330740712
3608800298,36448,vehicle,260.96923828125,133.2064666748047,6.936255828568615,-0.0011970092569859399,-0.0001725728223824893
1146464971,36448,vehicle,60.19769287109375,2.5480518341064453,-7.068952929045066e-07,6.009183703798649e-10,-0.0008500809549347115
3013099654,36448,vehicle,-2.363691568374634,186.92376708984375,0.003547260096170834,1.911555694400507,1.5689406361473295
2246582517,36448,vehicle,89.72681427001953,128.619873046875,1.7042431182074207,4.761219499823863,1.2270633233208599
3192940987,36448,vehicle,338.8702697753906,237.091796875,-0.0016182678117509723,-2.6922869587178115,-1.5713974022529276
828836647,36448,vehicle,260.7642822265625,330.7986755371094,3.56338314524272,0.006623656071106642,0.0018588089387263978
1702089089,36448,vehicle,396.0120544433594,17.633705139160156,-0.0027223157353504094,-5.49724177664857,-1.5712915415995967
2111029583,36448,vehicle,76.47718811035156,330.4441833496094,4.749836503202729,0.0019938681999545566,0.00041977615050446757
420096522,36448,vehicle,88.09001922607422,173.57577514648438,-0.000661866632487723,2.2800613873183466,1.5710866113537152
510102133,36448,vehicle,261.57489013671875,1.857277274131775,5.430787004617199,-0.0009429914748777392,-0.000173638086818521
4109025732,36448,vehicle,297.8001403808594,1.9150508642196655,0.014827651486546042,-0.0029332695329138555,-0.19530265222485194
2913592560,36448,vehicle,308.85699462890625,1.6725080013275146,0.0016461314796532194,-3.156417618836403e-07,-0.00019174759848570515
3970347779,36448,vehicle,157.87188720703125,43.414634704589844,-0.4607677242869858,-6.714326375535655,-1.6393134695301828
1933996401,36448,vehicle,361.68988037109375,-2.272582530975342,-5.076786039081358,0.00014872328950450215,3.1415633588178022
3047764241,36448,vehicle,53.26544952392578,2.0460774898529053,-8.613858081205282e-09,-3.889749036113833e-12,0.0004515687088238799
1260711767,36448,vehicle,337.6739807128906,60.941551208496094,-1.4618152381622505,-4.6349340966057815,-1.8763125691521327
3957993155,36448,vehicle,335.0718994140625,33.63330078125,7.177873910743634e-11,-1.0257832248043382e-07,1.571496072371315
4289594148,36448,vehicle,-2.401254892349243,194.22659301757812,0.0010484935280838557,3.3042603259731282,1.5704790111510136
4139896837,36448,vehicle,112.17839813232422,129.49009704589844,-0.0,0.0,3.140218728783421
1686932955,36448,vehicle,145.02215576171875,-1.9624332189559937,-6.013059330419665,0.003028199556734326,3.1410890498276594
1726501337,36448,vehicle,350.3807373046875,-2.3978374004364014,-6.085225486223945,0.021973723775387127,3.137981673467755
1682591593,36448,vehicle,289.1985168457031,330.45709228515625,3.6204079994965546,-0.0006517808768913353,-0.0001800296734347112
3380823586,36448,vehicle,368.77252197265625,326.3265380859375,-3.9856358804037295e-08,1.285300988529741e-10,3.1383678318258164
4176583038,36448,vehicle,302.4993591308594,1.9665971994400024,7.2931551511937e-07,-3.834069407079801e-10,-0.000525707869144479
3855978784,36448,vehicle,335.7406311035156,328.0032043457031,4.50574781103262,-3.602197133417955,-0.6744159183954399
1042098875,36448,vehicle,105.58306121826172,-1.9541523456573486,-4.604686878111144,0.0017585175730475515,3.141210756289476
644930681,36448,vehicle,88.63434600830078,181.3007049560547,-5.391573850761527e-06,3.114617824549777,1.5707980578496052
2234188147,36448,vehicle,335.15283203125,23.86136245727539,-0.003860335877804026,4.21865858839051,1.571711388945448
4109707537,36448,vehicle,2.6083192825317383,195.85089111328125,-7.656161092288586e-06,-0.006019972984177056,-1.572068119373464
3675841917,36448,vehicle,183.96047973632812,55.834144592285156,-0.017442798646268617,-0.00013957096501155381,-3.13359118609465
2817926641,36448,vehicle,92.45927429199219,28.032365798950195,8.681270531807721e-05,-0.003617544374889029,-1.5468032427441003
4029506115,36448,vehicle,-2.5422377586364746,181.3402099609375,0.0013025244013978097,0.9177019889270581,1.569376995091939
3277167701,36448,vehicle,92.57572174072266,57.84769058227539,2.927165948048974,2.17442287910921,0.6389044628929691
518241310,36448,vehicle,-2.6738672256469727,153.25344848632812,-0.023183717292962137,6.710065368644228,1.574251378835111
778540568,36448,vehicle,338.9315185546875,42.95614242553711,-3.9031104842058866e-08,1.281018958381851e-06,-1.5403369544593333
657465635,36448,vehicle,1.7696082592010498,10.821249008178711,-0.001572662679890066,-5.560497061539255,-1.571079154502663
835227171,36448,vehicle,157.7928924560547,33.0733642578125,-0.0025928407449342353,-5.584141606142677,-1.571260648930952
715280319,36448,vehicle,92.39908599853516,161.5304412841797,1.0890912474878906e-10,1.8776252058726487e-07,-1.571376363280316
3020211281,36448,vehicle,259.91278076171875,59.601863861083984,5.557085956473574,-0.00061861559862812,-0.00011132014169263482
2101598167,36448,vehicle,179.41712951660156,-1.9621342420578003,-3.8893551816745076,8.700702685142038e-05,3.1415702830366365
14974470,36448,vehicle,338.9898376464844,36.57738494873047,8.6564621197015e-09,-1.82900826227536e-06,-1.5660634900636623
1398818972,36448,vehicle,229.2627716064453,133.65185546875,5.6127103175536845,-0.001333321730414737,-0.00023755398548971337
2694688339,36448,vehicle,2.292448043823242,202.72059631347656,7.982279902986583e-09,3.756008942891308e-05,-1.5710088470498849
3916750283,36448,vehicle,116.79842376708984,326.9374694824219,2.0958657507168464e-07,-1.000123717206019e-09,3.136820801548589
1983197581,36448,vehicle,-2.048886775970459,11.672918319702148,-0.28258849188648827,5.881036764740319,1.6188101917718263
2942851653,36448,vehicle,339.00457763671875,154.99679565429688,-0.0016284438351898153,-5.538679837207304,-1.5710903397792413
3949181016,36448,vehicle,88.3720474243164,141.2858428955078,-0.06882028047423172,5.708298214827822,1.5828519244174672
3672416715,36448,vehicle,338.86322021484375,245.1816864013672,2.897035450918252e-05,-2.8255021570627847,-1.5707860736246997
3325384226,36448,vehicle,190.06944274902344,55.8415412902832,-0.006675022155177561,2.581171055977713e-06,3.1412059625995137
1359910869,36448,vehicle,249.9705352783203,59.606204986572266,6.719682379297301,-0.009692260993301487,-0.0014423679163497528
2262630317,36448,vehicle,85.18439483642578,331.07489013671875,9.275993577117372,-0.24718204703371693,-0.026641196200122067
805172996,36448,vehicle,92.11963653564453,167.51968383789062,-3.674929489390705e-05,-0.011762418187151399,-1.5739206142277231
1986857511,36448,vehicle,-2.4897327423095703,202.32591247558594,0.006325024661334857,2.1436948448985524,1.5678458106231978
1279946346,36448,vehicle,129.11279296875,2.7236475944519043,0.02889084243541387,-0.0013536578795708657,-0.04681997818262546
74618890,36448,vehicle,334.701904296875,276.25494384765625,-0.00012365331064676785,5.527503489064902,1.5708186973480533
3085549129,36448,vehicle,391.97674560546875,320.9991455078125,4.075882920605505e-09,-1.5089971742394347e-08,1.8346064012170558
2057201815,36448,vehicle,299.4710388183594,198.9769744873047,5.686030730453196,-0.0012356536961713402,-0.0002173139286958205
1015694095,36448,vehicle,97.59075927734375,330.61285400390625,5.688785515355146,0.04486899393049346,0.007887107612864786
1250507297,36448,vehicle,187.94825744628906,-1.944735050201416,-3.809547407002131,0.0003632066967208952,3.1414973124227683
4280502996,36448,vehicle,65.85540008544922,331.22454833984375,5.28410764680546,-0.0006360737907370756,-0.0001203748731442589
3428459672,36448,vehicle,66.85588836669922,2.0130608081817627,7.291260889887286e-07,-5.895246062780838e-10,-0.0008085357069480567
414519966,36448,vehicle,148.38682556152344,327.0565490722656,-4.03411918330927e-05,-1.3547565663120411e-08,-3.141256828976334
2866945113,36448,vehicle,306.2249755859375,330.4564514160156,5.0915994002790494,-0.0008081611543309285,-0.00015872441722336792
1853482628,36448,vehicle,46.39568328857422,2.5198090076446533,-2.075979972742968e-07,5.074222053385293e-10,-0.0024442489884003997
3880166169,36448,vehicle,246.94520568847656,326.41986083984375,-5.559389591215266,-4.441665014013922e-06,-3.141591854641466
1073352953,36448,vehicle,339.00543212890625,-0.2098773717880249,-4.908236646336814,2.7682754212581933,2.628059827963667
213556023,36448,vehicle,134.5973358154297,327.0172119140625,1.6886458883394616e-08,-3.074695297992121e-11,3.139771850352506
1628590046,36448,vehicle,33.74390411376953,2.347806692123413,-0.0037229346529310567,-7.262084009489595e-06,0.0019506318202798876
4120465129,36448,vehicle,325.8359680175781,55.71276092529297,-5.9792381478118415,-0.16827324715469827,-3.113457155621433
1015227284,36448,vehicle,117.51175689697266,129.75152587890625,-0.006686075097641556,6.036266236800185e-07,3.1415023724288393
2900396540,36448,vehicle,156.79742431640625,-1.89077889919281,-4.661005386865239,-0.022827704571410076,-3.1366951003451375
3587539486,36448,vehicle,396.6054992675781,143.3573760986328,-0.0019931445312419737,-7.578866219695297,-1.571059313952542
1146849989,36448,vehicle,334.1994934082031,168.0909881591797,0.07395715193157701,0.5280563191624219,1.4316460266802018
1457681385,36448,vehicle,394.81085205078125,4.370455741882324,-1.443866842780944,-4.5439375659232955,-1.8784630717323718
1726747598,36448,vehicle,92.14188385009766,85.53358459472656,0.0009420795840015287,0.009929029177324791,-1.6653944718756013
367118466,36448,vehicle,375.0947570800781,326.35400390625,1.2285714333877436e-07,-9.0027489641565e-10,3.13426496585044
2065705843,36448,vehicle,311.215087890625,133.19998168945312,2.623321151759341e-08,1.294524505583022e-11,0.0004934677554206829
3978545900,36448,vehicle,396.90484619140625,305.52154541015625,0.005231721142833213,-5.475131873145829,-1.5698407845957763
714679325,36448,vehicle,392.1224060058594,179.2473602294922,0.0030117543045633374,22.416145122382684,1.5706619703179021
3262285446,36448,vehicle,88.31819152832031,109.22956848144531,0.0008012048691299986,4.944080764701393,1.5706342734425653
1401880247,36448,vehicle,92.49676513671875,174.20469665527344,-2.2332242234370445e-10,-2.3721674726248962e-07,-1.5717377542402395
2250339631,36448,vehicle,92.39317321777344,111.54768371582031,2.6680186985221504e-10,9.433370755832558e-07,-1.571079154502663
2525145270,36448,vehicle,92.51142120361328,154.58193969726562,-2.479595705220763e-08,2.904608151122543e-05,-1.5699426505074716
1825059061,36448,vehicle,313.625732421875,2.012185573577881,1.4588962916543686e-06,-9.122628857572819e-10,-0.0006253102239506051
346279610,36448,vehicle,88.17532348632812,295.25390625,0.0009757049746312153,5.720077908269929,1.570625751327077
893025708,36448,vehicle,395.8815002441406,133.7318878173828,-0.0018697038896711435,-5.821408448373551,-1.5711175040223602
1724402154,36448,vehicle,10.57795238494873,326.52874755859375,-5.8905496585851145,0.0001160873716258078,3.1415729461977264
2595182244,36448,vehicle,313.6766662597656,198.77235412597656,5.0592946555823084e-08,-1.2511717490293639e-10,-0.002473011128173255
874453657,36448,vehicle,388.6775817871094,324.7012939453125,3.264198010387983e-07,-1.9737472069406946e-07,2.597749858965257
1498616609,36448,vehicle,36.457969665527344,-1.9600173234939575,-5.806470382175073,-0.00037267194093042194,-3.1415284714075224
505512523,36448,vehicle,305.5063171386719,133.2028045654297,-0.4440469725086166,3.8551733478838116e-05,-8.68190434092605e-05
3709073522,36448,vehicle,118.92913818359375,195.56092834472656,-0.017408561931541534,-1.2679955847045398e-05,-3.1408642790316565
27029540,36448,vehicle,23.193294525146484,2.5333664417266846,7.031773442963086,-0.006479455751785292,-0.0009214537371674164
1375770528,36448,vehicle,338.92144775390625,228.76084899902344,0.005859023949643418,-3.786616799343776,-1.5692490302015605
4266869573,36448,vehicle,-1.540489912033081,166.35316467285156,-0.008176107668667016,3.555997985832348,1.5730955669220166
368528135,36448,vehicle,2.556942939758301,208.0896759033203,-0.0022979215698732108,-0.02774343203436563,-1.6534352806844914
4012051816,36448,vehicle,338.96734619140625,212.76235961914062,-0.001305339712570431,-3.94008614851837,-1.5711276240345025
3938307140,36448,vehicle,92.14663696289062,219.810791015625,8.203211931952455e-12,-1.4865938635656484e-09,-1.5652782570162525
1966079641,36448,vehicle,55.72905731201172,331.23828125,4.872668155707447,-0.0010381360346793875,-0.00021305288720633905
1759883367,36448,vehicle,36.83660888671875,331.1674499511719,3.7030019225616693,-0.0006291757482912323,-0.00016990964503776475
3487645883,36448,vehicle,92.42707824707031,105.2142333984375,-2.8375798733691425e-10,2.726091225873681e-07,-1.5697554302828391
544848518,36448,vehicle,122.011962890625,2.0933361053466797,0.04424689603756526,6.0995577349519804e-05,0.0013785269515935096
1325658571,36448,vehicle,92.39752960205078,98.92157745361328,-1.5492536342868015e-11,1.514934516571832e-07,-1.5706940614090374
921579549,36448,vehicle,92.2940673828125,22.447134017944336,-2.503787801280024e-07,-7.389976020999855e-05,-1.5741844003336953
4072577581,36448,vehicle,92.38365936279297,233.42498779296875,-7.480418301030948e-11,-1.2849263651691484e-07,-1.571378493809188
94066344,36448,vehicle,334.482177734375,173.806396484375,2.0574358174522518e-10,1.773947234943602e-06,1.5706803461294236
2853390219,36448,vehicle,314.6727600097656,330.5124206542969,4.30494919726849,-0.0008621509559357554,-0.00020026971397395872
2524564450,36448,vehicle,39.81764221191406,2.030052900314331,-3.2563394814703556e-07,4.3031257643765824e-10,-0.0013214602728229927
1882516347,36448,vehicle,-2.140092134475708,173.38232421875,0.0012073686037671178,2.3798381603758028,1.5702889946072365
815178544,36448,vehicle,280.5886535644531,330.3889465332031,3.079897518016854,0.000874383311522688,0.0002839001242463899
2188308515,36448,vehicle,245.08660888671875,199.197998046875,5.900386643070344,-0.0014048030296516497,-0.0002380866014530839
1160083145,36448,vehicle,362.9766845703125,326.56024169921875,0.548652532414617,-0.0005692642740062511,3.1405550860290985
1832698586,36448,vehicle,127.3373794555664,326.96343994140625,-0.0013251515963648825,-6.071139736773001e-06,-3.13701121756653
3748346955,36448,vehicle,135.20521545410156,1.9185594320297241,-0.9612059964500417,0.00020785951605089927,-0.00021624866425978882
3198444053,36448,vehicle,121.51934051513672,327.0263671875,-0.028554643662238643,0.009344413272103466,2.8253300236018695
808811405,36448,vehicle,338.450927734375,204.03526306152344,-0.3285225291836273,-2.717545487762953,-1.691101965878136
84250811,36448,vehicle,339.1612854003906,73.22572326660156,0.029176706191579437,-5.82263312202942,-1.565785456045858
3956289865,36448,vehicle,2.474231719970703,303.7577819824219,-0.004395019812881753,-6.1681989270698345,-1.5715088555445473
1912328786,36448,vehicle,335.0926208496094,10.7545747756958,-0.11428723233963348,5.657776116783054,1.590993607344003
4030311199,36448,vehicle,338.9549255371094,221.43028259277344,-0.0010383010214763595,-3.5330801868638995,-1.571090206621187
3147513812,36448,vehicle,382.0475769042969,326.14154052734375,1.727359593637408e-07,-2.0467365407595845e-08,3.023653233135089
1663586846,36448,vehicle,297.5626220703125,330.40814208984375,3.531697867736684,-0.0009236182481724652,-0.0002615224353004265
