id,timestamp_ms,agent_type,x,y,vx,vy,psi_rad
-1,39061,vehicle,392.2198791503906,306.496337890625,-1.3883838098287255e-11,6.484194721287707e-08,1.571010444946539
2985032057,39061,vehicle,-2.275911331176758,13.50542163848877,-0.09433035230170092,7.1306670000195504,1.5840243810873746
3028941286,39061,vehicle,396.8805236816406,143.9286346435547,-0.001114627791334316,-4.152139037250088,-1.5710647734327765
2920337868,39061,vehicle,392.0353088378906,314.20721435546875,-1.3419474409320085e-10,-3.411595648512451e-07,1.570402977901892
1503980471,39061,vehicle,115.92505645751953,2.032456874847412,1.8945227986574518,-0.0037356336127410007,-0.0019718046011318307
2125414330,39061,vehicle,358.66796875,-1.601277232170105,-1.0712909548003346,0.0007369352821954916,3.1409047590802257
2396446624,39061,vehicle,141.33572387695312,327.0087585449219,1.3833228292079087e-07,-1.6555955737595224e-10,3.1403958289959117
4076155829,39061,vehicle,69.14802551269531,-1.9614912271499634,-5.8588089882887795,-0.0002652501864235619,-3.1415473798512616
130361148,39061,vehicle,92.38613891601562,226.82598876953125,-1.7930265953304176e-10,-3.011719832691477e-07,-1.5713916764565838
3417340120,39061,vehicle,281.2414245605469,330.5002136230469,3.216877067833381,-0.002014973207966309,-0.0006263754883866368
2197730220,39061,vehicle,157.10316467285156,-0.08022361248731613,-4.558015249033613,2.5246198511040268,2.635771010899991
118743835,39061,vehicle,334.71221923828125,108.75579071044922,-7.928058104155577e-09,-3.7811899906125274e-06,1.5686996200686771
904053063,39061,vehicle,178.70040893554688,55.8249397277832,2.5096203894138088e-08,-3.914542813673102e-11,3.140032840139334
1291681130,39061,vehicle,113.09465789794922,195.61886596679688,2.0422574970364392e-08,7.961988520079423e-11,-3.1376940520700263
715062232,39061,vehicle,338.9866638183594,22.499813079833984,7.199210584813605e-11,-3.0421478750466855e-08,-1.5684298418502522
220877689,39061,vehicle,92.90685272216797,91.65248107910156,-2.431899155540816e-06,-0.004477384305421702,-1.5713394784992183
2069714320,39061,vehicle,57.75076675415039,331.17547607421875,2.8631919158984314,0.0027882616915478717,0.0009738295203528271
3190467641,39061,vehicle,80.66194915771484,-2.04349684715271,-5.450875688487986,0.17134164669414573,3.1101692169396213
708315452,39061,vehicle,88.41447448730469,140.27764892578125,-0.18034425379745928,8.500098357119908,1.5920098696159772
1314594676,39061,vehicle,94.29493713378906,198.52835083007812,3.1683339260774175,1.836243026491273,0.5252552950858418
2302084468,39061,vehicle,389.5682678222656,329.39862060546875,6.675156982031443,-2.5384879816853565,-0.3633994161493495
757051778,39061,vehicle,334.7027282714844,297.79840087890625,-4.1362937182065e-06,-0.024005438776096816,1.5706240202723685
4203008516,39061,vehicle,112.88423919677734,55.693016052246094,7.52453528789124e-10,1.7880877615456673e-12,-3.1392163149491155
2631691725,39061,vehicle,334.72576904296875,304.8205871582031,4.304712309141466e-09,-0.00011423265087689282,1.5708340105243213
1513387753,39061,vehicle,339.01324462890625,29.555875778198242,6.865370113648745e-09,-2.18985239130696e-06,-1.5676612535596552
156273220,39061,vehicle,92.51573181152344,80.52529907226562,1.8532038109748204e-10,1.1972912130263088e-07,-1.5723441560204507
3812119762,39061,vehicle,109.26314544677734,2.094709873199463,-0.00024795815771326096,1.0917017069970538e-06,-0.004402737393970346
3616050434,39061,vehicle,215.72889709472656,326.4068908691406,-5.530179974912838,0.0001664236895237345,3.141562559869475
2942158310,39061,vehicle,94.77299499511719,58.86225509643555,4.319208823555343,1.6142996559900902,0.3576733867790838
3608800298,39061,vehicle,278.9549255371094,133.20188903808594,6.936253920581442,-0.0012007035128863627,-0.00017310547085515047
1146464971,39061,vehicle,60.19769287109375,2.5480518341064453,1.6872413809344504e-07,-1.434292109801286e-10,-0.0008500809549347115
3013099654,39061,vehicle,-2.3533196449279785,195.23004150390625,-0.0024851494974937015,4.330198051673422,1.5713702380098087
2246582517,39061,vehicle,103.79115295410156,133.41079711914062,5.507076847983015,-0.1565044280300337,-0.028411137221777932
3192940987,39061,vehicle,338.86883544921875,228.11865234375,-0.0017272742908408644,-3.378902947491112,-1.5713075205661373
828836647,39061,vehicle,272.0856018066406,330.79742431640625,3.8045609539659884,0.001183850514054955,0.0003111661214449338
1702089089,39061,vehicle,393.8126220703125,2.362732410430908,-2.878836108096759,-5.051470726533002,-2.0887898140888512
2111029583,39061,vehicle,88.41301727294922,329.4280090332031,8.091694474709744,-2.4566340916008795,-0.29475577326228464
420096522,39061,vehicle,88.0897445678711,183.22251892089844,-0.001459188868448167,3.8115901538105197,1.5711791562015955
510102133,39061,vehicle,275.8905029296875,1.8544824123382568,6.334594625722406,-0.0011302929862482766,-0.00017843177678066364
4109025732,39061,vehicle,297.69976806640625,1.4979662895202637,0.004914278024279418,-0.001672798356975351,-0.32809302405081475
2913592560,39061,vehicle,308.86309814453125,1.672484040260315,0.0016461355541894083,-3.156425431661791e-07,-0.00019174759848570515
3970347779,39061,vehicle,157.61520385742188,31.302589416503906,-0.021725308369830314,-3.0495043792852474,-1.577920415868913
1933996401,39061,vehicle,347.3367614746094,-2.0519096851348877,-5.2756422678897374,0.45268913435309105,3.0559949277291203
3047764241,39061,vehicle,53.26544952392578,2.0460774898529053,-3.9299993915710374e-08,-1.774664871556883e-11,0.0004515687088238799
1260711767,39061,vehicle,324.5376892089844,55.70330047607422,-6.028893509750488,-0.07590031789383364,-3.1290038911169886
3957993155,39061,vehicle,335.0718994140625,33.63330078125,2.455280307934878e-10,-3.5088180475032885e-07,1.571496072371315
4289594148,39061,vehicle,-2.399688243865967,202.66629028320312,0.0017382942217667263,4.026640039982216,1.5703646283821948
4139896837,39061,vehicle,112.17839813232422,129.49009704589844,-4.767409341827877e-08,6.550066078321055e-11,3.140218728783421
1686932955,39061,vehicle,129.9006805419922,-1.9653170108795166,-5.530146595652846,0.00018704142476898093,3.141558831443949
1726501337,39061,vehicle,336.8588562011719,2.0346298217773438,-3.977996499854332,4.769311987078132,2.2659761798403846
1682591593,39061,vehicle,299.471435546875,330.45709228515625,4.778199609234331,-0.0007787769066926099,-0.00016298542620355873
3380823586,39061,vehicle,368.77252197265625,326.3265380859375,4.967086049706566e-08,-1.6018022723022659e-10,3.1383678318258164
4176583038,39061,vehicle,302.4993591308594,1.9665971994400024,-1.7082070284804684e-07,8.980179597281285e-11,-0.000525707869144479
3855978784,39061,vehicle,338.626708984375,313.43548583984375,0.010899247275823731,-5.8332284192025075,-1.568927852974097
1042098875,39061,vehicle,91.989013671875,-1.9579676389694214,-4.940329493369403,-0.0007591527481681725,-3.1414389891948957
644930681,39061,vehicle,88.5560531616211,191.6184844970703,-0.06087380282654125,6.106100876189259,1.5807653377033901
2234188147,39061,vehicle,335.1517639160156,26.4204044342041,2.650926289526135e-07,-0.00014815879261929744,1.5725855715732664
4109707537,39061,vehicle,2.604628801345825,185.80105590820312,-0.0018703994986520147,-5.51273981789201,-1.5711356135177728
3675841917,39061,vehicle,183.96047973632812,55.83415985107422,-0.017408222475185232,-0.0001398831202947191,-3.133557363948806
2817926641,39061,vehicle,92.56504821777344,28.03631591796875,0.00019096441907249322,-0.003935164968251079,-1.5223066880892244
4029506115,39061,vehicle,-2.529944658279419,189.3726348876953,0.00047670551132589055,3.6271505042575085,1.5706648997951012
3277167701,39061,vehicle,105.27469635009766,59.3701286315918,10.41315640722241,0.061770327063412664,0.005931880799407211
518241310,39061,vehicle,-2.7379653453826904,166.36282348632812,0.003076287470103974,1.8826913734564126,1.5691623443080784
778540568,39061,vehicle,338.9315185546875,42.95614242553711,6.10054003604891e-09,-2.0022255260694082e-07,-1.5403369544593333
657465635,39061,vehicle,12.74107551574707,2.2226665019989014,7.419057049710067,-0.7784363601652075,-0.10454138158327331
835227171,39061,vehicle,157.7899627685547,23.680641174316406,7.95108665339713e-07,0.004819341869627742,-1.570961309624427
715280319,39061,vehicle,92.39908599853516,161.5304412841797,2.210808211269315e-10,3.811498102114391e-07,-1.571376363280316
3020211281,39061,vehicle,274.9260559082031,59.59861755371094,5.966526203647857,-0.0019067783223653257,-0.0003195792983002179
2101598167,39061,vehicle,166.19845581054688,-1.9676553010940552,-5.3391706054276025,-0.009489818251999738,-3.1398152598782745
14974470,39061,vehicle,338.9898376464844,36.57738494873047,1.229975426849289e-09,-2.5987928867418024e-07,-1.5660634900636623
1398818972,39061,vehicle,244.06546020507812,133.6476593017578,5.555417383039572,-0.0013108343109746803,-0.00023595604007172984
2694688339,39061,vehicle,2.2908923625946045,196.5867919921875,-0.0011060424522606862,-5.250466230243459,-1.5710069828371218
3916750283,39061,vehicle,116.79842376708984,326.9374694824219,-8.650600155815531e-08,4.1279697332417766e-10,3.136820801548589
1983197581,39061,vehicle,-2.1146936416625977,27.08913803100586,-0.0013540614542991954,6.288700434820987,1.5710116433690295
2942851653,39061,vehicle,338.97235107421875,139.6849822998047,-0.04263915695044157,-6.046134325390689,-1.5778485105194808
3949181016,39061,vehicle,88.34326934814453,156.0961456298828,0.0005941082538755989,5.75700279985013,1.570693129302656
3672416715,39061,vehicle,338.85980224609375,236.55616760253906,-0.0007140799649150971,-3.300091904630849,-1.5710127086334655
3325384226,39061,vehicle,190.06956481933594,55.8415412902832,-0.00665289764325738,2.609822961866775e-06,3.1412003699612243
1359910869,39061,vehicle,264.7879333496094,59.60529327392578,4.610583900948577,0.002774699005171595,0.0006018106881482331
2262630317,39061,vehicle,100.18565368652344,330.7112121582031,8.71468102790127,-0.2089638469955691,-0.023973776132893303
805172996,39061,vehicle,92.11734008789062,167.51815795898438,-3.6927985604255356e-05,-0.011760964757133861,-1.5739361937201
1986857511,39061,vehicle,-2.4806575775146484,211.1586456298828,0.0002675285347672685,2.737200485507079,1.5706985887828906
1279946346,39061,vehicle,129.56112670898438,2.802900552749634,0.02883508171428862,-0.0014017206260063483,-0.048573403444333633
74618890,39061,vehicle,334.70404052734375,290.454833984375,0.0012625282532173572,2.892442189286681,1.5703598346922325
3085549129,39061,vehicle,391.97674560546875,320.9991455078125,-9.878019616621929e-10,3.6570981009311724e-09,1.8346064012170558
2057201815,39061,vehicle,306.4562072753906,198.9739532470703,-0.000752085386048194,9.097287681870329e-07,-0.00120960776711399
1015694095,39061,vehicle,113.75833892822266,330.6495666503906,8.368544537831104,0.0008255624577715853,9.865066157698152e-05
1250507297,39061,vehicle,176.15541076660156,-1.9419326782226562,-4.795191758497435,-0.000246468104752916,-3.141541254580755
4280502996,39061,vehicle,77.80343627929688,331.1823425292969,5.503935677680134,-0.1576386095042196,-0.028633242776095937
3428459672,39061,vehicle,66.85588836669922,2.0130608081817627,-9.962843859679212e-07,8.05531675863296e-10,-0.0008085357069480567
414519966,39061,vehicle,148.38682556152344,327.05828857421875,-9.290746158660679e-06,-3.097792873975982e-09,-3.1412592258213152
2866945113,39061,vehicle,319.00164794921875,330.4562683105469,5.3068613561539175,-0.000686864970807632,-0.00012942960459588299
1853482628,39061,vehicle,46.39568328857422,2.5198092460632324,-1.0520553509728438e-07,2.571490348355767e-10,-0.0024442489884003997
3880166169,39061,vehicle,232.49972534179688,326.41986083984375,-5.5593919754010575,-4.441666918855172e-06,-3.141591854641466
1073352953,39061,vehicle,335.1998291015625,11.873522758483887,-0.08121107744930574,3.3153161311405364,1.5952871556534287
213556023,39061,vehicle,134.5973358154297,327.0172119140625,9.78534629945473e-10,-1.7817209909973614e-12,3.139771850352506
1628590046,39061,vehicle,33.744266510009766,2.3478176593780518,-1.4574225825890438e-06,-2.8429994849661037e-09,0.0019507011300875542
4120465129,39061,vehicle,310.6588134765625,55.679481506347656,-5.77712580706808,-0.0005723375016947134,-3.141493583997242
1015227284,39061,vehicle,117.51248931884766,129.75152587890625,-0.006663683305090006,6.441965760453331e-07,3.1414959808422234
2900396540,39061,vehicle,140.56259155273438,-1.9583792686462402,-6.7362235621997835,0.0028721378964814306,3.1411662814992716
3587539486,39061,vehicle,396.6020202636719,130.755859375,-0.0015144587514789403,-5.5318053079803775,-1.5710700997549567
1146849989,39061,vehicle,334.0280456542969,168.27072143554688,-0.00046249737554309323,-0.003838180076927404,1.450875381331119
1457681385,39061,vehicle,379.8173828125,-2.7276413440704346,-5.857111970380521,0.0022633326973904603,3.141206228915623
1726747598,39061,vehicle,92.04116821289062,85.54105377197266,0.001093145433078141,0.010264989952191383,-1.6768890746145466
367118466,39061,vehicle,375.0947570800781,326.35400390625,-7.222713866812367e-08,5.292673915064231e-10,3.13426496585044
2065705843,39061,vehicle,311.215087890625,133.19998168945312,0.0,0.0,0.0004934677554206829
3978545900,39061,vehicle,396.900146484375,282.1570739746094,-0.005254100874181866,-13.70056433067353,-1.571179821991868
714679325,39061,vehicle,392.1272888183594,237.05203247070312,0.0009790790131092124,22.213771798491752,1.5707522514788559
3262285446,39061,vehicle,88.32449340820312,123.57615661621094,0.003376271726777102,6.09797193520083,1.570242655604269
1401880247,39061,vehicle,92.49676513671875,174.20469665527344,-1.1694246410832012e-11,-1.2421820729645223e-08,-1.5717377542402395
2250339631,39061,vehicle,92.39317321777344,111.54768371582031,-8.271997463486343e-11,-2.9247478290761804e-07,-1.571079154502663
2525145270,39061,vehicle,92.50690460205078,154.58193969726562,-2.3226522083808497e-08,2.7271447038386378e-05,-1.5699446478782892
1825059061,39061,vehicle,313.625732421875,2.0121867656707764,0.0,-0.0,-0.0006253102239506051
346279610,39061,vehicle,88.17632293701172,305.6338806152344,-5.89243312916472e-05,-0.020828063136712347,1.5679672507689053
893025708,39061,vehicle,395.87542724609375,118.7214584350586,-0.0018697046554173125,-5.821410832559219,-1.5711175040223602
1724402154,39061,vehicle,2.4268362522125244,313.8860168457031,-0.37839076769137153,-8.248252663801836,-1.6166394491673026
2595182244,39061,vehicle,313.6766662597656,198.77235412597656,0.0,-0.0,-0.002473011128173255
874453657,39061,vehicle,388.6775817871094,324.7012939453125,-4.3828028648270783e-07,2.650128725492335e-07,2.597749858965257
1498616609,39061,vehicle,21.253931045532227,-1.9573147296905518,-5.564120751265614,-0.0004504717574966778,-3.141511693492655
505512523,39061,vehicle,305.52764892578125,133.2028045654297,-0.44404786812985664,1.0406623939592585e-05,-2.343581556086663e-05
3709073522,39061,vehicle,118.92913818359375,195.56092834472656,-0.017409620571950727,-1.4238579235871729e-05,-3.14077479681903
27029540,39061,vehicle,27.77759552001953,2.539740800857544,0.0010854265543129712,6.76136709884545e-06,0.006229145232965647
1375770528,39061,vehicle,338.92877197265625,219.5248565673828,0.00488978739144866,-3.818411080388327,-1.569515745784732
4266869573,39061,vehicle,-1.4848519563674927,174.17103576660156,-0.008517231080935288,2.143244270600804,1.5747702957735128
368528135,39061,vehicle,2.321847915649414,204.35107421875,-0.20547451611014003,-4.314965256662658,-1.618379425465506
4012051816,39061,vehicle,338.9176940917969,202.0526580810547,-0.04328330648343367,-6.593923132470527,-1.5773603530916693
3938307140,39061,vehicle,92.14663696289062,219.810791015625,3.684942623223039e-11,-6.6778880476528735e-09,-1.5652782570162525
1966079641,39061,vehicle,67.44549560546875,331.2371520996094,5.393185917582892,-0.0013730954576911443,-0.00025459820021157516
1759883367,39061,vehicle,47.82563018798828,331.1674499511719,3.9597550808117936,-0.0008963645961949704,-0.00022636869265673526
3487645883,39061,vehicle,92.42707824707031,105.2142333984375,2.2362616628142642e-10,-2.1483988362651418e-07,-1.5697554302828391
544848518,39061,vehicle,122.55147552490234,2.094822883605957,-0.015240701024792767,-4.548623050696322e-05,0.002984514647935282
1325658571,39061,vehicle,92.39752960205078,98.92157745361328,-2.4357734525692406e-11,2.3818161185370995e-07,-1.5706940614090374
921579549,39061,vehicle,92.29258728027344,22.447214126586914,2.2325961653865436e-07,6.59499205508167e-05,-1.5741816040145509
4072577581,39061,vehicle,92.38365936279297,233.42498779296875,-5.025286068367157e-11,-8.632034068031001e-08,-1.571378493809188
94066344,39061,vehicle,334.482177734375,173.806396484375,1.0583400673700771e-10,9.125142180454651e-07,1.5706803461294236
2853390219,39061,vehicle,328.9228820800781,330.53289794921875,5.572405962760772,0.03546613998810782,0.006364514959531136
2524564450,39061,vehicle,39.81764221191406,2.0300538539886475,1.642189703008606e-06,-2.170089716143311e-09,-0.0013214602728229927
1882516347,39061,vehicle,-2.1392035484313965,181.3317413330078,0.000765391626256106,3.182720569131322,1.5705558433484625
815178544,39061,vehicle,290.51776123046875,330.38592529296875,4.384924916507343,-0.0028493741876708827,-0.0006498113059793341
2188308515,39061,vehicle,259.8304138183594,199.1962127685547,5.801500157473042,-0.0013750791611764806,-0.00023702130450776156
1160083145,39061,vehicle,363.1407775878906,326.5597229003906,0.5477772882073152,-0.0005779843656809757,3.140537509165904
1832698586,39061,vehicle,127.3373794555664,326.96343994140625,-0.0013252078826846317,-6.134572383639421e-06,-3.1369635469830173
3748346955,39061,vehicle,135.69004821777344,1.9184165000915527,-0.9612058772407549,0.00020785949027204984,-0.00021624866425978882
3198444053,39061,vehicle,121.60296630859375,327.3498840332031,-0.030052814918046594,0.010651862553155641,2.8009695564786963
808811405,39061,vehicle,332.84893798828125,195.75205993652344,-3.0855012565660296,-1.9694885144592695,-2.573483401428564
84250811,39061,vehicle,338.88995361328125,51.111610412597656,-0.05041023088280744,-6.74027141352201,-1.5782751489261115
3956289865,39061,vehicle,2.4675519466400146,282.22467041015625,-0.0015331625218783502,-12.474382306296114,-1.5709192316792038
1912328786,39061,vehicle,335.13543701171875,19.400609970092773,3.010401820284791e-06,-0.012306877043712729,1.5710409381410204
4030311199,39061,vehicle,338.9528503417969,212.11178588867188,-0.001329114132615009,-4.260126860231209,-1.5711083161165993
3147513812,39061,vehicle,382.0475769042969,326.14154052734375,2.763718506140825e-07,-3.274711111529741e-08,3.023653233135089
1663586846,39061,vehicle,308.8989562988281,330.40374755859375,5.235483493287646,-0.00256828849317569,-0.0004905541752647238
