id,timestamp_ms,agent_type,x,y,vx,vy,psi_rad
-1,7370,vehicle,384.2950439453125,2.0093026161193848,6.020848654649445,-0.0010775177305202663,-0.0001789644252533248
2985032057,7370,vehicle,92.10367584228516,28.704118728637695,-1.416726666642829e-08,0.0001758584543245439,-1.5707157661719218
3028941286,7370,vehicle,385.25341796875,330.4742431640625,5.381884467053486,-0.19141244386683923,-0.03555107834606417
2920337868,7370,vehicle,391.9966735839844,19.61400032043457,0.053503281276276966,5.793591934174016,1.5615616825569922
1503980471,7370,vehicle,92.09437561035156,72.19950103759766,-0.002123472212307014,-5.599369600099999,-1.5711755609341238
2125414330,7370,vehicle,395.95794677734375,121.1139144897461,0.001801021208977853,-16.00643720031159,-1.5706838082388408
2396446624,7370,vehicle,272.8172912597656,327.04351806640625,-5.591620445155492,3.276104920062997e-05,3.141586794635395
4076155829,7370,vehicle,112.6908187866211,-1.960304856300354,-8.870684598012643e-06,-1.4930407365318464e-09,-3.1414243418089
130361148,7370,vehicle,95.48672485351562,324.2321472167969,-5.654133263311354,-3.690048004209105,-2.563371911401751
3417340120,7370,vehicle,142.00933837890625,330.478271484375,5.935437543885398,0.0012678250254141378,0.000213602619311237
2197730220,7370,vehicle,234.15049743652344,-1.9486488103866577,-4.28969096799726,-0.00017021965739862348,-3.141552972489551
118743835,7370,vehicle,302.81414794921875,59.33546829223633,5.31504668390168,-0.007196317692024205,-0.0013539510981962846
904053063,7370,vehicle,205.77569580078125,55.83207321166992,-5.647988791042421,0.00024216821431598896,3.141549776696243
1291681130,7370,vehicle,229.76568603515625,195.5856170654297,-5.515019416464089,6.168701751101042e-05,3.141581468313215
715062232,7370,vehicle,313.6129150390625,59.31529235839844,-0.00012415255338884352,-4.6365652786264484e-07,0.003734553657435693
220877689,7370,vehicle,121.4014892578125,129.7565460205078,-0.010689663493176136,2.1066539224702045e-06,3.1413955796691275
2069714320,7370,vehicle,-2.4163455963134766,210.1399383544922,0.0066281734948291865,5.4814131716859995,1.569587118501946
3190467641,7370,vehicle,118.2230453491211,-1.9702262878417969,-0.0008877044365979988,-2.5898788050755266e-06,-3.1386751606156116
708315452,7370,vehicle,88.76173400878906,92.82760620117188,-0.004228299498991736,5.79452265010194,1.5715260329335783
1314594676,7370,vehicle,88.64356994628906,172.6857147216797,3.213030651636733e-07,0.0016281680119774775,1.5705989865581218
2302084468,7370,vehicle,312.6622314453125,330.8023681640625,-0.0063278624933220656,0.00020397111896986977,-0.03222265337389934
757051778,7370,vehicle,282.2828369140625,199.05978393554688,5.9037025930610065,-0.0012986794322932898,-0.00021997710604054508
4203008516,7370,vehicle,153.7655029296875,31.26249885559082,9.089905431740353e-08,-0.0001882626164586569,1.5712791579005279
2631691725,7370,vehicle,312.31707763671875,199.05612182617188,-2.099659370349912e-05,5.283078727865816e-08,-0.0025161545979068643
1513387753,7370,vehicle,262.704833984375,59.330047607421875,5.673023604933489,-0.001042464136949079,-0.00018375811521546744
156273220,7370,vehicle,92.288818359375,132.93588256835938,0.10957443314862807,-5.917479812353585,-1.5522813651063931
3812119762,7370,vehicle,110.91466522216797,55.83747863769531,1.8202575291323937e-05,-1.8920341930526222e-08,3.1405532218163352
3616050434,7370,vehicle,335.4158935546875,308.00689697265625,1.7310601112114938e-10,-3.5724208727164213e-07,1.5712808889552365
2942158310,7370,vehicle,88.6229248046875,25.917131423950195,-1.0283784359221027e-06,-0.005278872691508392,1.5706015165611573
3608800298,7370,vehicle,135.3912811279297,133.23507690429688,6.933003317851868,-0.00122229726204913,-0.00017630126416324558
1146464971,7370,vehicle,13.67951488494873,2.6236588954925537,5.457680045132868,-0.3193418770834003,-0.05844574576644657
3013099654,7370,vehicle,-2.4078078269958496,58.64944076538086,0.0002439054835106828,4.289693348626254,1.5707394683056235
2246582517,7370,vehicle,88.6150894165039,105.10003662109375,-2.179613997204999e-08,-0.00015984983325882473,1.5706599729470845
3192940987,7370,vehicle,358.70703125,327.0491638183594,-5.837400885508736,0.0005689813657426481,3.1414951818938963
828836647,7370,vehicle,88.63794708251953,276.01422119140625,0.0005889632765805085,5.515011279128886,1.5706895340351845
1702089089,7370,vehicle,395.97955322265625,214.6527862548828,0.0041041893626996865,-6.243049226206557,-1.5701389254798106
2111029583,7370,vehicle,48.32241439819336,330.44696044921875,5.0491797738427815,-0.0016109240279532956,-0.0003190466660822021
420096522,7370,vehicle,169.58470153808594,129.74880981445312,-4.89790834771742,-0.0035596861039489704,-3.1408658769283107
510102133,7370,vehicle,158.18075561523438,25.23293113708496,-2.0987386143144055e-05,0.0011965502136687847,-1.5532582125942342
4109025732,7370,vehicle,146.96400451660156,2.163867950439453,5.655098801696457,0.022900166994744033,0.004049450350019921
2913592560,7370,vehicle,220.53233337402344,1.934985876083374,2.1395542159772796,0.006482800300440486,0.0030299678377510193
3970347779,7370,vehicle,128.59164428710938,59.526145935058594,-0.0035102156404496036,3.0674319682818816e-05,-0.008738363128470695
1933996401,7370,vehicle,395.9523620605469,63.16231918334961,-0.007306362425873048,-13.070472582514524,-1.5713553243077043
3047764241,7370,vehicle,1.7670398950576782,18.30250358581543,0.0007922841889743707,-6.172150561026913,-1.5706679624303548
1260711767,7370,vehicle,297.6609802246094,133.42120361328125,5.479869742905959,-0.0010449142764564258,-0.00019068231779502813
3957993155,7370,vehicle,333.48968505859375,6.643144607543945,3.5073132038479513,4.4449916170197845,0.9027689989594205
4289594148,7370,vehicle,-2.4034371376037598,117.91741943359375,-0.0009039265246131404,7.443391268203115,1.5709177669406043
4139896837,7370,vehicle,241.1931610107422,129.48666381835938,-5.779774491974374,0.0014176465648363858,3.141347376453397
1686932955,7370,vehicle,175.89035034179688,-1.962579607963562,3.2514444913592365e-06,-1.6755399565418215e-09,3.1410773319188627
1726501337,7370,vehicle,395.9569091796875,30.796993255615234,-0.0069820620702402405,-10.138125876389319,-1.571485020252791
1682591593,7370,vehicle,203.0711212158203,330.4571838378906,6.933004272176241,-0.0012186045760467616,-0.0001757686156905844
3380823586,7370,vehicle,392.44146728515625,256.470947265625,-0.0003093477616977487,8.44786261945815,1.5708329452598853
4176583038,7370,vehicle,183.09970092773438,2.0070645809173584,4.2896804315328545,-0.0006511742060800571,-0.00015180016587987126
3855978784,7370,vehicle,305.5689392089844,330.5410461425781,-0.0009554651692787381,-2.061106026274972e-07,0.00021571754372378822
1042098875,7370,vehicle,157.8470916748047,32.207950592041016,-4.2409162248181155e-08,2.9180561588773818e-06,-1.5562639893585521
644930681,7370,vehicle,88.6305160522461,165.7638702392578,4.712646324466134e-05,-0.01829763952325382,1.5733718698851122
2234188147,7370,vehicle,358.0129089355469,-1.9549229145050049,3.4523647343531182e-06,2.284759885734056e-09,-3.1409308580589084
4109707537,7370,vehicle,2.978505849838257,315.99432373046875,-1.1187772488332266,-6.818628937975355,-1.7334238566572393
3675841917,7370,vehicle,250.55470275878906,55.83871078491211,-4.897908824554453,-0.0035596864505030574,-3.1408658769283107
2817926641,7370,vehicle,153.97618103027344,55.60786056518555,-8.122599404851561,0.10694509954537684,3.1284270504248775
4029506115,7370,vehicle,-2.277245044708252,38.58230209350586,-0.0077233479887662436,11.195010382127009,1.5714862186752816
3277167701,7370,vehicle,88.64583587646484,33.208614349365234,3.5553425819704895e-06,0.0011135704404098708,1.5676035961220551
518241310,7370,vehicle,51.66446304321289,-2.134551763534546,-6.083732647244957,-0.04473441796235615,-3.1342396658200844
778540568,7370,vehicle,198.22280883789062,59.32992935180664,5.903805112354993,-0.0013018464451912558,-0.0002205097220039156
657465635,7370,vehicle,1.7595624923706055,267.91387939453125,-0.01618510554087515,-15.044935103670277,-1.5718721107172342
835227171,7370,vehicle,134.6495819091797,59.32780456542969,1.9028352528515085e-07,3.946487659971013e-11,0.00020740038305843998
715280319,7370,vehicle,118.01127624511719,195.26869201660156,0.019358478463114576,-2.2488190585364665e-05,3.1404309827223007
3020211281,7370,vehicle,153.76817321777344,37.50696563720703,2.9833963006596903e-08,-1.807576057179999e-05,1.5724468208804732
2101598167,7370,vehicle,248.96316528320312,-1.9633756875991821,-5.779774015514567,0.001416107200954084,3.1413476427695057
14974470,7370,vehicle,231.0725555419922,59.33100891113281,5.591612707273041,-0.0011019610533333976,-0.00019707392066586362
1398818972,7370,vehicle,92.10739135742188,151.67837524414062,-0.0019838761001097034,-5.656285414876181,-1.57114706511046
2694688339,7370,vehicle,16.19861602783203,326.9689636230469,-6.933012007811156,-0.00010893599412547119,-3.1415769409393617
3916750283,7370,vehicle,145.46067810058594,326.9466247558594,-5.935433377653148,-0.002404247147086307,-3.141187586787992
1983197581,7370,vehicle,92.12187194824219,21.969295501708984,7.889133243076018e-08,1.4297107264734664e-05,-1.5763142634154863
2942851653,7370,vehicle,207.26419067382812,198.7625274658203,5.647986256238253,-0.0013266598969064677,-0.00023489077563569816
3949181016,7370,vehicle,88.6303482055664,112.13858795166016,1.5796465135525606e-08,-6.082923344766101e-06,1.5733931751738328
3672416715,7370,vehicle,379.6943664550781,326.2479553222656,-8.043569759051971,0.31207874834391597,3.1028135660088223
3325384226,7370,vehicle,272.7884521484375,55.84765625,-6.93962110701643,-0.0021771006172688935,-3.141278933213382
1359910869,7370,vehicle,131.73892211914062,2.017646551132202,7.10557840222277,-0.000537421718846689,-7.563377495825036e-05
2262630317,7370,vehicle,60.98244094848633,330.4693603515625,0.000976849950022177,3.6577056626723508e-06,0.0037443709430634575
805172996,7370,vehicle,158.53131103515625,195.4103546142578,-5.8084070915959005,-0.004965461537104325,-3.1407377788798776
1986857511,7370,vehicle,-2.343977689743042,130.97271728515625,-0.006686881348948052,2.1395535878831624,1.573921679492159
1279946346,7370,vehicle,68.95472717285156,2.1934878826141357,6.094988863578976,0.04772936370623001,0.007830758869268992
74618890,7370,vehicle,243.44287109375,198.759765625,5.903745984548814,-0.0013018334069349411,-0.0002205097220039156
3085549129,7370,vehicle,392.4805908203125,51.55569839477539,0.0021285707548271103,8.580404971269575,1.5705482533393558
2057201815,7370,vehicle,132.48007202148438,198.9740447998047,5.443968182774982,-0.001110559484678846,-0.00020399815575471497
1015694095,7370,vehicle,66.94755554199219,330.46124267578125,-1.7706200371893944e-06,7.629593879801154e-10,-0.00043089952939340205
1250507297,7370,vehicle,272.2170104980469,-1.9397169351577759,-11.352907835370976,-0.005333387784840729,-3.1411228719735034
4280502996,7370,vehicle,11.247082710266113,331.1635437011719,5.538988051911466,0.2828645031130548,0.05102357822623378
3428459672,7370,vehicle,42.71503829956055,2.017719030380249,5.659430391555269,-0.001127383822752455,-0.00019920446579257234
414519966,7370,vehicle,295.6600646972656,327.0456237792969,-5.656207548450127,0.0003841164930310684,3.1415247429819964
2866945113,7370,vehicle,261.83209228515625,330.4571838378906,6.256402224066134,-0.0018327986154100463,-0.0002929476873994256
1853482628,7370,vehicle,1.7215290069580078,51.43087387084961,0.0006549453823207441,-5.947468244730383,-1.5706862050838217
3880166169,7370,vehicle,335.50164794921875,259.3797912597656,0.0002439054021739615,4.289691918114782,1.5707394683056235
1073352953,7370,vehicle,383.3822326660156,-2.5471019744873047,-5.5840810380564045,0.5532695729591344,3.0428351835186027
213556023,7370,vehicle,234.1057586669922,327.04193115234375,-5.6479864068566314,0.00024216811208950862,3.141549776696243
1628590046,7370,vehicle,1.6635642051696777,142.13369750976562,0.03151369954110109,-11.927993152962324,-1.5681543378354834
4120465129,7370,vehicle,313.60986328125,133.22540283203125,-0.00012184342358671787,-4.5424624447742474e-07,0.003728097312312527
1015227284,7370,vehicle,272.7884521484375,129.7577667236328,-6.93962110701643,-0.0021771006172688935,-3.141278933213382
2900396540,7370,vehicle,187.8455352783203,-1.961238980293274,-4.89790834771742,-0.0035596861039489704,-3.1408658769283107
3587539486,7370,vehicle,396.6529235839844,305.8186950683594,-0.0004667100969544164,-4.295261357700987,-1.5709049837673719
1146849989,7370,vehicle,236.83070373535156,133.09754943847656,5.770286750506724,0.003782994015054723,0.0006555988699752403
1457681385,7370,vehicle,395.86175537109375,201.9477081298828,0.00627808434145105,-2.139566032189546,-1.5678620559058474
1726747598,7370,vehicle,115.29541778564453,129.50794982910156,-0.029270074506811006,0.0008487647623149318,3.1126030798598445
367118466,7370,vehicle,392.469482421875,206.91131591796875,-0.0006096689881473665,15.626403796700538,1.5708353421048662
2065705843,7370,vehicle,187.7348175048828,133.2275390625,6.186446033863253,0.0013893822348544475,0.00022458487536945818
3978545900,7370,vehicle,334.83819580078125,243.9412078857422,0.0005202691599776717,5.479880785086318,1.5707013851020353
714679325,7370,vehicle,307.2449645996094,2.0200161933898926,5.673033618513642,-0.0010424659770257151,-0.00018375811521546744
3262285446,7370,vehicle,175.53392028808594,55.8517951965332,-5.918564221701586,0.0010765507550744126,3.1414107596873406
1401880247,7370,vehicle,187.66314697265625,195.2667694091797,-5.779776399322949,0.001417647032665392,3.141347376453397
2250339631,7370,vehicle,209.17727661132812,129.74378967285156,-5.591623783024126,3.1271929267189625e-05,3.141587060951504
2525145270,7370,vehicle,92.24625396728516,202.01039123535156,0.10293002120891438,-5.655023419165625,-1.552596816537513
1825059061,7370,vehicle,274.0510559082031,2.01517653465271,6.933003794689019,-0.0012222973461161234,-0.00017630126416324558
346279610,7370,vehicle,110.98233032226562,194.9922637939453,7.132325192775432e-06,-3.3599674322478074e-08,3.136881787937552
893025708,7370,vehicle,395.9466857910156,298.26025390625,-0.0010652989706476834,-4.289683209701928,-1.5710446665665465
1724402154,7370,vehicle,88.611572265625,243.9503631591797,0.006588432740532825,5.530769715502682,1.569605094839304
2595182244,7370,vehicle,171.414306640625,198.7625274658203,5.647993885632574,-0.0013266616889808503,-0.00023489077563569816
874453657,7370,vehicle,392.5262451171875,115.73955535888672,0.027552454403363038,15.615063201307684,1.5690318494146647
1498616609,7370,vehicle,92.09117889404297,84.6123046875,0.0004037331486851361,-5.532818302683002,-1.5707233561810283
505512523,7370,vehicle,155.52145385742188,133.22732543945312,6.961386652033681,0.0006306857616313717,9.059772017139427e-05
3709073522,7370,vehicle,277.6646728515625,195.568603515625,-4.897908824554453,-0.0035596864505030574,-3.1408658769283107
27029540,7370,vehicle,1.495220422744751,197.095703125,-0.0034231543504573228,-11.951395498229326,-1.5710827497701345
1375770528,7370,vehicle,346.3968811035156,326.5984802246094,-5.549084556202968,-1.6402887714810719,-2.8541808466390246
4266869573,7370,vehicle,36.987457275390625,-2.0627260208129883,-2.1395441054143807,0.006895113905939787,3.1383699623546883
368528135,7370,vehicle,42.22331619262695,326.7423095703125,-6.155280488327378,-0.057295093640764815,-3.1322846392638573
4012051816,7370,vehicle,338.9734802246094,228.7615203857422,7.36564752550519e-05,0.025960916472307038,-1.5736335254622125
3938307140,7370,vehicle,92.09488677978516,277.6651916503906,0.0007982401993123567,-6.186462350845222,-1.5706672966400823
1966079641,7370,vehicle,-1.9715932607650757,304.2928466796875,-0.004343294819247333,10.322021524264695,1.5712171062471292
1759883367,7370,vehicle,-2.419652223587036,192.8920135498047,0.0008895103420475924,8.02897734483069,1.5706855392935493
3487645883,7370,vehicle,189.25399780273438,129.76185607910156,-5.918550870261377,0.001076548326528823,3.1414107596873406
544848518,7370,vehicle,92.18077087402344,57.11409378051758,0.03332036463171989,-5.779626166229055,-1.5650312488251477
1325658571,7370,vehicle,129.66455078125,129.74737548828125,-4.072978387635944,0.0056534587604255004,3.140204614029644
921579549,7370,vehicle,117.78851318359375,55.83460998535156,-1.7944722759447584,-0.0008038225962552309,-3.141144709894442
4072577581,7370,vehicle,112.96857452392578,326.96893310546875,-6.933012484648314,-0.00010893600161784678,-3.1415769409393617
94066344,7370,vehicle,265.6438293457031,133.25830078125,5.949702617135147,0.00120773930195354,0.00020299153807901656
2853390219,7370,vehicle,272.5490417480469,330.52734375,4.289686630068395,-0.0006534599723759887,-0.0001523327980978871
2524564450,7370,vehicle,1.6369132995605469,115.58409118652344,-0.008918479245005195,-5.472390060103117,-1.5724260482239705
1882516347,7370,vehicle,-1.8109639883041382,7.329866886138916,-1.454118902699729,5.895463893519045,1.812620009047634
815178544,7370,vehicle,169.5043182373047,330.4399108886719,5.515033132122617,-0.0011162441501330188,-0.00020240025910066742
2188308515,7370,vehicle,92.08885192871094,218.13357543945312,0.003666873737671731,-6.145447590714962,-1.5701996455526643
1160083145,7370,vehicle,392.4798278808594,276.6838073730469,-0.0013960970231547435,7.362717972954249,1.5709859438645102
1832698586,7370,vehicle,210.4646759033203,326.9685974121094,-4.897908824554453,-0.0035596864505030574,-3.1408658769283107
3748346955,7370,vehicle,99.33723449707031,1.9388604164123535,8.13686633981127,-0.030064797678049263,-0.003694869696375935
3198444053,7370,vehicle,181.17440795898438,327.11248779296875,-5.968561472178178,-0.004380729117075598,-3.140858686393367
808811405,7370,vehicle,338.93560791015625,221.6614227294922,-1.6624925104827305e-06,-0.0015637652725970918,-1.5718594607020562
84250811,7370,vehicle,210.8824005126953,133.39065551757812,4.464728581605924,-0.02986885535284723,-0.006689860138130396
3956289865,7370,vehicle,88.61922454833984,306.8933410644531,-5.8929841152874046e-08,-5.6326260260440826e-05,1.569750103960659
1912328786,7370,vehicle,365.24169921875,-1.9526509046554565,0.00014818955752645685,1.4902089599296202e-07,-3.1405870439621792
4030311199,7370,vehicle,338.96905517578125,274.3985900878906,-0.0015732172603151325,-5.479898226932288,-1.5710834155604072
3147513812,7370,vehicle,392.4679260253906,162.44586181640625,0.004054962985343736,12.958405813921848,1.5704834053668122
1663586846,7370,vehicle,226.96633911132812,330.4427795410156,5.9186006235186435,-0.002209858512017839,-0.00037337515231981855
