id,timestamp_ms,agent_type,x,y,vx,vy,psi_rad
-1,31557,vehicle,392.21990966796875,306.11444091796875,-0.000374996760217969,2.666835043291305,1.5709369417004528
2985032057,31557,vehicle,30.502010345458984,-1.9644368886947632,-6.0101542191996264,0.0005810181234986702,3.1414959808422234
3028941286,31557,vehicle,396.8951721191406,186.5655059814453,-0.0011481977286517068,-4.625975466330548,-1.571044533408492
2920337868,31557,vehicle,392.0353088378906,314.20721435546875,0.0,0.0,1.570402977901892
1503980471,31557,vehicle,114.96377563476562,2.0320870876312256,-2.7634854218150777e-05,4.78374449922887e-09,-0.00017310547085515047
2125414330,31557,vehicle,391.4879455566406,0.33537521958351135,-0.5275810884193648,-0.48005497038121164,-2.403325517267913
2396446624,31557,vehicle,141.3360595703125,327.0087585449219,0.0009886041421024183,-1.1831863158090763e-06,3.1403958289959117
4076155829,31557,vehicle,111.30274963378906,-1.913057804107666,-3.1920425975300653,-0.0021243811321856893,-3.1409271296333823
130361148,31557,vehicle,92.38613891601562,226.82598876953125,-1.3690734961399896e-10,-2.2996121817017628e-07,-1.5713916764565838
3417340120,31557,vehicle,268.4901428222656,330.4994201660156,-0.00021606067639914447,2.900039006553351e-07,-0.0013422327992884482
2197730220,31557,vehicle,187.95530700683594,-1.9400676488876343,-0.7044005382905195,0.000292457832037479,3.14117746677585
118743835,31557,vehicle,334.71221923828125,108.75572967529297,-3.544454634013833e-07,-0.0001690484127164552,1.5686996200686771
904053063,31557,vehicle,178.70040893554688,55.8249397277832,-2.9642202825642324e-08,4.623634416664188e-11,3.140032840139334
1291681130,31557,vehicle,113.09465789794922,195.61886596679688,8.372274503551867e-07,3.2640327471420827e-09,-3.1376940520700263
715062232,31557,vehicle,338.9866638183594,22.499813079833984,-3.6778444676003566e-10,1.554135220806618e-07,-1.5684298418502522
220877689,31557,vehicle,92.90670013427734,91.65044403076172,1.0602601329943159e-07,0.0002018868557464506,-1.5713215021618603
2069714320,31557,vehicle,34.900630950927734,331.1800231933594,0.01743653187315478,2.1672731635634626e-05,0.001242949035530696
3190467641,31557,vehicle,117.9380111694336,-2.740928888320923,-1.5739982050562082,-0.2052730983390936,-3.0119094916761666
708315452,31557,vehicle,88.7686996459961,99.77003479003906,3.5590912122210745e-05,0.011901964304544554,1.5678059963649011
1314594676,31557,vehicle,88.59742736816406,174.7530975341797,0.00795590365577857,2.1374287358619646,1.5670741596973474
2302084468,31557,vehicle,317.47930908203125,329.99566650390625,6.293134585231478,0.0036487570579849644,0.0005797995577089981
757051778,31557,vehicle,334.70062255859375,260.1766357421875,-6.571456425792111e-05,5.80597639046673,1.5708076452295294
4203008516,31557,vehicle,112.88423919677734,55.693016052246094,-1.756250271362798e-08,-4.173453238352953e-11,-3.1392163149491155
2631691725,31557,vehicle,334.72576904296875,272.9158935546875,0.0006298647129404139,5.972479310201169,1.5706908656157295
1513387753,31557,vehicle,339.01324462890625,29.555877685546875,-2.6553018895852228e-09,8.469636882343893e-07,-1.5676612535596552
156273220,31557,vehicle,92.51573181152344,80.52529907226562,-5.8410991955951385e-09,-3.773733196470381e-06,-1.5723441560204507
3812119762,31557,vehicle,108.2305908203125,2.0981030464172363,2.5020210949049675,-0.01723286074657129,-0.006887467211162926
3616050434,31557,vehicle,259.2648010253906,326.4200134277344,-5.825353144699505,0.00010239143529387845,3.141575076726599
2942158310,31557,vehicle,88.58409118652344,32.67311477661133,0.00041807789908411823,2.420749151367202,1.570623620798205
3608800298,31557,vehicle,227.30368041992188,133.2150115966797,6.936347380663049,-0.001200719691337957,-0.00017310547085515047
1146464971,31557,vehicle,60.19769287109375,2.5480518341064453,4.6266928047167187e-07,-3.9330643850166347e-10,-0.0008500809549347115
3013099654,31557,vehicle,-2.3787364959716797,175.9596710205078,-7.975319820316577e-08,-0.0001139528624789514,1.5700964480604238
2246582517,31557,vehicle,88.61455535888672,105.29088592529297,-0.00019226241658182062,1.2225793448906783,1.5709535864572657
3192940987,31557,vehicle,338.87249755859375,248.6110076904297,-1.785501444694412e-10,-1.5579042838073957e-07,-1.5719424181700121
828836647,31557,vehicle,199.49839782714844,330.7585754394531,19.497248463851022,-0.025287154839666145,-0.001296959450868589
1702089089,31557,vehicle,396.0195617675781,51.51483154296875,0.0002983407028328795,-8.328998560330618,-1.5707605072782351
2111029583,31557,vehicle,55.03626251220703,330.4446105957031,1.02584284892828,-0.0003393124861921479,-0.00033076457487855073
420096522,31557,vehicle,88.08926391601562,159.91363525390625,-2.3745718259789265e-05,0.017438607887224265,1.572158001060254
510102133,31557,vehicle,233.46034240722656,1.8624322414398193,6.077172665701776,-0.0010487548494369934,-0.0001725728223824893
4109025732,31557,vehicle,297.7736511230469,1.8915780782699585,-0.5939822071144664,0.014164853909069632,-0.023842750687856004
2913592560,31557,vehicle,308.8456115722656,1.6725682020187378,0.001651241068204472,-2.963929161017163e-07,-0.00017949705747134065
3970347779,31557,vehicle,138.19554138183594,58.7542610168457,3.1170463121533083,0.024419243908434127,0.007833936977522974
1933996401,31557,vehicle,384.5533752441406,-2.173444986343384,-3.15793017723005,-0.2592233906901712,-3.0596897974254964
3047764241,31557,vehicle,53.26544952392578,2.046077251434326,-1.8354834002016985e-08,-8.288470447752108e-12,0.00045156877384246126
1260711767,31557,vehicle,338.9930419921875,87.09009552001953,3.0269782379759687e-05,-1.4571936127379763,-1.5707755541383939
3957993155,31557,vehicle,335.0718994140625,33.63330078125,2.5440192092449515e-10,-3.6356339786318576e-07,1.571496072371315
4289594148,31557,vehicle,-2.4042296409606934,181.4108123779297,2.6661440518524996e-09,-2.802294698526687e-06,1.5717477410943275
4139896837,31557,vehicle,112.17872619628906,129.49008178710938,0.0012333886698261312,-1.6945843556442288e-06,3.140218728783421
1686932955,31557,vehicle,173.88375854492188,-1.962443470954895,-4.535241125984852,-9.66246216206987e-05,-3.1415713483010728
1726501337,31557,vehicle,375.8924865722656,-2.416673421859741,-4.627679640743398,-0.004875477618525197,-3.140539107062558
1682591593,31557,vehicle,281.6020202636719,330.4570617675781,1.3979389905644958e-07,-5.912023418850559e-11,-0.0004229099485952924
3380823586,31557,vehicle,368.77252197265625,326.3265380859375,2.7070988575546504e-08,-8.729941575371083e-11,3.1383678318258164
4176583038,31557,vehicle,302.4990234375,1.9666091203689575,0.0,-0.0,-0.0005262405338717855
3855978784,31557,vehicle,306.0968322753906,330.5420227050781,2.1216357891077764,0.0012413642811068461,0.0005850976618248721
1042098875,31557,vehicle,125.58846282958984,-1.9531060457229614,-1.6410479868387495e-08,1.889314010134847e-11,3.140441369050552
644930681,31557,vehicle,88.63045501708984,165.81857299804688,-0.0006367247609882819,0.47821971109070377,1.5721277741818818
2234188147,31557,vehicle,342.7379150390625,-1.3779277801513672,-8.04261703194775,0.7103246292618561,3.05350114368437
4109707537,31557,vehicle,2.6086645126342773,196.4037322998047,-8.003832648359352e-06,-0.004476629027435895,-1.5725842399927212
3675841917,31557,vehicle,183.96047973632812,55.83412170410156,-0.01744101966961938,-0.00013841403089734534,-3.133656699857466
2817926641,31557,vehicle,92.28251647949219,28.029691696166992,6.004554015995167e-06,-0.0010589176979307815,-1.5651259242018998
4029506115,31557,vehicle,-2.469618320465088,171.52284240722656,0.05480173314206786,-0.6251498530135935,1.6582345632849231
3277167701,31557,vehicle,88.63773345947266,41.56410217285156,0.005634446801610943,2.15195442713315,1.5681780399691851
518241310,31557,vehicle,-2.736868143081665,112.99703216552734,-0.07633349076247885,8.811763114612951,1.5794587908725974
778540568,31557,vehicle,338.8687744140625,45.27007293701172,0.3062457844626913,-3.8983359696581985,-1.49239925588958
657465635,31557,vehicle,1.7827523946762085,39.14244842529297,-0.00158144786113781,-5.549752963763616,-1.571081285031535
835227171,31557,vehicle,148.87213134765625,59.03157043457031,5.823484792645607,-0.31027532293390453,-0.05322967845541737
715280319,31557,vehicle,92.39908599853516,161.5304412841797,-3.8055326957938474e-10,-6.560849816649056e-07,-1.571376363280316
3020211281,31557,vehicle,231.83872985839844,59.60751724243164,5.946394692270173,-0.0016469653737543432,-0.0002769687208589501
2101598167,31557,vehicle,193.7311248779297,-1.9614672660827637,-2.280377519709331e-07,1.0706722143673049e-10,3.141123138289612
14974470,31557,vehicle,338.9898681640625,36.57746887207031,-1.0693542312347325e-06,0.00022593556928671046,-1.5660633569056077
1398818972,31557,vehicle,201.7222442626953,133.66000366210938,5.75585400560777,-0.0011956437985745575,-0.00020772656502618058
2694688339,31557,vehicle,2.292745590209961,203.62313842773438,-1.640753652422029e-12,-6.299514473995746e-09,-1.5710567839495064
3916750283,31557,vehicle,116.79842376708984,326.9374694824219,9.000422509737584e-07,-4.294901051646412e-09,3.136820801548589
1983197581,31557,vehicle,17.933897018432617,-1.922237753868103,-5.714055531242389,0.00028152283183856486,3.141543385109627
2942851653,31557,vehicle,338.9443664550781,183.3707733154297,0.2617570476870377,-5.878215218523809,-1.5262957039279996
3949181016,31557,vehicle,88.62964630126953,113.61835479736328,-0.0008764370325587816,3.451457866017037,1.5710502592048357
3672416715,31557,vehicle,338.86767578125,255.48391723632812,4.159141775694729e-11,-4.146371114366808e-08,-1.5697932471703182
3325384226,31557,vehicle,190.06927490234375,55.84153747558594,-0.004464809000574066,1.6813175720147442e-06,3.141216082611656
1359910869,31557,vehicle,220.9654998779297,59.6065673828125,6.666974361784652,-0.009562970796856493,-0.001434378433079515
2262630317,31557,vehicle,61.79157638549805,331.337646484375,4.7409348921455985,0.5517397278520987,0.11585666203469401
805172996,31557,vehicle,92.12550354003906,167.5233154296875,-2.8859006041002628e-05,-0.01183007769671084,-1.573235782353409
1986857511,31557,vehicle,-2.427837371826172,188.8351593017578,-0.030919821454476155,3.007093495601256,1.5810782591314745
1279946346,31557,vehicle,128.21630859375,2.5592360496520996,0.028938306779927023,-0.0013395388374016963,-0.046256449134775494
74618890,31557,vehicle,334.698974609375,248.21437072753906,-5.3723855590644944e-05,5.763704299676376,1.5708056478587118
3085549129,31557,vehicle,391.97674560546875,320.9991455078125,-2.6783342518407795e-09,9.915885457023908e-09,1.8346064012170558
2057201815,31557,vehicle,271.38623046875,198.97650146484375,5.872650959442982,-0.001285592666252679,-0.00021891180909522272
1015694095,31557,vehicle,69.01130676269531,330.46124267578125,4.549329703793021,-0.0007002814874914498,-0.00015393069475193465
1250507297,31557,vehicle,199.7627716064453,-1.94624924659729,1.8409087300098263e-07,2.3385588685082745e-10,-3.140322325749825
4280502996,31557,vehicle,48.153709411621094,331.2244567871094,-9.870984290556904e-08,2.9810613832679486e-11,-0.00030200243510569496
3428459672,31557,vehicle,66.85588836669922,2.013062000274658,-5.38085844303872e-08,4.3506171332727366e-11,-0.0008085357069480567
414519966,31557,vehicle,158.94322204589844,327.04425048828125,-5.642975319766861,0.00034564750342110036,3.1415314008847215
2866945113,31557,vehicle,294.2904968261719,330.4563903808594,1.738663654702292e-07,-7.723409387874407e-11,-0.00044421523731592627
1853482628,31557,vehicle,46.39568328857422,2.5198090076446533,7.524395589641735e-08,-1.83915329341582e-10,-0.0024442489884003997
3880166169,31557,vehicle,273.9846496582031,326.41986083984375,-5.5557708739901415,1.9234686661901658e-05,3.141589191480376
1073352953,31557,vehicle,365.5212097167969,-2.3800759315490723,-5.2373603914245885,-0.003300081717953573,-3.1409625496758804
213556023,31557,vehicle,134.5973358154297,327.0172119140625,-5.139890208642896e-09,9.358739073619867e-12,3.139771850352506
1628590046,31557,vehicle,14.9515380859375,2.4095470905303955,5.794173993551437,-0.21884820503952607,-0.03775244314193447
4120465129,31557,vehicle,338.9815673828125,78.0015640258789,-0.0004441686183240639,-3.8473467570451296,-1.5709117748281516
1015227284,31557,vehicle,117.55654907226562,129.75143432617188,-2.238259309223315,0.00016749974767404845,3.141517818763162
2900396540,31557,vehicle,180.7968292236328,-1.9682189226150513,-2.5003471791808556,-0.0030544056107052594,-3.140371061597774
3587539486,31557,vehicle,396.6148681640625,173.0972442626953,-0.0014789559663967561,-5.5230086253767325,-1.571064107642504
1146849989,31557,vehicle,334.3322448730469,167.9890594482422,-0.028711622758020004,2.8077548246195136,1.5810218001163647
1457681385,31557,vehicle,395.82171630859375,33.63345718383789,-0.0032250219706453287,-11.212732804945126,-1.571083948192625
1726747598,31557,vehicle,92.36129760742188,85.52233123779297,0.00044512838422784934,0.00791735378777407,-1.626959065233305
367118466,31557,vehicle,375.0947570800781,326.35400390625,6.428785387489825e-08,-4.710897503811832e-10,3.13426496585044
2065705843,31557,vehicle,311.2150573730469,133.19998168945312,-6.853387806157263e-06,-3.3819261722433343e-09,0.0004934677554206829
3978545900,31557,vehicle,388.6648864746094,329.84771728515625,5.4193197968913545,-1.6975168019846838,-0.3035536923709295
714679325,31557,vehicle,392.11944580078125,78.16358184814453,-0.0027256648521658687,16.271379242533275,1.5709638396274626
3262285446,31557,vehicle,88.31658172607422,90.36965942382812,-0.012679886946501635,4.007744757730012,1.5739601621699106
1401880247,31557,vehicle,92.49676513671875,174.20469665527344,1.0057088988446726e-09,1.0682805209308569e-06,-1.5717377542402395
2250339631,31557,vehicle,92.39374542236328,113.82844543457031,-0.0006375519216837418,-3.9374453505291203,-1.5709582469891734
2525145270,31557,vehicle,92.52054595947266,154.58193969726562,-2.386377499093113e-08,2.7798024109431828e-05,-1.5699378568175095
1825059061,31557,vehicle,313.625732421875,2.0121846199035645,-6.424387231848599e-08,4.0172355422896105e-11,-0.0006253102239506051
346279610,31557,vehicle,88.17352294921875,267.1866760253906,0.0016038143095844582,5.5735495167146025,1.5705085722391134
893025708,31557,vehicle,395.8929138183594,161.82833862304688,-0.0018697048085665462,-5.821411309396352,-1.5711175040223602
1724402154,31557,vehicle,38.944374084472656,326.5373840332031,-6.0460035923736335,-0.0016536221931013368,-3.141319146945842
2595182244,31557,vehicle,313.2283630371094,198.77239990234375,2.994643746025883,-0.004590539091731505,-0.0015329153934124469
874453657,31557,vehicle,388.6775817871094,324.7012939453125,-4.4012179150312093e-07,2.6612636669972334e-07,2.597749858965257
1498616609,31557,vehicle,65.19976806640625,-1.9643718004226685,-6.146716379761331,-0.0016255108402015498,-3.141328201693548
505512523,31557,vehicle,305.46783447265625,133.20274353027344,-0.45038459808428233,0.00013002002992324756,-0.0002886866621645894
3709073522,31557,vehicle,118.92913818359375,195.5608673095703,-0.017408524221857912,-1.0575106061514761e-05,-3.140985186545146
27029540,31557,vehicle,1.4445682764053345,16.969263076782227,-0.0013138181840563223,-4.855613530751492,-1.5710669039616487
1375770528,31557,vehicle,338.8888244628906,241.84832763671875,-3.6958654292767814e-05,-0.011760756974838334,-1.57393885688119
4266869573,31557,vehicle,-1.5019547939300537,131.7001190185547,0.0003748586495015647,6.160045135536459,1.5707354735639882
368528135,31557,vehicle,2.744978189468384,208.83888244628906,-0.0016630482894692672,-0.02741102531663331,-1.6313928289741235
4012051816,31557,vehicle,338.972412109375,227.8377227783203,-0.005398384585249119,-2.858229784351367,-1.5726850406399808
3938307140,31557,vehicle,92.14663696289062,219.810791015625,4.4037088168777626e-10,-7.980442975758007e-08,-1.5652782570162525
1966079641,31557,vehicle,41.148319244384766,331.2388916015625,4.834015143265188e-08,-6.694355249299721e-13,-1.3848436652496706e-05
1759883367,31557,vehicle,27.71196937561035,331.1675720214844,-4.51237284119395e-05,2.5500446774455174e-08,-0.0005651227182962331
3487645883,31557,vehicle,92.42788696289062,105.2451171875,-2.3671713194065265e-05,0.02223811342574179,-1.569731861307192
544848518,31557,vehicle,121.0988998413086,2.092345714569092,0.43180729052220246,-0.00012764693729114737,-0.0002956108809987954
1325658571,31557,vehicle,92.39752960205078,98.92157745361328,-2.916917673704364e-10,2.8523020169821393e-06,-1.5706940614090374
921579549,31557,vehicle,92.30619049072266,22.446956634521484,2.321317146973217e-07,6.842804494611118e-05,-1.5741886613914395
4072577581,31557,vehicle,92.38365936279297,233.42498779296875,-1.301233849734223e-10,-2.2351553261982954e-07,-1.571378493809188
94066344,31557,vehicle,334.4821472167969,173.80609130859375,-1.9845389407210635e-07,-0.0017110946240303496,1.5706803461294236
2853390219,31557,vehicle,299.99432373046875,330.5154724121094,-1.0264070715736417e-07,-3.129997301158994e-11,0.00030494696410635324
2524564450,31557,vehicle,36.80146026611328,2.0308563709259033,4.2805723021313105,-0.0036342744786858265,-0.0008490158205358425
1882516347,31557,vehicle,-2.140922784805298,164.36056518554688,-1.0547146125339947e-06,-0.0010074751053041526,1.5697494381703865
815178544,31557,vehicle,275.25213623046875,330.3910217285156,0.0,0.0,0.0013306996733001564
2188308515,31557,vehicle,216.75027465820312,199.20321655273438,5.547194413344743,-0.0008657019548548741,-0.00015606122362399804
1160083145,31557,vehicle,362.6877746582031,326.56134033203125,0.5631336784204715,-0.000615333596971326,3.1404999585945337
1832698586,31557,vehicle,127.3373794555664,326.9634094238281,-0.0013251570259294847,-5.9261153573281105e-06,-3.137120673487332
3748346955,31557,vehicle,134.29769897460938,1.9188268184661865,-0.9612058773513312,0.00020734752105365577,-0.00021571603204177298
3198444053,31557,vehicle,121.3108139038086,326.8651123046875,0.6107710616074806,-0.04647216198666279,3.065651283525639
808811405,31557,vehicle,338.9971923828125,219.53707885742188,-0.003818096084499466,-2.171403627549706,-1.5725546789046214
84250811,31557,vehicle,339.14593505859375,93.94654083251953,-1.6519436845123967e-05,0.0016027295180404458,-1.560489627060181
3956289865,31557,vehicle,13.848222732543945,326.5768737792969,-6.022642126731949,-0.00032720103021979634,-3.1415383251035554
1912328786,31557,vehicle,355.3667907714844,-1.9511709213256836,-5.881215438210256,0.001256142473316976,3.141379068070369
4030311199,31557,vehicle,338.9559631347656,235.73013305664062,3.858418881987194e-05,-0.05585240730062873,-1.57010550280813
3147513812,31557,vehicle,382.0475769042969,326.14154052734375,2.7998718198336655e-07,-3.317548925078952e-08,3.023653233135089
1663586846,31557,vehicle,287.7590637207031,330.4103088378906,3.7488979836249284e-06,4.579689408314647e-09,0.0012216088968504848
