id,timestamp_ms,agent_type,x,y,vx,vy,psi_rad
-1,48173,vehicle,392.2198791503906,306.496337890625,6.805284310954426e-12,-3.1782845848221415e-08,1.571010444946539
2985032057,48173,vehicle,-2.261484384536743,127.5529556274414,-0.003200520978494299,17.143726050128173,1.5709830143873111
3028941286,48173,vehicle,396.8595275878906,90.7352066040039,-0.0025587429609619195,-7.056860936717729,-1.571158916177311
2920337868,48173,vehicle,392.0353088378906,314.20721435546875,-2.8550841309293854e-11,-7.258400962746167e-08,1.570402977901892
1503980471,48173,vehicle,121.0808334350586,2.029416561126709,3.903334183639433,-0.0022911037906888686,-0.0005869606392348828
2125414330,48173,vehicle,358.60247802734375,-1.6013845205307007,-1.869143990230561e-07,1.8542428593502579e-10,3.1406006260837387
2396446624,48173,vehicle,141.31407165527344,327.0088806152344,-0.23253587708361428,0.0003575728424732733,3.140054944376381
4076155829,48173,vehicle,17.679340362548828,-1.9561468362808228,-5.582345485088421,-8.176676908526444e-05,-3.141578006203798
130361148,48173,vehicle,92.38424682617188,221.27256774902344,-0.0013228923400910256,-4.815682229491232,-1.5710710318613383
3417340120,48173,vehicle,300.4178466796875,330.5010986328125,-2.3560338683900312e-07,4.668232110206922e-10,-0.0019813917209817906
2197730220,48173,vehicle,154.23287963867188,35.14798355102539,1.5176421496423633e-07,-0.00032591644517105295,1.571261980511497
118743835,48173,vehicle,334.6380310058594,119.11349487304688,-0.32496776660623244,7.926466332415514,1.6117711906946377
904053063,48173,vehicle,157.9215850830078,40.52741622924805,-0.08110773971167703,-5.520943469751004,-1.5854861902097193
1291681130,48173,vehicle,113.09465789794922,195.61886596679688,2.456810451601384e-07,9.57817348696081e-10,-3.1376940520700263
715062232,48173,vehicle,338.9866638183594,22.499813079833984,-6.934930682890846e-09,2.9304719443900905e-06,-1.5684298418502522
220877689,48173,vehicle,92.90364074707031,72.57684326171875,-0.0007449601022960815,-5.1801437795937835,-1.5709401374937608
2069714320,48173,vehicle,92.00420379638672,302.7685546875,-0.025376966753045634,-5.833024613069901,-1.57514686675165
3190467641,48173,vehicle,28.198638916015625,-1.9506412744522095,-8.54963874576739,-0.00020264468069077236,-3.1415689514560916
708315452,48173,vehicle,88.39149475097656,169.30426025390625,-0.0027589712990701183,0.015049243599922157,1.752112456448816
1314594676,48173,vehicle,146.65020751953125,199.01136779785156,4.764923928439775,-0.0010735537144534574,-0.00022530342822070355
2302084468,48173,vehicle,396.78521728515625,193.96690368652344,0.013328945814338716,-17.669666985047847,-1.5700419864161317
757051778,48173,vehicle,334.7028503417969,297.8030090332031,-2.545274280008791e-11,-1.246068111565998e-07,1.5705920623392875
4203008516,48173,vehicle,112.88423919677734,55.693016052246094,-1.7023946236044248e-07,-4.0454737406664595e-10,-3.1392163149491155
2631691725,48173,vehicle,334.72576904296875,304.8206481933594,1.501066068608125e-12,-3.9833267322958495e-08,1.5708340105243213
1513387753,48173,vehicle,339.01324462890625,29.555875778198242,1.8278027152227964e-10,-5.83015639435165e-08,-1.5676612535596552
156273220,48173,vehicle,92.28731536865234,52.73899459838867,-0.0713960913307874,-5.552464676776314,-1.583654068537799
3812119762,48173,vehicle,112.21087646484375,2.092268228530884,3.359694548670931,-0.0030260136981759703,-0.0009006809506276358
3616050434,48173,vehicle,162.7910614013672,326.3909606933594,-6.069315399579874,-0.00064169351762965,-3.141486926094517
2942158310,48173,vehicle,124.82677459716797,59.34005355834961,2.5225422511925176e-05,1.744517964150504e-08,0.000691571245321444
3608800298,48173,vehicle,298.1677551269531,133.19717407226562,3.633443348221671e-08,-6.850922513761919e-12,-0.00018855178892296473
1146464971,48173,vehicle,65.90780639648438,2.5529062747955322,5.096795007867296,0.0008698385553836783,0.00017066382807156294
3013099654,48173,vehicle,-2.342120409011841,237.56968688964844,0.0007423908402068639,5.724086713332069,1.5706666308498098
2246582517,48173,vehicle,127.98575592041016,133.3568572998047,-2.2297044680586296e-06,-2.0992410801095767e-10,9.414884815362068e-05
3192940987,48173,vehicle,338.8669738769531,219.46205139160156,-9.189906697423114e-11,-4.5075390996977575e-08,-1.5728351097674067
828836647,48173,vehicle,293.2968444824219,330.7931823730469,-1.4667202223696913e-06,-1.7786742502484854e-09,0.0012126875672730446
1702089089,48173,vehicle,371.1454162597656,-2.4276890754699707,7.18560455609555e-07,9.3845069112396e-10,-3.1402866393912183
2111029583,48173,vehicle,92.00740814208984,260.8598327636719,0.0015865875497867914,-8.177810515037367,-1.5706023155094844
420096522,48173,vehicle,88.35713958740234,232.55169677734375,-0.0007075105190190547,5.737919763814517,1.5709196311533673
510102133,48173,vehicle,300.9876708984375,1.8788071870803833,3.5550977927751175,0.0004266351711241263,0.00012000659164512606
4109025732,48173,vehicle,308.9400939941406,1.3319348096847534,3.245226401170951,-0.033354541227915195,-0.010277670238536495
2913592560,48173,vehicle,323.1682434082031,1.7423752546310425,4.2202433668743256,0.004102945870359405,0.0009722056812848406
3970347779,48173,vehicle,157.4544219970703,29.857101440429688,-0.0008994832884031339,-0.008982267635885869,-1.6706034818097417
1933996401,48173,vehicle,337.9419860839844,1.0783088207244873,-2.2570967655971858e-08,2.0545849295952232e-08,2.4031281770311383
3047764241,48173,vehicle,54.93590545654297,2.0456182956695557,3.5999286708363707,-0.0011542975941009248,-0.0003206445627362496
1260711767,48173,vehicle,272.2796325683594,55.6815071105957,-5.539105891967486,-4.8680053242740554e-05,-3.141583865158196
3957993155,48173,vehicle,335.0145263671875,44.31282043457031,-0.18740915933894664,6.074250423594393,1.6016395938015948
4289594148,48173,vehicle,-2.385392904281616,255.00767517089844,-0.001564933359445093,8.178461878779885,1.5709876749192189
4139896837,48173,vehicle,112.17839813232422,129.49009704589844,-0.0,0.0,3.140218728783421
1686932955,48173,vehicle,112.7573013305664,-1.9680248498916626,-2.9771631212376258e-06,8.48052300327701e-09,3.1387441364878446
1726501337,48173,vehicle,335.2425842285156,5.902222156524658,0.0006344288850679207,-0.00278843685894132,1.7945093152126048
1682591593,48173,vehicle,313.8250427246094,330.4513854980469,-8.908750216429153e-08,1.1639702509433291e-10,-0.0013065464406813864
3380823586,48173,vehicle,363.3937072753906,326.3246765136719,-5.824732431760916,-0.003895114194561964,-3.140923933840074
4176583038,48173,vehicle,315.25775146484375,1.963418960571289,3.569476538476895,-0.0006863397227476596,-0.00019228021444907568
3855978784,48173,vehicle,338.6291809082031,260.78045654296875,-0.0024281699075865693,-5.671926932333807,-1.5712244299401268
1042098875,48173,vehicle,40.20028305053711,-1.9605293273925781,-6.119420388831634,-0.0013070196021985091,-3.141379068070369
644930681,48173,vehicle,88.35832214355469,243.8240966796875,0.0018767476881223555,5.766831092627477,1.570470888509689
2234188147,48173,vehicle,335.1537170410156,31.785865783691406,0.002816517846724369,5.212342931819229,1.5702559714097195
4109707537,48173,vehicle,2.582836627960205,107.04969787597656,0.0004983681950632213,-7.035115701189331,-1.5707254867099005
3675841917,48173,vehicle,158.69418334960938,55.79276657104492,-7.445475334731627,-0.011770207528781083,-3.140011801166722
2817926641,48173,vehicle,92.80972290039062,28.0643253326416,0.0012556400051298192,-0.0076495999579877525,-1.4081026173794653
4029506115,48173,vehicle,-2.5288634300231934,228.41078186035156,-0.015336798015361718,10.821884731699338,1.5722135279689822
3277167701,48173,vehicle,132.228515625,59.39952850341797,0.0024872195596557364,-6.213186769065141e-07,-0.00024980451024943256
518241310,48173,vehicle,-2.6709413528442383,199.5883331298828,0.007874464615629545,4.559457654812889,1.5690692668279802
778540568,48173,vehicle,338.9315185546875,42.95614242553711,5.365994393994621e-09,-1.761144240495767e-07,-1.5403369544593333
657465635,48173,vehicle,20.29448699951172,2.0589969158172607,5.672414306545519e-09,-3.691791563430569e-11,-0.006508233071935642
835227171,48173,vehicle,157.7899627685547,23.67967414855957,9.558670097875413e-12,5.793736256284869e-08,-1.570961309624427
715280319,48173,vehicle,92.39799499511719,156.80174255371094,-0.0011373976117273735,-4.342506736573896,-1.571058248688106
3020211281,48173,vehicle,311.7214050292969,59.5904541015625,-2.8043526784910326e-05,-3.514665308116062e-08,0.001253288680440631
2101598167,48173,vehicle,125.23832702636719,-2.0302717685699463,-0.0,0.0,3.1407034241018157
14974470,48173,vehicle,338.9898681640625,36.57738494873047,-1.3532393088543995e-08,2.85923491895999e-06,-1.5660634900636623
1398818972,48173,vehicle,291.29400634765625,133.63800048828125,-0.10243788379203239,0.00014606180275000225,-0.0014258563175912615
2694688339,48173,vehicle,2.271533489227295,125.80162048339844,-0.0025897868680424207,-7.1740937326887675,-1.5711573182806569
3916750283,48173,vehicle,106.42225646972656,326.93572998046875,-5.780864707539281,0.00030482840461515604,3.1415399230002095
1983197581,48173,vehicle,-2.144052743911743,174.0063018798828,0.026964800114226792,11.08141670151839,1.5683629965068913
2942851653,48173,vehicle,338.80303955078125,86.02603149414062,-0.0003614237048288864,-6.196908463428807,-1.5708546500227694
3949181016,48173,vehicle,88.34362030029297,174.86178588867188,-1.539029379412268e-10,5.771728781675604e-08,1.5734628168363385
3672416715,48173,vehicle,338.85546875,226.30577087402344,3.414307898986734e-10,-2.629037453344901e-07,-1.5694976362893194
3325384226,48173,vehicle,169.81060791015625,55.840179443359375,-7.0236433013336255,-0.004012243003057106,-3.1410214055359713
1359910869,48173,vehicle,306.3953552246094,59.60514450073242,0.017435953691135694,2.5023449600916553e-05,0.0014351628172443276
2262630317,48173,vehicle,201.5482940673828,330.6239013671875,11.928118488897828,-0.0022744813079632873,-0.00019068231779502813
805172996,48173,vehicle,92.14437103271484,164.91136169433594,0.03462287050274609,-3.8035395299043606,-1.5616937753470603
1986857511,48173,vehicle,-2.4747560024261475,272.3309326171875,0.0010839660077508531,11.212736077365756,1.5706996540473268
1279946346,48173,vehicle,138.40887451171875,2.5601305961608887,3.22006519358736,-0.13499646891665457,-0.04189898495918784
74618890,48173,vehicle,334.70416259765625,291.78424072265625,4.3602885932749856e-11,5.196001797866793e-08,1.5699571647354127
3085549129,48173,vehicle,391.97674560546875,320.9991455078125,7.796670842193052e-09,-2.886529004517259e-08,1.8346064012170558
2057201815,48173,vehicle,306.45654296875,198.97398376464844,-8.875611969229088e-09,1.0736013257845389e-11,-0.0012096076370768274
1015694095,48173,vehicle,269.7193298339844,330.6252746582031,10.3228181964329,-0.007136749152563196,-0.0006913565539659889
1250507297,48173,vehicle,154.22921752929688,29.76047134399414,-0.0014851298192776277,1.9919866747728148,1.5715418787420643
4280502996,48173,vehicle,92.22566986083984,288.708984375,-0.000526369650371896,-5.687725042782272,-1.570888871642777
3428459672,48173,vehicle,77.47167205810547,2.0613534450531006,6.029231843136513,0.20219826998505733,0.03352375944980896
414519966,48173,vehicle,148.38682556152344,327.0789489746094,9.41356888697769e-06,3.0685497950242994e-09,-3.1412666826723674
2866945113,48173,vehicle,338.62591552734375,288.2628173828125,-0.0020765422741657966,-6.891103431637659,-1.5710976634722391
1853482628,48173,vehicle,46.50294494628906,2.519915819168091,0.9766548286643763,-0.001899244662745643,-0.0019446402279758596
3880166169,48173,vehicle,182.1258544921875,326.41986083984375,-5.551510334013121,4.435369894652889e-06,3.141591854641466
1073352953,48173,vehicle,335.1902770996094,12.922765731811523,-0.029617536088712784,1.8093987385178538,1.5871635822223056
213556023,48173,vehicle,133.405517578125,327.0176086425781,-3.1676443765998044,0.0019512348459435975,3.1409766644296577
1628590046,48173,vehicle,33.744266510009766,2.3478176593780518,-1.8665896574762504e-07,-3.64116317274356e-10,0.0019507011300875542
4120465129,48173,vehicle,258.4788513183594,55.67682647705078,-5.655810349275727,0.00027865318024372957,3.141543385109627
1015227284,48173,vehicle,117.5150375366211,129.7515106201172,-0.006686073215292254,7.923710101509796e-07,3.1414741429212847
2900396540,48173,vehicle,118.2197036743164,-1.965105414390564,-0.0013252486338999204,-4.677820707835346e-06,-3.1380628998810023
3587539486,48173,vehicle,396.5863342285156,77.07887268066406,-0.001707120072232579,-6.452065241995243,-1.571060911849196
1146849989,48173,vehicle,334.39715576171875,174.6826171875,0.2843727009549263,7.5266742437674665,1.5330323030634094
1457681385,48173,vehicle,363.8735046386719,-2.6954426765441895,-0.0024844375409483243,1.2108117032912223e-07,3.1415439177418447
1726747598,48173,vehicle,92.11312103271484,62.7366828918457,0.18965365687558483,-11.377851197132564,-1.5541291994287447
367118466,48173,vehicle,373.5467834472656,326.35797119140625,-3.225922712928291,0.01224416841170066,3.1377971164042124
2065705843,48173,vehicle,311.215087890625,133.19998168945312,-2.804937629263707e-08,-1.3841463883591335e-11,0.0004934677554206829
3978545900,48173,vehicle,396.8508605957031,118.06767272949219,-0.0034865031216368245,-12.12184855866214,-1.571083948192625
714679325,48173,vehicle,392.1418151855469,299.22723388671875,-1.6644718976150222e-10,-5.034221155669605e-07,1.5704656953455634
3262285446,48173,vehicle,88.34334564208984,162.9806671142578,5.104742394117286e-07,-0.00027502632939450196,1.5726524169166274
1401880247,48173,vehicle,92.49698638916016,174.00592041015625,-0.0007731205250867737,-1.2040721080182921,-1.5714384149337146
2250339631,48173,vehicle,92.39018249511719,102.85951232910156,-0.001284974032180287,-3.99585536323062,-1.5711179034965237
2525145270,48173,vehicle,92.4965591430664,145.79966735839844,-0.000925241751913727,-6.2711619648263754,-1.570943865919287
1825059061,48173,vehicle,331.94659423828125,1.98824942111969,-0.0002363582704443662,8.431024381355295e-07,-0.0035670377039778065
346279610,48173,vehicle,88.17655181884766,305.6376037597656,2.7311949846486955e-10,9.650358100019794e-08,1.5679661855044693
893025708,48173,vehicle,395.8541564941406,66.37818908691406,-0.001869703583372676,-5.821407494699284,-1.5711175040223602
1724402154,48173,vehicle,2.3798506259918213,197.6079864501953,-0.016475619835490746,-13.885057211332995,-1.5719828982185815
2595182244,48173,vehicle,313.6766662597656,198.77235412597656,4.3032777202007674e-08,-1.0642075384563642e-10,-0.002473011128173255
874453657,48173,vehicle,388.6775817871094,324.7012939453125,5.613108973723652e-07,-3.3940521144499965e-07,2.597749858965257
1498616609,48173,vehicle,-2.444359302520752,37.04720687866211,0.02009220414344606,11.04933533164708,1.5689779204025904
505512523,48173,vehicle,305.6020202636719,133.2028350830078,-0.4440484927560827,-3.455482178878724e-05,7.781767595823903e-05
3709073522,48173,vehicle,118.92913055419922,195.56100463867188,-0.017407593396397764,-1.8812580993396736e-05,-3.140511942819439
27029540,48173,vehicle,27.76653480529785,2.8894357681274414,0.003999247322465595,0.0002900302888611954,0.07239448057822452
1375770528,48173,vehicle,298.1240234375,195.27584838867188,-6.159097279323263,-0.002197957635362693,-3.1412357900037224
4266869573,48173,vehicle,-1.5140187740325928,208.17042541503906,-0.006766857965368779,4.7189344525845645,1.5722303058838498
368528135,48173,vehicle,2.290050745010376,143.73953247070312,0.08504238160206715,-9.145625506247143,-1.5614978998488849
4012051816,48173,vehicle,338.7906188964844,153.3583221435547,2.4873998397382117e-06,0.0020656912978412457,-1.572000475081776
3938307140,48173,vehicle,92.14876556396484,210.8300323486328,-0.005298683144950802,-7.021779922175736,-1.5715509334897706
1966079641,48173,vehicle,131.88706970214844,330.6494140625,13.39857264731091,-0.0027118743946372187,-0.00020240024284602211
1759883367,48173,vehicle,65.09627532958984,331.1673889160156,4.870867642980827e-07,-3.3467520635494063e-10,-0.0006870955612404434
3487645883,48173,vehicle,92.42093658447266,93.2339859008789,-0.0037031065297574977,-5.151880840758055,-1.571515113973109
544848518,48173,vehicle,129.4857940673828,2.098742723464966,4.174824221042383,0.00037432114431560726,8.96615338738899e-05
1325658571,48173,vehicle,92.3934555053711,83.55744171142578,-0.0010446297412251635,-5.559912106606772,-1.5709842128098017
921579549,48173,vehicle,92.27288818359375,22.44754981994629,-2.3647601068878124e-07,-7.002752044208388e-05,-1.574173215057117
4072577581,48173,vehicle,92.3824234008789,230.01885986328125,-0.0016677683060358746,-4.69442528663531,-1.5711515924843131
94066344,48173,vehicle,334.47491455078125,184.14315795898438,0.007109616273382217,5.790292189792216,1.5695684763743156
2853390219,48173,vehicle,379.78765869140625,330.6495361328125,5.572851458658124,-0.0014900764407708874,-0.00026738132468001954
2524564450,48173,vehicle,39.81764221191406,2.0300540924072266,7.172811099497438e-08,-9.478590429802745e-11,-0.0013214602728229927
1882516347,48173,vehicle,-2.136369466781616,217.435546875,0.0021678773558667782,4.703981853666432,1.5703354667682583
815178544,48173,vehicle,307.15032958984375,330.3822937011719,0.0,0.0,0.001583372673319416
2188308515,48173,vehicle,298.7968444824219,199.190673828125,-3.8931737327772714e-05,-4.618323947759201e-08,0.0011862614150891626
1160083145,48173,vehicle,351.5196533203125,326.5601806640625,-5.726135715830406,0.0004132647524445923,3.141520481924252
1832698586,48173,vehicle,124.42422485351562,326.959716796875,-3.074451887764682,-0.0032374417539786982,-3.140539639694776
3748346955,48173,vehicle,148.7819061279297,2.1748976707458496,5.467303620362316,-0.01028250323574867,-0.001880724361813958
3198444053,48173,vehicle,115.48826599121094,327.41064453125,-3.6371922562743033,0.02607340726180539,3.1344242228836268
808811405,48173,vehicle,261.49859619140625,195.30758666992188,-5.834933753001321,-0.00023619840184904226,-3.141552173541224
84250811,48173,vehicle,338.6733093261719,48.357421875,0.00035231135140888594,0.01008071802310204,-1.605731141342338
3956289865,48173,vehicle,2.431361675262451,163.10462951660156,-0.0026184150072606056,-7.954677150839578,-1.5711254935056305
1912328786,48173,vehicle,335.1357727050781,21.36762809753418,0.0017222606497745107,3.882905101291936,1.5703527773153438
4030311199,48173,vehicle,338.7907409667969,161.3880157470703,-0.0012221512483747375,-4.306991880586889,-1.5710800866090446
3147513812,48173,vehicle,381.9966735839844,326.1440734863281,-0.5103441254577394,0.05992985813778837,3.0246977249146183
1663586846,48173,vehicle,338.63330078125,306.8274230957031,-0.0013609915526931634,-5.7582381547433235,-1.5710326823416412
